DWC_ID, Processed Contents, Actual Contents, Route, Total_Trans_Time, Trans_Time_Hours 
20010, INTERESTING, INTERESTING, 8:22:24, 45000, 12

30010, INTERESTING, EMPTY, 1:22:24, 50000, 13

10010, EMPTY, EMPTY, 12:10:22:24, 85000, 23

10, EMPTY, EMPTY, 6:22:24, 110000, 30

30010, INTERESTING, EMPTY, 14:6:22:24, 95000, 26

90010, INTERESTING, INTERESTING, 15:8:22:24, 50000, 13

100010, INTERESTING, INTERESTING, 15:8:22:24, 55000, 15

90010, INTERESTING, INTERESTING, 9:8:22:24, 80000, 22

100010, INTERESTING, INTERESTING, 18:8:22:24, 85000, 23

140010, INTERESTING, EMPTY, 0:22:24, 60000, 16

160010, INTERESTING, INTERESTING, 9:8:22:24, 55000, 15

200010, INTERESTING, INTERESTING, 11:10:22:24, 30000, 8

110010, INTERESTING, INTERESTING, 17:10:22:24, 135000, 37

220010, INTERESTING, EMPTY, 2:8:22:24, 40000, 11

240010, INTERESTING, EMPTY, 5:22:24, 35000, 9

240010, INTERESTING, INTERESTING, 9:8:22:24, 50000, 13

270010, INTERESTING, EMPTY, 9:8:22:24, 35000, 9

240010, INTERESTING, INTERESTING, 16:8:22:24, 80000, 22

150010, INTERESTING, INTERESTING, 19:10:22:24, 185000, 51

270010, INTERESTING, INTERESTING, 6:22:24, 80000, 22

320010, INTERESTING, INTERESTING, 18:8:22:24, 45000, 12

320010, INTERESTING, EMPTY, 0:22:24, 60000, 16

350010, INTERESTING, INTERESTING, 9:8:22:24, 45000, 12

360010, INTERESTING, INTERESTING, 12:10:22:24, 50000, 13

40010, EMPTY, EMPTY, 12:10:22:24, 385000, 106

310010, INTERESTING, INTERESTING, 13:10:22:24, 130000, 36

340010, INTERESTING, INTERESTING, 16:8:22:24, 115000, 31

440010, INTERESTING, INTERESTING, 6:22:24, 30000, 8

420010, INTERESTING, INTERESTING, 17:10:22:24, 65000, 18

330010, INTERESTING, INTERESTING, 0:22:24, 170000, 47

440010, INTERESTING, INTERESTING, 11:10:22:24, 75000, 20

320010, INTERESTING, INTERESTING, 15:8:22:24, 210000, 58

480010, INTERESTING, INTERESTING, 4:22:24, 65000, 18

480010, INTERESTING, INTERESTING, 11:10:22:24, 80000, 22

490010, INTERESTING, EMPTY, 10:22:24, 85000, 23

490010, INTERESTING, INTERESTING, 17:10:22:24, 100000, 27

530010, INTERESTING, INTERESTING, 18:8:22:24, 75000, 20

590010, INTERESTING, EMPTY, 9:8:22:24, 30000, 8

480010, INTERESTING, INTERESTING, 19:10:22:24, 155000, 43

610010, INTERESTING, INTERESTING, 0:22:24, 40000, 11

650010, INTERESTING, INTERESTING, 5:22:24, 15000, 4

590010, INTERESTING, INTERESTING, 14:6:22:24, 90000, 25

650010, INTERESTING, INTERESTING, 7:1:22:24, 45000, 12

610010, INTERESTING, INTERESTING, 14:6:22:24, 100000, 27

660010, INTERESTING, EMPTY, 6:22:24, 65000, 18

700010, INTERESTING, INTERESTING, 17:10:22:24, 40000, 11

740010, INTERESTING, EMPTY, 1:22:24, 15000, 4

540010, INTERESTING, INTERESTING, 16:8:22:24, 230000, 63

30010, EMPTY, INTERESTING, 16:8:22:24, 755000, 209

760010, INTERESTING, INTERESTING, 15:8:22:24, 40000, 11

750010, INTERESTING, INTERESTING, 17:10:22:24, 65000, 18

790010, INTERESTING, INTERESTING, 4:22:24, 40000, 11

730010, INTERESTING, INTERESTING, 16:8:22:24, 115000, 31

10010, EMPTY, EMPTY, 15:8:22:24, 850000, 236

770010, INTERESTING, INTERESTING, 12:10:22:24, 105000, 29

710010, INTERESTING, INTERESTING, 13:10:22:24, 180000, 50

780010, INTERESTING, INTERESTING, 17:10:22:24, 125000, 34

850010, INTERESTING, INTERESTING, 7:1:22:24, 70000, 19

870010, INTERESTING, INTERESTING, 5:22:24, 65000, 18

900010, INTERESTING, INTERESTING, 8:22:24, 50000, 13

30010, EMPTY, EMPTY, 3:8:22:24, 935000, 259

960010, INTERESTING, INTERESTING, 11:10:22:24, 20000, 5

980010, INTERESTING, INTERESTING, 11:10:22:24, 15000, 4

850010, INTERESTING, INTERESTING, 12:10:22:24, 160000, 44

980010, INTERESTING, EMPTY, 7:1:22:24, 45000, 12

60010, EMPTY, EMPTY, 19:10:22:24, 980000, 272

100010, EMPTY, EMPTY, 8:22:24, 955000, 265

1050010, INTERESTING, INTERESTING, 7:1:22:24, 20000, 5

850010, INTERESTING, INTERESTING, 13:10:22:24, 235000, 65

1040010, INTERESTING, INTERESTING, 2:8:22:24, 60000, 16

1080010, INTERESTING, INTERESTING, 8:22:24, 35000, 9

1060010, INTERESTING, INTERESTING, 18:8:22:24, 70000, 19

1040010, INTERESTING, INTERESTING, 0:22:24, 105000, 29

1080010, INTERESTING, INTERESTING, 3:8:22:24, 80000, 22

1080010, INTERESTING, INTERESTING, 11:10:22:24, 95000, 26

1080010, INTERESTING, INTERESTING, 12:10:22:24, 110000, 30

1130010, INTERESTING, INTERESTING, 9:8:22:24, 75000, 20

1130010, INTERESTING, INTERESTING, 12:10:22:24, 90000, 25

1140010, INTERESTING, INTERESTING, 3:8:22:24, 95000, 26

920010, INTERESTING, INTERESTING, 15:8:22:24, 330000, 91

1070010, INTERESTING, INTERESTING, 17:10:22:24, 195000, 54

1110010, INTERESTING, INTERESTING, 13:10:22:24, 170000, 47

1150010, INTERESTING, INTERESTING, 6:22:24, 145000, 40

1160010, INTERESTING, INTERESTING, 16:8:22:24, 150000, 41

1180010, INTERESTING, INTERESTING, 19:10:22:24, 145000, 40

1200010, INTERESTING, INTERESTING, 8:22:24, 140000, 38

1200010, INTERESTING, INTERESTING, 2:8:22:24, 155000, 43

1210010, INTERESTING, INTERESTING, 19:10:22:24, 160000, 44

1220010, INTERESTING, INTERESTING, 4:22:24, 165000, 45

1260010, INTERESTING, EMPTY, 2:8:22:24, 140000, 38

1300010, INTERESTING, INTERESTING, 13:10:22:24, 115000, 31

1330010, INTERESTING, EMPTY, 7:1:22:24, 100000, 27

1290010, INTERESTING, INTERESTING, 18:8:22:24, 155000, 43

1360010, INTERESTING, EMPTY, 5:22:24, 100000, 27

1390010, INTERESTING, INTERESTING, 6:22:24, 85000, 23

1410010, INTERESTING, INTERESTING, 18:8:22:24, 80000, 22

1420010, INTERESTING, INTERESTING, 9:8:22:24, 85000, 23

1440010, INTERESTING, EMPTY, 5:22:24, 80000, 22

1350010, INTERESTING, INTERESTING, 14:6:22:24, 185000, 51

1450010, INTERESTING, INTERESTING, 12:10:22:24, 100000, 27

1330010, INTERESTING, INTERESTING, 13:10:22:24, 235000, 65

1440010, INTERESTING, INTERESTING, 18:8:22:24, 140000, 38

1450010, INTERESTING, INTERESTING, 11:10:22:24, 145000, 40

1490010, INTERESTING, INTERESTING, 17:10:22:24, 120000, 33

1500010, INTERESTING, INTERESTING, 8:22:24, 125000, 34

1520010, INTERESTING, INTERESTING, 3:8:22:24, 120000, 33

1530010, INTERESTING, INTERESTING, 0:22:24, 125000, 34

1560010, INTERESTING, INTERESTING, 2:8:22:24, 110000, 30

1560010, INTERESTING, INTERESTING, 9:8:22:24, 125000, 34

1610010, INTERESTING, INTERESTING, 8:22:24, 90000, 25

1660010, INTERESTING, INTERESTING, 1:22:24, 55000, 15

1670010, INTERESTING, INTERESTING, 10:22:24, 60000, 16

1680010, INTERESTING, INTERESTING, 15:8:22:24, 65000, 18

1690010, INTERESTING, INTERESTING, 1:22:24, 70000, 19

1700010, INTERESTING, INTERESTING, 8:22:24, 75000, 20

1690010, INTERESTING, INTERESTING, 15:8:22:24, 100000, 27

1690010, INTERESTING, INTERESTING, 16:8:22:24, 115000, 31

1520010, INTERESTING, INTERESTING, 12:10:22:24, 300000, 83

1700010, INTERESTING, INTERESTING, 7:1:22:24, 135000, 37

1700010, INTERESTING, INTERESTING, 10:22:24, 150000, 41

1710010, INTERESTING, INTERESTING, 6:22:24, 155000, 43

1770010, INTERESTING, INTERESTING, 15:8:22:24, 110000, 30

1770010, INTERESTING, INTERESTING, 19:10:22:24, 125000, 34

1850010, INTERESTING, INTERESTING, 7:1:22:24, 60000, 16

1860010, INTERESTING, INTERESTING, 17:10:22:24, 65000, 18

1920010, INTERESTING, INTERESTING, 8:22:24, 20000, 5

1850010, INTERESTING, INTERESTING, 19:10:22:24, 105000, 29

1890010, INTERESTING, INTERESTING, 19:10:22:24, 80000, 22

1940010, INTERESTING, INTERESTING, 9:8:22:24, 45000, 12

100010, EMPTY, EMPTY, 10:22:24, 1900000, 527

10, EMPTY, EMPTY, 18:8:22:24, 2015000, 559

2010010, INTERESTING, EMPTY, 0:22:24, 20000, 5

1990010, INTERESTING, INTERESTING, 4:22:24, 55000, 15

2020010, INTERESTING, INTERESTING, 9:8:22:24, 40000, 11

1810010, INTERESTING, INTERESTING, 12:10:22:24, 265000, 73

1990010, INTERESTING, INTERESTING, 11:10:22:24, 100000, 27

1860010, INTERESTING, INTERESTING, 14:6:22:24, 245000, 68

2070010, INTERESTING, INTERESTING, 0:22:24, 50000, 13

50010, EMPTY, EMPTY, 11:10:22:24, 2085000, 579

2120010, INTERESTING, INTERESTING, 2:8:22:24, 30000, 8

2140010, INTERESTING, INTERESTING, 2:8:22:24, 25000, 6

2060010, INTERESTING, EMPTY, 13:10:22:24, 120000, 33

2130010, INTERESTING, INTERESTING, 4:22:24, 65000, 18

2140010, INTERESTING, INTERESTING, 15:8:22:24, 70000, 19

2180010, INTERESTING, INTERESTING, 8:22:24, 45000, 12

2180010, INTERESTING, INTERESTING, 12:10:22:24, 60000, 16

2180010, INTERESTING, INTERESTING, 16:8:22:24, 75000, 20

2200010, INTERESTING, EMPTY, 19:10:22:24, 70000, 19

2260010, INTERESTING, INTERESTING, 1:22:24, 25000, 6

2200010, INTERESTING, INTERESTING, 18:8:22:24, 100000, 27

2270010, INTERESTING, EMPTY, 10:22:24, 45000, 12

2270010, INTERESTING, INTERESTING, 18:8:22:24, 60000, 16

2280010, INTERESTING, INTERESTING, 6:22:24, 65000, 18

2290010, INTERESTING, EMPTY, 16:8:22:24, 70000, 19

2300010, INTERESTING, INTERESTING, 16:8:22:24, 75000, 20

60010, EMPTY, EMPTY, 5:22:24, 2330000, 647

70010, EMPTY, EMPTY, 17:10:22:24, 2335000, 648

120010, EMPTY, EMPTY, 10:22:24, 2300000, 638

120010, EMPTY, EMPTY, 5:22:24, 2315000, 643

110010, EMPTY, EMPTY, 6:22:24, 2340000, 650

50010, EMPTY, EMPTY, 1:22:24, 2415000, 670

2450010, INTERESTING, INTERESTING, 9:8:22:24, 30000, 8

2450010, INTERESTING, INTERESTING, 10:22:24, 45000, 12

30010, EMPTY, EMPTY, 13:10:22:24, 2480000, 688

50010, EMPTY, EMPTY, 16:8:22:24, 2475000, 687

2460010, INTERESTING, INTERESTING, 6:22:24, 80000, 22

2500010, INTERESTING, INTERESTING, 10:22:24, 55000, 15

80010, EMPTY, EMPTY, 19:10:22:24, 2490000, 691

2420010, INTERESTING, INTERESTING, 14:6:22:24, 165000, 45

120010, EMPTY, EMPTY, 15:8:22:24, 2480000, 688

150010, EMPTY, EMPTY, 5:22:24, 2465000, 684

160010, EMPTY, EMPTY, 8:22:24, 2470000, 686

2570010, INTERESTING, INTERESTING, 1:22:24, 75000, 20

2580010, INTERESTING, INTERESTING, 15:8:22:24, 80000, 22

2650010, INTERESTING, INTERESTING, 11:10:22:24, 25000, 6

140010, EMPTY, EMPTY, 16:8:22:24, 2550000, 708

60010, EMPTY, EMPTY, 12:10:22:24, 2645000, 734

150010, EMPTY, EMPTY, 18:8:22:24, 2570000, 713

90010, EMPTY, EMPTY, 3:8:22:24, 2645000, 734

2640010, INTERESTING, INTERESTING, 17:10:22:24, 110000, 30

2620010, INTERESTING, INTERESTING, 0:22:24, 145000, 40

2610010, INTERESTING, INTERESTING, 18:8:22:24, 170000, 47

2630010, INTERESTING, EMPTY, 15:8:22:24, 165000, 45

2660010, INTERESTING, INTERESTING, 12:10:22:24, 150000, 41

2730010, INTERESTING, INTERESTING, 2:8:22:24, 95000, 26

2740010, INTERESTING, INTERESTING, 10:22:24, 100000, 27

2820010, INTERESTING, INTERESTING, 6:22:24, 35000, 9

2350010, INTERESTING, INTERESTING, 13:10:22:24, 520000, 144

2850010, INTERESTING, EMPTY, 5:22:24, 35000, 9

2780010, INTERESTING, INTERESTING, 12:10:22:24, 120000, 33

2850010, INTERESTING, INTERESTING, 7:1:22:24, 65000, 18

2900010, INTERESTING, INTERESTING, 0:22:24, 30000, 8

130010, EMPTY, EMPTY, 7:1:22:24, 2815000, 781

120010, EMPTY, EMPTY, 13:10:22:24, 2840000, 788

2890010, INTERESTING, INTERESTING, 9:8:22:24, 85000, 23

2970010, INTERESTING, EMPTY, 6:22:24, 20000, 5

2970010, INTERESTING, EMPTY, 7:1:22:24, 35000, 9

2900010, INTERESTING, INTERESTING, 12:10:22:24, 120000, 33

2970010, INTERESTING, INTERESTING, 15:8:22:24, 65000, 18

2980010, INTERESTING, INTERESTING, 9:8:22:24, 70000, 19

2980010, INTERESTING, INTERESTING, 3:8:22:24, 85000, 23

3000010, INTERESTING, EMPTY, 11:10:22:24, 80000, 22

3000010, INTERESTING, EMPTY, 9:8:22:24, 95000, 26

3010010, INTERESTING, INTERESTING, 15:8:22:24, 100000, 27

3030010, INTERESTING, INTERESTING, 3:8:22:24, 95000, 26

3120010, INTERESTING, INTERESTING, 2:8:22:24, 20000, 5

3060010, INTERESTING, INTERESTING, 19:10:22:24, 95000, 26

3130010, INTERESTING, INTERESTING, 11:10:22:24, 40000, 11

3160010, INTERESTING, INTERESTING, 5:22:24, 25000, 6

3160010, INTERESTING, INTERESTING, 1:22:24, 40000, 11

3160010, INTERESTING, INTERESTING, 7:1:22:24, 55000, 15

180010, EMPTY, EMPTY, 13:10:22:24, 3050000, 847

3100010, INTERESTING, INTERESTING, 19:10:22:24, 145000, 40

3230010, INTERESTING, INTERESTING, 3:8:22:24, 30000, 8

150010, EMPTY, EMPTY, 15:8:22:24, 3125000, 868

190010, EMPTY, EMPTY, 15:8:22:24, 3100000, 861

3090010, INTERESTING, INTERESTING, 15:8:22:24, 215000, 59

3270010, INTERESTING, INTERESTING, 15:8:22:24, 50000, 13

160010, EMPTY, EMPTY, 16:8:22:24, 3175000, 881

220010, EMPTY, EMPTY, 8:22:24, 3130000, 869

3210010, INTERESTING, INTERESTING, 17:10:22:24, 155000, 43

3340010, INTERESTING, EMPTY, 3:8:22:24, 40000, 11

3260010, INTERESTING, INTERESTING, 14:6:22:24, 135000, 37

3370010, INTERESTING, INTERESTING, 5:22:24, 40000, 11

3370010, INTERESTING, INTERESTING, 11:10:22:24, 55000, 15

3390010, INTERESTING, INTERESTING, 1:22:24, 50000, 13

3390010, INTERESTING, INTERESTING, 10:22:24, 65000, 18

3450010, INTERESTING, INTERESTING, 1:22:24, 20000, 5

3390010, INTERESTING, INTERESTING, 15:8:22:24, 95000, 26

3460010, INTERESTING, EMPTY, 12:10:22:24, 40000, 11

210010, EMPTY, EMPTY, 4:22:24, 3305000, 918

3330010, INTERESTING, INTERESTING, 17:10:22:24, 200000, 55

3510010, INTERESTING, INTERESTING, 8:22:24, 35000, 9

3540010, INTERESTING, INTERESTING, 10:22:24, 20000, 5

3540010, INTERESTING, INTERESTING, 2:8:22:24, 35000, 9

200010, EMPTY, EMPTY, 13:10:22:24, 3390000, 941

3470010, INTERESTING, INTERESTING, 12:10:22:24, 135000, 37

230010, EMPTY, EMPTY, 4:22:24, 3390000, 941

150010, EMPTY, EMPTY, 12:10:22:24, 3485000, 968

3530010, INTERESTING, INTERESTING, 3:8:22:24, 120000, 33

3490010, INTERESTING, INTERESTING, 16:8:22:24, 175000, 48

3610010, INTERESTING, INTERESTING, 16:8:22:24, 70000, 19

3630010, INTERESTING, INTERESTING, 9:8:22:24, 65000, 18

3640010, INTERESTING, INTERESTING, 6:22:24, 70000, 19

3650010, INTERESTING, INTERESTING, 15:8:22:24, 75000, 20

3650010, INTERESTING, INTERESTING, 4:22:24, 90000, 25

3640010, INTERESTING, INTERESTING, 14:6:22:24, 115000, 31

3630010, INTERESTING, INTERESTING, 13:10:22:24, 140000, 38

3660010, INTERESTING, INTERESTING, 10:22:24, 125000, 34

3720010, INTERESTING, INTERESTING, 18:8:22:24, 80000, 22

3730010, INTERESTING, INTERESTING, 9:8:22:24, 85000, 23

3710010, INTERESTING, EMPTY, 16:8:22:24, 120000, 33

3730010, INTERESTING, INTERESTING, 14:6:22:24, 115000, 31

3780010, INTERESTING, INTERESTING, 6:22:24, 80000, 22

3830010, INTERESTING, INTERESTING, 7:1:22:24, 45000, 12

3690010, INTERESTING, INTERESTING, 4:22:24, 200000, 55

170010, EMPTY, EMPTY, 18:8:22:24, 3735000, 1037

3900010, INTERESTING, EMPTY, 6:22:24, 20000, 5

210010, EMPTY, EMPTY, 16:8:22:24, 3725000, 1034

3890010, INTERESTING, INTERESTING, 18:8:22:24, 60000, 16

3880010, INTERESTING, INTERESTING, 13:10:22:24, 85000, 23

3930010, INTERESTING, INTERESTING, 0:22:24, 50000, 13

3950010, INTERESTING, INTERESTING, 10:22:24, 45000, 12

100010, EMPTY, EMPTY, 11:10:22:24, 3910000, 1086

180010, EMPTY, EMPTY, 3:8:22:24, 3845000, 1068

3980010, INTERESTING, INTERESTING, 17:10:22:24, 60000, 16

4020010, INTERESTING, INTERESTING, 11:10:22:24, 35000, 9

4030010, INTERESTING, INTERESTING, 4:22:24, 40000, 11

150010, EMPTY, EMPTY, 6:22:24, 3935000, 1093

210010, EMPTY, EMPTY, 17:10:22:24, 3890000, 1080

140010, EMPTY, EMPTY, 9:8:22:24, 3975000, 1104

260010, EMPTY, EMPTY, 17:10:22:24, 3870000, 1075

290010, EMPTY, EMPTY, 10:22:24, 3855000, 1070

3840010, INTERESTING, INTERESTING, 14:6:22:24, 320000, 88

200010, EMPTY, EMPTY, 1:22:24, 3975000, 1104

300010, EMPTY, EMPTY, 1:22:24, 3890000, 1080

4000010, INTERESTING, INTERESTING, 15:8:22:24, 205000, 56

4190010, INTERESTING, INTERESTING, 7:1:22:24, 30000, 8

4220010, INTERESTING, INTERESTING, 0:22:24, 15000, 4

160010, EMPTY, EMPTY, 5:22:24, 4090000, 1136

290010, EMPTY, EMPTY, 19:10:22:24, 3975000, 1104

4180010, INTERESTING, INTERESTING, 4:22:24, 100000, 27

4200010, INTERESTING, INTERESTING, 13:10:22:24, 95000, 26

4260010, INTERESTING, INTERESTING, 17:10:22:24, 50000, 13

4270010, INTERESTING, INTERESTING, 8:22:24, 55000, 15

4280010, INTERESTING, INTERESTING, 6:22:24, 60000, 16

4070010, INTERESTING, INTERESTING, 16:8:22:24, 285000, 79

4200010, INTERESTING, INTERESTING, 7:1:22:24, 170000, 47

4290010, INTERESTING, EMPTY, 9:8:22:24, 95000, 26

4330010, INTERESTING, INTERESTING, 3:8:22:24, 70000, 19

4330010, INTERESTING, INTERESTING, 9:8:22:24, 85000, 23

4330010, INTERESTING, INTERESTING, 18:8:22:24, 100000, 27

4330010, INTERESTING, INTERESTING, 5:22:24, 115000, 31

4340010, INTERESTING, INTERESTING, 18:8:22:24, 120000, 33

4370010, INTERESTING, INTERESTING, 6:22:24, 105000, 29

4400010, INTERESTING, INTERESTING, 9:8:22:24, 90000, 25

4440010, INTERESTING, INTERESTING, 8:22:24, 65000, 18

4380010, INTERESTING, INTERESTING, 19:10:22:24, 140000, 38

4440010, INTERESTING, INTERESTING, 7:1:22:24, 95000, 26

4470010, INTERESTING, INTERESTING, 0:22:24, 80000, 22

4480010, INTERESTING, INTERESTING, 9:8:22:24, 85000, 23

4500010, INTERESTING, INTERESTING, 8:22:24, 80000, 22

4470010, INTERESTING, INTERESTING, 17:10:22:24, 125000, 34

4500010, INTERESTING, INTERESTING, 16:8:22:24, 110000, 30

4520010, INTERESTING, INTERESTING, 5:22:24, 105000, 29

4520010, INTERESTING, INTERESTING, 1:22:24, 120000, 33

4550010, INTERESTING, INTERESTING, 5:22:24, 105000, 29

4550010, INTERESTING, EMPTY, 2:8:22:24, 120000, 33

4570010, INTERESTING, INTERESTING, 0:22:24, 115000, 31

220010, EMPTY, EMPTY, 13:10:22:24, 4480000, 1244

4700010, INTERESTING, INTERESTING, 4:22:24, 15000, 4

120010, EMPTY, EMPTY, 0:22:24, 4610000, 1280

4630010, INTERESTING, INTERESTING, 17:10:22:24, 115000, 31

4640010, INTERESTING, INTERESTING, 3:8:22:24, 120000, 33

4750010, INTERESTING, INTERESTING, 10:22:24, 25000, 6

4770010, INTERESTING, INTERESTING, 12:10:22:24, 20000, 5

4740010, INTERESTING, INTERESTING, 1:22:24, 65000, 18

320010, EMPTY, EMPTY, 10:22:24, 4500000, 1250

4780010, INTERESTING, INTERESTING, 14:6:22:24, 55000, 15

4690010, INTERESTING, INTERESTING, 12:10:22:24, 160000, 44

4830010, INTERESTING, INTERESTING, 5:22:24, 35000, 9

4850010, INTERESTING, EMPTY, 9:8:22:24, 30000, 8

4830010, INTERESTING, INTERESTING, 13:10:22:24, 65000, 18

4820010, INTERESTING, INTERESTING, 12:10:22:24, 90000, 25

4840010, INTERESTING, INTERESTING, 1:22:24, 85000, 23

4850010, INTERESTING, INTERESTING, 11:10:22:24, 90000, 25

4860010, INTERESTING, INTERESTING, 8:22:24, 95000, 26

4860010, INTERESTING, INTERESTING, 12:10:22:24, 110000, 30

4860010, INTERESTING, INTERESTING, 3:8:22:24, 125000, 34

4870010, INTERESTING, INTERESTING, 3:8:22:24, 130000, 36

4900010, INTERESTING, EMPTY, 13:10:22:24, 115000, 31

4910010, INTERESTING, INTERESTING, 18:8:22:24, 120000, 33

4930010, INTERESTING, INTERESTING, 6:22:24, 115000, 31

4960010, INTERESTING, INTERESTING, 1:22:24, 100000, 27

4960010, INTERESTING, INTERESTING, 18:8:22:24, 115000, 31

4980010, INTERESTING, INTERESTING, 0:22:24, 110000, 30

5010010, INTERESTING, EMPTY, 7:1:22:24, 95000, 26

4970010, INTERESTING, INTERESTING, 18:8:22:24, 150000, 41

5070010, INTERESTING, INTERESTING, 7:1:22:24, 65000, 18

5110010, INTERESTING, INTERESTING, 10:22:24, 40000, 11

260010, EMPTY, EMPTY, 9:8:22:24, 4905000, 1362

4970010, INTERESTING, INTERESTING, 11:10:22:24, 210000, 58

5170010, INTERESTING, INTERESTING, 7:1:22:24, 25000, 6

5170010, INTERESTING, INTERESTING, 16:8:22:24, 40000, 11

5180010, INTERESTING, INTERESTING, 8:22:24, 45000, 12

5080010, INTERESTING, INTERESTING, 4:22:24, 160000, 44

5200010, INTERESTING, INTERESTING, 7:1:22:24, 55000, 15

5230010, INTERESTING, INTERESTING, 11:10:22:24, 40000, 11

210010, EMPTY, EMPTY, 15:8:22:24, 5075000, 1409

310010, EMPTY, EMPTY, 5:22:24, 4990000, 1386

5270010, INTERESTING, INTERESTING, 10:22:24, 45000, 12

330010, EMPTY, EMPTY, 8:22:24, 5000000, 1388

5290010, INTERESTING, INTERESTING, 13:10:22:24, 55000, 15

5220010, INTERESTING, INTERESTING, 15:8:22:24, 140000, 38

5320010, INTERESTING, INTERESTING, 11:10:22:24, 55000, 15

5340010, INTERESTING, INTERESTING, 9:8:22:24, 50000, 13

5320010, INTERESTING, EMPTY, 13:10:22:24, 85000, 23

5360010, INTERESTING, INTERESTING, 6:22:24, 60000, 16

5350010, INTERESTING, INTERESTING, 11:10:22:24, 85000, 23

5350010, INTERESTING, EMPTY, 3:8:22:24, 100000, 27

310010, EMPTY, EMPTY, 6:22:24, 5155000, 1431

5230010, INTERESTING, INTERESTING, 12:10:22:24, 250000, 69

5430010, INTERESTING, INTERESTING, 12:10:22:24, 65000, 18

340010, EMPTY, EMPTY, 8:22:24, 5170000, 1436

270010, EMPTY, EMPTY, 17:10:22:24, 5255000, 1459

350010, EMPTY, EMPTY, 10:22:24, 5190000, 1441

5530010, INTERESTING, INTERESTING, 7:1:22:24, 25000, 6

310010, EMPTY, EMPTY, 19:10:22:24, 5260000, 1461

340010, EMPTY, EMPTY, 5:22:24, 5245000, 1456

230010, EMPTY, EMPTY, 12:10:22:24, 5370000, 1491

5470010, INTERESTING, INTERESTING, 4:22:24, 145000, 40

370010, EMPTY, EMPTY, 10:22:24, 5260000, 1461

5500010, INTERESTING, INTERESTING, 13:10:22:24, 145000, 40

380010, EMPTY, EMPTY, 10:22:24, 5280000, 1466

5320010, INTERESTING, INTERESTING, 15:8:22:24, 355000, 98

5670010, INTERESTING, INTERESTING, 5:22:24, 20000, 5

5690010, INTERESTING, INTERESTING, 3:8:22:24, 15000, 4

5620010, INTERESTING, INTERESTING, 16:8:22:24, 100000, 27

5630010, INTERESTING, INTERESTING, 1:22:24, 105000, 29

5690010, INTERESTING, EMPTY, 12:10:22:24, 60000, 16

5700010, INTERESTING, INTERESTING, 5:22:24, 65000, 18

5720010, INTERESTING, INTERESTING, 16:8:22:24, 60000, 16

5740010, INTERESTING, EMPTY, 4:22:24, 55000, 15

350010, EMPTY, EMPTY, 19:10:22:24, 5460000, 1516

5770010, INTERESTING, INTERESTING, 14:6:22:24, 55000, 15

5740010, INTERESTING, INTERESTING, 5:22:24, 100000, 27

5560010, INTERESTING, INTERESTING, 7:1:22:24, 295000, 81

270010, EMPTY, EMPTY, 16:8:22:24, 5600000, 1555

250010, EMPTY, EMPTY, 3:8:22:24, 5635000, 1565

390010, EMPTY, EMPTY, 10:22:24, 5510000, 1530

370010, EMPTY, INTERESTING, 5:22:24, 5545000, 1540

160010, EMPTY, EMPTY, 2:8:22:24, 5770000, 1602

220010, EMPTY, EMPTY, 18:8:22:24, 5725000, 1590

5890010, INTERESTING, INTERESTING, 8:22:24, 70000, 19

5920010, INTERESTING, INTERESTING, 0:22:24, 55000, 15

5960010, INTERESTING, INTERESTING, 9:8:22:24, 30000, 8

5940010, INTERESTING, INTERESTING, 12:10:22:24, 65000, 18

5780010, INTERESTING, INTERESTING, 14:6:22:24, 240000, 66

5970010, INTERESTING, INTERESTING, 2:8:22:24, 65000, 18

6010010, INTERESTING, INTERESTING, 7:1:22:24, 40000, 11

5950010, INTERESTING, EMPTY, 12:10:22:24, 115000, 31

410010, EMPTY, EMPTY, 8:22:24, 5670000, 1575

400010, EMPTY, EMPTY, 18:8:22:24, 5695000, 1581

6000010, INTERESTING, INTERESTING, 6:22:24, 110000, 30

6090010, INTERESTING, INTERESTING, 8:22:24, 35000, 9

6010010, INTERESTING, INTERESTING, 19:10:22:24, 130000, 36

6100010, INTERESTING, EMPTY, 7:1:22:24, 55000, 15

6120010, INTERESTING, INTERESTING, 3:8:22:24, 50000, 13

6050010, INTERESTING, INTERESTING, 15:8:22:24, 135000, 37

6170010, INTERESTING, INTERESTING, 4:22:24, 30000, 8

290010, EMPTY, EMPTY, 9:8:22:24, 5925000, 1645

320010, EMPTY, EMPTY, 17:10:22:24, 5910000, 1641

240010, EMPTY, EMPTY, 11:10:22:24, 6005000, 1668

6170010, INTERESTING, EMPTY, 19:10:22:24, 90000, 25

6040010, INTERESTING, INTERESTING, 13:10:22:24, 235000, 65

6260010, INTERESTING, INTERESTING, 2:8:22:24, 30000, 8

380010, EMPTY, EMPTY, 19:10:22:24, 5925000, 1645

6300010, INTERESTING, INTERESTING, 4:22:24, 20000, 5

240010, EMPTY, EMPTY, 4:22:24, 6095000, 1693

6270010, INTERESTING, INTERESTING, 11:10:22:24, 80000, 22

6180010, INTERESTING, INTERESTING, 1:22:24, 185000, 51

6340010, INTERESTING, INTERESTING, 8:22:24, 40000, 11

6340010, INTERESTING, INTERESTING, 1:22:24, 55000, 15

6370010, INTERESTING, EMPTY, 8:22:24, 40000, 11

410010, EMPTY, EMPTY, 18:8:22:24, 6015000, 1670

440010, EMPTY, EMPTY, 10:22:24, 6000000, 1666

6340010, INTERESTING, INTERESTING, 12:10:22:24, 115000, 31

6360010, INTERESTING, INTERESTING, 1:22:24, 110000, 30

450010, EMPTY, EMPTY, 10:22:24, 6035000, 1676

450010, EMPTY, EMPTY, 8:22:24, 6050000, 1680

6260010, INTERESTING, INTERESTING, 5:22:24, 255000, 70

6430010, INTERESTING, INTERESTING, 7:1:22:24, 100000, 27

6360010, INTERESTING, INTERESTING, 14:6:22:24, 185000, 51

6490010, INTERESTING, INTERESTING, 1:22:24, 70000, 19

6380010, INTERESTING, INTERESTING, 19:10:22:24, 195000, 54

6480010, INTERESTING, INTERESTING, 3:8:22:24, 110000, 30

6500010, INTERESTING, INTERESTING, 18:8:22:24, 105000, 29

6540010, INTERESTING, INTERESTING, 19:10:22:24, 80000, 22

6590010, INTERESTING, INTERESTING, 7:1:22:24, 45000, 12

6610010, INTERESTING, INTERESTING, 8:22:24, 40000, 11

6560010, INTERESTING, EMPTY, 13:10:22:24, 105000, 29

6610010, INTERESTING, EMPTY, 3:8:22:24, 70000, 19

6630010, INTERESTING, INTERESTING, 9:8:22:24, 65000, 18

6680010, INTERESTING, INTERESTING, 4:22:24, 30000, 8

6680010, INTERESTING, INTERESTING, 3:8:22:24, 45000, 12

70010, EMPTY, EMPTY, 14:6:22:24, 6670000, 1852

6720010, INTERESTING, INTERESTING, 10:22:24, 35000, 9

6730010, INTERESTING, INTERESTING, 0:22:24, 40000, 11

6730010, INTERESTING, INTERESTING, 10:22:24, 55000, 15

6680010, INTERESTING, INTERESTING, 13:10:22:24, 120000, 33

6740010, INTERESTING, INTERESTING, 2:8:22:24, 75000, 20

6710010, INTERESTING, INTERESTING, 12:10:22:24, 120000, 33

6770010, INTERESTING, INTERESTING, 1:22:24, 75000, 20

6670010, INTERESTING, INTERESTING, 17:10:22:24, 190000, 52

6820010, INTERESTING, INTERESTING, 10:22:24, 55000, 15

6670010, INTERESTING, INTERESTING, 11:10:22:24, 220000, 61

6820010, INTERESTING, INTERESTING, 2:8:22:24, 85000, 23

6860010, INTERESTING, INTERESTING, 4:22:24, 60000, 16

6870010, INTERESTING, EMPTY, 11:10:22:24, 65000, 18

430010, EMPTY, EMPTY, 19:10:22:24, 6520000, 1811

6930010, INTERESTING, INTERESTING, 19:10:22:24, 35000, 9

6860010, INTERESTING, INTERESTING, 19:10:22:24, 120000, 33

390010, EMPTY, EMPTY, 3:8:22:24, 6605000, 1834

6860010, INTERESTING, EMPTY, 14:6:22:24, 150000, 41

6880010, INTERESTING, INTERESTING, 15:8:22:24, 145000, 40

390010, EMPTY, EMPTY, 12:10:22:24, 6650000, 1847

390010, EMPTY, EMPTY, 2:8:22:24, 6665000, 1851

460010, EMPTY, EMPTY, 19:10:22:24, 6610000, 1836

7010010, INTERESTING, INTERESTING, 0:22:24, 75000, 20

7050010, INTERESTING, INTERESTING, 13:10:22:24, 50000, 13

7060010, INTERESTING, INTERESTING, 1:22:24, 55000, 15

7090010, INTERESTING, INTERESTING, 7:1:22:24, 40000, 11

7060010, INTERESTING, INTERESTING, 15:8:22:24, 85000, 23

450010, EMPTY, EMPTY, 17:10:22:24, 6710000, 1863

7160010, INTERESTING, INTERESTING, 10:22:24, 15000, 4

7070010, INTERESTING, INTERESTING, 13:10:22:24, 120000, 33

7170010, INTERESTING, INTERESTING, 1:22:24, 35000, 9

7170010, INTERESTING, EMPTY, 10:22:24, 50000, 13

7180010, INTERESTING, INTERESTING, 15:8:22:24, 55000, 15

7190010, INTERESTING, EMPTY, 7:1:22:24, 60000, 16

7210010, INTERESTING, INTERESTING, 0:22:24, 55000, 15

7220010, INTERESTING, INTERESTING, 4:22:24, 60000, 16

7240010, INTERESTING, EMPTY, 12:10:22:24, 55000, 15

150010, EMPTY, EMPTY, 7:1:22:24, 7160000, 1988

420010, EMPTY, EMPTY, 9:8:22:24, 6905000, 1918

7070010, INTERESTING, INTERESTING, 19:10:22:24, 270000, 75

7330010, INTERESTING, INTERESTING, 4:22:24, 25000, 6

390010, EMPTY, EMPTY, 13:10:22:24, 6980000, 1938

7290010, INTERESTING, INTERESTING, 17:10:22:24, 95000, 26

7360010, INTERESTING, EMPTY, 13:10:22:24, 40000, 11

7370010, INTERESTING, INTERESTING, 12:10:22:24, 45000, 12

7320010, INTERESTING, EMPTY, 16:8:22:24, 110000, 30

7360010, INTERESTING, INTERESTING, 17:10:22:24, 85000, 23

7380010, INTERESTING, INTERESTING, 10:22:24, 80000, 22

7390010, INTERESTING, EMPTY, 10:22:24, 85000, 23

7410010, INTERESTING, INTERESTING, 7:1:22:24, 80000, 22

7450010, INTERESTING, INTERESTING, 2:8:22:24, 55000, 15

7460010, INTERESTING, EMPTY, 10:22:24, 60000, 16

7500010, INTERESTING, INTERESTING, 3:8:22:24, 35000, 9

480010, EMPTY, EMPTY, 0:22:24, 7070000, 1963

7550010, INTERESTING, INTERESTING, 11:10:22:24, 15000, 4

7530010, INTERESTING, INTERESTING, 13:10:22:24, 50000, 13

410010, EMPTY, EMPTY, 16:8:22:24, 7185000, 1995

7380010, INTERESTING, INTERESTING, 4:22:24, 230000, 63

7520010, INTERESTING, INTERESTING, 12:10:22:24, 105000, 29

7550010, INTERESTING, INTERESTING, 13:10:22:24, 90000, 25

7580010, INTERESTING, EMPTY, 0:22:24, 75000, 20

7590010, INTERESTING, INTERESTING, 18:8:22:24, 80000, 22

7620010, INTERESTING, INTERESTING, 6:22:24, 65000, 18

7630010, INTERESTING, INTERESTING, 11:10:22:24, 70000, 19

7540010, INTERESTING, INTERESTING, 18:8:22:24, 175000, 48

7550010, INTERESTING, INTERESTING, 15:8:22:24, 180000, 50

7670010, INTERESTING, EMPTY, 8:22:24, 75000, 20

7700010, INTERESTING, INTERESTING, 2:8:22:24, 60000, 16

7620010, INTERESTING, INTERESTING, 19:10:22:24, 155000, 43

450010, EMPTY, EMPTY, 3:8:22:24, 7340000, 2038

520010, EMPTY, EMPTY, 0:22:24, 7285000, 2023

500010, EMPTY, EMPTY, 13:10:22:24, 7320000, 2033

7740010, INTERESTING, INTERESTING, 18:8:22:24, 95000, 26

420010, EMPTY, EMPTY, 18:8:22:24, 7430000, 2063

7600010, INTERESTING, INTERESTING, 12:10:22:24, 265000, 73

7690010, INTERESTING, INTERESTING, 15:8:22:24, 190000, 52

7800010, INTERESTING, INTERESTING, 11:10:22:24, 95000, 26

7820010, INTERESTING, INTERESTING, 17:10:22:24, 90000, 25

7830010, INTERESTING, INTERESTING, 12:10:22:24, 95000, 26

7850010, INTERESTING, INTERESTING, 1:22:24, 90000, 25

7850010, INTERESTING, INTERESTING, 18:8:22:24, 105000, 29

7850010, INTERESTING, INTERESTING, 11:10:22:24, 120000, 33

7870010, INTERESTING, INTERESTING, 18:8:22:24, 115000, 31

7870010, INTERESTING, INTERESTING, 17:10:22:24, 130000, 36

7900010, INTERESTING, INTERESTING, 3:8:22:24, 115000, 31

7920010, INTERESTING, INTERESTING, 7:1:22:24, 110000, 30

7930010, INTERESTING, INTERESTING, 11:10:22:24, 115000, 31

7960010, INTERESTING, INTERESTING, 10:22:24, 100000, 27

7960010, INTERESTING, INTERESTING, 17:10:22:24, 115000, 31

7990010, INTERESTING, INTERESTING, 13:10:22:24, 100000, 27

8010010, INTERESTING, INTERESTING, 7:1:22:24, 95000, 26

8030010, INTERESTING, INTERESTING, 15:8:22:24, 90000, 25

8040010, INTERESTING, INTERESTING, 0:22:24, 95000, 26

8080010, INTERESTING, INTERESTING, 0:22:24, 70000, 19

8120010, INTERESTING, INTERESTING, 6:22:24, 45000, 12

8030010, INTERESTING, INTERESTING, 19:10:22:24, 150000, 41

8180010, INTERESTING, INTERESTING, 0:22:24, 15000, 4

340010, EMPTY, EMPTY, 14:6:22:24, 7870000, 2186

510010, EMPTY, EMPTY, 16:8:22:24, 7715000, 2143

8200010, INTERESTING, INTERESTING, 15:8:22:24, 40000, 11

8210010, INTERESTING, INTERESTING, 9:8:22:24, 45000, 12

8230010, INTERESTING, INTERESTING, 8:22:24, 40000, 11

8160010, INTERESTING, INTERESTING, 16:8:22:24, 125000, 34

8250010, INTERESTING, INTERESTING, 5:22:24, 50000, 13

8170010, INTERESTING, INTERESTING, 14:6:22:24, 145000, 40

8260010, INTERESTING, EMPTY, 11:10:22:24, 70000, 19

8170010, INTERESTING, INTERESTING, 12:10:22:24, 175000, 48

8270010, INTERESTING, INTERESTING, 0:22:24, 90000, 25

8280010, INTERESTING, INTERESTING, 5:22:24, 95000, 26

8280010, INTERESTING, INTERESTING, 4:22:24, 110000, 30

8290010, INTERESTING, INTERESTING, 10:22:24, 115000, 31

8300010, INTERESTING, EMPTY, 5:22:24, 120000, 33

8310010, INTERESTING, INTERESTING, 3:8:22:24, 125000, 34

8310010, INTERESTING, INTERESTING, 13:10:22:24, 140000, 38

8350010, INTERESTING, INTERESTING, 14:6:22:24, 115000, 31

8360010, INTERESTING, INTERESTING, 17:10:22:24, 120000, 33

8380010, INTERESTING, EMPTY, 1:22:24, 115000, 31

8310010, INTERESTING, INTERESTING, 11:10:22:24, 200000, 55

8380010, INTERESTING, INTERESTING, 13:10:22:24, 145000, 40

8390010, INTERESTING, INTERESTING, 5:22:24, 150000, 41

8410010, INTERESTING, INTERESTING, 2:8:22:24, 145000, 40

8420010, INTERESTING, INTERESTING, 1:22:24, 150000, 41

8480010, INTERESTING, INTERESTING, 11:10:22:24, 105000, 29

8490010, INTERESTING, INTERESTING, 10:22:24, 110000, 30

8510010, INTERESTING, INTERESTING, 8:22:24, 105000, 29

8530010, INTERESTING, INTERESTING, 9:8:22:24, 100000, 27

8530010, INTERESTING, EMPTY, 11:10:22:24, 115000, 31

8560010, INTERESTING, INTERESTING, 11:10:22:24, 100000, 27

500010, EMPTY, EMPTY, 15:8:22:24, 8175000, 2270

8670010, INTERESTING, INTERESTING, 3:8:22:24, 20000, 5

8420010, INTERESTING, INTERESTING, 15:8:22:24, 285000, 79

8480010, INTERESTING, INTERESTING, 2:8:22:24, 240000, 66

8610010, INTERESTING, EMPTY, 14:6:22:24, 125000, 34

8650010, INTERESTING, INTERESTING, 16:8:22:24, 100000, 27

8680010, INTERESTING, INTERESTING, 3:8:22:24, 85000, 23

8690010, INTERESTING, INTERESTING, 14:6:22:24, 90000, 25

8710010, INTERESTING, INTERESTING, 10:22:24, 85000, 23

8710010, INTERESTING, INTERESTING, 15:8:22:24, 100000, 27

8690010, INTERESTING, INTERESTING, 17:10:22:24, 135000, 37

8730010, INTERESTING, INTERESTING, 10:22:24, 110000, 30

8730010, INTERESTING, INTERESTING, 18:8:22:24, 125000, 34

8740010, INTERESTING, INTERESTING, 9:8:22:24, 130000, 36

8750010, INTERESTING, INTERESTING, 2:8:22:24, 135000, 37

8760010, INTERESTING, INTERESTING, 13:10:22:24, 140000, 38

8770010, INTERESTING, INTERESTING, 1:22:24, 145000, 40

8800010, INTERESTING, INTERESTING, 8:22:24, 130000, 36

8800010, INTERESTING, INTERESTING, 4:22:24, 145000, 40

8810010, INTERESTING, INTERESTING, 7:1:22:24, 150000, 41

8820010, INTERESTING, INTERESTING, 4:22:24, 155000, 43

8830010, INTERESTING, INTERESTING, 9:8:22:24, 160000, 44

8840010, INTERESTING, INTERESTING, 11:10:22:24, 165000, 45

8860010, INTERESTING, INTERESTING, 9:8:22:24, 160000, 44

8890010, INTERESTING, INTERESTING, 0:22:24, 145000, 40

8920010, INTERESTING, INTERESTING, 1:22:24, 130000, 36

8920010, INTERESTING, INTERESTING, 9:8:22:24, 145000, 40

8960010, INTERESTING, INTERESTING, 2:8:22:24, 120000, 33

9020010, INTERESTING, INTERESTING, 3:8:22:24, 75000, 20

9030010, INTERESTING, EMPTY, 7:1:22:24, 80000, 22

9040010, INTERESTING, INTERESTING, 8:22:24, 85000, 23

9050010, INTERESTING, INTERESTING, 11:10:22:24, 90000, 25

9050010, INTERESTING, EMPTY, 9:8:22:24, 105000, 29

9030010, INTERESTING, INTERESTING, 12:10:22:24, 140000, 38

9060010, INTERESTING, INTERESTING, 11:10:22:24, 125000, 34

9100010, INTERESTING, INTERESTING, 15:8:22:24, 100000, 27

9120010, INTERESTING, EMPTY, 18:8:22:24, 95000, 26

9130010, INTERESTING, INTERESTING, 12:10:22:24, 100000, 27

9170010, INTERESTING, INTERESTING, 15:8:22:24, 75000, 20

9180010, INTERESTING, INTERESTING, 6:22:24, 80000, 22

9180010, INTERESTING, INTERESTING, 11:10:22:24, 95000, 26

9190010, INTERESTING, INTERESTING, 10:22:24, 100000, 27

9210010, INTERESTING, INTERESTING, 15:8:22:24, 95000, 26

9220010, INTERESTING, INTERESTING, 11:10:22:24, 100000, 27

9090010, INTERESTING, EMPTY, 14:6:22:24, 245000, 68

9260010, INTERESTING, EMPTY, 4:22:24, 90000, 25

9210010, INTERESTING, EMPTY, 19:10:22:24, 155000, 43

9190010, INTERESTING, INTERESTING, 13:10:22:24, 190000, 52

9280010, INTERESTING, INTERESTING, 15:8:22:24, 115000, 31

9200010, INTERESTING, INTERESTING, 1:22:24, 210000, 58

9220010, INTERESTING, INTERESTING, 12:10:22:24, 205000, 56

9300010, INTERESTING, EMPTY, 2:8:22:24, 140000, 38

9320010, INTERESTING, INTERESTING, 10:22:24, 135000, 37

9320010, INTERESTING, INTERESTING, 11:10:22:24, 150000, 41

9240010, INTERESTING, INTERESTING, 17:10:22:24, 245000, 68

9340010, INTERESTING, INTERESTING, 16:8:22:24, 160000, 44

9360010, INTERESTING, INTERESTING, 11:10:22:24, 155000, 43

9380010, INTERESTING, INTERESTING, 13:10:22:24, 150000, 41

9380010, INTERESTING, INTERESTING, 12:10:22:24, 165000, 45

9390010, INTERESTING, EMPTY, 11:10:22:24, 170000, 47

9410010, INTERESTING, INTERESTING, 1:22:24, 165000, 45

9410010, INTERESTING, INTERESTING, 15:8:22:24, 180000, 50

9420010, INTERESTING, EMPTY, 8:22:24, 185000, 51

9420010, INTERESTING, INTERESTING, 10:22:24, 200000, 55

9440010, INTERESTING, INTERESTING, 11:10:22:24, 195000, 54

9440010, INTERESTING, EMPTY, 15:8:22:24, 210000, 58

9380010, INTERESTING, INTERESTING, 18:8:22:24, 285000, 79

9460010, INTERESTING, INTERESTING, 0:22:24, 220000, 61

9470010, INTERESTING, INTERESTING, 11:10:22:24, 225000, 62

9480010, INTERESTING, INTERESTING, 7:1:22:24, 230000, 63

9480010, INTERESTING, EMPTY, 5:22:24, 245000, 68

9510010, INTERESTING, INTERESTING, 12:10:22:24, 230000, 63

9550010, INTERESTING, INTERESTING, 13:10:22:24, 205000, 56

9560010, INTERESTING, INTERESTING, 3:8:22:24, 210000, 58

9590010, INTERESTING, INTERESTING, 4:22:24, 195000, 54

9590010, INTERESTING, EMPTY, 10:22:24, 210000, 58

9620010, INTERESTING, EMPTY, 14:6:22:24, 195000, 54

9630010, INTERESTING, INTERESTING, 2:8:22:24, 200000, 55

9640010, INTERESTING, INTERESTING, 3:8:22:24, 205000, 56

9660010, INTERESTING, INTERESTING, 8:22:24, 200000, 55

9660010, INTERESTING, EMPTY, 12:10:22:24, 215000, 59

9710010, INTERESTING, EMPTY, 15:8:22:24, 180000, 50

9600010, INTERESTING, INTERESTING, 17:10:22:24, 305000, 84

9740010, INTERESTING, INTERESTING, 12:10:22:24, 180000, 50

9750010, INTERESTING, INTERESTING, 5:22:24, 185000, 51

9750010, INTERESTING, INTERESTING, 8:22:24, 200000, 55

9760010, INTERESTING, INTERESTING, 3:8:22:24, 205000, 56

9760010, INTERESTING, EMPTY, 13:10:22:24, 220000, 61

9770010, INTERESTING, INTERESTING, 14:6:22:24, 225000, 62

9800010, INTERESTING, INTERESTING, 5:22:24, 210000, 58

9840010, INTERESTING, INTERESTING, 3:8:22:24, 185000, 51

9960010, INTERESTING, INTERESTING, 18:8:22:24, 80000, 22

9980010, INTERESTING, INTERESTING, 2:8:22:24, 75000, 20

9980010, INTERESTING, INTERESTING, 7:1:22:24, 90000, 25

10060010, INTERESTING, EMPTY, 10:22:24, 25000, 6

10060010, INTERESTING, EMPTY, 18:8:22:24, 40000, 11

10100010, INTERESTING, INTERESTING, 8:22:24, 15000, 4

560010, EMPTY, EMPTY, 6:22:24, 9570000, 2658

300010, EMPTY, EMPTY, 7:1:22:24, 9845000, 2734

10010010, INTERESTING, EMPTY, 3:8:22:24, 150000, 41

10140010, INTERESTING, INTERESTING, 7:1:22:24, 35000, 9

490010, EMPTY, EMPTY, 9:8:22:24, 9700000, 2694

9990010, INTERESTING, INTERESTING, 14:6:22:24, 215000, 59

540010, EMPTY, EMPTY, 0:22:24, 9680000, 2688

450010, EMPTY, EMPTY, 14:6:22:24, 9785000, 2718

10230010, INTERESTING, INTERESTING, 10:22:24, 20000, 5

550010, EMPTY, EMPTY, 18:8:22:24, 9715000, 2698

10250010, INTERESTING, INTERESTING, 15:8:22:24, 30000, 8

10260010, INTERESTING, INTERESTING, 1:22:24, 35000, 9

570010, EMPTY, EMPTY, 15:8:22:24, 9740000, 2705

10300010, INTERESTING, INTERESTING, 7:1:22:24, 25000, 6

600010, EMPTY, EMPTY, 1:22:24, 9740000, 2705

10330010, INTERESTING, INTERESTING, 5:22:24, 25000, 6

10190010, INTERESTING, INTERESTING, 19:10:22:24, 180000, 50

10300010, INTERESTING, INTERESTING, 16:8:22:24, 85000, 23

10340010, INTERESTING, INTERESTING, 16:8:22:24, 60000, 16

10330010, INTERESTING, INTERESTING, 12:10:22:24, 85000, 23

10370010, INTERESTING, EMPTY, 4:22:24, 60000, 16

10280010, INTERESTING, INTERESTING, 13:10:22:24, 165000, 45

10280010, INTERESTING, INTERESTING, 0:22:24, 180000, 50

10370010, INTERESTING, INTERESTING, 16:8:22:24, 105000, 29

10390010, INTERESTING, INTERESTING, 18:8:22:24, 100000, 27

10390010, INTERESTING, EMPTY, 6:22:24, 115000, 31

10350010, INTERESTING, EMPTY, 12:10:22:24, 170000, 47

10410010, INTERESTING, INTERESTING, 17:10:22:24, 125000, 34

10450010, INTERESTING, INTERESTING, 7:1:22:24, 100000, 27

10480010, INTERESTING, INTERESTING, 14:6:22:24, 85000, 23

10500010, INTERESTING, INTERESTING, 11:10:22:24, 80000, 22

10510010, INTERESTING, INTERESTING, 3:8:22:24, 85000, 23

10540010, INTERESTING, INTERESTING, 0:22:24, 70000, 19

470010, EMPTY, EMPTY, 12:10:22:24, 10155000, 2820

620010, EMPTY, EMPTY, 0:22:24, 10020000, 2783

10600010, INTERESTING, INTERESTING, 19:10:22:24, 55000, 15

10620010, INTERESTING, INTERESTING, 1:22:24, 50000, 13

10610010, INTERESTING, INTERESTING, 19:10:22:24, 75000, 20

10630010, INTERESTING, INTERESTING, 5:22:24, 70000, 19

10650010, INTERESTING, INTERESTING, 0:22:24, 65000, 18

10670010, INTERESTING, INTERESTING, 6:22:24, 60000, 16

10520010, INTERESTING, INTERESTING, 17:10:22:24, 225000, 62

10690010, INTERESTING, INTERESTING, 4:22:24, 70000, 19

10700010, INTERESTING, INTERESTING, 8:22:24, 75000, 20

10710010, INTERESTING, EMPTY, 6:22:24, 80000, 22

10720010, INTERESTING, INTERESTING, 3:8:22:24, 85000, 23

10750010, INTERESTING, INTERESTING, 10:22:24, 70000, 19

10780010, INTERESTING, INTERESTING, 6:22:24, 55000, 15

10520010, INTERESTING, INTERESTING, 15:8:22:24, 330000, 91

10800010, INTERESTING, INTERESTING, 8:22:24, 65000, 18

500010, EMPTY, EMPTY, 7:1:22:24, 10380000, 2883

540010, EMPTY, EMPTY, 19:10:22:24, 10355000, 2876

630010, EMPTY, EMPTY, 8:22:24, 10280000, 2855

10820010, INTERESTING, INTERESTING, 3:8:22:24, 105000, 29

10830010, INTERESTING, INTERESTING, 14:6:22:24, 110000, 30

10900010, INTERESTING, INTERESTING, 16:8:22:24, 55000, 15

10900010, INTERESTING, INTERESTING, 3:8:22:24, 70000, 19

10910010, INTERESTING, INTERESTING, 8:22:24, 75000, 20

10890010, INTERESTING, EMPTY, 11:10:22:24, 110000, 30

10910010, INTERESTING, INTERESTING, 0:22:24, 105000, 29

10970010, INTERESTING, INTERESTING, 7:1:22:24, 60000, 16

440010, EMPTY, EMPTY, 4:22:24, 10605000, 2945

10950010, INTERESTING, EMPTY, 2:8:22:24, 110000, 30

430010, EMPTY, EMPTY, 11:10:22:24, 10645000, 2956

650010, EMPTY, EMPTY, 8:22:24, 10440000, 2900

480010, EMPTY, EMPTY, 2:8:22:24, 10625000, 2951

10970010, INTERESTING, INTERESTING, 18:8:22:24, 150000, 41

11020010, INTERESTING, INTERESTING, 14:6:22:24, 115000, 31

620010, EMPTY, EMPTY, 12:10:22:24, 10530000, 2925

11140010, INTERESTING, INTERESTING, 3:8:22:24, 25000, 6

650010, EMPTY, EMPTY, 12:10:22:24, 10530000, 2925

11180010, INTERESTING, INTERESTING, 5:22:24, 15000, 4

11170010, INTERESTING, INTERESTING, 8:22:24, 40000, 11

11180010, INTERESTING, INTERESTING, 9:8:22:24, 45000, 12

11120010, INTERESTING, INTERESTING, 4:22:24, 120000, 33

11150010, INTERESTING, INTERESTING, 16:8:22:24, 105000, 29

11200010, INTERESTING, EMPTY, 6:22:24, 70000, 19

510010, EMPTY, EMPTY, 17:10:22:24, 10775000, 2993

630010, EMPTY, EMPTY, 7:1:22:24, 10670000, 2963

11100010, INTERESTING, INTERESTING, 0:22:24, 215000, 59

630010, EMPTY, EMPTY, 19:10:22:24, 10700000, 2972

660010, EMPTY, EMPTY, 14:6:22:24, 10685000, 2968

670010, EMPTY, EMPTY, 19:10:22:24, 10690000, 2969

11250010, INTERESTING, INTERESTING, 2:8:22:24, 125000, 34

11200010, INTERESTING, INTERESTING, 18:8:22:24, 190000, 52

11280010, INTERESTING, INTERESTING, 15:8:22:24, 125000, 34

11290010, INTERESTING, INTERESTING, 0:22:24, 130000, 36

11380010, INTERESTING, EMPTY, 11:10:22:24, 55000, 15

11400010, INTERESTING, INTERESTING, 8:22:24, 50000, 13

11280010, INTERESTING, INTERESTING, 14:6:22:24, 185000, 51

11350010, INTERESTING, INTERESTING, 2:8:22:24, 130000, 36

11340010, INTERESTING, INTERESTING, 15:8:22:24, 155000, 43

11360010, INTERESTING, INTERESTING, 0:22:24, 150000, 41

11380010, INTERESTING, INTERESTING, 13:10:22:24, 145000, 40

620010, EMPTY, EMPTY, 15:8:22:24, 10920000, 3033

670010, EMPTY, EMPTY, 17:10:22:24, 10885000, 3023

11500010, INTERESTING, INTERESTING, 1:22:24, 70000, 19

11420010, INTERESTING, INTERESTING, 14:6:22:24, 165000, 45

11490010, INTERESTING, EMPTY, 17:10:22:24, 110000, 30

11530010, INTERESTING, EMPTY, 18:8:22:24, 85000, 23

11590010, INTERESTING, INTERESTING, 8:22:24, 40000, 11

11570010, INTERESTING, INTERESTING, 19:10:22:24, 75000, 20

660010, EMPTY, EMPTY, 15:8:22:24, 11000000, 3055

670010, EMPTY, EMPTY, 12:10:22:24, 11005000, 3056

700010, EMPTY, EMPTY, 6:22:24, 10990000, 3052

640010, EMPTY, EMPTY, 7:1:22:24, 11065000, 3073

11700010, INTERESTING, INTERESTING, 0:22:24, 20000, 5

11700010, INTERESTING, INTERESTING, 6:22:24, 35000, 9

11720010, INTERESTING, INTERESTING, 0:22:24, 30000, 8

11750010, INTERESTING, INTERESTING, 5:22:24, 15000, 4

11760010, INTERESTING, INTERESTING, 1:22:24, 20000, 5

660010, EMPTY, EMPTY, 2:8:22:24, 11135000, 3093

520010, EMPTY, EMPTY, 3:8:22:24, 11290000, 3136

11800010, INTERESTING, INTERESTING, 4:22:24, 25000, 6

11800010, INTERESTING, INTERESTING, 2:8:22:24, 40000, 11

11810010, INTERESTING, INTERESTING, 2:8:22:24, 45000, 12

11820010, INTERESTING, INTERESTING, 8:22:24, 50000, 13

11840010, INTERESTING, INTERESTING, 1:22:24, 45000, 12

400010, EMPTY, EMPTY, 5:22:24, 11500000, 3194

530010, EMPTY, EMPTY, 13:10:22:24, 11385000, 3162

11900010, INTERESTING, INTERESTING, 2:8:22:24, 30000, 8

600010, EMPTY, EMPTY, 9:8:22:24, 11345000, 3151

700010, EMPTY, EMPTY, 15:8:22:24, 11260000, 3127

11930010, INTERESTING, EMPTY, 2:8:22:24, 45000, 12

11950010, INTERESTING, INTERESTING, 4:22:24, 40000, 11

11950010, INTERESTING, INTERESTING, 18:8:22:24, 55000, 15

720010, EMPTY, EMPTY, 17:10:22:24, 11300000, 3138

11860010, INTERESTING, INTERESTING, 12:10:22:24, 175000, 48

11920010, INTERESTING, INTERESTING, 5:22:24, 130000, 36

12010010, INTERESTING, INTERESTING, 10:22:24, 55000, 15

12060010, INTERESTING, INTERESTING, 1:22:24, 20000, 5

12010010, INTERESTING, INTERESTING, 5:22:24, 85000, 23

12030010, INTERESTING, INTERESTING, 9:8:22:24, 80000, 22

740010, EMPTY, EMPTY, 9:8:22:24, 11385000, 3162

770010, EMPTY, EMPTY, 10:22:24, 11370000, 3158

770010, EMPTY, EMPTY, 8:22:24, 11385000, 3162

12150010, INTERESTING, EMPTY, 11:10:22:24, 20000, 5

12170010, INTERESTING, INTERESTING, 5:22:24, 15000, 4

700010, EMPTY, EMPTY, 12:10:22:24, 11500000, 3194

12100010, INTERESTING, INTERESTING, 18:8:22:24, 115000, 31

730010, EMPTY, EMPTY, 1:22:24, 11500000, 3194

600010, EMPTY, EMPTY, 18:8:22:24, 11645000, 3234

640010, EMPTY, EMPTY, 0:22:24, 11620000, 3227

12250010, INTERESTING, INTERESTING, 17:10:22:24, 25000, 6

770010, EMPTY, EMPTY, 15:8:22:24, 11520000, 3200

12250010, INTERESTING, INTERESTING, 14:6:22:24, 55000, 15

760010, EMPTY, EMPTY, 9:8:22:24, 11560000, 3211

790010, EMPTY, EMPTY, 10:22:24, 11545000, 3206

790010, EMPTY, EMPTY, 0:22:24, 11560000, 3211

780010, EMPTY, EMPTY, 15:8:22:24, 11585000, 3218

800010, EMPTY, EMPTY, 0:22:24, 11580000, 3216

720010, EMPTY, EMPTY, 6:22:24, 11675000, 3243

800010, EMPTY, EMPTY, 10:22:24, 11610000, 3225

12340010, INTERESTING, INTERESTING, 10:22:24, 85000, 23

680010, EMPTY, EMPTY, 7:1:22:24, 11760000, 3266

780010, EMPTY, EMPTY, 7:1:22:24, 11675000, 3243

730010, EMPTY, EMPTY, 3:8:22:24, 11740000, 3261

12450010, INTERESTING, INTERESTING, 10:22:24, 35000, 9

12390010, INTERESTING, INTERESTING, 14:6:22:24, 110000, 30

12320010, INTERESTING, INTERESTING, 17:10:22:24, 195000, 54

12290010, INTERESTING, EMPTY, 4:22:24, 240000, 66

12430010, INTERESTING, INTERESTING, 12:10:22:24, 115000, 31

12490010, INTERESTING, INTERESTING, 12:10:22:24, 70000, 19

12510010, INTERESTING, INTERESTING, 4:22:24, 65000, 18

12530010, INTERESTING, EMPTY, 5:22:24, 60000, 16

12540010, INTERESTING, INTERESTING, 17:10:22:24, 65000, 18

12440010, INTERESTING, INTERESTING, 3:8:22:24, 180000, 50

12450010, INTERESTING, INTERESTING, 14:6:22:24, 185000, 51

12620010, INTERESTING, INTERESTING, 1:22:24, 30000, 8

12520010, INTERESTING, INTERESTING, 16:8:22:24, 145000, 40

690010, EMPTY, EMPTY, 14:6:22:24, 11990000, 3330

12630010, INTERESTING, INTERESTING, 13:10:22:24, 65000, 18

12660010, INTERESTING, EMPTY, 1:22:24, 50000, 13

12670010, INTERESTING, EMPTY, 4:22:24, 55000, 15

12680010, INTERESTING, INTERESTING, 5:22:24, 60000, 16

710010, EMPTY, EMPTY, 2:8:22:24, 12045000, 3345

780010, EMPTY, INTERESTING, 18:8:22:24, 11990000, 3330

12580010, INTERESTING, INTERESTING, 12:10:22:24, 205000, 56

870010, EMPTY, EMPTY, 10:22:24, 11930000, 3313

12760010, INTERESTING, INTERESTING, 12:10:22:24, 55000, 15

12660010, INTERESTING, INTERESTING, 14:6:22:24, 170000, 47

12810010, INTERESTING, INTERESTING, 10:22:24, 35000, 9

820010, EMPTY, EMPTY, 7:1:22:24, 12040000, 3344

12360010, INTERESTING, INTERESTING, 18:8:22:24, 515000, 143

840010, EMPTY, EMPTY, 7:1:22:24, 12050000, 3347

650010, EMPTY, EMPTY, 4:22:24, 12255000, 3404

870010, EMPTY, EMPTY, 8:22:24, 12050000, 3347

12910010, INTERESTING, INTERESTING, 6:22:24, 25000, 6

12890010, INTERESTING, INTERESTING, 15:8:22:24, 60000, 16

820010, EMPTY, EMPTY, 17:10:22:24, 12145000, 3373

790010, EMPTY, EMPTY, 9:8:22:24, 12190000, 3386

740010, EMPTY, INTERESTING, 5:22:24, 12255000, 3404

12850010, INTERESTING, INTERESTING, 18:8:22:24, 160000, 44

12960010, INTERESTING, INTERESTING, 12:10:22:24, 65000, 18

13000010, INTERESTING, INTERESTING, 8:22:24, 40000, 11

13040010, INTERESTING, INTERESTING, 1:22:24, 15000, 4

800010, EMPTY, EMPTY, 16:8:22:24, 12270000, 3408

900010, EMPTY, EMPTY, 5:22:24, 12185000, 3384

910010, EMPTY, EMPTY, 8:22:24, 12190000, 3386

12970010, INTERESTING, INTERESTING, 19:10:22:24, 145000, 40

12970010, INTERESTING, INTERESTING, 16:8:22:24, 160000, 44

13120010, INTERESTING, INTERESTING, 8:22:24, 25000, 6

13060010, INTERESTING, INTERESTING, 15:8:22:24, 100000, 27

13140010, INTERESTING, INTERESTING, 11:10:22:24, 35000, 9

13040010, INTERESTING, INTERESTING, 18:8:22:24, 150000, 41

13160010, INTERESTING, INTERESTING, 5:22:24, 45000, 12

890010, EMPTY, EMPTY, 4:22:24, 12330000, 3425

13150010, INTERESTING, INTERESTING, 13:10:22:24, 85000, 23

13140010, INTERESTING, INTERESTING, 12:10:22:24, 110000, 30

13220010, INTERESTING, INTERESTING, 7:1:22:24, 45000, 12

910010, EMPTY, EMPTY, 5:22:24, 12370000, 3436

13270010, INTERESTING, EMPTY, 6:22:24, 25000, 6

13210010, INTERESTING, INTERESTING, 12:10:22:24, 100000, 27

13170010, INTERESTING, INTERESTING, 14:6:22:24, 155000, 43

13280010, INTERESTING, EMPTY, 7:1:22:24, 60000, 16

13200010, INTERESTING, INTERESTING, 19:10:22:24, 155000, 43

13280010, INTERESTING, INTERESTING, 14:6:22:24, 90000, 25

13320010, INTERESTING, EMPTY, 5:22:24, 65000, 18

13320010, INTERESTING, INTERESTING, 14:6:22:24, 80000, 22

13360010, INTERESTING, INTERESTING, 19:10:22:24, 55000, 15

13370010, INTERESTING, INTERESTING, 6:22:24, 60000, 16

13290010, INTERESTING, INTERESTING, 11:10:22:24, 155000, 43

13370010, INTERESTING, INTERESTING, 16:8:22:24, 90000, 25

13400010, INTERESTING, INTERESTING, 16:8:22:24, 75000, 20

13420010, INTERESTING, INTERESTING, 16:8:22:24, 70000, 19

13410010, INTERESTING, INTERESTING, 6:22:24, 95000, 26

13440010, INTERESTING, EMPTY, 13:10:22:24, 80000, 22

13340010, INTERESTING, INTERESTING, 14:6:22:24, 195000, 54

13370010, INTERESTING, INTERESTING, 17:10:22:24, 180000, 50

13450010, INTERESTING, INTERESTING, 0:22:24, 115000, 31

13520010, INTERESTING, EMPTY, 16:8:22:24, 60000, 16

13460010, INTERESTING, INTERESTING, 12:10:22:24, 135000, 37

13540010, INTERESTING, INTERESTING, 7:1:22:24, 70000, 19

13550010, INTERESTING, INTERESTING, 3:8:22:24, 75000, 20

13590010, INTERESTING, INTERESTING, 7:1:22:24, 50000, 13

900010, EMPTY, EMPTY, 16:8:22:24, 12755000, 3543

13580010, INTERESTING, EMPTY, 14:6:22:24, 90000, 25

790010, EMPTY, EMPTY, 15:8:22:24, 12895000, 3581

13680010, INTERESTING, INTERESTING, 7:1:22:24, 20000, 5

13700010, INTERESTING, INTERESTING, 5:22:24, 15000, 4

13600010, INTERESTING, INTERESTING, 14:6:22:24, 130000, 36

13650010, INTERESTING, INTERESTING, 14:6:22:24, 95000, 26

13710010, INTERESTING, INTERESTING, 14:6:22:24, 50000, 13

13690010, INTERESTING, INTERESTING, 12:10:22:24, 85000, 23

13720010, INTERESTING, INTERESTING, 6:22:24, 70000, 19

13750010, INTERESTING, INTERESTING, 8:22:24, 55000, 15

13770010, INTERESTING, INTERESTING, 10:22:24, 50000, 13

13780010, INTERESTING, INTERESTING, 3:8:22:24, 55000, 15

890010, EMPTY, EMPTY, 1:22:24, 12960000, 3600

13850010, INTERESTING, EMPTY, 6:22:24, 15000, 4

930010, EMPTY, EMPTY, 8:22:24, 12950000, 3597

13850010, INTERESTING, INTERESTING, 3:8:22:24, 45000, 12

13870010, INTERESTING, INTERESTING, 10:22:24, 40000, 11

13890010, INTERESTING, EMPTY, 7:1:22:24, 35000, 9

910010, EMPTY, EMPTY, 16:8:22:24, 13030000, 3619

13910010, INTERESTING, INTERESTING, 5:22:24, 45000, 12

13760010, INTERESTING, INTERESTING, 12:10:22:24, 210000, 58

13900010, INTERESTING, INTERESTING, 13:10:22:24, 85000, 23

13900010, INTERESTING, INTERESTING, 7:1:22:24, 100000, 27

13940010, INTERESTING, INTERESTING, 10:22:24, 75000, 20

13940010, INTERESTING, INTERESTING, 2:8:22:24, 90000, 25

13980010, INTERESTING, EMPTY, 17:10:22:24, 65000, 18

14010010, INTERESTING, EMPTY, 6:22:24, 50000, 13

890010, EMPTY, EMPTY, 9:8:22:24, 13185000, 3662

920010, EMPTY, EMPTY, 5:22:24, 13170000, 3658

810010, EMPTY, INTERESTING, 0:22:24, 13295000, 3693

13900010, INTERESTING, INTERESTING, 11:10:22:24, 220000, 61

14010010, INTERESTING, INTERESTING, 13:10:22:24, 125000, 34

14050010, INTERESTING, INTERESTING, 16:8:22:24, 100000, 27

14010010, INTERESTING, INTERESTING, 15:8:22:24, 155000, 43

13810010, INTERESTING, INTERESTING, 4:22:24, 370000, 102

14100010, INTERESTING, INTERESTING, 11:10:22:24, 95000, 26

14120010, INTERESTING, INTERESTING, 16:8:22:24, 90000, 25

14120010, INTERESTING, INTERESTING, 13:10:22:24, 105000, 29

14160010, INTERESTING, INTERESTING, 1:22:24, 80000, 22

14100010, INTERESTING, INTERESTING, 3:8:22:24, 155000, 43

14170010, INTERESTING, INTERESTING, 16:8:22:24, 100000, 27

14180010, INTERESTING, INTERESTING, 8:22:24, 105000, 29

14190010, INTERESTING, INTERESTING, 2:8:22:24, 110000, 30

14210010, INTERESTING, INTERESTING, 11:10:22:24, 105000, 29

14230010, INTERESTING, EMPTY, 6:22:24, 100000, 27

14250010, INTERESTING, INTERESTING, 17:10:22:24, 95000, 26

14260010, INTERESTING, INTERESTING, 4:22:24, 100000, 27

14230010, INTERESTING, INTERESTING, 12:10:22:24, 145000, 40

14270010, INTERESTING, INTERESTING, 16:8:22:24, 120000, 33

14270010, INTERESTING, INTERESTING, 11:10:22:24, 135000, 37

14280010, INTERESTING, INTERESTING, 10:22:24, 140000, 38

14350010, INTERESTING, INTERESTING, 19:10:22:24, 85000, 23

14360010, INTERESTING, INTERESTING, 7:1:22:24, 90000, 25

14390010, INTERESTING, INTERESTING, 13:10:22:24, 75000, 20

14390010, INTERESTING, INTERESTING, 19:10:22:24, 90000, 25

960010, EMPTY, EMPTY, 0:22:24, 13535000, 3759

14440010, INTERESTING, INTERESTING, 13:10:22:24, 70000, 19

900010, EMPTY, EMPTY, 10:22:24, 13625000, 3784

930010, EMPTY, EMPTY, 16:8:22:24, 13610000, 3780

690010, EMPTY, EMPTY, 19:10:22:24, 13865000, 3851

14320010, INTERESTING, INTERESTING, 16:8:22:24, 250000, 69

14510010, INTERESTING, INTERESTING, 12:10:22:24, 75000, 20

14550010, INTERESTING, EMPTY, 19:10:22:24, 50000, 13

14570010, INTERESTING, INTERESTING, 11:10:22:24, 45000, 12

14550010, INTERESTING, EMPTY, 17:10:22:24, 80000, 22

14560010, INTERESTING, INTERESTING, 19:10:22:24, 85000, 23

14620010, INTERESTING, INTERESTING, 4:22:24, 40000, 11

850010, EMPTY, EMPTY, 6:22:24, 13825000, 3840

950010, EMPTY, EMPTY, 5:22:24, 13740000, 3816

14600010, INTERESTING, INTERESTING, 11:10:22:24, 105000, 29

14690010, INTERESTING, INTERESTING, 5:22:24, 30000, 8

14580010, INTERESTING, INTERESTING, 17:10:22:24, 155000, 43

14690010, INTERESTING, INTERESTING, 1:22:24, 60000, 16

14710010, INTERESTING, EMPTY, 0:22:24, 55000, 15

14710010, INTERESTING, INTERESTING, 3:8:22:24, 70000, 19

14720010, INTERESTING, INTERESTING, 5:22:24, 75000, 20

14770010, INTERESTING, INTERESTING, 3:8:22:24, 40000, 11

14780010, INTERESTING, INTERESTING, 0:22:24, 45000, 12

14800010, INTERESTING, INTERESTING, 5:22:24, 40000, 11

14800010, INTERESTING, INTERESTING, 3:8:22:24, 55000, 15

14850010, INTERESTING, INTERESTING, 5:22:24, 20000, 5

14850010, INTERESTING, INTERESTING, 17:10:22:24, 35000, 9

14870010, INTERESTING, INTERESTING, 6:22:24, 30000, 8

990010, EMPTY, EMPTY, 10:22:24, 13925000, 3868

14910010, INTERESTING, EMPTY, 2:8:22:24, 20000, 5

870010, EMPTY, EMPTY, 7:1:22:24, 14075000, 3909

14850010, INTERESTING, INTERESTING, 15:8:22:24, 110000, 30

980010, EMPTY, EMPTY, 8:22:24, 13995000, 3887

14920010, INTERESTING, INTERESTING, 15:8:22:24, 70000, 19

640010, EMPTY, EMPTY, 11:10:22:24, 14365000, 3990

15000010, INTERESTING, INTERESTING, 10:22:24, 20000, 5

930010, EMPTY, EMPTY, 7:1:22:24, 14105000, 3918

14990010, INTERESTING, EMPTY, 19:10:22:24, 60000, 16

15030010, INTERESTING, INTERESTING, 8:22:24, 35000, 9

970010, EMPTY, EMPTY, 0:22:24, 14110000, 3919

14900010, INTERESTING, INTERESTING, 18:8:22:24, 195000, 54

860010, EMPTY, EMPTY, 18:8:22:24, 14250000, 3958

840010, EMPTY, EMPTY, 2:8:22:24, 14285000, 3968

810010, EMPTY, EMPTY, 14:6:22:24, 14330000, 3980

940010, EMPTY, EMPTY, 9:8:22:24, 14215000, 3948

1010010, EMPTY, EMPTY, 7:1:22:24, 14160000, 3933

15160010, INTERESTING, INTERESTING, 10:22:24, 25000, 6

15180010, INTERESTING, INTERESTING, 6:22:24, 20000, 5

970010, EMPTY, EMPTY, 19:10:22:24, 14245000, 3956

15070010, INTERESTING, INTERESTING, 15:8:22:24, 160000, 44

1010010, EMPTY, EMPTY, 18:8:22:24, 14235000, 3954

15090010, INTERESTING, INTERESTING, 4:22:24, 170000, 47

1060010, EMPTY, EMPTY, 19:10:22:24, 14215000, 3948

1060010, EMPTY, INTERESTING, 6:22:24, 14230000, 3952

15200010, INTERESTING, INTERESTING, 14:6:22:24, 105000, 29

870010, EMPTY, EMPTY, 17:10:22:24, 14450000, 4013

1030010, EMPTY, EMPTY, 7:1:22:24, 14305000, 3973

1000010, EMPTY, EMPTY, 11:10:22:24, 14350000, 3986

15340010, INTERESTING, EMPTY, 7:1:22:24, 25000, 6

15320010, INTERESTING, INTERESTING, 16:8:22:24, 60000, 16

15350010, INTERESTING, INTERESTING, 10:22:24, 45000, 12

820010, EMPTY, EMPTY, 3:8:22:24, 14590000, 4052

15340010, INTERESTING, INTERESTING, 16:8:22:24, 85000, 23

920010, EMPTY, EMPTY, 4:22:24, 14520000, 4033

1060010, EMPTY, EMPTY, 7:1:22:24, 14395000, 3998

940010, EMPTY, EMPTY, 16:8:22:24, 14530000, 4036

1080010, EMPTY, INTERESTING, 6:22:24, 14405000, 4001

980010, EMPTY, EMPTY, 12:10:22:24, 14520000, 4033

15480010, INTERESTING, EMPTY, 1:22:24, 35000, 9

1100010, EMPTY, EMPTY, 1:22:24, 14430000, 4008

15460010, INTERESTING, INTERESTING, 3:8:22:24, 85000, 23

