DWC_ID, Processed Contents, Actual Contents, Route, Total_Trans_Time, Trans_Time_Hours 
10, EMPTY, EMPTY, 1:23:24, 45000, 12

30010, INTERESTING, INTERESTING, 7:13:23:24, 35000, 9

20010, EMPTY, EMPTY, 15:23:24, 60000, 16

50010, EMPTY, EMPTY, 15:23:24, 45000, 12

50010, EMPTY, EMPTY, 12:23:24, 60000, 16

20010, EMPTY, EMPTY, 18:23:24, 105000, 29

50010, EMPTY, EMPTY, 2:23:24, 90000, 25

80010, INTERESTING, INTERESTING, 4:11:23:24, 75000, 20

60010, INTERESTING, INTERESTING, 6:18:23:24, 110000, 30

150010, INTERESTING, INTERESTING, 6:18:23:24, 35000, 9

80010, INTERESTING, INTERESTING, 12:23:24, 120000, 33

120010, INTERESTING, INTERESTING, 16:18:23:24, 95000, 26

160010, INTERESTING, INTERESTING, 3:23:24, 70000, 19

170010, INTERESTING, INTERESTING, 13:23:24, 75000, 20

140010, INTERESTING, INTERESTING, 14:15:23:24, 120000, 33

180010, INTERESTING, INTERESTING, 5:18:23:24, 95000, 26

220010, INTERESTING, EMPTY, 11:23:24, 70000, 19

170010, INTERESTING, INTERESTING, 19:18:23:24, 135000, 37

180010, INTERESTING, INTERESTING, 16:18:23:24, 140000, 38

200010, INTERESTING, INTERESTING, 3:23:24, 135000, 37

250010, INTERESTING, INTERESTING, 0:18:23:24, 100000, 27

250010, INTERESTING, INTERESTING, 17:18:23:24, 115000, 31

260010, INTERESTING, INTERESTING, 4:11:23:24, 120000, 33

270010, INTERESTING, INTERESTING, 4:11:23:24, 125000, 34

270010, INTERESTING, INTERESTING, 0:18:23:24, 140000, 38

230010, INTERESTING, INTERESTING, 12:23:24, 195000, 54

340010, INTERESTING, INTERESTING, 1:23:24, 100000, 27

350010, INTERESTING, INTERESTING, 0:18:23:24, 105000, 29

350010, INTERESTING, INTERESTING, 1:23:24, 120000, 33

330010, INTERESTING, INTERESTING, 14:15:23:24, 155000, 43

360010, INTERESTING, INTERESTING, 8:18:23:24, 140000, 38

370010, INTERESTING, INTERESTING, 10:23:24, 145000, 40

370010, INTERESTING, INTERESTING, 8:18:23:24, 160000, 44

400010, INTERESTING, INTERESTING, 14:15:23:24, 145000, 40

440010, INTERESTING, INTERESTING, 11:23:24, 120000, 33

440010, INTERESTING, INTERESTING, 6:18:23:24, 135000, 37

460010, INTERESTING, INTERESTING, 11:23:24, 130000, 36

470010, INTERESTING, INTERESTING, 1:23:24, 135000, 37

470010, INTERESTING, EMPTY, 12:23:24, 150000, 41

480010, INTERESTING, INTERESTING, 18:23:24, 155000, 43

480010, INTERESTING, INTERESTING, 16:18:23:24, 170000, 47

490010, INTERESTING, INTERESTING, 5:18:23:24, 175000, 48

500010, INTERESTING, INTERESTING, 1:23:24, 180000, 50

530010, INTERESTING, INTERESTING, 2:23:24, 165000, 45

520010, INTERESTING, INTERESTING, 19:18:23:24, 190000, 52

590010, INTERESTING, INTERESTING, 1:23:24, 135000, 37

590010, INTERESTING, EMPTY, 11:23:24, 150000, 41

480010, INTERESTING, EMPTY, 9:23:24, 275000, 76

590010, INTERESTING, INTERESTING, 4:11:23:24, 180000, 50

590010, INTERESTING, EMPTY, 13:23:24, 195000, 54

610010, INTERESTING, INTERESTING, 10:23:24, 190000, 52

630010, INTERESTING, EMPTY, 3:23:24, 185000, 51

630010, INTERESTING, EMPTY, 16:18:23:24, 200000, 55

630010, INTERESTING, INTERESTING, 1:23:24, 215000, 59

650010, INTERESTING, EMPTY, 0:18:23:24, 210000, 58

650010, INTERESTING, INTERESTING, 16:18:23:24, 225000, 62

700010, INTERESTING, INTERESTING, 18:23:24, 190000, 52

700010, INTERESTING, INTERESTING, 4:11:23:24, 205000, 56

710010, INTERESTING, INTERESTING, 10:23:24, 210000, 58

720010, INTERESTING, INTERESTING, 11:23:24, 215000, 59

730010, INTERESTING, INTERESTING, 9:23:24, 220000, 61

770010, INTERESTING, INTERESTING, 9:23:24, 195000, 54

690010, INTERESTING, INTERESTING, 3:23:24, 290000, 80

800010, INTERESTING, INTERESTING, 0:18:23:24, 195000, 54

820010, INTERESTING, INTERESTING, 2:23:24, 190000, 52

830010, INTERESTING, INTERESTING, 2:23:24, 195000, 54

840010, INTERESTING, INTERESTING, 9:23:24, 200000, 55

850010, INTERESTING, INTERESTING, 8:18:23:24, 205000, 56

880010, INTERESTING, INTERESTING, 8:18:23:24, 190000, 52

890010, INTERESTING, INTERESTING, 12:23:24, 195000, 54

930010, INTERESTING, INTERESTING, 6:18:23:24, 170000, 47

930010, INTERESTING, INTERESTING, 19:18:23:24, 185000, 51

950010, INTERESTING, INTERESTING, 4:11:23:24, 180000, 50

960010, INTERESTING, EMPTY, 4:11:23:24, 185000, 51

1040010, INTERESTING, INTERESTING, 9:23:24, 120000, 33

1050010, INTERESTING, INTERESTING, 4:11:23:24, 125000, 34

1030010, INTERESTING, INTERESTING, 8:18:23:24, 160000, 44

1110010, INTERESTING, INTERESTING, 11:23:24, 95000, 26

1120010, INTERESTING, INTERESTING, 5:18:23:24, 100000, 27

1160010, INTERESTING, INTERESTING, 10:23:24, 75000, 20

1180010, INTERESTING, INTERESTING, 2:23:24, 70000, 19

880010, INTERESTING, INTERESTING, 0:18:23:24, 385000, 106

1190010, INTERESTING, EMPTY, 3:23:24, 90000, 25

1200010, INTERESTING, INTERESTING, 6:18:23:24, 95000, 26

1210010, INTERESTING, INTERESTING, 10:23:24, 100000, 27

1240010, INTERESTING, INTERESTING, 11:23:24, 85000, 23

1290010, INTERESTING, INTERESTING, 0:18:23:24, 50000, 13

1300010, INTERESTING, INTERESTING, 16:18:23:24, 55000, 15

1310010, INTERESTING, INTERESTING, 8:18:23:24, 60000, 16

1320010, INTERESTING, INTERESTING, 14:15:23:24, 65000, 18

1320010, INTERESTING, EMPTY, 19:18:23:24, 80000, 22

1330010, INTERESTING, INTERESTING, 9:23:24, 85000, 23

1350010, INTERESTING, INTERESTING, 0:18:23:24, 80000, 22

1370010, INTERESTING, INTERESTING, 11:23:24, 75000, 20

1420010, INTERESTING, INTERESTING, 13:23:24, 40000, 11

1430010, INTERESTING, INTERESTING, 3:23:24, 45000, 12

1430010, INTERESTING, INTERESTING, 5:18:23:24, 60000, 16

1430010, INTERESTING, INTERESTING, 11:23:24, 75000, 20

1440010, INTERESTING, EMPTY, 1:23:24, 80000, 22

1360010, INTERESTING, INTERESTING, 0:18:23:24, 175000, 48

1380010, INTERESTING, INTERESTING, 9:23:24, 170000, 47

1450010, INTERESTING, INTERESTING, 5:18:23:24, 115000, 31

1450010, INTERESTING, INTERESTING, 2:23:24, 130000, 36

1480010, INTERESTING, INTERESTING, 2:23:24, 115000, 31

1490010, INTERESTING, INTERESTING, 11:23:24, 120000, 33

1510010, INTERESTING, EMPTY, 0:18:23:24, 115000, 31

1530010, INTERESTING, INTERESTING, 3:23:24, 110000, 30

1560010, INTERESTING, INTERESTING, 7:13:23:24, 95000, 26

1580010, INTERESTING, INTERESTING, 9:23:24, 90000, 25

1610010, INTERESTING, INTERESTING, 2:23:24, 75000, 20

10, EMPTY, EMPTY, 9:23:24, 1700000, 472

1700010, INTERESTING, EMPTY, 18:23:24, 15000, 4

10010, EMPTY, EMPTY, 6:18:23:24, 1720000, 477

60010, EMPTY, EMPTY, 12:23:24, 1685000, 468

20010, EMPTY, EMPTY, 13:23:24, 1740000, 483

30010, EMPTY, EMPTY, 19:18:23:24, 1745000, 484

1770010, INTERESTING, INTERESTING, 2:23:24, 20000, 5

1770010, INTERESTING, INTERESTING, 3:23:24, 35000, 9

1790010, INTERESTING, EMPTY, 7:13:23:24, 30000, 8

1770010, INTERESTING, INTERESTING, 16:18:23:24, 65000, 18

1790010, INTERESTING, INTERESTING, 8:18:23:24, 60000, 16

1730010, INTERESTING, INTERESTING, 5:18:23:24, 135000, 37

1810010, INTERESTING, INTERESTING, 1:23:24, 70000, 19

1810010, INTERESTING, INTERESTING, 7:13:23:24, 85000, 23

1840010, INTERESTING, INTERESTING, 5:18:23:24, 70000, 19

1780010, INTERESTING, INTERESTING, 14:15:23:24, 145000, 40

1700010, INTERESTING, INTERESTING, 19:18:23:24, 240000, 66

1810010, INTERESTING, INTERESTING, 11:23:24, 145000, 40

1850010, INTERESTING, INTERESTING, 7:13:23:24, 120000, 33

1850010, INTERESTING, INTERESTING, 5:18:23:24, 135000, 37

1930010, INTERESTING, INTERESTING, 8:18:23:24, 70000, 19

1930010, INTERESTING, INTERESTING, 18:23:24, 85000, 23

1940010, INTERESTING, INTERESTING, 19:18:23:24, 90000, 25

1960010, INTERESTING, INTERESTING, 13:23:24, 85000, 23

1850010, INTERESTING, INTERESTING, 9:23:24, 210000, 58

1970010, INTERESTING, EMPTY, 8:18:23:24, 105000, 29

2010010, INTERESTING, INTERESTING, 0:18:23:24, 80000, 22

2020010, INTERESTING, EMPTY, 13:23:24, 85000, 23

1990010, INTERESTING, INTERESTING, 5:18:23:24, 130000, 36

1910010, INTERESTING, INTERESTING, 14:15:23:24, 225000, 62

2030010, INTERESTING, INTERESTING, 0:18:23:24, 120000, 33

1970010, INTERESTING, INTERESTING, 12:23:24, 195000, 54

2050010, INTERESTING, INTERESTING, 11:23:24, 130000, 36

2130010, INTERESTING, INTERESTING, 13:23:24, 65000, 18

2140010, INTERESTING, INTERESTING, 8:18:23:24, 70000, 19

2160010, INTERESTING, INTERESTING, 2:23:24, 65000, 18

2160010, INTERESTING, INTERESTING, 3:23:24, 80000, 22

2190010, INTERESTING, INTERESTING, 11:23:24, 65000, 18

2240010, INTERESTING, EMPTY, 1:23:24, 30000, 8

2240010, INTERESTING, INTERESTING, 18:23:24, 45000, 12

2150010, INTERESTING, INTERESTING, 14:15:23:24, 150000, 41

2240010, INTERESTING, INTERESTING, 8:18:23:24, 75000, 20

2250010, INTERESTING, INTERESTING, 5:18:23:24, 80000, 22

2270010, INTERESTING, INTERESTING, 8:18:23:24, 75000, 20

2280010, INTERESTING, INTERESTING, 11:23:24, 80000, 22

2300010, INTERESTING, INTERESTING, 3:23:24, 75000, 20

2300010, INTERESTING, INTERESTING, 13:23:24, 90000, 25

2310010, INTERESTING, INTERESTING, 17:18:23:24, 95000, 26

2340010, INTERESTING, INTERESTING, 4:11:23:24, 80000, 22

2360010, INTERESTING, INTERESTING, 16:18:23:24, 75000, 20

2380010, INTERESTING, INTERESTING, 1:23:24, 70000, 19

2390010, INTERESTING, EMPTY, 18:23:24, 75000, 20

2320010, INTERESTING, INTERESTING, 8:18:23:24, 160000, 44

2400010, INTERESTING, INTERESTING, 1:23:24, 95000, 26

2430010, INTERESTING, INTERESTING, 3:23:24, 80000, 22

2200010, INTERESTING, INTERESTING, 14:15:23:24, 325000, 90

2440010, INTERESTING, INTERESTING, 1:23:24, 100000, 27

2450010, INTERESTING, EMPTY, 6:18:23:24, 105000, 29

2460010, INTERESTING, INTERESTING, 19:18:23:24, 110000, 30

2500010, INTERESTING, EMPTY, 3:23:24, 85000, 23

2520010, INTERESTING, INTERESTING, 7:13:23:24, 80000, 22

2550010, INTERESTING, INTERESTING, 11:23:24, 65000, 18

2600010, INTERESTING, INTERESTING, 2:23:24, 30000, 8

2630010, INTERESTING, INTERESTING, 8:18:23:24, 15000, 4

2600010, INTERESTING, INTERESTING, 16:18:23:24, 60000, 16

2500010, INTERESTING, INTERESTING, 1:23:24, 175000, 48

2610010, INTERESTING, EMPTY, 9:23:24, 80000, 22

2320010, INTERESTING, EMPTY, 5:18:23:24, 385000, 106

2530010, INTERESTING, INTERESTING, 15:23:24, 190000, 52

2590010, INTERESTING, INTERESTING, 19:18:23:24, 145000, 40

2650010, INTERESTING, INTERESTING, 7:13:23:24, 100000, 27

2650010, INTERESTING, EMPTY, 9:23:24, 115000, 31

2660010, INTERESTING, INTERESTING, 1:23:24, 120000, 33

2680010, INTERESTING, EMPTY, 1:23:24, 115000, 31

2690010, INTERESTING, INTERESTING, 19:18:23:24, 120000, 33

2710010, INTERESTING, INTERESTING, 3:23:24, 115000, 31

2710010, INTERESTING, INTERESTING, 1:23:24, 130000, 36

2720010, INTERESTING, INTERESTING, 13:23:24, 135000, 37

2730010, INTERESTING, INTERESTING, 13:23:24, 140000, 38

2730010, INTERESTING, INTERESTING, 18:23:24, 155000, 43

2730010, INTERESTING, INTERESTING, 17:18:23:24, 170000, 47

2750010, INTERESTING, INTERESTING, 11:23:24, 165000, 45

2750010, INTERESTING, INTERESTING, 10:23:24, 180000, 50

2770010, INTERESTING, INTERESTING, 0:18:23:24, 175000, 48

2770010, INTERESTING, INTERESTING, 10:23:24, 190000, 52

2780010, INTERESTING, INTERESTING, 19:18:23:24, 195000, 54

2810010, INTERESTING, INTERESTING, 19:18:23:24, 180000, 50

2810010, INTERESTING, INTERESTING, 0:18:23:24, 195000, 54

2840010, INTERESTING, INTERESTING, 13:23:24, 180000, 50

2860010, INTERESTING, INTERESTING, 6:18:23:24, 175000, 48

2860010, INTERESTING, INTERESTING, 1:23:24, 190000, 52

2870010, INTERESTING, EMPTY, 12:23:24, 195000, 54

2910010, INTERESTING, INTERESTING, 7:13:23:24, 170000, 47

2920010, INTERESTING, INTERESTING, 8:18:23:24, 175000, 48

2940010, INTERESTING, INTERESTING, 12:23:24, 170000, 47

2950010, INTERESTING, INTERESTING, 7:13:23:24, 175000, 48

3000010, INTERESTING, INTERESTING, 19:18:23:24, 140000, 38

3010010, INTERESTING, INTERESTING, 0:18:23:24, 145000, 40

3010010, INTERESTING, INTERESTING, 19:18:23:24, 160000, 44

3020010, INTERESTING, INTERESTING, 16:18:23:24, 165000, 45

3070010, INTERESTING, EMPTY, 14:15:23:24, 130000, 36

3080010, INTERESTING, INTERESTING, 12:23:24, 135000, 37

3110010, INTERESTING, INTERESTING, 0:18:23:24, 120000, 33

3170010, INTERESTING, INTERESTING, 4:11:23:24, 75000, 20

3190010, INTERESTING, INTERESTING, 2:23:24, 70000, 19

10010, EMPTY, EMPTY, 14:15:23:24, 3265000, 906

80010, EMPTY, EMPTY, 13:23:24, 3210000, 891

3100010, INTERESTING, INTERESTING, 1:23:24, 205000, 56

3270010, INTERESTING, INTERESTING, 10:23:24, 50000, 13

3280010, INTERESTING, INTERESTING, 5:18:23:24, 55000, 15

3280010, INTERESTING, EMPTY, 10:23:24, 70000, 19

3300010, INTERESTING, INTERESTING, 15:23:24, 65000, 18

3200010, INTERESTING, INTERESTING, 12:23:24, 180000, 50

3270010, INTERESTING, INTERESTING, 14:15:23:24, 125000, 34

3310010, INTERESTING, EMPTY, 18:23:24, 100000, 27

3390010, INTERESTING, INTERESTING, 18:23:24, 35000, 9

70010, EMPTY, EMPTY, 2:23:24, 3370000, 936

3440010, INTERESTING, INTERESTING, 7:13:23:24, 15000, 4

3320010, INTERESTING, INTERESTING, 0:18:23:24, 150000, 41

3350010, INTERESTING, INTERESTING, 14:15:23:24, 135000, 37

3360010, INTERESTING, INTERESTING, 19:18:23:24, 140000, 38

3260010, INTERESTING, EMPTY, 8:18:23:24, 255000, 70

3410010, INTERESTING, INTERESTING, 12:23:24, 120000, 33

3440010, INTERESTING, EMPTY, 6:18:23:24, 105000, 29

3460010, INTERESTING, INTERESTING, 4:11:23:24, 100000, 27

3470010, INTERESTING, INTERESTING, 11:23:24, 105000, 29

3510010, INTERESTING, INTERESTING, 2:23:24, 80000, 22

3550010, INTERESTING, INTERESTING, 2:23:24, 55000, 15

3550010, INTERESTING, INTERESTING, 19:18:23:24, 70000, 19

3560010, INTERESTING, INTERESTING, 15:23:24, 75000, 20

3590010, INTERESTING, INTERESTING, 13:23:24, 60000, 16

3600010, INTERESTING, INTERESTING, 2:23:24, 65000, 18

3560010, INTERESTING, INTERESTING, 14:15:23:24, 120000, 33

3610010, INTERESTING, EMPTY, 8:18:23:24, 85000, 23

3620010, INTERESTING, INTERESTING, 13:23:24, 90000, 25

3660010, INTERESTING, INTERESTING, 9:23:24, 65000, 18

3680010, INTERESTING, INTERESTING, 15:23:24, 60000, 16

30010, EMPTY, EMPTY, 16:18:23:24, 3725000, 1034

90010, EMPTY, EMPTY, 13:23:24, 3680000, 1022

30010, EMPTY, EMPTY, 8:18:23:24, 3755000, 1043

50010, EMPTY, INTERESTING, 7:13:23:24, 3750000, 1041

3670010, INTERESTING, INTERESTING, 14:15:23:24, 145000, 40

3770010, INTERESTING, INTERESTING, 5:18:23:24, 60000, 16

3790010, INTERESTING, INTERESTING, 11:23:24, 55000, 15

70010, EMPTY, EMPTY, 19:18:23:24, 3790000, 1052

3860010, INTERESTING, INTERESTING, 10:23:24, 15000, 4

100010, EMPTY, EMPTY, 2:23:24, 3790000, 1052

3890010, INTERESTING, INTERESTING, 4:11:23:24, 15000, 4

3810010, INTERESTING, INTERESTING, 16:18:23:24, 110000, 30

80010, EMPTY, EMPTY, 16:18:23:24, 3855000, 1070

70010, EMPTY, EMPTY, 9:23:24, 3880000, 1077

110010, EMPTY, EMPTY, 19:18:23:24, 3855000, 1070

3880010, INTERESTING, INTERESTING, 19:18:23:24, 100000, 27

3730010, INTERESTING, INTERESTING, 9:23:24, 265000, 73

3950010, INTERESTING, INTERESTING, 6:18:23:24, 60000, 16

3950010, INTERESTING, INTERESTING, 5:18:23:24, 75000, 20

4010010, INTERESTING, INTERESTING, 5:18:23:24, 30000, 8

4000010, INTERESTING, EMPTY, 3:23:24, 55000, 15

4030010, INTERESTING, INTERESTING, 17:18:23:24, 40000, 11

90010, EMPTY, EMPTY, 15:23:24, 3995000, 1109

4060010, INTERESTING, EMPTY, 11:23:24, 40000, 11

130010, EMPTY, EMPTY, 19:18:23:24, 3985000, 1106

50010, EMPTY, EMPTY, 14:15:23:24, 4080000, 1133

4120010, INTERESTING, INTERESTING, 11:23:24, 25000, 6

100010, EMPTY, EMPTY, 8:18:23:24, 4060000, 1127

4110010, INTERESTING, INTERESTING, 3:23:24, 65000, 18

4000010, INTERESTING, INTERESTING, 12:23:24, 190000, 52

4170010, INTERESTING, INTERESTING, 1:23:24, 35000, 9

4170010, INTERESTING, INTERESTING, 5:18:23:24, 50000, 13

4150010, INTERESTING, INTERESTING, 17:18:23:24, 85000, 23

4070010, INTERESTING, INTERESTING, 2:23:24, 180000, 50

4210010, INTERESTING, INTERESTING, 7:13:23:24, 55000, 15

4230010, INTERESTING, EMPTY, 15:23:24, 50000, 13

4150010, INTERESTING, INTERESTING, 14:15:23:24, 145000, 40

4260010, INTERESTING, INTERESTING, 13:23:24, 50000, 13

4300010, INTERESTING, INTERESTING, 11:23:24, 25000, 6

100010, EMPTY, EMPTY, 11:23:24, 4240000, 1177

160010, EMPTY, EMPTY, 18:23:24, 4195000, 1165

120010, EMPTY, EMPTY, 13:23:24, 4250000, 1180

140010, EMPTY, EMPTY, 19:18:23:24, 4245000, 1179

30010, EMPTY, EMPTY, 1:23:24, 4370000, 1213

130010, EMPTY, EMPTY, 2:23:24, 4285000, 1190

4410010, INTERESTING, INTERESTING, 10:23:24, 20000, 5

170010, EMPTY, EMPTY, 11:23:24, 4275000, 1187

4360010, INTERESTING, INTERESTING, 2:23:24, 100000, 27

4430010, INTERESTING, INTERESTING, 3:23:24, 45000, 12

4440010, INTERESTING, INTERESTING, 13:23:24, 50000, 13

4470010, INTERESTING, INTERESTING, 18:23:24, 35000, 9

50010, EMPTY, EMPTY, 3:23:24, 4470000, 1241

100010, EMPTY, EMPTY, 7:13:23:24, 4435000, 1231

4530010, INTERESTING, INTERESTING, 7:13:23:24, 20000, 5

4520010, INTERESTING, INTERESTING, 13:23:24, 45000, 12

4460010, INTERESTING, INTERESTING, 17:18:23:24, 120000, 33

4500010, INTERESTING, INTERESTING, 15:23:24, 95000, 26

4530010, INTERESTING, INTERESTING, 16:18:23:24, 80000, 22

4580010, INTERESTING, INTERESTING, 7:13:23:24, 45000, 12

190010, EMPTY, EMPTY, 1:23:24, 4450000, 1236

4600010, INTERESTING, INTERESTING, 10:23:24, 55000, 15

130010, EMPTY, EMPTY, 10:23:24, 4540000, 1261

4670010, INTERESTING, INTERESTING, 5:18:23:24, 15000, 4

140010, EMPTY, EMPTY, 4:11:23:24, 4560000, 1266

4660010, INTERESTING, INTERESTING, 17:18:23:24, 55000, 15

4700010, INTERESTING, INTERESTING, 7:13:23:24, 30000, 8

4690010, INTERESTING, INTERESTING, 13:23:24, 55000, 15

130010, EMPTY, EMPTY, 5:18:23:24, 4630000, 1286

4760010, INTERESTING, INTERESTING, 1:23:24, 15000, 4

180010, EMPTY, EMPTY, 12:23:24, 4610000, 1280

4790010, INTERESTING, EMPTY, 7:13:23:24, 15000, 4

4790010, INTERESTING, INTERESTING, 12:23:24, 30000, 8

4670010, INTERESTING, INTERESTING, 19:18:23:24, 165000, 45

4810010, INTERESTING, INTERESTING, 11:23:24, 40000, 11

190010, EMPTY, EMPTY, 4:11:23:24, 4675000, 1298

4680010, INTERESTING, INTERESTING, 17:18:23:24, 200000, 55

4790010, INTERESTING, INTERESTING, 15:23:24, 105000, 29

4860010, INTERESTING, INTERESTING, 15:23:24, 50000, 13

4860010, INTERESTING, EMPTY, 18:23:24, 65000, 18

4860010, INTERESTING, INTERESTING, 17:18:23:24, 80000, 22

4900010, INTERESTING, INTERESTING, 1:23:24, 55000, 15

4920010, INTERESTING, INTERESTING, 2:23:24, 50000, 13

4750010, INTERESTING, INTERESTING, 4:11:23:24, 235000, 65

4940010, INTERESTING, INTERESTING, 12:23:24, 60000, 16

4950010, INTERESTING, INTERESTING, 2:23:24, 65000, 18

4980010, INTERESTING, INTERESTING, 15:23:24, 50000, 13

4930010, INTERESTING, INTERESTING, 8:18:23:24, 115000, 31

5030010, INTERESTING, INTERESTING, 12:23:24, 30000, 8

4980010, INTERESTING, INTERESTING, 10:23:24, 95000, 26

5060010, INTERESTING, INTERESTING, 18:23:24, 30000, 8

5080010, INTERESTING, INTERESTING, 1:23:24, 25000, 6

5090010, INTERESTING, INTERESTING, 0:18:23:24, 30000, 8

5040010, INTERESTING, EMPTY, 16:18:23:24, 95000, 26

5090010, INTERESTING, INTERESTING, 13:23:24, 60000, 16

5100010, INTERESTING, INTERESTING, 1:23:24, 65000, 18

5120010, INTERESTING, INTERESTING, 8:18:23:24, 60000, 16

5170010, INTERESTING, INTERESTING, 5:18:23:24, 25000, 6

5180010, INTERESTING, INTERESTING, 9:23:24, 30000, 8

5170010, INTERESTING, INTERESTING, 8:18:23:24, 55000, 15

5180010, INTERESTING, INTERESTING, 13:23:24, 60000, 16

5200010, INTERESTING, INTERESTING, 10:23:24, 55000, 15

5210010, INTERESTING, INTERESTING, 18:23:24, 60000, 16

5010010, INTERESTING, INTERESTING, 12:23:24, 275000, 76

190010, EMPTY, EMPTY, 2:23:24, 5110000, 1419

4830010, INTERESTING, INTERESTING, 19:18:23:24, 485000, 134

90010, EMPTY, EMPTY, 0:18:23:24, 5240000, 1455

200010, EMPTY, EMPTY, 13:23:24, 5145000, 1429

240010, EMPTY, EMPTY, 15:23:24, 5120000, 1422

5360010, INTERESTING, INTERESTING, 2:23:24, 15000, 4

5370010, INTERESTING, INTERESTING, 7:13:23:24, 20000, 5

5380010, INTERESTING, INTERESTING, 6:18:23:24, 25000, 6

220010, EMPTY, EMPTY, 0:18:23:24, 5200000, 1444

5340010, INTERESTING, INTERESTING, 14:15:23:24, 95000, 26

160010, EMPTY, INTERESTING, 6:18:23:24, 5290000, 1469

5450010, INTERESTING, INTERESTING, 1:23:24, 15000, 4

200010, EMPTY, EMPTY, 5:18:23:24, 5280000, 1466

210010, EMPTY, EMPTY, 1:23:24, 5285000, 1468

210010, EMPTY, EMPTY, 4:11:23:24, 5300000, 1472

5450010, INTERESTING, INTERESTING, 17:18:23:24, 75000, 20

5510010, INTERESTING, INTERESTING, 7:13:23:24, 30000, 8

5500010, INTERESTING, INTERESTING, 17:18:23:24, 55000, 15

150010, EMPTY, EMPTY, 14:15:23:24, 5420000, 1505

140010, EMPTY, EMPTY, 8:18:23:24, 5445000, 1512

170010, EMPTY, EMPTY, 7:13:23:24, 5430000, 1508

270010, EMPTY, EMPTY, 19:18:23:24, 5345000, 1484

240010, EMPTY, EMPTY, 7:13:23:24, 5390000, 1497

260010, EMPTY, EMPTY, 6:18:23:24, 5385000, 1495

290010, EMPTY, EMPTY, 11:23:24, 5370000, 1491

300010, EMPTY, EMPTY, 18:23:24, 5375000, 1493

5610010, INTERESTING, INTERESTING, 3:23:24, 80000, 22

290010, EMPTY, EMPTY, 6:18:23:24, 5415000, 1504

230010, EMPTY, EMPTY, 4:11:23:24, 5490000, 1525

5690010, INTERESTING, INTERESTING, 1:23:24, 45000, 12

5690010, INTERESTING, INTERESTING, 19:18:23:24, 60000, 16

5730010, INTERESTING, EMPTY, 3:23:24, 35000, 9

240010, EMPTY, EMPTY, 2:23:24, 5540000, 1538

5780010, INTERESTING, INTERESTING, 1:23:24, 15000, 4

290010, EMPTY, EMPTY, 15:23:24, 5520000, 1533

5800010, INTERESTING, INTERESTING, 13:23:24, 25000, 6

280010, EMPTY, EMPTY, 1:23:24, 5560000, 1544

310010, EMPTY, EMPTY, 11:23:24, 5545000, 1540

300010, EMPTY, EMPTY, 4:11:23:24, 5570000, 1547

5840010, INTERESTING, INTERESTING, 11:23:24, 45000, 12

5880010, INTERESTING, INTERESTING, 3:23:24, 20000, 5

5810010, INTERESTING, INTERESTING, 16:18:23:24, 105000, 29

5890010, INTERESTING, INTERESTING, 1:23:24, 40000, 11

5420010, INTERESTING, EMPTY, 5:18:23:24, 525000, 145

5820010, INTERESTING, INTERESTING, 8:18:23:24, 140000, 38

5850010, INTERESTING, INTERESTING, 17:18:23:24, 125000, 34

5970010, INTERESTING, EMPTY, 11:23:24, 20000, 5

5970010, INTERESTING, INTERESTING, 10:23:24, 35000, 9

5970010, INTERESTING, INTERESTING, 9:23:24, 50000, 13

300010, EMPTY, EMPTY, 6:18:23:24, 5735000, 1593

5930010, INTERESTING, INTERESTING, 3:23:24, 120000, 33

6030010, INTERESTING, INTERESTING, 3:23:24, 35000, 9

6050010, INTERESTING, EMPTY, 4:11:23:24, 30000, 8

210010, EMPTY, EMPTY, 10:23:24, 5885000, 1634

5880010, INTERESTING, INTERESTING, 16:18:23:24, 230000, 63

260010, EMPTY, EMPTY, 5:18:23:24, 5865000, 1629

6120010, INTERESTING, INTERESTING, 5:18:23:24, 20000, 5

6040010, INTERESTING, INTERESTING, 19:18:23:24, 115000, 31

350010, EMPTY, INTERESTING, 5:18:23:24, 5820000, 1616

6170010, INTERESTING, INTERESTING, 11:23:24, 15000, 4

240010, EMPTY, EMPTY, 14:15:23:24, 5960000, 1655

6200010, INTERESTING, INTERESTING, 2:23:24, 15000, 4

350010, EMPTY, EMPTY, 11:23:24, 5880000, 1633

370010, EMPTY, EMPTY, 18:23:24, 5875000, 1631

350010, EMPTY, EMPTY, 6:18:23:24, 5910000, 1641

6250010, INTERESTING, EMPTY, 10:23:24, 25000, 6

6270010, INTERESTING, INTERESTING, 1:23:24, 20000, 5

240010, EMPTY, EMPTY, 0:18:23:24, 6065000, 1684

6270010, INTERESTING, INTERESTING, 11:23:24, 50000, 13

330010, EMPTY, EMPTY, 2:23:24, 6005000, 1668

6330010, INTERESTING, EMPTY, 5:18:23:24, 20000, 5

6350010, INTERESTING, INTERESTING, 4:11:23:24, 15000, 4

290010, EMPTY, EMPTY, 19:18:23:24, 6090000, 1691

6350010, INTERESTING, INTERESTING, 5:18:23:24, 45000, 12

6380010, INTERESTING, INTERESTING, 0:18:23:24, 30000, 8

6400010, INTERESTING, INTERESTING, 10:23:24, 25000, 6

6280010, INTERESTING, INTERESTING, 12:23:24, 160000, 44

6410010, INTERESTING, INTERESTING, 2:23:24, 45000, 12

6420010, INTERESTING, INTERESTING, 11:23:24, 50000, 13

390010, EMPTY, EMPTY, 15:23:24, 6095000, 1693

6470010, INTERESTING, INTERESTING, 4:11:23:24, 30000, 8

6500010, INTERESTING, INTERESTING, 7:13:23:24, 15000, 4

300010, EMPTY, EMPTY, 13:23:24, 6230000, 1730

6490010, INTERESTING, INTERESTING, 19:18:23:24, 55000, 15

6460010, INTERESTING, EMPTY, 12:23:24, 100000, 27

6440010, INTERESTING, INTERESTING, 5:18:23:24, 135000, 37

6500010, INTERESTING, INTERESTING, 14:15:23:24, 90000, 25

6400010, INTERESTING, INTERESTING, 17:18:23:24, 205000, 56

6520010, INTERESTING, INTERESTING, 12:23:24, 100000, 27

6530010, INTERESTING, INTERESTING, 11:23:24, 105000, 29

6530010, INTERESTING, INTERESTING, 7:13:23:24, 120000, 33

6570010, INTERESTING, INTERESTING, 12:23:24, 95000, 26

6610010, INTERESTING, INTERESTING, 18:23:24, 70000, 19

6480010, INTERESTING, EMPTY, 4:11:23:24, 215000, 59

6640010, INTERESTING, INTERESTING, 17:18:23:24, 70000, 19

270010, EMPTY, EMPTY, 16:18:23:24, 6455000, 1793

390010, EMPTY, EMPTY, 19:18:23:24, 6350000, 1763

6610010, INTERESTING, EMPTY, 3:23:24, 145000, 40

6710010, INTERESTING, INTERESTING, 19:18:23:24, 60000, 16

6640010, INTERESTING, INTERESTING, 12:23:24, 145000, 40

6680010, INTERESTING, INTERESTING, 6:18:23:24, 120000, 33

6730010, INTERESTING, INTERESTING, 3:23:24, 85000, 23

6740010, INTERESTING, INTERESTING, 9:23:24, 90000, 25

6740010, INTERESTING, EMPTY, 17:18:23:24, 105000, 29

6770010, INTERESTING, EMPTY, 19:18:23:24, 90000, 25

6780010, INTERESTING, INTERESTING, 5:18:23:24, 95000, 26

6780010, INTERESTING, INTERESTING, 15:23:24, 110000, 30

6780010, INTERESTING, INTERESTING, 6:18:23:24, 125000, 34

6850010, INTERESTING, INTERESTING, 18:23:24, 70000, 19

6900010, INTERESTING, INTERESTING, 18:23:24, 35000, 9

6910010, INTERESTING, INTERESTING, 9:23:24, 40000, 11

6930010, INTERESTING, INTERESTING, 8:18:23:24, 35000, 9

360010, EMPTY, EMPTY, 10:23:24, 6620000, 1838

6970010, INTERESTING, INTERESTING, 7:13:23:24, 25000, 6

370010, EMPTY, EMPTY, 1:23:24, 6640000, 1844

140010, EMPTY, EMPTY, 9:23:24, 6885000, 1912

410010, EMPTY, EMPTY, 10:23:24, 6630000, 1841

300010, EMPTY, EMPTY, 3:23:24, 6755000, 1876

360010, EMPTY, EMPTY, 5:18:23:24, 6710000, 1863

410010, EMPTY, EMPTY, 12:23:24, 6675000, 1854

390010, EMPTY, EMPTY, 11:23:24, 6710000, 1863

7100010, INTERESTING, INTERESTING, 0:18:23:24, 15000, 4

390010, EMPTY, EMPTY, 0:18:23:24, 6740000, 1872

7070010, INTERESTING, INTERESTING, 19:18:23:24, 75000, 20

7130010, INTERESTING, INTERESTING, 18:23:24, 30000, 8

7140010, INTERESTING, INTERESTING, 16:18:23:24, 35000, 9

7160010, INTERESTING, INTERESTING, 14:15:23:24, 30000, 8

7160010, INTERESTING, INTERESTING, 16:18:23:24, 45000, 12

430010, EMPTY, EMPTY, 9:23:24, 6790000, 1886

7130010, INTERESTING, EMPTY, 14:15:23:24, 105000, 29

7210010, INTERESTING, INTERESTING, 15:23:24, 40000, 11

7230010, INTERESTING, INTERESTING, 0:18:23:24, 35000, 9

7240010, INTERESTING, INTERESTING, 7:13:23:24, 40000, 11

390010, EMPTY, EMPTY, 6:18:23:24, 6905000, 1918

400010, EMPTY, EMPTY, 5:18:23:24, 6910000, 1919

7220010, INTERESTING, INTERESTING, 4:11:23:24, 105000, 29

290010, EMPTY, EMPTY, 7:13:23:24, 7050000, 1958

7220010, INTERESTING, INTERESTING, 14:15:23:24, 135000, 37

7240010, INTERESTING, INTERESTING, 8:18:23:24, 130000, 36

7340010, INTERESTING, INTERESTING, 6:18:23:24, 45000, 12

400010, EMPTY, INTERESTING, 16:18:23:24, 7000000, 1944

7360010, INTERESTING, INTERESTING, 6:18:23:24, 55000, 15

7370010, INTERESTING, INTERESTING, 16:18:23:24, 60000, 16

7390010, INTERESTING, INTERESTING, 0:18:23:24, 55000, 15

7410010, INTERESTING, INTERESTING, 4:11:23:24, 50000, 13

7310010, INTERESTING, INTERESTING, 13:23:24, 165000, 45

7430010, INTERESTING, INTERESTING, 8:18:23:24, 60000, 16

7440010, INTERESTING, INTERESTING, 1:23:24, 65000, 18

7340010, INTERESTING, INTERESTING, 15:23:24, 180000, 50

7440010, INTERESTING, INTERESTING, 16:18:23:24, 95000, 26

7450010, INTERESTING, INTERESTING, 11:23:24, 100000, 27

7470010, INTERESTING, INTERESTING, 6:18:23:24, 95000, 26

7480010, INTERESTING, INTERESTING, 7:13:23:24, 100000, 27

7490010, INTERESTING, INTERESTING, 1:23:24, 105000, 29

7510010, INTERESTING, INTERESTING, 0:18:23:24, 100000, 27

7520010, INTERESTING, INTERESTING, 10:23:24, 105000, 29

7530010, INTERESTING, INTERESTING, 10:23:24, 110000, 30

7550010, INTERESTING, INTERESTING, 7:13:23:24, 105000, 29

7570010, INTERESTING, INTERESTING, 2:23:24, 100000, 27

7570010, INTERESTING, INTERESTING, 17:18:23:24, 115000, 31

7580010, INTERESTING, INTERESTING, 1:23:24, 120000, 33

7670010, INTERESTING, INTERESTING, 13:23:24, 45000, 12

7680010, INTERESTING, INTERESTING, 2:23:24, 50000, 13

7680010, INTERESTING, INTERESTING, 13:23:24, 65000, 18

460010, EMPTY, EMPTY, 0:18:23:24, 7300000, 2027

7620010, INTERESTING, INTERESTING, 1:23:24, 155000, 43

7720010, INTERESTING, INTERESTING, 9:23:24, 70000, 19

7730010, INTERESTING, INTERESTING, 12:23:24, 75000, 20

7770010, INTERESTING, INTERESTING, 2:23:24, 50000, 13

7800010, INTERESTING, INTERESTING, 6:18:23:24, 35000, 9

7780010, INTERESTING, EMPTY, 19:18:23:24, 70000, 19

7850010, INTERESTING, INTERESTING, 6:18:23:24, 15000, 4

470010, EMPTY, EMPTY, 6:18:23:24, 7410000, 2058

490010, EMPTY, EMPTY, 0:18:23:24, 7405000, 2056

280010, EMPTY, EMPTY, 8:18:23:24, 7630000, 2119

7900010, INTERESTING, INTERESTING, 12:23:24, 25000, 6

7910010, INTERESTING, INTERESTING, 7:13:23:24, 30000, 8

7940010, INTERESTING, INTERESTING, 0:18:23:24, 15000, 4

470010, EMPTY, EMPTY, 11:23:24, 7500000, 2083

7970010, INTERESTING, INTERESTING, 1:23:24, 15000, 4

7960010, INTERESTING, INTERESTING, 5:18:23:24, 40000, 11

7990010, INTERESTING, INTERESTING, 4:11:23:24, 25000, 6

7930010, INTERESTING, INTERESTING, 2:23:24, 100000, 27

7990010, INTERESTING, EMPTY, 13:23:24, 55000, 15

8000010, INTERESTING, INTERESTING, 13:23:24, 60000, 16

8000010, INTERESTING, INTERESTING, 12:23:24, 75000, 20

8010010, INTERESTING, INTERESTING, 7:13:23:24, 80000, 22

8010010, INTERESTING, INTERESTING, 13:23:24, 95000, 26

8020010, INTERESTING, INTERESTING, 4:11:23:24, 100000, 27

400010, EMPTY, EMPTY, 19:18:23:24, 7735000, 2148

7990010, INTERESTING, INTERESTING, 14:15:23:24, 160000, 44

8100010, INTERESTING, INTERESTING, 4:11:23:24, 65000, 18

8130010, INTERESTING, INTERESTING, 18:23:24, 50000, 13

8160010, INTERESTING, EMPTY, 9:23:24, 35000, 9

8170010, INTERESTING, INTERESTING, 7:13:23:24, 40000, 11

8140010, INTERESTING, INTERESTING, 13:23:24, 85000, 23

8180010, INTERESTING, INTERESTING, 8:18:23:24, 60000, 16

8220010, INTERESTING, INTERESTING, 17:18:23:24, 35000, 9

8230010, INTERESTING, INTERESTING, 7:13:23:24, 40000, 11

500010, EMPTY, EMPTY, 8:18:23:24, 7785000, 2162

8280010, INTERESTING, INTERESTING, 8:18:23:24, 20000, 5

8110010, INTERESTING, EMPTY, 19:18:23:24, 205000, 56

8220010, INTERESTING, INTERESTING, 5:18:23:24, 110000, 30

8260010, INTERESTING, INTERESTING, 14:15:23:24, 85000, 23

8280010, INTERESTING, INTERESTING, 15:23:24, 80000, 22

8350010, INTERESTING, INTERESTING, 3:23:24, 25000, 6

400010, EMPTY, EMPTY, 2:23:24, 7990000, 2219

8310010, INTERESTING, INTERESTING, 5:18:23:24, 95000, 26

8380010, INTERESTING, EMPTY, 19:18:23:24, 40000, 11

8350010, INTERESTING, INTERESTING, 8:18:23:24, 85000, 23

8370010, INTERESTING, INTERESTING, 16:18:23:24, 80000, 22

8360010, INTERESTING, INTERESTING, 14:15:23:24, 105000, 29

8380010, INTERESTING, EMPTY, 9:23:24, 100000, 27

8430010, INTERESTING, INTERESTING, 4:11:23:24, 65000, 18

8440010, INTERESTING, INTERESTING, 3:23:24, 70000, 19

8450010, INTERESTING, INTERESTING, 3:23:24, 75000, 20

8460010, INTERESTING, INTERESTING, 9:23:24, 80000, 22

8480010, INTERESTING, INTERESTING, 10:23:24, 75000, 20

8430010, INTERESTING, INTERESTING, 0:18:23:24, 140000, 38

8500010, INTERESTING, INTERESTING, 9:23:24, 85000, 23

8510010, INTERESTING, INTERESTING, 13:23:24, 90000, 25

8580010, INTERESTING, INTERESTING, 13:23:24, 35000, 9

420010, EMPTY, EMPTY, 1:23:24, 8210000, 2280

8620010, INTERESTING, INTERESTING, 15:23:24, 25000, 6

8640010, INTERESTING, INTERESTING, 11:23:24, 20000, 5

8640010, INTERESTING, INTERESTING, 15:23:24, 35000, 9

8670010, INTERESTING, INTERESTING, 5:18:23:24, 20000, 5

340010, EMPTY, EMPTY, 4:11:23:24, 8365000, 2323

510010, EMPTY, EMPTY, 16:18:23:24, 8210000, 2280

8720010, INTERESTING, INTERESTING, 3:23:24, 15000, 4

8720010, INTERESTING, INTERESTING, 5:18:23:24, 30000, 8

400010, EMPTY, EMPTY, 7:13:23:24, 8365000, 2323

300010, EMPTY, INTERESTING, 17:18:23:24, 8480000, 2355

8730010, INTERESTING, INTERESTING, 16:18:23:24, 65000, 18

520010, EMPTY, EMPTY, 16:18:23:24, 8290000, 2302

480010, EMPTY, EMPTY, 5:18:23:24, 8345000, 2318

8820010, INTERESTING, INTERESTING, 5:18:23:24, 20000, 5

560010, EMPTY, EMPTY, 18:23:24, 8295000, 2304

510010, EMPTY, EMPTY, 4:11:23:24, 8360000, 2322

8810010, INTERESTING, INTERESTING, 17:18:23:24, 75000, 20

8870010, INTERESTING, INTERESTING, 1:23:24, 30000, 8

8860010, INTERESTING, INTERESTING, 12:23:24, 55000, 15

8880010, INTERESTING, INTERESTING, 19:18:23:24, 50000, 13

550010, EMPTY, EMPTY, 13:23:24, 8395000, 2331

500010, EMPTY, EMPTY, 0:18:23:24, 8460000, 2350

8960010, INTERESTING, INTERESTING, 6:18:23:24, 15000, 4

8970010, INTERESTING, INTERESTING, 5:18:23:24, 20000, 5

460010, EMPTY, EMPTY, 3:23:24, 8545000, 2373

550010, EMPTY, EMPTY, 5:18:23:24, 8470000, 2352

550010, EMPTY, EMPTY, 16:18:23:24, 8485000, 2356

9020010, INTERESTING, INTERESTING, 1:23:24, 30000, 8

8870010, INTERESTING, INTERESTING, 0:18:23:24, 195000, 54

8910010, INTERESTING, EMPTY, 19:18:23:24, 170000, 47

9040010, INTERESTING, INTERESTING, 10:23:24, 55000, 15

510010, EMPTY, EMPTY, 15:23:24, 8600000, 2388

440010, EMPTY, EMPTY, 10:23:24, 8685000, 2412

490010, EMPTY, EMPTY, 7:13:23:24, 8650000, 2402

9040010, INTERESTING, EMPTY, 8:18:23:24, 115000, 31

520010, EMPTY, EMPTY, 8:18:23:24, 8650000, 2402

8880010, INTERESTING, INTERESTING, 2:23:24, 305000, 84

540010, EMPTY, EMPTY, 4:11:23:24, 8660000, 2405

9190010, INTERESTING, INTERESTING, 19:18:23:24, 25000, 6

9000010, INTERESTING, INTERESTING, 6:18:23:24, 230000, 63

9140010, INTERESTING, EMPTY, 8:18:23:24, 105000, 29

9200010, INTERESTING, INTERESTING, 1:23:24, 60000, 16

9220010, INTERESTING, EMPTY, 6:18:23:24, 55000, 15

9240010, INTERESTING, INTERESTING, 1:23:24, 50000, 13

9190010, INTERESTING, INTERESTING, 16:18:23:24, 115000, 31

9270010, INTERESTING, INTERESTING, 1:23:24, 50000, 13

9280010, INTERESTING, INTERESTING, 6:18:23:24, 55000, 15

9290010, INTERESTING, INTERESTING, 3:23:24, 60000, 16

9330010, INTERESTING, INTERESTING, 18:23:24, 35000, 9

9300010, INTERESTING, INTERESTING, 3:23:24, 80000, 22

9340010, INTERESTING, INTERESTING, 18:23:24, 55000, 15

9360010, INTERESTING, INTERESTING, 5:18:23:24, 50000, 13

9390010, INTERESTING, INTERESTING, 18:23:24, 35000, 9

9240010, INTERESTING, INTERESTING, 19:18:23:24, 200000, 55

9410010, INTERESTING, INTERESTING, 11:23:24, 45000, 12

560010, EMPTY, EMPTY, 4:11:23:24, 8910000, 2475

570010, EMPTY, EMPTY, 3:23:24, 8915000, 2476

9360010, INTERESTING, INTERESTING, 3:23:24, 140000, 38

9470010, INTERESTING, INTERESTING, 16:18:23:24, 45000, 12

530010, EMPTY, EMPTY, 1:23:24, 9000000, 2500

9520010, INTERESTING, INTERESTING, 12:23:24, 25000, 6

9540010, INTERESTING, INTERESTING, 1:23:24, 20000, 5

9550010, INTERESTING, INTERESTING, 7:13:23:24, 25000, 6

9570010, INTERESTING, INTERESTING, 7:13:23:24, 20000, 5

9570010, INTERESTING, INTERESTING, 18:23:24, 35000, 9

580010, EMPTY, EMPTY, 15:23:24, 9040000, 2511

9540010, INTERESTING, INTERESTING, 16:18:23:24, 95000, 26

9540010, INTERESTING, INTERESTING, 12:23:24, 110000, 30

9590010, INTERESTING, INTERESTING, 7:13:23:24, 75000, 20

9640010, INTERESTING, INTERESTING, 10:23:24, 40000, 11

9640010, INTERESTING, EMPTY, 9:23:24, 55000, 15

9630010, INTERESTING, INTERESTING, 7:13:23:24, 80000, 22

610010, EMPTY, EMPTY, 1:23:24, 9115000, 2531

9630010, INTERESTING, INTERESTING, 19:18:23:24, 110000, 30

9690010, INTERESTING, INTERESTING, 4:11:23:24, 65000, 18

9710010, INTERESTING, EMPTY, 0:18:23:24, 60000, 16

9620010, INTERESTING, EMPTY, 2:23:24, 165000, 45

9720010, INTERESTING, INTERESTING, 11:23:24, 80000, 22

9740010, INTERESTING, INTERESTING, 3:23:24, 75000, 20

9760010, INTERESTING, INTERESTING, 3:23:24, 70000, 19

9790010, INTERESTING, INTERESTING, 15:23:24, 55000, 15

9800010, INTERESTING, INTERESTING, 13:23:24, 60000, 16

9820010, INTERESTING, INTERESTING, 7:13:23:24, 55000, 15

9820010, INTERESTING, INTERESTING, 8:18:23:24, 70000, 19

490010, EMPTY, EMPTY, 6:18:23:24, 9415000, 2615

460010, EMPTY, EMPTY, 14:15:23:24, 9460000, 2627

9870010, INTERESTING, INTERESTING, 19:18:23:24, 65000, 18

580010, EMPTY, EMPTY, 10:23:24, 9370000, 2602

570010, EMPTY, EMPTY, 16:18:23:24, 9395000, 2609

9950010, INTERESTING, INTERESTING, 18:23:24, 30000, 8

9930010, INTERESTING, INTERESTING, 9:23:24, 65000, 18

620010, EMPTY, EMPTY, 2:23:24, 9390000, 2608

610010, EMPTY, EMPTY, 14:15:23:24, 9415000, 2615

640010, EMPTY, EMPTY, 14:15:23:24, 9400000, 2611

10030010, INTERESTING, INTERESTING, 4:11:23:24, 25000, 6

560010, EMPTY, EMPTY, 5:18:23:24, 9510000, 2641

540010, EMPTY, INTERESTING, 17:18:23:24, 9545000, 2651

10080010, INTERESTING, INTERESTING, 1:23:24, 20000, 5

10090010, INTERESTING, INTERESTING, 5:18:23:24, 25000, 6

10090010, INTERESTING, INTERESTING, 6:18:23:24, 40000, 11

600010, EMPTY, EMPTY, 3:23:24, 9545000, 2651

690010, EMPTY, EMPTY, 18:23:24, 9470000, 2630

680010, EMPTY, EMPTY, 19:18:23:24, 9495000, 2637

650010, EMPTY, INTERESTING, 10:23:24, 9540000, 2650

10170010, INTERESTING, INTERESTING, 7:13:23:24, 35000, 9

510010, EMPTY, EMPTY, 12:23:24, 9710000, 2697

10160010, INTERESTING, INTERESTING, 17:18:23:24, 75000, 20

570010, EMPTY, EMPTY, 8:18:23:24, 9680000, 2688

10080010, INTERESTING, INTERESTING, 10:23:24, 185000, 51

730010, EMPTY, EMPTY, 10:23:24, 9550000, 2652

710010, EMPTY, EMPTY, 16:18:23:24, 9585000, 2662

710010, EMPTY, EMPTY, 8:18:23:24, 9600000, 2666

10300010, INTERESTING, INTERESTING, 2:23:24, 25000, 6

10320010, INTERESTING, INTERESTING, 0:18:23:24, 20000, 5

10320010, INTERESTING, INTERESTING, 19:18:23:24, 35000, 9

10320010, INTERESTING, INTERESTING, 8:18:23:24, 50000, 13

10320010, INTERESTING, INTERESTING, 18:23:24, 65000, 18

590010, EMPTY, EMPTY, 6:18:23:24, 9810000, 2725

10360010, INTERESTING, EMPTY, 13:23:24, 55000, 15

10400010, INTERESTING, INTERESTING, 18:23:24, 30000, 8

10410010, INTERESTING, INTERESTING, 11:23:24, 35000, 9

10380010, INTERESTING, INTERESTING, 9:23:24, 80000, 22

10430010, INTERESTING, INTERESTING, 18:23:24, 45000, 12

10430010, INTERESTING, INTERESTING, 8:18:23:24, 60000, 16

10460010, INTERESTING, INTERESTING, 1:23:24, 45000, 12

10460010, INTERESTING, INTERESTING, 4:11:23:24, 60000, 16

10480010, INTERESTING, EMPTY, 10:23:24, 55000, 15

10490010, INTERESTING, EMPTY, 17:18:23:24, 60000, 16

10500010, INTERESTING, INTERESTING, 5:18:23:24, 65000, 18

10510010, INTERESTING, INTERESTING, 4:11:23:24, 70000, 19

10530010, INTERESTING, INTERESTING, 15:23:24, 65000, 18

10540010, INTERESTING, INTERESTING, 18:23:24, 70000, 19

10570010, INTERESTING, INTERESTING, 10:23:24, 55000, 15

10510010, INTERESTING, INTERESTING, 17:18:23:24, 130000, 36

10610010, INTERESTING, INTERESTING, 3:23:24, 45000, 12

10490010, INTERESTING, INTERESTING, 2:23:24, 180000, 50

670010, EMPTY, EMPTY, 5:18:23:24, 10015000, 2781

10680010, INTERESTING, INTERESTING, 18:23:24, 20000, 5

10690010, INTERESTING, INTERESTING, 6:18:23:24, 25000, 6

10460010, INTERESTING, INTERESTING, 0:18:23:24, 270000, 75

10400010, INTERESTING, EMPTY, 16:18:23:24, 345000, 95

10660010, INTERESTING, INTERESTING, 13:23:24, 100000, 27

10700010, INTERESTING, INTERESTING, 11:23:24, 75000, 20

10510010, INTERESTING, INTERESTING, 19:18:23:24, 280000, 77

10760010, INTERESTING, INTERESTING, 10:23:24, 45000, 12

10760010, INTERESTING, INTERESTING, 2:23:24, 60000, 16

10670010, INTERESTING, INTERESTING, 14:15:23:24, 165000, 45

10800010, INTERESTING, EMPTY, 18:23:24, 50000, 13

10820010, INTERESTING, INTERESTING, 18:23:24, 45000, 12

10850010, INTERESTING, INTERESTING, 10:23:24, 30000, 8

10880010, INTERESTING, INTERESTING, 15:23:24, 15000, 4

10890010, INTERESTING, INTERESTING, 13:23:24, 20000, 5

10890010, INTERESTING, INTERESTING, 10:23:24, 35000, 9

560010, EMPTY, EMPTY, 7:13:23:24, 10380000, 2883

10930010, INTERESTING, INTERESTING, 18:23:24, 25000, 6

680010, EMPTY, INTERESTING, 17:18:23:24, 10290000, 2858

10890010, INTERESTING, INTERESTING, 11:23:24, 95000, 26

10950010, INTERESTING, INTERESTING, 16:18:23:24, 50000, 13

10970010, INTERESTING, INTERESTING, 0:18:23:24, 45000, 12

11000010, INTERESTING, INTERESTING, 0:18:23:24, 30000, 8

11030010, INTERESTING, INTERESTING, 18:23:24, 15000, 4

700010, EMPTY, EMPTY, 19:18:23:24, 10360000, 2877

11040010, INTERESTING, INTERESTING, 7:13:23:24, 35000, 9

10990010, INTERESTING, INTERESTING, 17:18:23:24, 100000, 27

10940010, INTERESTING, INTERESTING, 5:18:23:24, 165000, 45

11020010, INTERESTING, INTERESTING, 0:18:23:24, 100000, 27

11100010, INTERESTING, INTERESTING, 3:23:24, 35000, 9

670010, EMPTY, EMPTY, 14:15:23:24, 10480000, 2911

11100010, INTERESTING, INTERESTING, 19:18:23:24, 65000, 18

660010, EMPTY, EMPTY, 2:23:24, 10520000, 2922

11080010, INTERESTING, INTERESTING, 16:18:23:24, 115000, 31

11150010, INTERESTING, INTERESTING, 6:18:23:24, 60000, 16

11180010, INTERESTING, INTERESTING, 9:23:24, 45000, 12

11180010, INTERESTING, INTERESTING, 4:11:23:24, 60000, 16

710010, EMPTY, EMPTY, 1:23:24, 10545000, 2929

760010, EMPTY, EMPTY, 13:23:24, 10510000, 2919

560010, EMPTY, EMPTY, 0:18:23:24, 10725000, 2979

11280010, INTERESTING, INTERESTING, 5:18:23:24, 20000, 5

740010, EMPTY, EMPTY, 8:18:23:24, 10575000, 2937

760010, EMPTY, EMPTY, 19:18:23:24, 10570000, 2936

11320010, INTERESTING, INTERESTING, 5:18:23:24, 25000, 6

11330010, INTERESTING, EMPTY, 9:23:24, 30000, 8

11160010, INTERESTING, INTERESTING, 16:18:23:24, 215000, 59

600010, EMPTY, EMPTY, 11:23:24, 10790000, 2997

11390010, INTERESTING, INTERESTING, 9:23:24, 15000, 4

800010, EMPTY, EMPTY, 11:23:24, 10620000, 2950

740010, EMPTY, EMPTY, 10:23:24, 10695000, 2970

730010, EMPTY, EMPTY, 16:18:23:24, 10720000, 2977

11390010, INTERESTING, INTERESTING, 7:13:23:24, 75000, 20

11230010, INTERESTING, INTERESTING, 12:23:24, 250000, 69

11420010, INTERESTING, INTERESTING, 3:23:24, 75000, 20

11460010, INTERESTING, INTERESTING, 12:23:24, 50000, 13

11470010, INTERESTING, INTERESTING, 12:23:24, 55000, 15

11480010, INTERESTING, INTERESTING, 15:23:24, 60000, 16

11500010, INTERESTING, INTERESTING, 9:23:24, 55000, 15

11500010, INTERESTING, INTERESTING, 18:23:24, 70000, 19

810010, EMPTY, EMPTY, 11:23:24, 10775000, 2993

710010, EMPTY, EMPTY, 7:13:23:24, 10890000, 3025

11590010, INTERESTING, INTERESTING, 0:18:23:24, 25000, 6

11580010, INTERESTING, EMPTY, 10:23:24, 50000, 13

11620010, INTERESTING, INTERESTING, 15:23:24, 25000, 6

11510010, INTERESTING, INTERESTING, 12:23:24, 150000, 41

11650010, INTERESTING, INTERESTING, 7:13:23:24, 25000, 6

780010, EMPTY, EMPTY, 2:23:24, 10910000, 3030

11650010, INTERESTING, INTERESTING, 2:23:24, 55000, 15

11610010, INTERESTING, INTERESTING, 10:23:24, 110000, 30

11660010, INTERESTING, EMPTY, 17:18:23:24, 75000, 20

11680010, INTERESTING, INTERESTING, 3:23:24, 70000, 19

11680010, INTERESTING, INTERESTING, 13:23:24, 85000, 23

11680010, INTERESTING, INTERESTING, 2:23:24, 100000, 27

11700010, INTERESTING, EMPTY, 10:23:24, 95000, 26

11520010, INTERESTING, INTERESTING, 19:18:23:24, 290000, 80

11700010, INTERESTING, INTERESTING, 13:23:24, 125000, 34

11720010, INTERESTING, INTERESTING, 18:23:24, 120000, 33

11720010, INTERESTING, INTERESTING, 14:15:23:24, 135000, 37

11750010, INTERESTING, INTERESTING, 1:23:24, 120000, 33

11770010, INTERESTING, EMPTY, 13:23:24, 115000, 31

11820010, INTERESTING, INTERESTING, 18:23:24, 80000, 22

11830010, INTERESTING, INTERESTING, 3:23:24, 85000, 23

11810010, INTERESTING, EMPTY, 13:23:24, 120000, 33

11840010, INTERESTING, INTERESTING, 1:23:24, 105000, 29

11850010, INTERESTING, INTERESTING, 16:18:23:24, 110000, 30

11770010, INTERESTING, INTERESTING, 17:18:23:24, 205000, 56

11880010, INTERESTING, INTERESTING, 8:18:23:24, 110000, 30

11890010, INTERESTING, INTERESTING, 2:23:24, 115000, 31

11910010, INTERESTING, INTERESTING, 15:23:24, 110000, 30

11930010, INTERESTING, INTERESTING, 8:18:23:24, 105000, 29

11810010, INTERESTING, INTERESTING, 0:18:23:24, 240000, 66

11930010, INTERESTING, INTERESTING, 15:23:24, 135000, 37

11920010, INTERESTING, INTERESTING, 13:23:24, 160000, 44

11950010, INTERESTING, INTERESTING, 2:23:24, 145000, 40

11950010, INTERESTING, INTERESTING, 1:23:24, 160000, 44

11990010, INTERESTING, INTERESTING, 5:18:23:24, 135000, 37

12020010, INTERESTING, EMPTY, 11:23:24, 120000, 33

12050010, INTERESTING, INTERESTING, 11:23:24, 105000, 29

760010, EMPTY, EMPTY, 0:18:23:24, 11410000, 3169

12160010, INTERESTING, EMPTY, 6:18:23:24, 25000, 6

790010, EMPTY, EMPTY, 19:18:23:24, 11410000, 3169

790010, EMPTY, EMPTY, 16:18:23:24, 11425000, 3173

740010, EMPTY, EMPTY, 6:18:23:24, 11490000, 3191

12220010, INTERESTING, INTERESTING, 10:23:24, 25000, 6

780010, EMPTY, EMPTY, 1:23:24, 11480000, 3188

12070010, INTERESTING, INTERESTING, 0:18:23:24, 205000, 56

12080010, INTERESTING, INTERESTING, 3:23:24, 210000, 58

12190010, INTERESTING, EMPTY, 1:23:24, 115000, 31

12200010, INTERESTING, INTERESTING, 7:13:23:24, 120000, 33

12240010, INTERESTING, INTERESTING, 16:18:23:24, 95000, 26

12260010, INTERESTING, INTERESTING, 16:18:23:24, 90000, 25

12290010, INTERESTING, INTERESTING, 9:23:24, 75000, 20

12320010, INTERESTING, INTERESTING, 9:23:24, 60000, 16

12370010, INTERESTING, INTERESTING, 1:23:24, 25000, 6

780010, EMPTY, EMPTY, 8:18:23:24, 11630000, 3230

780010, EMPTY, EMPTY, 7:13:23:24, 11645000, 3234

860010, EMPTY, EMPTY, 1:23:24, 11580000, 3216

860010, EMPTY, EMPTY, 18:23:24, 11595000, 3220

730010, EMPTY, EMPTY, 12:23:24, 11740000, 3261

680010, EMPTY, EMPTY, 14:15:23:24, 11805000, 3279

12400010, INTERESTING, INTERESTING, 16:18:23:24, 100000, 27

12490010, INTERESTING, INTERESTING, 11:23:24, 25000, 6

12490010, INTERESTING, INTERESTING, 8:18:23:24, 40000, 11

12500010, INTERESTING, INTERESTING, 11:23:24, 45000, 12

720010, EMPTY, EMPTY, 4:11:23:24, 11840000, 3288

12530010, INTERESTING, INTERESTING, 4:11:23:24, 45000, 12

12540010, INTERESTING, EMPTY, 13:23:24, 50000, 13

870010, EMPTY, EMPTY, 13:23:24, 11735000, 3259

910010, EMPTY, EMPTY, 11:23:24, 11710000, 3252

12470010, INTERESTING, INTERESTING, 16:18:23:24, 165000, 45

12500010, INTERESTING, INTERESTING, 19:18:23:24, 150000, 41

12610010, INTERESTING, INTERESTING, 7:13:23:24, 55000, 15

12510010, INTERESTING, INTERESTING, 0:18:23:24, 170000, 47

12520010, INTERESTING, INTERESTING, 2:23:24, 175000, 48

12610010, INTERESTING, INTERESTING, 6:18:23:24, 100000, 27

12620010, INTERESTING, INTERESTING, 9:23:24, 105000, 29

12620010, INTERESTING, INTERESTING, 17:18:23:24, 120000, 33

12640010, INTERESTING, INTERESTING, 18:23:24, 115000, 31

12640010, INTERESTING, INTERESTING, 17:18:23:24, 130000, 36

12640010, INTERESTING, EMPTY, 16:18:23:24, 145000, 40

12650010, INTERESTING, INTERESTING, 12:23:24, 150000, 41

12660010, INTERESTING, INTERESTING, 3:23:24, 155000, 43

12670010, INTERESTING, INTERESTING, 9:23:24, 160000, 44

12570010, INTERESTING, EMPTY, 4:11:23:24, 275000, 76

12680010, INTERESTING, INTERESTING, 19:18:23:24, 180000, 50

12720010, INTERESTING, INTERESTING, 12:23:24, 155000, 43

12740010, INTERESTING, INTERESTING, 2:23:24, 150000, 41

12830010, INTERESTING, INTERESTING, 15:23:24, 75000, 20

12850010, INTERESTING, INTERESTING, 8:18:23:24, 70000, 19

12860010, INTERESTING, INTERESTING, 8:18:23:24, 75000, 20

12850010, INTERESTING, INTERESTING, 17:18:23:24, 100000, 27

12880010, INTERESTING, INTERESTING, 12:23:24, 85000, 23

12910010, INTERESTING, INTERESTING, 18:23:24, 70000, 19

12920010, INTERESTING, INTERESTING, 8:18:23:24, 75000, 20

12940010, INTERESTING, INTERESTING, 10:23:24, 70000, 19

12970010, INTERESTING, INTERESTING, 6:18:23:24, 55000, 15

13010010, INTERESTING, INTERESTING, 8:18:23:24, 30000, 8

12990010, INTERESTING, INTERESTING, 5:18:23:24, 65000, 18

13020010, INTERESTING, INTERESTING, 7:13:23:24, 50000, 13

13030010, INTERESTING, INTERESTING, 11:23:24, 55000, 15

13000010, INTERESTING, INTERESTING, 12:23:24, 100000, 27

12940010, INTERESTING, EMPTY, 16:18:23:24, 175000, 48

13030010, INTERESTING, INTERESTING, 0:18:23:24, 100000, 27

13050010, INTERESTING, INTERESTING, 0:18:23:24, 95000, 26

13070010, INTERESTING, INTERESTING, 17:18:23:24, 90000, 25

13080010, INTERESTING, INTERESTING, 4:11:23:24, 95000, 26

13120010, INTERESTING, EMPTY, 0:18:23:24, 70000, 19

13140010, INTERESTING, INTERESTING, 10:23:24, 65000, 18

13090010, INTERESTING, INTERESTING, 16:18:23:24, 130000, 36

12950010, INTERESTING, INTERESTING, 14:15:23:24, 285000, 79

13130010, INTERESTING, INTERESTING, 15:23:24, 120000, 33

13140010, INTERESTING, INTERESTING, 0:18:23:24, 125000, 34

13170010, INTERESTING, INTERESTING, 1:23:24, 110000, 30

13190010, INTERESTING, INTERESTING, 4:11:23:24, 105000, 29

13200010, INTERESTING, INTERESTING, 15:23:24, 110000, 30

13210010, INTERESTING, INTERESTING, 14:15:23:24, 115000, 31

13220010, INTERESTING, EMPTY, 18:23:24, 120000, 33

13060010, INTERESTING, INTERESTING, 8:18:23:24, 295000, 81

13300010, INTERESTING, EMPTY, 12:23:24, 70000, 19

13330010, INTERESTING, INTERESTING, 6:18:23:24, 55000, 15

13320010, INTERESTING, INTERESTING, 14:15:23:24, 80000, 22

13330010, INTERESTING, INTERESTING, 8:18:23:24, 85000, 23

13350010, INTERESTING, INTERESTING, 0:18:23:24, 80000, 22

13310010, INTERESTING, EMPTY, 9:23:24, 135000, 37

13240010, INTERESTING, INTERESTING, 1:23:24, 220000, 61

13360010, INTERESTING, INTERESTING, 11:23:24, 115000, 31

13360010, INTERESTING, INTERESTING, 0:18:23:24, 130000, 36

13360010, INTERESTING, EMPTY, 15:23:24, 145000, 40

13390010, INTERESTING, INTERESTING, 10:23:24, 130000, 36

13330010, INTERESTING, INTERESTING, 4:11:23:24, 205000, 56

13400010, INTERESTING, INTERESTING, 6:18:23:24, 150000, 41

13400010, INTERESTING, EMPTY, 5:18:23:24, 165000, 45

13410010, INTERESTING, INTERESTING, 0:18:23:24, 170000, 47

13450010, INTERESTING, INTERESTING, 10:23:24, 145000, 40

13450010, INTERESTING, INTERESTING, 12:23:24, 160000, 44

13480010, INTERESTING, INTERESTING, 1:23:24, 145000, 40

13550010, INTERESTING, INTERESTING, 6:18:23:24, 90000, 25

13560010, INTERESTING, INTERESTING, 1:23:24, 95000, 26

13560010, INTERESTING, EMPTY, 0:18:23:24, 110000, 30

13580010, INTERESTING, INTERESTING, 11:23:24, 105000, 29

13590010, INTERESTING, INTERESTING, 15:23:24, 110000, 30

13600010, INTERESTING, INTERESTING, 14:15:23:24, 115000, 31

13610010, INTERESTING, EMPTY, 18:23:24, 120000, 33

13730010, INTERESTING, INTERESTING, 11:23:24, 15000, 4

810010, EMPTY, EMPTY, 0:18:23:24, 12950000, 3597

13670010, INTERESTING, INTERESTING, 5:18:23:24, 105000, 29

13690010, INTERESTING, EMPTY, 12:23:24, 100000, 27

13750010, INTERESTING, INTERESTING, 0:18:23:24, 55000, 15

820010, EMPTY, EMPTY, 7:13:23:24, 13000000, 3611

13660010, INTERESTING, INTERESTING, 14:15:23:24, 175000, 48

13810010, INTERESTING, INTERESTING, 1:23:24, 40000, 11

13750010, INTERESTING, INTERESTING, 5:18:23:24, 115000, 31

13840010, INTERESTING, INTERESTING, 11:23:24, 40000, 11

13860010, INTERESTING, INTERESTING, 3:23:24, 35000, 9

930010, EMPTY, EMPTY, 18:23:24, 12980000, 3605

13830010, INTERESTING, INTERESTING, 1:23:24, 95000, 26

13900010, INTERESTING, INTERESTING, 4:11:23:24, 40000, 11

13910010, INTERESTING, INTERESTING, 4:11:23:24, 45000, 12

13920010, INTERESTING, INTERESTING, 6:18:23:24, 50000, 13

13880010, INTERESTING, INTERESTING, 10:23:24, 105000, 29

13940010, INTERESTING, INTERESTING, 11:23:24, 60000, 16

13990010, INTERESTING, INTERESTING, 10:23:24, 25000, 6

840010, EMPTY, EMPTY, 6:18:23:24, 13190000, 3663

830010, EMPTY, EMPTY, 19:18:23:24, 13215000, 3670

13970010, INTERESTING, INTERESTING, 9:23:24, 90000, 25

14040010, INTERESTING, INTERESTING, 3:23:24, 35000, 9

14040010, INTERESTING, INTERESTING, 9:23:24, 50000, 13

750010, EMPTY, EMPTY, 5:18:23:24, 13355000, 3709

810010, EMPTY, EMPTY, 4:11:23:24, 13310000, 3697

14110010, INTERESTING, INTERESTING, 2:23:24, 25000, 6

14130010, INTERESTING, INTERESTING, 13:23:24, 20000, 5

13950010, INTERESTING, INTERESTING, 6:18:23:24, 215000, 59

14020010, INTERESTING, INTERESTING, 10:23:24, 160000, 44

14100010, INTERESTING, EMPTY, 8:18:23:24, 95000, 26

14140010, INTERESTING, INTERESTING, 6:18:23:24, 70000, 19

870010, EMPTY, EMPTY, 1:23:24, 13355000, 3709

930010, EMPTY, EMPTY, 13:23:24, 13310000, 3697

14240010, INTERESTING, EMPTY, 18:23:24, 15000, 4

14250010, INTERESTING, INTERESTING, 10:23:24, 20000, 5

14230010, INTERESTING, INTERESTING, 14:15:23:24, 55000, 15

14250010, INTERESTING, INTERESTING, 1:23:24, 50000, 13

14250010, INTERESTING, INTERESTING, 9:23:24, 65000, 18

14250010, INTERESTING, EMPTY, 4:11:23:24, 80000, 22

14280010, INTERESTING, INTERESTING, 11:23:24, 65000, 18

14280010, INTERESTING, INTERESTING, 5:18:23:24, 80000, 22

14310010, INTERESTING, INTERESTING, 6:18:23:24, 65000, 18

14300010, INTERESTING, INTERESTING, 15:23:24, 90000, 25

14370010, INTERESTING, INTERESTING, 18:23:24, 35000, 9

910010, EMPTY, EMPTY, 4:11:23:24, 13510000, 3752

14410010, INTERESTING, INTERESTING, 13:23:24, 25000, 6

960010, EMPTY, EMPTY, 3:23:24, 13490000, 3747

14430010, INTERESTING, EMPTY, 16:18:23:24, 35000, 9

14460010, INTERESTING, INTERESTING, 7:13:23:24, 20000, 5

14240010, INTERESTING, INTERESTING, 12:23:24, 255000, 70

980010, EMPTY, EMPTY, 1:23:24, 13530000, 3758

14490010, INTERESTING, INTERESTING, 18:23:24, 35000, 9

14480010, INTERESTING, INTERESTING, 1:23:24, 60000, 16

14500010, INTERESTING, INTERESTING, 3:23:24, 55000, 15

14510010, INTERESTING, INTERESTING, 6:18:23:24, 60000, 16

14490010, INTERESTING, INTERESTING, 11:23:24, 95000, 26

14470010, INTERESTING, INTERESTING, 17:18:23:24, 130000, 36

14520010, INTERESTING, INTERESTING, 6:18:23:24, 95000, 26

14570010, INTERESTING, INTERESTING, 7:13:23:24, 60000, 16

14450010, INTERESTING, INTERESTING, 19:18:23:24, 195000, 54

14570010, INTERESTING, INTERESTING, 6:18:23:24, 90000, 25

14590010, INTERESTING, INTERESTING, 2:23:24, 85000, 23

14610010, INTERESTING, INTERESTING, 13:23:24, 80000, 22

14440010, INTERESTING, INTERESTING, 16:18:23:24, 265000, 73

14620010, INTERESTING, INTERESTING, 13:23:24, 100000, 27

14650010, INTERESTING, INTERESTING, 11:23:24, 85000, 23

14650010, INTERESTING, INTERESTING, 1:23:24, 100000, 27

14670010, INTERESTING, INTERESTING, 3:23:24, 95000, 26

14650010, INTERESTING, EMPTY, 17:18:23:24, 130000, 36

14680010, INTERESTING, INTERESTING, 11:23:24, 115000, 31

14700010, INTERESTING, INTERESTING, 15:23:24, 110000, 30

14740010, INTERESTING, INTERESTING, 6:18:23:24, 85000, 23

14750010, INTERESTING, INTERESTING, 19:18:23:24, 90000, 25

14790010, INTERESTING, INTERESTING, 10:23:24, 65000, 18

14810010, INTERESTING, INTERESTING, 18:23:24, 60000, 16

840010, EMPTY, EMPTY, 16:18:23:24, 14045000, 3901

920010, EMPTY, EMPTY, 2:23:24, 13980000, 3883

14760010, INTERESTING, INTERESTING, 1:23:24, 155000, 43

14880010, INTERESTING, INTERESTING, 18:23:24, 50000, 13

14920010, INTERESTING, EMPTY, 5:18:23:24, 25000, 6

1000010, EMPTY, EMPTY, 1:23:24, 13960000, 3877

14940010, INTERESTING, INTERESTING, 11:23:24, 35000, 9

1020010, EMPTY, EMPTY, 2:23:24, 13970000, 3880

14930010, INTERESTING, EMPTY, 17:18:23:24, 75000, 20

910010, EMPTY, EMPTY, 9:23:24, 14110000, 3919

1010010, EMPTY, EMPTY, 6:18:23:24, 14025000, 3895

15020010, INTERESTING, INTERESTING, 1:23:24, 30000, 8

15030010, INTERESTING, INTERESTING, 12:23:24, 35000, 9

1060010, EMPTY, EMPTY, 18:23:24, 14020000, 3894

14870010, INTERESTING, INTERESTING, 14:15:23:24, 225000, 62

15070010, INTERESTING, INTERESTING, 15:23:24, 40000, 11

15070010, INTERESTING, INTERESTING, 7:13:23:24, 55000, 15

15110010, INTERESTING, INTERESTING, 18:23:24, 30000, 8

750010, EMPTY, EMPTY, 17:18:23:24, 14405000, 4001

980010, EMPTY, EMPTY, 13:23:24, 14190000, 3941

15150010, INTERESTING, INTERESTING, 12:23:24, 35000, 9

15160010, INTERESTING, INTERESTING, 3:23:24, 40000, 11

15160010, INTERESTING, INTERESTING, 4:11:23:24, 55000, 15

15170010, INTERESTING, INTERESTING, 9:23:24, 60000, 16

15220010, INTERESTING, INTERESTING, 13:23:24, 25000, 6

14990010, INTERESTING, INTERESTING, 16:18:23:24, 270000, 75

15110010, INTERESTING, INTERESTING, 1:23:24, 165000, 45

15250010, INTERESTING, INTERESTING, 18:23:24, 40000, 11

1050010, EMPTY, EMPTY, 9:23:24, 14255000, 3959

15260010, INTERESTING, INTERESTING, 1:23:24, 60000, 16

15240010, INTERESTING, INTERESTING, 17:18:23:24, 95000, 26

15320010, INTERESTING, INTERESTING, 18:23:24, 30000, 8

15330010, INTERESTING, EMPTY, 7:13:23:24, 35000, 9

15210010, INTERESTING, INTERESTING, 3:23:24, 170000, 47

15310010, INTERESTING, INTERESTING, 9:23:24, 85000, 23

15340010, INTERESTING, INTERESTING, 4:11:23:24, 70000, 19

15350010, INTERESTING, INTERESTING, 14:15:23:24, 75000, 20

15360010, INTERESTING, INTERESTING, 19:18:23:24, 80000, 22

15390010, INTERESTING, INTERESTING, 16:18:23:24, 65000, 18

990010, EMPTY, INTERESTING, 3:23:24, 14480000, 4022

1070010, EMPTY, EMPTY, 13:23:24, 14415000, 4004

810010, EMPTY, EMPTY, 10:23:24, 14690000, 4080

15500010, INTERESTING, INTERESTING, 2:23:24, 15000, 4

15500010, INTERESTING, INTERESTING, 7:13:23:24, 30000, 8

15480010, INTERESTING, INTERESTING, 4:11:23:24, 65000, 18

