DWC_ID, Processed Contents, Actual Contents, Route, Total_Trans_Time, Trans_Time_Hours 
40010, EMPTY, EMPTY, 18:22:24, 25000, 6

10010, INTERESTING, INTERESTING, 5:22:24, 70000, 19

50010, INTERESTING, INTERESTING, 12:22:24, 45000, 12

30010, EMPTY, EMPTY, 2:22:24, 80000, 22

30010, EMPTY, EMPTY, 15:19:22:24, 95000, 26

60010, INTERESTING, EMPTY, 2:22:24, 80000, 22

140010, INTERESTING, INTERESTING, 2:22:24, 15000, 4

140010, INTERESTING, INTERESTING, 17:10:19:22:24, 30000, 8

30010, INTERESTING, INTERESTING, 11:22:24, 155000, 43

140010, INTERESTING, INTERESTING, 15:19:22:24, 60000, 16

190010, INTERESTING, INTERESTING, 9:22:24, 25000, 6

40010, INTERESTING, INTERESTING, 14:19:22:24, 190000, 52

210010, INTERESTING, INTERESTING, 11:22:24, 35000, 9

230010, INTERESTING, INTERESTING, 0:22:24, 30000, 8

260010, INTERESTING, INTERESTING, 19:22:24, 15000, 4

260010, INTERESTING, INTERESTING, 10:19:22:24, 30000, 8

60010, EMPTY, EMPTY, 16:12:22:24, 245000, 68

90010, EMPTY, EMPTY, 19:22:24, 230000, 63

280010, INTERESTING, EMPTY, 3:22:24, 55000, 15

330010, INTERESTING, EMPTY, 2:22:24, 20000, 5

270010, INTERESTING, INTERESTING, 7:22:24, 95000, 26

290010, INTERESTING, INTERESTING, 8:22:24, 90000, 25

370010, INTERESTING, INTERESTING, 7:22:24, 25000, 6

390010, INTERESTING, INTERESTING, 9:22:24, 20000, 5

400010, INTERESTING, INTERESTING, 14:19:22:24, 25000, 6

410010, INTERESTING, INTERESTING, 8:22:24, 30000, 8

410010, INTERESTING, INTERESTING, 16:12:22:24, 45000, 12

420010, INTERESTING, INTERESTING, 5:22:24, 50000, 13

420010, INTERESTING, INTERESTING, 13:22:24, 65000, 18

460010, INTERESTING, INTERESTING, 19:22:24, 40000, 11

470010, INTERESTING, INTERESTING, 10:19:22:24, 45000, 12

40010, EMPTY, EMPTY, 15:19:22:24, 490000, 136

20010, EMPTY, EMPTY, 10:19:22:24, 525000, 145

50010, EMPTY, EMPTY, 4:22:24, 510000, 141

300010, INTERESTING, INTERESTING, 18:22:24, 275000, 76

470010, INTERESTING, INTERESTING, 2:22:24, 120000, 33

560010, INTERESTING, INTERESTING, 17:10:19:22:24, 45000, 12

600010, INTERESTING, EMPTY, 19:22:24, 20000, 5

540010, INTERESTING, INTERESTING, 8:22:24, 95000, 26

610010, INTERESTING, INTERESTING, 2:22:24, 40000, 11

630010, INTERESTING, INTERESTING, 11:22:24, 35000, 9

640010, INTERESTING, INTERESTING, 9:22:24, 40000, 11

650010, INTERESTING, INTERESTING, 2:22:24, 45000, 12

650010, INTERESTING, INTERESTING, 13:22:24, 60000, 16

670010, INTERESTING, INTERESTING, 5:22:24, 55000, 15

680010, INTERESTING, INTERESTING, 2:22:24, 60000, 16

680010, INTERESTING, INTERESTING, 5:22:24, 75000, 20

700010, INTERESTING, INTERESTING, 8:22:24, 70000, 19

710010, INTERESTING, EMPTY, 19:22:24, 75000, 20

740010, INTERESTING, EMPTY, 10:19:22:24, 60000, 16

770010, INTERESTING, EMPTY, 17:10:19:22:24, 45000, 12

790010, INTERESTING, INTERESTING, 18:22:24, 40000, 11

800010, INTERESTING, INTERESTING, 15:19:22:24, 45000, 12

830010, INTERESTING, INTERESTING, 0:22:24, 30000, 8

90010, EMPTY, EMPTY, 12:22:24, 785000, 218

780010, INTERESTING, INTERESTING, 1:19:22:24, 110000, 30

880010, INTERESTING, INTERESTING, 3:22:24, 25000, 6

880010, INTERESTING, INTERESTING, 10:19:22:24, 40000, 11

900010, INTERESTING, INTERESTING, 8:22:24, 35000, 9

900010, INTERESTING, INTERESTING, 19:22:24, 50000, 13

910010, INTERESTING, INTERESTING, 4:22:24, 55000, 15

920010, INTERESTING, INTERESTING, 11:22:24, 60000, 16

980010, INTERESTING, INTERESTING, 19:22:24, 15000, 4

980010, INTERESTING, INTERESTING, 8:22:24, 30000, 8

980010, INTERESTING, INTERESTING, 6:10:19:22:24, 45000, 12

1000010, INTERESTING, INTERESTING, 10:19:22:24, 40000, 11

1010010, INTERESTING, INTERESTING, 10:19:22:24, 45000, 12

1030010, INTERESTING, INTERESTING, 9:22:24, 40000, 11

1030010, INTERESTING, INTERESTING, 19:22:24, 55000, 15

1030010, INTERESTING, INTERESTING, 14:19:22:24, 70000, 19

1050010, INTERESTING, INTERESTING, 4:22:24, 65000, 18

1050010, INTERESTING, INTERESTING, 15:19:22:24, 80000, 22

1050010, INTERESTING, INTERESTING, 17:10:19:22:24, 95000, 26

1060010, INTERESTING, INTERESTING, 18:22:24, 100000, 27

1060010, INTERESTING, EMPTY, 7:22:24, 115000, 31

1060010, INTERESTING, INTERESTING, 1:19:22:24, 130000, 36

1080010, INTERESTING, INTERESTING, 14:19:22:24, 125000, 34

1150010, INTERESTING, INTERESTING, 1:19:22:24, 70000, 19

1160010, INTERESTING, INTERESTING, 4:22:24, 75000, 20

1220010, INTERESTING, EMPTY, 9:22:24, 30000, 8

1220010, INTERESTING, INTERESTING, 1:19:22:24, 45000, 12

1230010, INTERESTING, INTERESTING, 7:22:24, 50000, 13

1260010, INTERESTING, INTERESTING, 18:22:24, 35000, 9

1270010, INTERESTING, INTERESTING, 5:22:24, 40000, 11

50010, EMPTY, EMPTY, 18:22:24, 1275000, 354

110010, EMPTY, EMPTY, 10:19:22:24, 1230000, 341

120010, EMPTY, EMPTY, 12:22:24, 1235000, 343

1300010, INTERESTING, INTERESTING, 3:22:24, 70000, 19

1340010, INTERESTING, INTERESTING, 6:10:19:22:24, 45000, 12

60010, EMPTY, EMPTY, 5:22:24, 1340000, 372

1390010, INTERESTING, INTERESTING, 15:19:22:24, 25000, 6

1390010, INTERESTING, INTERESTING, 17:10:19:22:24, 40000, 11

1370010, INTERESTING, INTERESTING, 12:22:24, 75000, 20

1400010, INTERESTING, INTERESTING, 3:22:24, 60000, 16

1400010, INTERESTING, INTERESTING, 1:19:22:24, 75000, 20

1430010, INTERESTING, INTERESTING, 9:22:24, 60000, 16

1450010, INTERESTING, INTERESTING, 16:12:22:24, 55000, 15

1470010, INTERESTING, INTERESTING, 19:22:24, 50000, 13

1470010, INTERESTING, INTERESTING, 1:19:22:24, 65000, 18

1490010, INTERESTING, EMPTY, 3:22:24, 60000, 16

1490010, INTERESTING, INTERESTING, 14:19:22:24, 75000, 20

1530010, INTERESTING, INTERESTING, 10:19:22:24, 50000, 13

1420010, INTERESTING, INTERESTING, 13:22:24, 175000, 48

1510010, INTERESTING, INTERESTING, 15:19:22:24, 100000, 27

1540010, INTERESTING, INTERESTING, 0:22:24, 85000, 23

1560010, INTERESTING, INTERESTING, 18:22:24, 80000, 22

1600010, INTERESTING, INTERESTING, 14:19:22:24, 55000, 15

1600010, INTERESTING, INTERESTING, 7:22:24, 70000, 19

1640010, INTERESTING, INTERESTING, 6:10:19:22:24, 45000, 12

1650010, INTERESTING, INTERESTING, 9:22:24, 50000, 13

1660010, INTERESTING, INTERESTING, 17:10:19:22:24, 55000, 15

1670010, INTERESTING, INTERESTING, 12:22:24, 60000, 16

1670010, INTERESTING, INTERESTING, 10:19:22:24, 75000, 20

1680010, INTERESTING, INTERESTING, 1:19:22:24, 80000, 22

1680010, INTERESTING, INTERESTING, 2:22:24, 95000, 26

1700010, INTERESTING, INTERESTING, 13:22:24, 90000, 25

1730010, INTERESTING, INTERESTING, 10:19:22:24, 75000, 20

1730010, INTERESTING, EMPTY, 17:10:19:22:24, 90000, 25

1740010, INTERESTING, EMPTY, 12:22:24, 95000, 26

1760010, INTERESTING, INTERESTING, 4:22:24, 90000, 25

1770010, INTERESTING, INTERESTING, 17:10:19:22:24, 95000, 26

1810010, INTERESTING, INTERESTING, 3:22:24, 70000, 19

1810010, INTERESTING, INTERESTING, 17:10:19:22:24, 85000, 23

1820010, INTERESTING, INTERESTING, 8:22:24, 90000, 25

1820010, INTERESTING, INTERESTING, 15:19:22:24, 105000, 29

1830010, INTERESTING, INTERESTING, 5:22:24, 110000, 30

1830010, INTERESTING, INTERESTING, 19:22:24, 125000, 34

1920010, INTERESTING, INTERESTING, 8:22:24, 50000, 13

1950010, INTERESTING, INTERESTING, 2:22:24, 35000, 9

90010, EMPTY, EMPTY, 15:19:22:24, 1910000, 530

2000010, INTERESTING, INTERESTING, 3:22:24, 15000, 4

1910010, INTERESTING, INTERESTING, 17:10:19:22:24, 120000, 33

2010010, INTERESTING, INTERESTING, 1:19:22:24, 35000, 9

2020010, INTERESTING, INTERESTING, 3:22:24, 40000, 11

2030010, INTERESTING, INTERESTING, 4:22:24, 45000, 12

2060010, INTERESTING, INTERESTING, 3:22:24, 30000, 8

2040010, INTERESTING, INTERESTING, 13:22:24, 65000, 18

2050010, INTERESTING, INTERESTING, 0:22:24, 70000, 19

2080010, INTERESTING, INTERESTING, 14:19:22:24, 55000, 15

2110010, INTERESTING, INTERESTING, 7:22:24, 40000, 11

40010, EMPTY, EMPTY, 9:22:24, 2125000, 590

70010, EMPTY, EMPTY, 16:12:22:24, 2110000, 586

2170010, INTERESTING, EMPTY, 4:22:24, 25000, 6

2010010, INTERESTING, INTERESTING, 15:19:22:24, 200000, 55

2180010, INTERESTING, INTERESTING, 17:10:19:22:24, 45000, 12

2200010, INTERESTING, INTERESTING, 18:22:24, 40000, 11

2200010, INTERESTING, INTERESTING, 15:19:22:24, 55000, 15

2220010, INTERESTING, INTERESTING, 17:10:19:22:24, 50000, 13

160010, EMPTY, EMPTY, 19:22:24, 2125000, 590

40010, EMPTY, EMPTY, 17:10:19:22:24, 2260000, 627

2250010, INTERESTING, INTERESTING, 11:22:24, 65000, 18

2280010, INTERESTING, INTERESTING, 6:10:19:22:24, 50000, 13

2300010, INTERESTING, INTERESTING, 0:22:24, 45000, 12

2310010, INTERESTING, INTERESTING, 8:22:24, 50000, 13

2320010, INTERESTING, INTERESTING, 9:22:24, 55000, 15

2340010, INTERESTING, INTERESTING, 8:22:24, 50000, 13

2340010, INTERESTING, INTERESTING, 6:10:19:22:24, 65000, 18

2370010, INTERESTING, INTERESTING, 2:22:24, 50000, 13

2380010, INTERESTING, INTERESTING, 15:19:22:24, 55000, 15

2410010, INTERESTING, INTERESTING, 4:22:24, 40000, 11

2410010, INTERESTING, INTERESTING, 16:12:22:24, 55000, 15

2420010, INTERESTING, INTERESTING, 12:22:24, 60000, 16

2330010, INTERESTING, INTERESTING, 9:22:24, 165000, 45

2430010, INTERESTING, INTERESTING, 19:22:24, 80000, 22

2460010, INTERESTING, INTERESTING, 2:22:24, 65000, 18

2470010, INTERESTING, INTERESTING, 0:22:24, 70000, 19

2480010, INTERESTING, INTERESTING, 4:22:24, 75000, 20

110010, EMPTY, EMPTY, 17:10:19:22:24, 2460000, 683

2560010, INTERESTING, INTERESTING, 14:19:22:24, 25000, 6

60010, EMPTY, EMPTY, 1:19:22:24, 2540000, 705

120010, EMPTY, EMPTY, 2:22:24, 2495000, 693

10, EMPTY, EMPTY, 8:22:24, 2630000, 730

170010, EMPTY, EMPTY, 0:22:24, 2475000, 687

190010, EMPTY, EMPTY, 13:22:24, 2470000, 686

2650010, INTERESTING, INTERESTING, 7:22:24, 25000, 6

2670010, INTERESTING, INTERESTING, 19:22:24, 20000, 5

140010, EMPTY, EMPTY, 16:12:22:24, 2565000, 712

2700010, INTERESTING, INTERESTING, 16:12:22:24, 20000, 5

2720010, INTERESTING, INTERESTING, 5:22:24, 15000, 4

210010, EMPTY, EMPTY, 13:22:24, 2540000, 705

170010, EMPTY, EMPTY, 16:12:22:24, 2595000, 720

120010, EMPTY, INTERESTING, 4:22:24, 2660000, 738

2770010, INTERESTING, INTERESTING, 15:19:22:24, 25000, 6

2770010, INTERESTING, INTERESTING, 11:22:24, 40000, 11

2800010, INTERESTING, INTERESTING, 0:22:24, 25000, 6

210010, EMPTY, EMPTY, 16:12:22:24, 2630000, 730

2830010, INTERESTING, INTERESTING, 3:22:24, 25000, 6

180010, EMPTY, EMPTY, 10:19:22:24, 2690000, 747

2740010, INTERESTING, INTERESTING, 1:19:22:24, 145000, 40

2860010, INTERESTING, INTERESTING, 1:19:22:24, 40000, 11

2890010, INTERESTING, INTERESTING, 10:19:22:24, 25000, 6

2900010, INTERESTING, INTERESTING, 12:22:24, 30000, 8

210010, EMPTY, EMPTY, 0:22:24, 2735000, 759

220010, EMPTY, EMPTY, 13:22:24, 2740000, 761

250010, EMPTY, EMPTY, 0:22:24, 2725000, 756

2920010, INTERESTING, INTERESTING, 12:22:24, 70000, 19

80010, EMPTY, EMPTY, 7:22:24, 2925000, 812

2990010, INTERESTING, EMPTY, 17:10:19:22:24, 30000, 8

2760010, INTERESTING, INTERESTING, 13:22:24, 275000, 76

3020010, INTERESTING, INTERESTING, 4:22:24, 30000, 8

3020010, INTERESTING, INTERESTING, 14:19:22:24, 45000, 12

3030010, INTERESTING, INTERESTING, 19:22:24, 50000, 13

3040010, INTERESTING, INTERESTING, 19:22:24, 55000, 15

3060010, INTERESTING, INTERESTING, 13:22:24, 50000, 13

3070010, INTERESTING, INTERESTING, 5:22:24, 55000, 15

3080010, INTERESTING, INTERESTING, 7:22:24, 60000, 16

3100010, INTERESTING, INTERESTING, 11:22:24, 55000, 15

3140010, INTERESTING, INTERESTING, 3:22:24, 30000, 8

3160010, INTERESTING, INTERESTING, 7:22:24, 25000, 6

3170010, INTERESTING, INTERESTING, 11:22:24, 30000, 8

3170010, INTERESTING, INTERESTING, 13:22:24, 45000, 12

3170010, INTERESTING, INTERESTING, 15:19:22:24, 60000, 16

130010, EMPTY, EMPTY, 18:22:24, 3115000, 865

240010, EMPTY, EMPTY, 12:22:24, 3020000, 838

280010, EMPTY, EMPTY, 12:22:24, 2995000, 831

3270010, INTERESTING, EMPTY, 8:22:24, 20000, 5

3270010, INTERESTING, INTERESTING, 15:19:22:24, 35000, 9

3280010, INTERESTING, INTERESTING, 14:19:22:24, 40000, 11

3270010, INTERESTING, INTERESTING, 3:22:24, 65000, 18

3140010, INTERESTING, INTERESTING, 6:10:19:22:24, 210000, 58

3260010, INTERESTING, INTERESTING, 7:22:24, 105000, 29

3290010, INTERESTING, INTERESTING, 8:22:24, 90000, 25

3320010, INTERESTING, INTERESTING, 16:12:22:24, 75000, 20

3340010, INTERESTING, INTERESTING, 17:10:19:22:24, 70000, 19

3340010, INTERESTING, EMPTY, 8:22:24, 85000, 23

3360010, INTERESTING, INTERESTING, 18:22:24, 80000, 22

3380010, INTERESTING, INTERESTING, 5:22:24, 75000, 20

3400010, INTERESTING, INTERESTING, 11:22:24, 70000, 19

210010, EMPTY, EMPTY, 14:19:22:24, 3275000, 909

3410010, INTERESTING, INTERESTING, 3:22:24, 90000, 25

210010, EMPTY, EMPTY, 8:22:24, 3305000, 918

270010, EMPTY, EMPTY, 18:22:24, 3260000, 905

3510010, INTERESTING, INTERESTING, 8:22:24, 35000, 9

3380010, INTERESTING, INTERESTING, 2:22:24, 180000, 50

3530010, INTERESTING, INTERESTING, 12:22:24, 45000, 12

3540010, INTERESTING, INTERESTING, 5:22:24, 50000, 13

3470010, INTERESTING, INTERESTING, 4:22:24, 135000, 37

290010, EMPTY, EMPTY, 18:22:24, 3330000, 925

260010, EMPTY, EMPTY, 13:22:24, 3375000, 937

3630010, INTERESTING, INTERESTING, 10:19:22:24, 20000, 5

220010, EMPTY, EMPTY, 16:12:22:24, 3445000, 956

3660010, INTERESTING, INTERESTING, 1:19:22:24, 20000, 5

160010, EMPTY, EMPTY, 5:22:24, 3535000, 981

310010, EMPTY, EMPTY, 5:22:24, 3400000, 944

3700010, INTERESTING, INTERESTING, 8:22:24, 25000, 6

3700010, INTERESTING, INTERESTING, 6:10:19:22:24, 40000, 11

3730010, INTERESTING, INTERESTING, 6:10:19:22:24, 25000, 6

3590010, INTERESTING, EMPTY, 4:22:24, 180000, 50

3560010, INTERESTING, INTERESTING, 3:22:24, 225000, 62

3660010, INTERESTING, INTERESTING, 14:19:22:24, 140000, 38

3750010, INTERESTING, INTERESTING, 0:22:24, 65000, 18

3780010, INTERESTING, INTERESTING, 8:22:24, 50000, 13

3610010, INTERESTING, INTERESTING, 12:22:24, 235000, 65

3810010, INTERESTING, INTERESTING, 9:22:24, 50000, 13

3820010, INTERESTING, INTERESTING, 13:22:24, 55000, 15

3830010, INTERESTING, INTERESTING, 12:22:24, 60000, 16

3760010, INTERESTING, EMPTY, 0:22:24, 145000, 40

3840010, INTERESTING, EMPTY, 16:12:22:24, 80000, 22

3840010, INTERESTING, EMPTY, 13:22:24, 95000, 26

3860010, INTERESTING, INTERESTING, 5:22:24, 90000, 25

3880010, INTERESTING, EMPTY, 0:22:24, 85000, 23

3890010, INTERESTING, INTERESTING, 10:19:22:24, 90000, 25

3930010, INTERESTING, INTERESTING, 13:22:24, 65000, 18

3940010, INTERESTING, INTERESTING, 16:12:22:24, 70000, 19

3960010, INTERESTING, INTERESTING, 17:10:19:22:24, 65000, 18

3970010, INTERESTING, INTERESTING, 19:22:24, 70000, 19

3970010, INTERESTING, INTERESTING, 14:19:22:24, 85000, 23

3980010, INTERESTING, INTERESTING, 10:19:22:24, 90000, 25

3990010, INTERESTING, INTERESTING, 7:22:24, 95000, 26

300010, EMPTY, EMPTY, 13:22:24, 3800000, 1055

170010, EMPTY, EMPTY, 17:10:19:22:24, 3945000, 1095

190010, EMPTY, EMPTY, 1:19:22:24, 3940000, 1094

270010, EMPTY, EMPTY, 0:22:24, 3875000, 1076

4140010, INTERESTING, INTERESTING, 6:10:19:22:24, 20000, 5

4160010, INTERESTING, INTERESTING, 18:22:24, 15000, 4

4160010, INTERESTING, INTERESTING, 19:22:24, 30000, 8

190010, EMPTY, EMPTY, 17:10:19:22:24, 4015000, 1115

280010, EMPTY, EMPTY, 17:10:19:22:24, 3940000, 1094

4210010, INTERESTING, INTERESTING, 19:22:24, 25000, 6

4070010, INTERESTING, INTERESTING, 13:22:24, 180000, 50

4210010, INTERESTING, INTERESTING, 2:22:24, 55000, 15

4240010, INTERESTING, INTERESTING, 14:19:22:24, 40000, 11

4130010, INTERESTING, INTERESTING, 8:22:24, 165000, 45

370010, EMPTY, EMPTY, 19:22:24, 3940000, 1094

4300010, INTERESTING, INTERESTING, 16:12:22:24, 25000, 6

4230010, INTERESTING, INTERESTING, 13:22:24, 110000, 30

4340010, INTERESTING, INTERESTING, 19:22:24, 15000, 4

4350010, INTERESTING, INTERESTING, 5:22:24, 20000, 5

4370010, INTERESTING, EMPTY, 13:22:24, 15000, 4

4370010, INTERESTING, INTERESTING, 17:10:19:22:24, 30000, 8

310010, EMPTY, EMPTY, 3:22:24, 4105000, 1140

330010, EMPTY, EMPTY, 5:22:24, 4100000, 1138

4430010, INTERESTING, EMPTY, 7:22:24, 15000, 4

340010, EMPTY, EMPTY, 7:22:24, 4120000, 1144

180010, EMPTY, EMPTY, 15:19:22:24, 4295000, 1193

4440010, INTERESTING, INTERESTING, 8:22:24, 50000, 13

390010, EMPTY, EMPTY, 19:22:24, 4115000, 1143

4490010, INTERESTING, INTERESTING, 16:12:22:24, 30000, 8

230010, EMPTY, EMPTY, 4:22:24, 4305000, 1195

4470010, INTERESTING, INTERESTING, 8:22:24, 80000, 22

4330010, INTERESTING, INTERESTING, 4:22:24, 235000, 65

4530010, INTERESTING, INTERESTING, 8:22:24, 50000, 13

4510010, INTERESTING, EMPTY, 16:12:22:24, 85000, 23

4570010, INTERESTING, INTERESTING, 5:22:24, 40000, 11

4570010, INTERESTING, INTERESTING, 9:22:24, 55000, 15

4570010, INTERESTING, INTERESTING, 11:22:24, 70000, 19

4580010, INTERESTING, INTERESTING, 10:19:22:24, 75000, 20

4610010, INTERESTING, INTERESTING, 19:22:24, 60000, 16

4630010, INTERESTING, EMPTY, 19:22:24, 55000, 15

4630010, INTERESTING, INTERESTING, 9:22:24, 70000, 19

4660010, INTERESTING, EMPTY, 4:22:24, 55000, 15

4670010, INTERESTING, INTERESTING, 12:22:24, 60000, 16

4650010, INTERESTING, INTERESTING, 0:22:24, 95000, 26

4670010, INTERESTING, INTERESTING, 13:22:24, 90000, 25

4690010, INTERESTING, INTERESTING, 13:22:24, 85000, 23

4700010, INTERESTING, INTERESTING, 1:19:22:24, 90000, 25

4710010, INTERESTING, EMPTY, 1:19:22:24, 95000, 26

4750010, INTERESTING, INTERESTING, 5:22:24, 70000, 19

4780010, INTERESTING, INTERESTING, 1:19:22:24, 55000, 15

4780010, INTERESTING, INTERESTING, 16:12:22:24, 70000, 19

4760010, INTERESTING, INTERESTING, 13:22:24, 105000, 29

4800010, INTERESTING, INTERESTING, 9:22:24, 80000, 22

200010, EMPTY, EMPTY, 6:10:19:22:24, 4695000, 1304

4830010, INTERESTING, INTERESTING, 1:19:22:24, 80000, 22

4910010, INTERESTING, INTERESTING, 0:22:24, 15000, 4

4910010, INTERESTING, EMPTY, 17:10:19:22:24, 30000, 8

390010, EMPTY, EMPTY, 3:22:24, 4565000, 1268

4900010, INTERESTING, INTERESTING, 2:22:24, 70000, 19

4950010, INTERESTING, INTERESTING, 18:22:24, 35000, 9

4950010, INTERESTING, INTERESTING, 9:22:24, 50000, 13

4960010, INTERESTING, INTERESTING, 1:19:22:24, 55000, 15

4970010, INTERESTING, INTERESTING, 1:19:22:24, 60000, 16

4870010, INTERESTING, INTERESTING, 4:22:24, 175000, 48

5000010, INTERESTING, INTERESTING, 19:22:24, 60000, 16

5050010, INTERESTING, EMPTY, 11:22:24, 25000, 6

160010, EMPTY, EMPTY, 11:22:24, 4930000, 1369

390010, EMPTY, EMPTY, 5:22:24, 4715000, 1309

400010, EMPTY, EMPTY, 19:22:24, 4720000, 1311

5060010, INTERESTING, INTERESTING, 2:22:24, 75000, 20

5110010, INTERESTING, INTERESTING, 17:10:19:22:24, 40000, 11

5120010, INTERESTING, INTERESTING, 7:22:24, 45000, 12

5150010, INTERESTING, INTERESTING, 10:19:22:24, 30000, 8

5150010, INTERESTING, INTERESTING, 16:12:22:24, 45000, 12

5180010, INTERESTING, INTERESTING, 12:22:24, 30000, 8

5180010, INTERESTING, INTERESTING, 18:22:24, 45000, 12

350010, EMPTY, EMPTY, 13:22:24, 4890000, 1358

5240010, INTERESTING, INTERESTING, 16:12:22:24, 15000, 4

360010, EMPTY, EMPTY, 6:10:19:22:24, 4910000, 1363

5260010, INTERESTING, INTERESTING, 13:22:24, 25000, 6

5280010, INTERESTING, INTERESTING, 12:22:24, 20000, 5

5290010, INTERESTING, INTERESTING, 18:22:24, 25000, 6

5290010, INTERESTING, INTERESTING, 1:19:22:24, 40000, 11

5290010, INTERESTING, INTERESTING, 17:10:19:22:24, 55000, 15

390010, EMPTY, EMPTY, 7:22:24, 4970000, 1380

410010, EMPTY, EMPTY, 10:19:22:24, 4965000, 1379

390010, EMPTY, EMPTY, 6:10:19:22:24, 5000000, 1388

350010, EMPTY, EMPTY, 1:19:22:24, 5055000, 1404

5390010, INTERESTING, INTERESTING, 0:22:24, 30000, 8

430010, EMPTY, EMPTY, 7:22:24, 5005000, 1390

440010, EMPTY, EMPTY, 7:22:24, 5010000, 1391

5420010, INTERESTING, INTERESTING, 19:22:24, 45000, 12

430010, EMPTY, EMPTY, 10:19:22:24, 5050000, 1402

5450010, INTERESTING, EMPTY, 7:22:24, 45000, 12

5470010, INTERESTING, INTERESTING, 2:22:24, 40000, 11

5490010, INTERESTING, INTERESTING, 8:22:24, 35000, 9

5510010, INTERESTING, INTERESTING, 7:22:24, 30000, 8

5520010, INTERESTING, INTERESTING, 9:22:24, 35000, 9

5510010, INTERESTING, INTERESTING, 17:10:19:22:24, 60000, 16

5540010, INTERESTING, INTERESTING, 1:19:22:24, 45000, 12

5560010, INTERESTING, INTERESTING, 9:22:24, 40000, 11

5590010, INTERESTING, INTERESTING, 13:22:24, 25000, 6

280010, EMPTY, EMPTY, 16:12:22:24, 5350000, 1486

5580010, INTERESTING, INTERESTING, 7:22:24, 65000, 18

5620010, INTERESTING, INTERESTING, 12:22:24, 40000, 11

5620010, INTERESTING, INTERESTING, 14:19:22:24, 55000, 15

5630010, INTERESTING, INTERESTING, 15:19:22:24, 60000, 16

5640010, INTERESTING, INTERESTING, 1:19:22:24, 65000, 18

5650010, INTERESTING, EMPTY, 5:22:24, 70000, 19

5620010, INTERESTING, EMPTY, 7:22:24, 115000, 31

5680010, INTERESTING, INTERESTING, 4:22:24, 70000, 19

5710010, INTERESTING, INTERESTING, 9:22:24, 55000, 15

5720010, INTERESTING, INTERESTING, 0:22:24, 60000, 16

5720010, INTERESTING, INTERESTING, 16:12:22:24, 75000, 20

5780010, INTERESTING, EMPTY, 4:22:24, 30000, 8

5800010, INTERESTING, INTERESTING, 17:10:19:22:24, 25000, 6

5820010, INTERESTING, INTERESTING, 11:22:24, 20000, 5

5840010, INTERESTING, INTERESTING, 3:22:24, 15000, 4

5820010, INTERESTING, INTERESTING, 1:19:22:24, 50000, 13

450010, EMPTY, EMPTY, 19:22:24, 5435000, 1509

5880010, INTERESTING, INTERESTING, 16:12:22:24, 20000, 5

360010, EMPTY, EMPTY, 0:22:24, 5555000, 1543

5850010, INTERESTING, EMPTY, 6:10:19:22:24, 80000, 22

340010, EMPTY, EMPTY, 8:22:24, 5605000, 1556

5940010, INTERESTING, INTERESTING, 13:22:24, 20000, 5

400010, EMPTY, EMPTY, 4:22:24, 5575000, 1548

450010, EMPTY, EMPTY, 13:22:24, 5540000, 1538

210010, EMPTY, EMPTY, 2:22:24, 5795000, 1609

410010, EMPTY, EMPTY, 5:22:24, 5610000, 1558

6010010, INTERESTING, INTERESTING, 18:22:24, 25000, 6

6020010, INTERESTING, INTERESTING, 15:19:22:24, 30000, 8

460010, EMPTY, EMPTY, 0:22:24, 5605000, 1556

420010, EMPTY, EMPTY, 6:10:19:22:24, 5660000, 1572

6080010, INTERESTING, INTERESTING, 9:22:24, 15000, 4

6080010, INTERESTING, INTERESTING, 14:19:22:24, 30000, 8

6100010, INTERESTING, INTERESTING, 1:19:22:24, 25000, 6

6110010, INTERESTING, EMPTY, 8:22:24, 30000, 8

350010, EMPTY, EMPTY, 17:10:19:22:24, 5805000, 1612

430010, EMPTY, EMPTY, 1:19:22:24, 5740000, 1594

170010, EMPTY, EMPTY, 9:22:24, 6015000, 1670

6170010, INTERESTING, INTERESTING, 10:19:22:24, 30000, 8

6180010, INTERESTING, INTERESTING, 16:12:22:24, 35000, 9

460010, EMPTY, EMPTY, 4:22:24, 5770000, 1602

6200010, INTERESTING, INTERESTING, 8:22:24, 45000, 12

6150010, INTERESTING, INTERESTING, 15:19:22:24, 110000, 30

6240010, INTERESTING, INTERESTING, 19:22:24, 35000, 9

6240010, INTERESTING, INTERESTING, 15:19:22:24, 50000, 13

6250010, INTERESTING, EMPTY, 6:10:19:22:24, 55000, 15

6300010, INTERESTING, INTERESTING, 12:22:24, 20000, 5

6220010, INTERESTING, EMPTY, 8:22:24, 115000, 31

6320010, INTERESTING, INTERESTING, 16:12:22:24, 30000, 8

6310010, INTERESTING, INTERESTING, 8:22:24, 55000, 15

6330010, INTERESTING, INTERESTING, 4:22:24, 50000, 13

6340010, INTERESTING, INTERESTING, 6:10:19:22:24, 55000, 15

460010, EMPTY, EMPTY, 13:22:24, 5950000, 1652

6410010, INTERESTING, EMPTY, 0:22:24, 15000, 4

400010, EMPTY, EMPTY, 3:22:24, 6040000, 1677

6400010, INTERESTING, INTERESTING, 2:22:24, 55000, 15

6340010, INTERESTING, INTERESTING, 8:22:24, 130000, 36

6440010, INTERESTING, INTERESTING, 14:19:22:24, 45000, 12

6470010, INTERESTING, INTERESTING, 12:22:24, 30000, 8

6500010, INTERESTING, EMPTY, 2:22:24, 15000, 4

6480010, INTERESTING, INTERESTING, 6:10:19:22:24, 50000, 13

6500010, INTERESTING, INTERESTING, 5:22:24, 45000, 12

6500010, INTERESTING, INTERESTING, 6:10:19:22:24, 60000, 16

6520010, INTERESTING, INTERESTING, 0:22:24, 55000, 15

6520010, INTERESTING, INTERESTING, 14:19:22:24, 70000, 19

6520010, INTERESTING, INTERESTING, 15:19:22:24, 85000, 23

6540010, INTERESTING, INTERESTING, 17:10:19:22:24, 80000, 22

6510010, INTERESTING, INTERESTING, 6:10:19:22:24, 125000, 34

6580010, INTERESTING, INTERESTING, 12:22:24, 70000, 19

6590010, INTERESTING, INTERESTING, 10:19:22:24, 75000, 20

6630010, INTERESTING, INTERESTING, 5:22:24, 50000, 13

6650010, INTERESTING, INTERESTING, 14:19:22:24, 45000, 12

6610010, INTERESTING, EMPTY, 6:10:19:22:24, 100000, 27

6660010, INTERESTING, INTERESTING, 11:22:24, 65000, 18

6700010, INTERESTING, INTERESTING, 6:10:19:22:24, 40000, 11

6730010, INTERESTING, INTERESTING, 19:22:24, 25000, 6

6730010, INTERESTING, INTERESTING, 17:10:19:22:24, 40000, 11

480010, EMPTY, EMPTY, 10:19:22:24, 6305000, 1751

430010, EMPTY, EMPTY, 6:10:19:22:24, 6370000, 1769

6780010, INTERESTING, INTERESTING, 18:22:24, 35000, 9

490010, EMPTY, EMPTY, 1:19:22:24, 6340000, 1761

530010, EMPTY, EMPTY, 19:22:24, 6315000, 1754

6770010, INTERESTING, INTERESTING, 12:22:24, 90000, 25

6860010, INTERESTING, INTERESTING, 13:22:24, 15000, 4

240010, EMPTY, EMPTY, 14:19:22:24, 6650000, 1847

460010, EMPTY, EMPTY, 8:22:24, 6445000, 1790

520010, EMPTY, EMPTY, 10:19:22:24, 6400000, 1777

480010, EMPTY, EMPTY, 0:22:24, 6455000, 1793

410010, EMPTY, EMPTY, 11:22:24, 6540000, 1816

510010, EMPTY, EMPTY, 4:22:24, 6455000, 1793

6900010, INTERESTING, INTERESTING, 14:19:22:24, 80000, 22

6970010, INTERESTING, INTERESTING, 0:22:24, 25000, 6

300010, EMPTY, EMPTY, 16:12:22:24, 6710000, 1863

550010, EMPTY, EMPTY, 19:22:24, 6475000, 1798

550010, EMPTY, EMPTY, 0:22:24, 6490000, 1802

7010010, INTERESTING, INTERESTING, 7:22:24, 45000, 12

7040010, INTERESTING, EMPTY, 2:22:24, 30000, 8

7050010, INTERESTING, INTERESTING, 17:10:19:22:24, 35000, 9

7070010, INTERESTING, INTERESTING, 7:22:24, 30000, 8

450010, EMPTY, EMPTY, 7:22:24, 6665000, 1851

550010, EMPTY, EMPTY, 18:22:24, 6580000, 1827

7090010, INTERESTING, INTERESTING, 8:22:24, 55000, 15

560010, EMPTY, EMPTY, 11:22:24, 6600000, 1833

7020010, INTERESTING, INTERESTING, 4:22:24, 155000, 43

7160010, INTERESTING, INTERESTING, 2:22:24, 30000, 8

7160010, INTERESTING, INTERESTING, 16:12:22:24, 45000, 12

7160010, INTERESTING, EMPTY, 6:10:19:22:24, 60000, 16

7200010, INTERESTING, EMPTY, 4:22:24, 35000, 9

7200010, INTERESTING, EMPTY, 9:22:24, 50000, 13

7210010, INTERESTING, INTERESTING, 8:22:24, 55000, 15

7220010, INTERESTING, INTERESTING, 19:22:24, 60000, 16

7230010, INTERESTING, EMPTY, 14:19:22:24, 65000, 18

7240010, INTERESTING, INTERESTING, 3:22:24, 70000, 19

7220010, INTERESTING, INTERESTING, 4:22:24, 105000, 29

7250010, INTERESTING, INTERESTING, 16:12:22:24, 90000, 25

7290010, INTERESTING, INTERESTING, 1:19:22:24, 65000, 18

7300010, INTERESTING, INTERESTING, 9:22:24, 70000, 19

7300010, INTERESTING, INTERESTING, 3:22:24, 85000, 23

7340010, INTERESTING, INTERESTING, 6:10:19:22:24, 60000, 16

7360010, INTERESTING, INTERESTING, 10:19:22:24, 55000, 15

7370010, INTERESTING, INTERESTING, 5:22:24, 60000, 16

7380010, INTERESTING, INTERESTING, 3:22:24, 65000, 18

7380010, INTERESTING, INTERESTING, 19:22:24, 80000, 22

7390010, INTERESTING, INTERESTING, 12:22:24, 85000, 23

7390010, INTERESTING, INTERESTING, 19:22:24, 100000, 27

7400010, INTERESTING, INTERESTING, 4:22:24, 105000, 29

7410010, INTERESTING, INTERESTING, 11:22:24, 110000, 30

7430010, INTERESTING, INTERESTING, 10:19:22:24, 105000, 29

7490010, INTERESTING, INTERESTING, 18:22:24, 60000, 16

7490010, INTERESTING, INTERESTING, 1:19:22:24, 75000, 20

7490010, INTERESTING, INTERESTING, 6:10:19:22:24, 90000, 25

7510010, INTERESTING, INTERESTING, 10:19:22:24, 85000, 23

7520010, INTERESTING, INTERESTING, 1:19:22:24, 90000, 25

7560010, INTERESTING, INTERESTING, 8:22:24, 65000, 18

7560010, INTERESTING, INTERESTING, 14:19:22:24, 80000, 22

7570010, INTERESTING, INTERESTING, 5:22:24, 85000, 23

7580010, INTERESTING, INTERESTING, 5:22:24, 90000, 25

7610010, INTERESTING, INTERESTING, 19:22:24, 75000, 20

7610010, INTERESTING, INTERESTING, 14:19:22:24, 90000, 25

7660010, INTERESTING, INTERESTING, 9:22:24, 55000, 15

7680010, INTERESTING, EMPTY, 13:22:24, 50000, 13

7690010, INTERESTING, INTERESTING, 9:22:24, 55000, 15

7700010, INTERESTING, EMPTY, 8:22:24, 60000, 16

520010, EMPTY, EMPTY, 3:22:24, 7255000, 2015

510010, EMPTY, EMPTY, 9:22:24, 7280000, 2022

580010, EMPTY, EMPTY, 3:22:24, 7225000, 2006

480010, EMPTY, EMPTY, 5:22:24, 7340000, 2038

490010, EMPTY, EMPTY, 6:10:19:22:24, 7345000, 2040

610010, EMPTY, EMPTY, 19:22:24, 7240000, 2011

7850010, INTERESTING, INTERESTING, 12:22:24, 15000, 4

7860010, INTERESTING, INTERESTING, 4:22:24, 20000, 5

600010, EMPTY, INTERESTING, 3:22:24, 7295000, 2026

580010, EMPTY, EMPTY, 11:22:24, 7330000, 2036

7890010, INTERESTING, INTERESTING, 0:22:24, 35000, 9

7910010, INTERESTING, INTERESTING, 7:22:24, 30000, 8

7690010, INTERESTING, INTERESTING, 13:22:24, 265000, 73

7930010, INTERESTING, INTERESTING, 18:22:24, 40000, 11

7930010, INTERESTING, INTERESTING, 14:19:22:24, 55000, 15

7940010, INTERESTING, INTERESTING, 7:22:24, 60000, 16

450010, EMPTY, EMPTY, 17:10:19:22:24, 7565000, 2101

7930010, INTERESTING, INTERESTING, 13:22:24, 100000, 27

8010010, INTERESTING, INTERESTING, 9:22:24, 35000, 9

8010010, INTERESTING, EMPTY, 6:10:19:22:24, 50000, 13

8010010, INTERESTING, INTERESTING, 3:22:24, 65000, 18

8030010, INTERESTING, INTERESTING, 3:22:24, 60000, 16

8040010, INTERESTING, INTERESTING, 4:22:24, 65000, 18

8040010, INTERESTING, INTERESTING, 11:22:24, 80000, 22

8070010, INTERESTING, INTERESTING, 12:22:24, 65000, 18

8080010, INTERESTING, EMPTY, 19:22:24, 70000, 19

8100010, INTERESTING, INTERESTING, 2:22:24, 65000, 18

8110010, INTERESTING, INTERESTING, 0:22:24, 70000, 19

570010, EMPTY, EMPTY, 18:22:24, 7625000, 2118

8160010, INTERESTING, INTERESTING, 19:22:24, 50000, 13

530010, EMPTY, EMPTY, 14:19:22:24, 7695000, 2137

8220010, INTERESTING, EMPTY, 7:22:24, 20000, 5

8200010, INTERESTING, INTERESTING, 10:19:22:24, 55000, 15

8220010, INTERESTING, EMPTY, 1:19:22:24, 50000, 13

8250010, INTERESTING, INTERESTING, 9:22:24, 35000, 9

8250010, INTERESTING, INTERESTING, 17:10:19:22:24, 50000, 13

8220010, INTERESTING, INTERESTING, 0:22:24, 95000, 26

8300010, INTERESTING, INTERESTING, 3:22:24, 30000, 8

8310010, INTERESTING, INTERESTING, 6:10:19:22:24, 35000, 9

8070010, INTERESTING, EMPTY, 11:22:24, 290000, 80

8270010, INTERESTING, INTERESTING, 12:22:24, 105000, 29

8320010, INTERESTING, EMPTY, 5:22:24, 70000, 19

8340010, INTERESTING, INTERESTING, 16:12:22:24, 65000, 18

8340010, INTERESTING, INTERESTING, 17:10:19:22:24, 80000, 22

8330010, INTERESTING, EMPTY, 8:22:24, 105000, 29

8370010, INTERESTING, INTERESTING, 14:19:22:24, 80000, 22

8400010, INTERESTING, INTERESTING, 17:10:19:22:24, 65000, 18

8460010, INTERESTING, INTERESTING, 1:19:22:24, 20000, 5

8480010, INTERESTING, INTERESTING, 19:22:24, 15000, 4

8490010, INTERESTING, INTERESTING, 14:19:22:24, 20000, 5

8490010, INTERESTING, INTERESTING, 6:10:19:22:24, 35000, 9

520010, EMPTY, EMPTY, 1:19:22:24, 8020000, 2227

8540010, INTERESTING, INTERESTING, 19:22:24, 15000, 4

8410010, INTERESTING, INTERESTING, 17:10:19:22:24, 160000, 44

8480010, INTERESTING, INTERESTING, 9:22:24, 105000, 29

610010, EMPTY, EMPTY, 5:22:24, 7990000, 2219

560010, EMPTY, EMPTY, 4:22:24, 8055000, 2237

580010, EMPTY, EMPTY, 17:10:19:22:24, 8050000, 2236

8550010, INTERESTING, INTERESTING, 17:10:19:22:24, 95000, 26

600010, EMPTY, EMPTY, 9:22:24, 8060000, 2238

570010, EMPTY, EMPTY, 7:22:24, 8105000, 2251

530010, EMPTY, EMPTY, 6:10:19:22:24, 8160000, 2266

640010, EMPTY, EMPTY, 5:22:24, 8065000, 2240

8690010, INTERESTING, INTERESTING, 15:19:22:24, 30000, 8

8700010, INTERESTING, INTERESTING, 3:22:24, 35000, 9

8710010, INTERESTING, INTERESTING, 12:22:24, 40000, 11

8730010, INTERESTING, INTERESTING, 14:19:22:24, 35000, 9

8720010, INTERESTING, INTERESTING, 12:22:24, 60000, 16

8760010, INTERESTING, INTERESTING, 2:22:24, 35000, 9

510010, EMPTY, EMPTY, 13:22:24, 8300000, 2305

630010, EMPTY, EMPTY, 6:10:19:22:24, 8195000, 2276

630010, EMPTY, EMPTY, 1:19:22:24, 8210000, 2280

8770010, INTERESTING, INTERESTING, 2:22:24, 85000, 23

660010, EMPTY, EMPTY, 5:22:24, 8210000, 2280

8860010, INTERESTING, EMPTY, 9:22:24, 25000, 6

620010, EMPTY, EMPTY, 14:19:22:24, 8280000, 2300

8890010, INTERESTING, INTERESTING, 15:19:22:24, 25000, 6

8900010, INTERESTING, INTERESTING, 19:22:24, 30000, 8

8780010, INTERESTING, INTERESTING, 5:22:24, 165000, 45

8890010, INTERESTING, INTERESTING, 6:10:19:22:24, 70000, 19

8920010, INTERESTING, INTERESTING, 9:22:24, 55000, 15

8940010, INTERESTING, INTERESTING, 6:10:19:22:24, 50000, 13

8910010, INTERESTING, INTERESTING, 11:22:24, 95000, 26

8950010, INTERESTING, INTERESTING, 15:19:22:24, 70000, 19

8960010, INTERESTING, INTERESTING, 19:22:24, 75000, 20

9000010, INTERESTING, INTERESTING, 17:10:19:22:24, 50000, 13

8950010, INTERESTING, INTERESTING, 0:22:24, 115000, 31

9050010, INTERESTING, INTERESTING, 0:22:24, 30000, 8

9060010, INTERESTING, INTERESTING, 18:22:24, 35000, 9

9090010, INTERESTING, INTERESTING, 13:22:24, 20000, 5

650010, EMPTY, EMPTY, 9:22:24, 8475000, 2354

9090010, INTERESTING, EMPTY, 18:22:24, 50000, 13

9120010, INTERESTING, INTERESTING, 15:19:22:24, 35000, 9

610010, EMPTY, EMPTY, 17:10:19:22:24, 8560000, 2377

640010, EMPTY, EMPTY, 6:10:19:22:24, 8545000, 2373

9050010, INTERESTING, INTERESTING, 8:22:24, 150000, 41

9140010, INTERESTING, INTERESTING, 6:10:19:22:24, 75000, 20

9200010, INTERESTING, INTERESTING, 15:19:22:24, 30000, 8

9210010, INTERESTING, INTERESTING, 8:22:24, 35000, 9

9160010, INTERESTING, INTERESTING, 17:10:19:22:24, 100000, 27

9210010, INTERESTING, INTERESTING, 9:22:24, 65000, 18

9150010, INTERESTING, EMPTY, 18:22:24, 140000, 38

9270010, INTERESTING, INTERESTING, 18:22:24, 35000, 9

9290010, INTERESTING, INTERESTING, 8:22:24, 30000, 8

8980010, INTERESTING, INTERESTING, 11:22:24, 355000, 98

9240010, INTERESTING, INTERESTING, 17:10:19:22:24, 110000, 30

9280010, INTERESTING, INTERESTING, 9:22:24, 85000, 23

9290010, INTERESTING, INTERESTING, 12:22:24, 90000, 25

9300010, INTERESTING, INTERESTING, 0:22:24, 95000, 26

9360010, INTERESTING, INTERESTING, 8:22:24, 50000, 13

620010, EMPTY, EMPTY, 11:22:24, 8805000, 2445

9420010, INTERESTING, INTERESTING, 2:22:24, 20000, 5

680010, EMPTY, EMPTY, 10:19:22:24, 8775000, 2437

670010, EMPTY, EMPTY, 6:10:19:22:24, 8800000, 2444

9410010, INTERESTING, INTERESTING, 9:22:24, 75000, 20

680010, EMPTY, EMPTY, 9:22:24, 8820000, 2450

570010, EMPTY, EMPTY, 0:22:24, 8945000, 2484

9310010, INTERESTING, INTERESTING, 11:22:24, 220000, 61

9420010, INTERESTING, INTERESTING, 1:19:22:24, 125000, 34

9510010, INTERESTING, EMPTY, 19:22:24, 50000, 13

9520010, INTERESTING, INTERESTING, 12:22:24, 55000, 15

9570010, INTERESTING, INTERESTING, 8:22:24, 20000, 5

610010, EMPTY, EMPTY, 8:22:24, 8995000, 2498

9560010, INTERESTING, EMPTY, 0:22:24, 60000, 16

9600010, INTERESTING, INTERESTING, 13:22:24, 35000, 9

9430010, INTERESTING, EMPTY, 6:10:19:22:24, 220000, 61

9460010, INTERESTING, INTERESTING, 7:22:24, 205000, 56

9630010, INTERESTING, INTERESTING, 1:19:22:24, 50000, 13

9640010, INTERESTING, EMPTY, 7:22:24, 55000, 15

9690010, INTERESTING, INTERESTING, 0:22:24, 20000, 5

9590010, INTERESTING, INTERESTING, 3:22:24, 135000, 37

9620010, INTERESTING, INTERESTING, 6:10:19:22:24, 120000, 33

9720010, INTERESTING, INTERESTING, 18:22:24, 35000, 9

9730010, INTERESTING, INTERESTING, 6:10:19:22:24, 40000, 11

9740010, INTERESTING, INTERESTING, 16:12:22:24, 45000, 12

9760010, INTERESTING, INTERESTING, 8:22:24, 40000, 11

700010, EMPTY, EMPTY, 19:22:24, 9115000, 2531

660010, EMPTY, EMPTY, 14:19:22:24, 9170000, 2547

9790010, INTERESTING, INTERESTING, 3:22:24, 55000, 15

9810010, INTERESTING, INTERESTING, 10:19:22:24, 50000, 13

9860010, INTERESTING, INTERESTING, 12:22:24, 15000, 4

660010, EMPTY, EMPTY, 13:22:24, 9230000, 2563

9880010, INTERESTING, INTERESTING, 2:22:24, 25000, 6

9880010, INTERESTING, INTERESTING, 4:22:24, 40000, 11

9920010, INTERESTING, INTERESTING, 0:22:24, 15000, 4

370010, EMPTY, EMPTY, 15:19:22:24, 9580000, 2661

9940010, INTERESTING, INTERESTING, 2:22:24, 25000, 6

650010, EMPTY, EMPTY, 7:22:24, 9330000, 2591

9970010, INTERESTING, INTERESTING, 16:12:22:24, 25000, 6

680010, EMPTY, EMPTY, 6:10:19:22:24, 9330000, 2591

640010, EMPTY, INTERESTING, 4:22:24, 9385000, 2606

10020010, INTERESTING, INTERESTING, 6:10:19:22:24, 20000, 5

9920010, INTERESTING, INTERESTING, 14:19:22:24, 135000, 37

10050010, INTERESTING, INTERESTING, 18:22:24, 20000, 5

10060010, INTERESTING, INTERESTING, 18:22:24, 25000, 6

750010, EMPTY, EMPTY, 19:22:24, 9350000, 2597

650010, EMPTY, EMPTY, 17:10:19:22:24, 9465000, 2629

660010, EMPTY, EMPTY, 1:19:22:24, 9470000, 2630

10120010, INTERESTING, INTERESTING, 5:22:24, 25000, 6

750010, EMPTY, EMPTY, 7:22:24, 9410000, 2613

560010, EMPTY, EMPTY, 12:22:24, 9615000, 2670

10170010, INTERESTING, INTERESTING, 18:22:24, 20000, 5

10180010, INTERESTING, INTERESTING, 12:22:24, 25000, 6

750010, EMPTY, EMPTY, 10:19:22:24, 9470000, 2630

10210010, INTERESTING, INTERESTING, 0:22:24, 25000, 6

770010, EMPTY, EMPTY, 12:22:24, 9480000, 2633

720010, EMPTY, EMPTY, 15:19:22:24, 9545000, 2651

10260010, INTERESTING, INTERESTING, 19:22:24, 20000, 5

10270010, INTERESTING, INTERESTING, 0:22:24, 25000, 6

720010, EMPTY, EMPTY, 14:19:22:24, 9590000, 2663

9990010, INTERESTING, INTERESTING, 17:10:19:22:24, 335000, 93

10280010, INTERESTING, INTERESTING, 4:22:24, 60000, 16

10320010, INTERESTING, EMPTY, 10:19:22:24, 35000, 9

10350010, INTERESTING, INTERESTING, 5:22:24, 20000, 5

10360010, INTERESTING, INTERESTING, 19:22:24, 25000, 6

10370010, INTERESTING, INTERESTING, 12:22:24, 30000, 8

450010, EMPTY, EMPTY, 16:12:22:24, 9965000, 2768

10400010, INTERESTING, INTERESTING, 17:10:19:22:24, 30000, 8

630010, EMPTY, EMPTY, 18:22:24, 9815000, 2726

10440010, INTERESTING, EMPTY, 13:22:24, 20000, 5

700010, EMPTY, EMPTY, 5:22:24, 9775000, 2715

10470010, INTERESTING, INTERESTING, 11:22:24, 20000, 5

10470010, INTERESTING, INTERESTING, 18:22:24, 35000, 9

790010, EMPTY, EMPTY, 12:22:24, 9730000, 2702

10510010, INTERESTING, INTERESTING, 7:22:24, 25000, 6

10330010, INTERESTING, INTERESTING, 6:10:19:22:24, 220000, 61

10530010, INTERESTING, INTERESTING, 0:22:24, 35000, 9

10460010, INTERESTING, INTERESTING, 17:10:19:22:24, 120000, 33

10550010, INTERESTING, INTERESTING, 1:19:22:24, 45000, 12

10570010, INTERESTING, INTERESTING, 12:22:24, 40000, 11

10580010, INTERESTING, INTERESTING, 19:22:24, 45000, 12

10580010, INTERESTING, EMPTY, 4:22:24, 60000, 16

10590010, INTERESTING, INTERESTING, 18:22:24, 65000, 18

10600010, INTERESTING, INTERESTING, 9:22:24, 70000, 19

10620010, INTERESTING, INTERESTING, 11:22:24, 65000, 18

10620010, INTERESTING, EMPTY, 4:22:24, 80000, 22

10640010, INTERESTING, INTERESTING, 18:22:24, 75000, 20

10660010, INTERESTING, INTERESTING, 18:22:24, 70000, 19

10700010, INTERESTING, INTERESTING, 12:22:24, 45000, 12

10700010, INTERESTING, INTERESTING, 6:10:19:22:24, 60000, 16

10720010, INTERESTING, INTERESTING, 3:22:24, 55000, 15

10730010, INTERESTING, INTERESTING, 18:22:24, 60000, 16

10750010, INTERESTING, INTERESTING, 7:22:24, 55000, 15

10750010, INTERESTING, INTERESTING, 16:12:22:24, 70000, 19

10740010, INTERESTING, EMPTY, 17:10:19:22:24, 95000, 26

10760010, INTERESTING, EMPTY, 6:10:19:22:24, 90000, 25

10770010, INTERESTING, INTERESTING, 3:22:24, 95000, 26

10770010, INTERESTING, EMPTY, 15:19:22:24, 110000, 30

10780010, INTERESTING, EMPTY, 4:22:24, 115000, 31

10620010, INTERESTING, INTERESTING, 9:22:24, 290000, 80

10800010, INTERESTING, INTERESTING, 11:22:24, 125000, 34

10830010, INTERESTING, INTERESTING, 18:22:24, 110000, 30

10870010, INTERESTING, INTERESTING, 2:22:24, 85000, 23

10940010, INTERESTING, INTERESTING, 19:22:24, 30000, 8

10850010, INTERESTING, INTERESTING, 8:22:24, 135000, 37

10910010, INTERESTING, INTERESTING, 4:22:24, 90000, 25

10930010, INTERESTING, INTERESTING, 7:22:24, 85000, 23

10950010, INTERESTING, INTERESTING, 9:22:24, 80000, 22

750010, EMPTY, EMPTY, 1:19:22:24, 10295000, 2859

11040010, INTERESTING, EMPTY, 5:22:24, 20000, 5

11050010, INTERESTING, INTERESTING, 6:10:19:22:24, 25000, 6

800010, EMPTY, INTERESTING, 5:22:24, 10290000, 2858

620010, EMPTY, EMPTY, 3:22:24, 10485000, 2912

11060010, INTERESTING, INTERESTING, 14:19:22:24, 60000, 16

11080010, INTERESTING, INTERESTING, 15:19:22:24, 55000, 15

11100010, INTERESTING, EMPTY, 2:22:24, 50000, 13

11120010, INTERESTING, INTERESTING, 5:22:24, 45000, 12

11140010, INTERESTING, INTERESTING, 10:19:22:24, 40000, 11

11160010, INTERESTING, INTERESTING, 12:22:24, 35000, 9

690010, EMPTY, EMPTY, 6:10:19:22:24, 10520000, 2922

11190010, INTERESTING, INTERESTING, 12:22:24, 35000, 9

11200010, INTERESTING, INTERESTING, 19:22:24, 40000, 11

11220010, INTERESTING, INTERESTING, 5:22:24, 35000, 9

780010, EMPTY, EMPTY, 14:19:22:24, 10490000, 2913

750010, EMPTY, EMPTY, 6:10:19:22:24, 10535000, 2926

710010, EMPTY, EMPTY, 8:22:24, 10590000, 2941

810010, EMPTY, EMPTY, 3:22:24, 10505000, 2918

11310010, INTERESTING, INTERESTING, 13:22:24, 20000, 5

11320010, INTERESTING, INTERESTING, 9:22:24, 25000, 6

11320010, INTERESTING, INTERESTING, 6:10:19:22:24, 40000, 11

11230010, INTERESTING, INTERESTING, 14:19:22:24, 145000, 40

11360010, INTERESTING, INTERESTING, 19:22:24, 30000, 8

800010, EMPTY, EMPTY, 18:22:24, 10605000, 2945

810010, EMPTY, EMPTY, 14:19:22:24, 10610000, 2947

11410010, INTERESTING, INTERESTING, 7:22:24, 25000, 6

11430010, INTERESTING, EMPTY, 11:22:24, 20000, 5

11430010, INTERESTING, INTERESTING, 1:19:22:24, 35000, 9

11450010, INTERESTING, INTERESTING, 5:22:24, 30000, 8

740010, EMPTY, EMPTY, 17:10:19:22:24, 10755000, 2987

760010, EMPTY, EMPTY, 7:22:24, 10750000, 2986

830010, EMPTY, EMPTY, 10:19:22:24, 10695000, 2970

750010, EMPTY, EMPTY, 4:22:24, 10790000, 2997

11520010, INTERESTING, INTERESTING, 12:22:24, 35000, 9

11540010, INTERESTING, INTERESTING, 19:22:24, 30000, 8

11540010, INTERESTING, INTERESTING, 15:19:22:24, 45000, 12

11570010, INTERESTING, INTERESTING, 9:22:24, 30000, 8

11600010, INTERESTING, INTERESTING, 7:22:24, 15000, 4

11600010, INTERESTING, INTERESTING, 9:22:24, 30000, 8

570010, EMPTY, EMPTY, 2:22:24, 11075000, 3076

11630010, INTERESTING, INTERESTING, 10:19:22:24, 30000, 8

11630010, INTERESTING, INTERESTING, 7:22:24, 45000, 12

11640010, INTERESTING, INTERESTING, 4:22:24, 50000, 13

11640010, INTERESTING, INTERESTING, 12:22:24, 65000, 18

11640010, INTERESTING, INTERESTING, 14:19:22:24, 80000, 22

11680010, INTERESTING, INTERESTING, 19:22:24, 55000, 15

11660010, INTERESTING, INTERESTING, 16:12:22:24, 90000, 25

11690010, INTERESTING, INTERESTING, 11:22:24, 75000, 20

11690010, INTERESTING, INTERESTING, 19:22:24, 90000, 25

11750010, INTERESTING, INTERESTING, 8:22:24, 45000, 12

11770010, INTERESTING, EMPTY, 0:22:24, 40000, 11

11790010, INTERESTING, INTERESTING, 8:22:24, 35000, 9

11800010, INTERESTING, INTERESTING, 1:19:22:24, 40000, 11

11830010, INTERESTING, INTERESTING, 19:22:24, 25000, 6

11830010, INTERESTING, INTERESTING, 17:10:19:22:24, 40000, 11

11850010, INTERESTING, INTERESTING, 9:22:24, 35000, 9

11860010, INTERESTING, INTERESTING, 14:19:22:24, 40000, 11

11860010, INTERESTING, INTERESTING, 17:10:19:22:24, 55000, 15

11910010, INTERESTING, INTERESTING, 0:22:24, 20000, 5

810010, EMPTY, EMPTY, 17:10:19:22:24, 11135000, 3093

690010, EMPTY, EMPTY, 11:22:24, 11270000, 3130

810010, EMPTY, EMPTY, 5:22:24, 11165000, 3101

11950010, INTERESTING, INTERESTING, 11:22:24, 40000, 11

730010, EMPTY, EMPTY, 13:22:24, 11275000, 3131

800010, EMPTY, EMPTY, 12:22:24, 11220000, 3116

12000010, INTERESTING, INTERESTING, 6:10:19:22:24, 35000, 9

12010010, INTERESTING, INTERESTING, 16:12:22:24, 40000, 11

12030010, INTERESTING, INTERESTING, 18:22:24, 35000, 9

12050010, INTERESTING, INTERESTING, 6:10:19:22:24, 30000, 8

12060010, INTERESTING, INTERESTING, 19:22:24, 35000, 9

12060010, INTERESTING, INTERESTING, 0:22:24, 50000, 13

11830010, INTERESTING, INTERESTING, 3:22:24, 295000, 81

12060010, INTERESTING, INTERESTING, 15:19:22:24, 80000, 22

12080010, INTERESTING, INTERESTING, 5:22:24, 75000, 20

12150010, INTERESTING, INTERESTING, 7:22:24, 20000, 5

860010, EMPTY, EMPTY, 19:22:24, 11325000, 3145

12170010, INTERESTING, INTERESTING, 10:19:22:24, 30000, 8

830010, EMPTY, EMPTY, 17:10:19:22:24, 11385000, 3162

12170010, INTERESTING, INTERESTING, 17:10:19:22:24, 60000, 16

12190010, INTERESTING, INTERESTING, 16:12:22:24, 55000, 15

12210010, INTERESTING, EMPTY, 8:22:24, 50000, 13

12210010, INTERESTING, INTERESTING, 17:10:19:22:24, 65000, 18

12260010, INTERESTING, INTERESTING, 15:19:22:24, 30000, 8

860010, EMPTY, EMPTY, 11:22:24, 11445000, 3179

860010, EMPTY, EMPTY, 5:22:24, 11460000, 3183

12310010, INTERESTING, EMPTY, 3:22:24, 25000, 6

860010, EMPTY, EMPTY, 10:19:22:24, 11490000, 3191

12350010, INTERESTING, EMPTY, 13:22:24, 15000, 4

12350010, INTERESTING, INTERESTING, 10:19:22:24, 30000, 8

12370010, INTERESTING, INTERESTING, 1:19:22:24, 25000, 6

12220010, INTERESTING, INTERESTING, 8:22:24, 190000, 52

12380010, INTERESTING, INTERESTING, 10:19:22:24, 45000, 12

12380010, INTERESTING, INTERESTING, 17:10:19:22:24, 60000, 16

12260010, INTERESTING, INTERESTING, 12:22:24, 195000, 54

12390010, INTERESTING, INTERESTING, 9:22:24, 80000, 22

12380010, INTERESTING, INTERESTING, 18:22:24, 105000, 29

12360010, INTERESTING, INTERESTING, 6:10:19:22:24, 140000, 38

12400010, INTERESTING, INTERESTING, 3:22:24, 115000, 31

12400010, INTERESTING, INTERESTING, 14:19:22:24, 130000, 36

12400010, INTERESTING, INTERESTING, 9:22:24, 145000, 40

12420010, INTERESTING, INTERESTING, 13:22:24, 140000, 38

12440010, INTERESTING, INTERESTING, 5:22:24, 135000, 37

12460010, INTERESTING, INTERESTING, 10:19:22:24, 130000, 36

12470010, INTERESTING, INTERESTING, 6:10:19:22:24, 135000, 37

12480010, INTERESTING, INTERESTING, 17:10:19:22:24, 140000, 38

12490010, INTERESTING, INTERESTING, 5:22:24, 145000, 40

12520010, INTERESTING, INTERESTING, 7:22:24, 130000, 36

12540010, INTERESTING, INTERESTING, 10:19:22:24, 125000, 34

12570010, INTERESTING, EMPTY, 11:22:24, 110000, 30

12610010, INTERESTING, INTERESTING, 9:22:24, 85000, 23

12620010, INTERESTING, INTERESTING, 3:22:24, 90000, 25

12620010, INTERESTING, INTERESTING, 10:19:22:24, 105000, 29

12630010, INTERESTING, EMPTY, 13:22:24, 110000, 30

12650010, INTERESTING, INTERESTING, 15:19:22:24, 105000, 29

12670010, INTERESTING, INTERESTING, 7:22:24, 100000, 27

12690010, INTERESTING, INTERESTING, 0:22:24, 95000, 26

12690010, INTERESTING, INTERESTING, 11:22:24, 110000, 30

12720010, INTERESTING, INTERESTING, 4:22:24, 95000, 26

12730010, INTERESTING, INTERESTING, 2:22:24, 100000, 27

12730010, INTERESTING, INTERESTING, 11:22:24, 115000, 31

12740010, INTERESTING, EMPTY, 0:22:24, 120000, 33

840010, EMPTY, EMPTY, 7:22:24, 12035000, 3343

12860010, INTERESTING, INTERESTING, 17:10:19:22:24, 30000, 8

12870010, INTERESTING, INTERESTING, 0:22:24, 35000, 9

12870010, INTERESTING, EMPTY, 9:22:24, 50000, 13

12900010, INTERESTING, INTERESTING, 7:22:24, 35000, 9

12900010, INTERESTING, INTERESTING, 14:19:22:24, 50000, 13

12900010, INTERESTING, INTERESTING, 0:22:24, 65000, 18

12930010, INTERESTING, INTERESTING, 15:19:22:24, 50000, 13

12940010, INTERESTING, INTERESTING, 9:22:24, 55000, 15

12940010, INTERESTING, INTERESTING, 10:19:22:24, 70000, 19

12970010, INTERESTING, INTERESTING, 18:22:24, 55000, 15

13000010, INTERESTING, INTERESTING, 17:10:19:22:24, 40000, 11

13030010, INTERESTING, EMPTY, 3:22:24, 25000, 6

820010, EMPTY, EMPTY, 14:19:22:24, 12250000, 3402

860010, EMPTY, EMPTY, 13:22:24, 12225000, 3395

13020010, INTERESTING, INTERESTING, 17:10:19:22:24, 80000, 22

13080010, INTERESTING, INTERESTING, 0:22:24, 35000, 9

13100010, INTERESTING, INTERESTING, 2:22:24, 30000, 8

13110010, INTERESTING, INTERESTING, 12:22:24, 35000, 9

13120010, INTERESTING, INTERESTING, 5:22:24, 40000, 11

13150010, INTERESTING, INTERESTING, 15:19:22:24, 25000, 6

13160010, INTERESTING, INTERESTING, 8:22:24, 30000, 8

800010, EMPTY, EMPTY, 6:10:19:22:24, 12405000, 3445

13130010, INTERESTING, INTERESTING, 4:22:24, 90000, 25

13180010, INTERESTING, INTERESTING, 10:19:22:24, 55000, 15

13190010, INTERESTING, INTERESTING, 17:10:19:22:24, 60000, 16

13200010, INTERESTING, INTERESTING, 10:19:22:24, 65000, 18

13220010, INTERESTING, EMPTY, 5:22:24, 60000, 16

13250010, INTERESTING, INTERESTING, 17:10:19:22:24, 45000, 12

850010, EMPTY, EMPTY, 4:22:24, 12460000, 3461

900010, EMPTY, EMPTY, 13:22:24, 12425000, 3451

13200010, INTERESTING, INTERESTING, 4:22:24, 140000, 38

13330010, INTERESTING, INTERESTING, 10:19:22:24, 25000, 6

830010, EMPTY, EMPTY, 18:22:24, 12540000, 3483

13370010, INTERESTING, INTERESTING, 12:22:24, 15000, 4

13380010, INTERESTING, INTERESTING, 18:22:24, 20000, 5

13320010, INTERESTING, INTERESTING, 13:22:24, 95000, 26

830010, EMPTY, EMPTY, 3:22:24, 12600000, 3500

13360010, INTERESTING, INTERESTING, 5:22:24, 85000, 23

850010, EMPTY, EMPTY, 2:22:24, 12610000, 3502

13460010, INTERESTING, INTERESTING, 0:22:24, 15000, 4

910010, EMPTY, EMPTY, 13:22:24, 12580000, 3494

13400010, INTERESTING, EMPTY, 13:22:24, 105000, 29

13490010, INTERESTING, INTERESTING, 2:22:24, 30000, 8

13490010, INTERESTING, INTERESTING, 0:22:24, 45000, 12

13490010, INTERESTING, INTERESTING, 16:12:22:24, 60000, 16

770010, EMPTY, EMPTY, 15:19:22:24, 12795000, 3554

920010, EMPTY, EMPTY, 18:22:24, 12660000, 3516

13320010, INTERESTING, INTERESTING, 4:22:24, 275000, 76

13550010, INTERESTING, INTERESTING, 12:22:24, 60000, 16

13580010, INTERESTING, INTERESTING, 12:22:24, 45000, 12

13590010, INTERESTING, INTERESTING, 14:19:22:24, 50000, 13

13560010, INTERESTING, INTERESTING, 7:22:24, 95000, 26

13580010, INTERESTING, INTERESTING, 15:19:22:24, 90000, 25

13630010, INTERESTING, INTERESTING, 19:22:24, 55000, 15

13630010, INTERESTING, INTERESTING, 15:19:22:24, 70000, 19

13650010, INTERESTING, INTERESTING, 12:22:24, 65000, 18

13710010, INTERESTING, INTERESTING, 13:22:24, 20000, 5

13700010, INTERESTING, INTERESTING, 0:22:24, 45000, 12

13710010, INTERESTING, EMPTY, 9:22:24, 50000, 13

13720010, INTERESTING, INTERESTING, 10:19:22:24, 55000, 15

13740010, INTERESTING, INTERESTING, 1:19:22:24, 50000, 13

13770010, INTERESTING, EMPTY, 16:12:22:24, 35000, 9

13780010, INTERESTING, INTERESTING, 7:22:24, 40000, 11

13800010, INTERESTING, INTERESTING, 11:22:24, 35000, 9

13730010, INTERESTING, INTERESTING, 14:19:22:24, 120000, 33

13770010, INTERESTING, INTERESTING, 6:10:19:22:24, 95000, 26

970010, EMPTY, EMPTY, 19:22:24, 12910000, 3586

13790010, INTERESTING, INTERESTING, 3:22:24, 105000, 29

13870010, INTERESTING, INTERESTING, 13:22:24, 40000, 11

13870010, INTERESTING, INTERESTING, 19:22:24, 55000, 15

13890010, INTERESTING, INTERESTING, 18:22:24, 50000, 13

13920010, INTERESTING, INTERESTING, 13:22:24, 35000, 9

13940010, INTERESTING, INTERESTING, 19:22:24, 30000, 8

13940010, INTERESTING, INTERESTING, 15:19:22:24, 45000, 12

13820010, INTERESTING, INTERESTING, 1:19:22:24, 180000, 50

13970010, INTERESTING, INTERESTING, 13:22:24, 45000, 12

13970010, INTERESTING, INTERESTING, 16:12:22:24, 60000, 16

13980010, INTERESTING, INTERESTING, 13:22:24, 65000, 18

14010010, INTERESTING, INTERESTING, 3:22:24, 50000, 13

940010, EMPTY, EMPTY, 2:22:24, 13135000, 3648

13970010, INTERESTING, INTERESTING, 4:22:24, 120000, 33

14000010, INTERESTING, INTERESTING, 7:22:24, 105000, 29

14100010, INTERESTING, INTERESTING, 15:19:22:24, 20000, 5

14100010, INTERESTING, INTERESTING, 14:19:22:24, 35000, 9

14100010, INTERESTING, INTERESTING, 17:10:19:22:24, 50000, 13

13880010, INTERESTING, INTERESTING, 0:22:24, 285000, 79

14140010, INTERESTING, INTERESTING, 17:10:19:22:24, 40000, 11

14150010, INTERESTING, INTERESTING, 10:19:22:24, 45000, 12

14180010, INTERESTING, INTERESTING, 11:22:24, 30000, 8

14110010, INTERESTING, INTERESTING, 9:22:24, 115000, 31

14130010, INTERESTING, INTERESTING, 6:10:19:22:24, 110000, 30

14210010, INTERESTING, EMPTY, 2:22:24, 45000, 12

14220010, INTERESTING, INTERESTING, 11:22:24, 50000, 13

14220010, INTERESTING, INTERESTING, 6:10:19:22:24, 65000, 18

14230010, INTERESTING, INTERESTING, 2:22:24, 70000, 19

14270010, INTERESTING, INTERESTING, 19:22:24, 45000, 12

14250010, INTERESTING, EMPTY, 6:10:19:22:24, 80000, 22

950010, EMPTY, EMPTY, 4:22:24, 13395000, 3720

14340010, INTERESTING, INTERESTING, 0:22:24, 20000, 5

14300010, INTERESTING, INTERESTING, 10:19:22:24, 75000, 20

14340010, INTERESTING, INTERESTING, 12:22:24, 50000, 13

14340010, INTERESTING, EMPTY, 19:22:24, 65000, 18

14350010, INTERESTING, INTERESTING, 4:22:24, 70000, 19

14360010, INTERESTING, EMPTY, 3:22:24, 75000, 20

14360010, INTERESTING, INTERESTING, 16:12:22:24, 90000, 25

14380010, INTERESTING, EMPTY, 14:19:22:24, 85000, 23

14380010, INTERESTING, INTERESTING, 16:12:22:24, 100000, 27

14410010, INTERESTING, INTERESTING, 19:22:24, 85000, 23

14410010, INTERESTING, INTERESTING, 1:19:22:24, 100000, 27

14490010, INTERESTING, INTERESTING, 1:19:22:24, 35000, 9

930010, EMPTY, EMPTY, 3:22:24, 13610000, 3780

14540010, INTERESTING, INTERESTING, 19:22:24, 15000, 4

830010, EMPTY, EMPTY, 8:22:24, 13740000, 3816

890010, EMPTY, EMPTY, 7:22:24, 13695000, 3804

14570010, INTERESTING, EMPTY, 6:10:19:22:24, 30000, 8

14580010, INTERESTING, EMPTY, 18:22:24, 35000, 9

14580010, INTERESTING, INTERESTING, 6:10:19:22:24, 50000, 13

700010, EMPTY, EMPTY, 9:22:24, 13945000, 3873

14560010, INTERESTING, INTERESTING, 1:19:22:24, 100000, 27

14650010, INTERESTING, INTERESTING, 19:22:24, 25000, 6

880010, EMPTY, EMPTY, 14:19:22:24, 13810000, 3836

970010, EMPTY, EMPTY, 14:19:22:24, 13735000, 3815

970010, EMPTY, EMPTY, 18:22:24, 13750000, 3819

14710010, INTERESTING, INTERESTING, 12:22:24, 25000, 6

14730010, INTERESTING, INTERESTING, 6:10:19:22:24, 20000, 5

990010, EMPTY, EMPTY, 7:22:24, 13775000, 3826

840010, EMPTY, EMPTY, 17:10:19:22:24, 13940000, 3872

14680010, INTERESTING, INTERESTING, 15:19:22:24, 115000, 31

14760010, INTERESTING, INTERESTING, 16:12:22:24, 50000, 13

14790010, INTERESTING, INTERESTING, 8:22:24, 35000, 9

14790010, INTERESTING, EMPTY, 3:22:24, 50000, 13

14770010, INTERESTING, INTERESTING, 17:10:19:22:24, 85000, 23

14820010, INTERESTING, INTERESTING, 4:22:24, 50000, 13

14830010, INTERESTING, INTERESTING, 11:22:24, 55000, 15

14850010, INTERESTING, INTERESTING, 9:22:24, 50000, 13

14850010, INTERESTING, INTERESTING, 4:22:24, 65000, 18

14910010, INTERESTING, INTERESTING, 9:22:24, 20000, 5

990010, EMPTY, EMPTY, 9:22:24, 13955000, 3876

14940010, INTERESTING, INTERESTING, 11:22:24, 20000, 5

14940010, INTERESTING, INTERESTING, 19:22:24, 35000, 9

14950010, INTERESTING, INTERESTING, 4:22:24, 40000, 11

14950010, INTERESTING, INTERESTING, 19:22:24, 55000, 15

700010, EMPTY, EMPTY, 0:22:24, 14320000, 3977

15010010, INTERESTING, INTERESTING, 14:19:22:24, 25000, 6

15020010, INTERESTING, INTERESTING, 9:22:24, 30000, 8

15040010, INTERESTING, INTERESTING, 7:22:24, 25000, 6

15060010, INTERESTING, INTERESTING, 11:22:24, 20000, 5

980010, EMPTY, INTERESTING, 2:22:24, 14115000, 3920

990010, EMPTY, EMPTY, 10:19:22:24, 14120000, 3922

980010, EMPTY, EMPTY, 4:22:24, 14145000, 3929

15120010, INTERESTING, INTERESTING, 18:22:24, 20000, 5

15060010, INTERESTING, INTERESTING, 4:22:24, 95000, 26

15120010, INTERESTING, INTERESTING, 6:10:19:22:24, 50000, 13

15140010, INTERESTING, INTERESTING, 7:22:24, 45000, 12

15160010, INTERESTING, INTERESTING, 0:22:24, 40000, 11

15180010, INTERESTING, INTERESTING, 18:22:24, 35000, 9

15210010, INTERESTING, INTERESTING, 10:19:22:24, 20000, 5

990010, EMPTY, EMPTY, 14:19:22:24, 14255000, 3959

15240010, INTERESTING, INTERESTING, 14:19:22:24, 20000, 5

15250010, INTERESTING, INTERESTING, 11:22:24, 25000, 6

15260010, INTERESTING, INTERESTING, 3:22:24, 30000, 8

15280010, INTERESTING, EMPTY, 3:22:24, 25000, 6

15300010, INTERESTING, INTERESTING, 18:22:24, 20000, 5

15300010, INTERESTING, INTERESTING, 16:12:22:24, 35000, 9

15310010, INTERESTING, INTERESTING, 1:19:22:24, 40000, 11

15280010, INTERESTING, INTERESTING, 7:22:24, 85000, 23

15320010, INTERESTING, INTERESTING, 9:22:24, 60000, 16

15330010, INTERESTING, INTERESTING, 11:22:24, 65000, 18

15350010, INTERESTING, INTERESTING, 0:22:24, 60000, 16

15400010, INTERESTING, INTERESTING, 10:19:22:24, 25000, 6

15400010, INTERESTING, EMPTY, 11:22:24, 40000, 11

15410010, INTERESTING, INTERESTING, 8:22:24, 45000, 12

15420010, INTERESTING, INTERESTING, 1:19:22:24, 50000, 13

15430010, INTERESTING, INTERESTING, 10:19:22:24, 55000, 15

15440010, INTERESTING, INTERESTING, 5:22:24, 60000, 16

15460010, INTERESTING, INTERESTING, 11:22:24, 55000, 15

15460010, INTERESTING, INTERESTING, 15:19:22:24, 70000, 19

15460010, INTERESTING, INTERESTING, 10:19:22:24, 85000, 23

