DWC_ID, Processed Contents, Actual Contents, Route, Total_Trans_Time, Trans_Time_Hours 
10, EMPTY, EMPTY, 5:23:24, 107000, 29

200010, EMPTY, EMPTY, 6:23:24, 105000, 29

10, EMPTY, EMPTY, 19:8:23:24, 505000, 140

400010, EMPTY, EMPTY, 2:20:24, 105000, 29

500010, INTERESTING, INTERESTING, 8:23:24, 105000, 29

300010, EMPTY, EMPTY, 15:9:23:24, 308000, 85

600010, EMPTY, EMPTY, 8:23:24, 11000, 3

300010, EMPTY, EMPTY, 6:23:24, 405000, 112

500010, EMPTY, EMPTY, 15:9:23:24, 208000, 57

600010, EMPTY, EMPTY, 11:9:23:24, 111000, 30

500010, INTERESTING, INTERESTING, 2:20:24, 405000, 112

10, INTERESTING, INTERESTING, 17:9:23:24, 907000, 251

700010, EMPTY, INTERESTING, 11:9:23:24, 210000, 58

100010, INTERESTING, INTERESTING, 19:8:23:24, 1005000, 279

1100010, EMPTY, EMPTY, 8:23:24, 8000, 2

200010, EMPTY, EMPTY, 12:9:23:24, 911000, 253

100010, EMPTY, EMPTY, 3:17:9:23:24, 1107000, 307

700010, INTERESTING, INTERESTING, 6:23:24, 605000, 168

600010, EMPTY, EMPTY, 19:8:23:24, 708000, 196

900010, EMPTY, EMPTY, 12:9:23:24, 411000, 114

900010, EMPTY, EMPTY, 2:20:24, 505000, 140

1200010, INTERESTING, EMPTY, 13:9:23:24, 205000, 56

1400010, EMPTY, EMPTY, 9:23:24, 8000, 2

900010, EMPTY, EMPTY, 4:20:24, 508000, 141

1300010, EMPTY, EMPTY, 14:9:23:24, 205000, 56

1500010, INTERESTING, EMPTY, 9:23:24, 8000, 2

700010, INTERESTING, INTERESTING, 3:17:9:23:24, 811000, 225

10, EMPTY, EMPTY, 1:5:23:24, 1514000, 420

1300010, EMPTY, EMPTY, 13:9:23:24, 217000, 60

800010, INTERESTING, INTERESTING, 10:8:23:24, 807000, 224

300010, INTERESTING, EMPTY, 16:9:23:24, 1310000, 363

1500010, EMPTY, EMPTY, 16:9:23:24, 113000, 31

100010, EMPTY, EMPTY, 1:5:23:24, 1605000, 445

1400010, EMPTY, EMPTY, 4:20:24, 305000, 84

1400010, EMPTY, EMPTY, 2:20:24, 308000, 85

1500010, EMPTY, EMPTY, 17:9:23:24, 208000, 57

1600010, EMPTY, EMPTY, 16:9:23:24, 207000, 57

1700010, EMPTY, EMPTY, 5:23:24, 110000, 30

600010, EMPTY, EMPTY, 15:9:23:24, 1213000, 336

1400010, EMPTY, EMPTY, 14:9:23:24, 416000, 115

1200010, EMPTY, EMPTY, 12:9:23:24, 619000, 171

1700010, INTERESTING, INTERESTING, 4:20:24, 205000, 56

1300010, EMPTY, EMPTY, 6:23:24, 605000, 168

1500010, EMPTY, EMPTY, 1:5:23:24, 408000, 113

1500010, EMPTY, EMPTY, 13:9:23:24, 411000, 114

1100010, EMPTY, EMPTY, 7:9:23:24, 814000, 226

1800010, EMPTY, EMPTY, 14:9:23:24, 117000, 32

1900010, EMPTY, EMPTY, 6:23:24, 105000, 29

1600010, EMPTY, EMPTY, 17:9:23:24, 408000, 113

1700010, INTERESTING, INTERESTING, 16:9:23:24, 407000, 113

1300010, EMPTY, EMPTY, 8:23:24, 810000, 225

1800010, EMPTY, EMPTY, 1:5:23:24, 313000, 86

1700010, EMPTY, EMPTY, 2:20:24, 505000, 140

1900010, INTERESTING, INTERESTING, 14:9:23:24, 308000, 85

1600010, INTERESTING, INTERESTING, 10:8:23:24, 611000, 169

1900010, INTERESTING, INTERESTING, 1:5:23:24, 405000, 112

2000010, EMPTY, EMPTY, 16:9:23:24, 308000, 85

2100010, EMPTY, EMPTY, 14:9:23:24, 211000, 58

1800010, EMPTY, EMPTY, 12:9:23:24, 514000, 142

1100010, EMPTY, EMPTY, 18:8:23:24, 1307000, 363

1800010, EMPTY, EMPTY, 13:9:23:24, 610000, 169

2300010, INTERESTING, INTERESTING, 12:9:23:24, 113000, 31

2300010, INTERESTING, INTERESTING, 14:9:23:24, 116000, 32

1100010, EMPTY, EMPTY, 19:8:23:24, 1319000, 366

1100010, EMPTY, EMPTY, 3:17:9:23:24, 1407000, 390

2400010, INTERESTING, INTERESTING, 10:8:23:24, 110000, 30

1800010, EMPTY, EMPTY, 15:9:23:24, 713000, 198

900010, EMPTY, EMPTY, 11:9:23:24, 1616000, 448

2100010, EMPTY, EMPTY, 10:8:23:24, 505000, 140

2200010, EMPTY, EMPTY, 16:9:23:24, 408000, 113

2300010, EMPTY, EMPTY, 5:23:24, 311000, 86

2600010, EMPTY, EMPTY, 9:23:24, 14000, 3

1900010, EMPTY, EMPTY, 7:9:23:24, 805000, 223

2000010, EMPTY, EMPTY, 6:23:24, 708000, 196

2500010, INTERESTING, INTERESTING, 11:9:23:24, 211000, 58

2700010, EMPTY, EMPTY, 9:23:24, 14000, 3

2400010, EMPTY, EMPTY, 14:9:23:24, 317000, 88

2200010, EMPTY, EMPTY, 0:20:24, 605000, 168

2300010, EMPTY, EMPTY, 13:9:23:24, 508000, 141

2800010, EMPTY, EMPTY, 0:20:24, 105000, 29

2700010, EMPTY, EMPTY, 13:9:23:24, 405000, 112

2700010, EMPTY, EMPTY, 6:23:24, 408000, 113

3100010, EMPTY, EMPTY, 9:23:24, 11000, 3

2600010, EMPTY, INTERESTING, 7:9:23:24, 514000, 142

2500010, EMPTY, EMPTY, 15:9:23:24, 707000, 196

3100010, EMPTY, EMPTY, 15:9:23:24, 110000, 30

2800010, EMPTY, EMPTY, 13:9:23:24, 413000, 114

2200010, EMPTY, EMPTY, 2:20:24, 1105000, 306

2600010, EMPTY, EMPTY, 8:23:24, 707000, 196

1900010, EMPTY, EMPTY, 3:17:9:23:24, 1410000, 391

2500010, EMPTY, INTERESTING, 16:9:23:24, 813000, 225

2100010, EMPTY, EMPTY, 1:5:23:24, 1305000, 362

3300010, EMPTY, EMPTY, 2:20:24, 105000, 29

2500010, EMPTY, EMPTY, 10:8:23:24, 908000, 252

3400010, EMPTY, EMPTY, 2:20:24, 105000, 29

2400010, EMPTY, EMPTY, 3:17:9:23:24, 1105000, 306

3500010, EMPTY, EMPTY, 9:23:24, 8000, 2

3100010, EMPTY, EMPTY, 6:23:24, 505000, 140

2400010, EMPTY, EMPTY, 12:9:23:24, 1208000, 335

3400010, EMPTY, EMPTY, 8:23:24, 211000, 58

2900010, EMPTY, EMPTY, 0:20:24, 805000, 223

3400010, EMPTY, EMPTY, 5:23:24, 307000, 85

3500010, INTERESTING, INTERESTING, 2:20:24, 305000, 84

3500010, EMPTY, EMPTY, 12:9:23:24, 308000, 85

3100010, EMPTY, EMPTY, 7:9:23:24, 711000, 197

3300010, EMPTY, EMPTY, 16:9:23:24, 605000, 168

2600010, INTERESTING, INTERESTING, 1:5:23:24, 1308000, 363

2200010, EMPTY, EMPTY, 18:8:23:24, 1711000, 475

3900010, EMPTY, EMPTY, 9:23:24, 14000, 3

3600010, EMPTY, EMPTY, 6:23:24, 405000, 112

3900010, INTERESTING, INTERESTING, 8:23:24, 108000, 30

3300010, EMPTY, EMPTY, 10:8:23:24, 711000, 197

3600010, EMPTY, EMPTY, 12:9:23:24, 605000, 168

3600010, INTERESTING, INTERESTING, 18:8:23:24, 608000, 168

4000010, EMPTY, EMPTY, 10:8:23:24, 211000, 58

4200010, EMPTY, EMPTY, 9:23:24, 105000, 29

1900010, EMPTY, EMPTY, 4:20:24, 2405000, 668

4300010, INTERESTING, INTERESTING, 9:23:24, 8000, 2

3700010, EMPTY, EMPTY, 1:5:23:24, 611000, 169

4000010, EMPTY, EMPTY, 18:8:23:24, 314000, 87

2700010, EMPTY, EMPTY, 11:9:23:24, 1708000, 474

3800010, EMPTY, EMPTY, 16:9:23:24, 611000, 169

3900010, EMPTY, EMPTY, 1:5:23:24, 607000, 168

3900010, EMPTY, EMPTY, 12:9:23:24, 610000, 169

4300010, EMPTY, EMPTY, 1:5:23:24, 305000, 84

3800010, INTERESTING, INTERESTING, 2:20:24, 805000, 223

4600010, EMPTY, EMPTY, 2:20:24, 105000, 29

4300010, EMPTY, EMPTY, 11:9:23:24, 407000, 113

4200010, EMPTY, EMPTY, 18:8:23:24, 510000, 141

3800010, EMPTY, EMPTY, 7:9:23:24, 913000, 253

4600010, INTERESTING, INTERESTING, 5:23:24, 308000, 85

2400010, EMPTY, EMPTY, 19:8:23:24, 2511000, 697

4200010, EMPTY, EMPTY, 10:8:23:24, 714000, 198

4300010, INTERESTING, INTERESTING, 18:8:23:24, 707000, 196

2700010, EMPTY, EMPTY, 14:9:23:24, 2310000, 641

3700010, EMPTY, EMPTY, 0:20:24, 1405000, 390

4700010, EMPTY, EMPTY, 7:9:23:24, 408000, 113

5000010, EMPTY, EMPTY, 7:9:23:24, 205000, 56

5200010, EMPTY, EMPTY, 9:23:24, 8000, 2

4700010, INTERESTING, INTERESTING, 19:8:23:24, 608000, 168

4300010, EMPTY, EMPTY, 4:20:24, 1105000, 306

4900010, EMPTY, EMPTY, 10:8:23:24, 505000, 140

4400010, EMPTY, EMPTY, 12:9:23:24, 1008000, 280

4500010, EMPTY, EMPTY, 11:9:23:24, 911000, 253

4700010, EMPTY, EMPTY, 14:9:23:24, 808000, 224

4500010, EMPTY, EMPTY, 1:5:23:24, 1011000, 280

4900010, EMPTY, EMPTY, 1:5:23:24, 705000, 195

4700010, EMPTY, INTERESTING, 2:20:24, 905000, 251

5600010, EMPTY, EMPTY, 2:20:24, 105000, 29

5600010, EMPTY, EMPTY, 5:23:24, 205000, 56

5400010, EMPTY, EMPTY, 8:23:24, 408000, 113

3200010, EMPTY, EMPTY, 15:9:23:24, 2611000, 725

5800010, EMPTY, EMPTY, 8:23:24, 107000, 29

3200010, EMPTY, EMPTY, 13:9:23:24, 2710000, 752

5300010, EMPTY, EMPTY, 19:8:23:24, 613000, 170

4400010, EMPTY, EMPTY, 16:9:23:24, 1516000, 421

5700010, EMPTY, EMPTY, 2:20:24, 305000, 84

4000010, INTERESTING, INTERESTING, 6:23:24, 2005000, 556

6000010, INTERESTING, INTERESTING, 2:20:24, 105000, 29

5500010, INTERESTING, INTERESTING, 15:9:23:24, 605000, 168

5000010, EMPTY, EMPTY, 10:8:23:24, 1108000, 307

6100010, EMPTY, EMPTY, 9:23:24, 11000, 3

6000010, EMPTY, EMPTY, 6:23:24, 205000, 56

5200010, INTERESTING, INTERESTING, 12:9:23:24, 1008000, 280

4900010, EMPTY, EMPTY, 18:8:23:24, 1311000, 364

5400010, EMPTY, EMPTY, 14:9:23:24, 814000, 226

5100010, EMPTY, EMPTY, 7:9:23:24, 1207000, 335

6100010, EMPTY, INTERESTING, 18:8:23:24, 210000, 58

5100010, EMPTY, EMPTY, 0:20:24, 1305000, 362

6200010, EMPTY, EMPTY, 7:9:23:24, 207000, 57

5900010, EMPTY, EMPTY, 10:8:23:24, 510000, 141

5900010, EMPTY, EMPTY, 15:9:23:24, 513000, 142

6100010, EMPTY, EMPTY, 12:9:23:24, 408000, 113

5400010, EMPTY, EMPTY, 11:9:23:24, 1111000, 308

3300010, EMPTY, EMPTY, 17:9:23:24, 3407000, 946

5900010, EMPTY, EMPTY, 16:9:23:24, 810000, 225

5400010, EMPTY, EMPTY, 4:20:24, 1405000, 390

3200010, EMPTY, EMPTY, 3:17:9:23:24, 3608000, 1002

6700010, EMPTY, EMPTY, 17:9:23:24, 111000, 30

5900010, EMPTY, EMPTY, 19:8:23:24, 1005000, 279

6100010, EMPTY, EMPTY, 2:20:24, 805000, 223

6800010, EMPTY, INTERESTING, 4:20:24, 205000, 56

6500010, INTERESTING, INTERESTING, 11:9:23:24, 507000, 140

6900010, INTERESTING, EMPTY, 8:23:24, 110000, 30

5800010, EMPTY, EMPTY, 5:23:24, 1305000, 362

6700010, EMPTY, EMPTY, 16:9:23:24, 408000, 113

6400010, EMPTY, EMPTY, 19:8:23:24, 711000, 197

6200010, EMPTY, EMPTY, 14:9:23:24, 914000, 253

7000010, EMPTY, EMPTY, 16:9:23:24, 117000, 32

6200010, EMPTY, EMPTY, 6:23:24, 1005000, 279

7200010, INTERESTING, INTERESTING, 9:23:24, 8000, 2

6800010, EMPTY, EMPTY, 17:9:23:24, 411000, 114

6300010, EMPTY, EMPTY, 7:9:23:24, 914000, 253

6200010, EMPTY, EMPTY, 18:8:23:24, 1105000, 306

7300010, INTERESTING, INTERESTING, 8:23:24, 8000, 2

7000010, INTERESTING, EMPTY, 4:20:24, 405000, 112

7000010, INTERESTING, INTERESTING, 19:8:23:24, 408000, 113

5800010, EMPTY, EMPTY, 13:9:23:24, 1611000, 447

7300010, EMPTY, EMPTY, 19:8:23:24, 205000, 56

7200010, EMPTY, EMPTY, 7:9:23:24, 308000, 85

7400010, EMPTY, EMPTY, 4:20:24, 205000, 56

7500010, EMPTY, EMPTY, 9:23:24, 105000, 29

7600010, INTERESTING, INTERESTING, 9:23:24, 8000, 2

7200010, EMPTY, INTERESTING, 6:23:24, 411000, 114

7500010, EMPTY, EMPTY, 8:23:24, 208000, 57

7100010, INTERESTING, EMPTY, 18:8:23:24, 705000, 195

7400010, EMPTY, EMPTY, 7:9:23:24, 408000, 113

7800010, EMPTY, EMPTY, 8:23:24, 11000, 3

7800010, EMPTY, EMPTY, 9:23:24, 14000, 3

6400010, EMPTY, EMPTY, 15:9:23:24, 1417000, 393

7600010, EMPTY, EMPTY, 4:20:24, 305000, 84

7700010, EMPTY, EMPTY, 18:8:23:24, 208000, 57

7400010, EMPTY, EMPTY, 19:8:23:24, 511000, 141

6500010, EMPTY, EMPTY, 3:17:9:23:24, 1414000, 392

7900010, EMPTY, EMPTY, 4:20:24, 105000, 29

7800010, INTERESTING, INTERESTING, 18:8:23:24, 207000, 57

7800010, EMPTY, EMPTY, 17:9:23:24, 210000, 58

7600010, INTERESTING, INTERESTING, 6:23:24, 505000, 140

6400010, EMPTY, EMPTY, 0:20:24, 1705000, 473

7100010, EMPTY, EMPTY, 5:23:24, 1008000, 280

7600010, EMPTY, EMPTY, 7:9:23:24, 511000, 141

6800010, EMPTY, EMPTY, 11:9:23:24, 1407000, 390

8100010, EMPTY, EMPTY, 6:23:24, 205000, 56

6900010, EMPTY, INTERESTING, 2:20:24, 1405000, 390

8100010, EMPTY, INTERESTING, 0:20:24, 208000, 57

7100010, EMPTY, EMPTY, 3:17:9:23:24, 1208000, 335

5500010, EMPTY, EMPTY, 1:5:23:24, 2811000, 780

8000010, EMPTY, EMPTY, 4:20:24, 311000, 86

6400010, INTERESTING, INTERESTING, 12:9:23:24, 1914000, 531

7800010, EMPTY, EMPTY, 15:9:23:24, 517000, 143

8100010, EMPTY, EMPTY, 11:9:23:24, 220000, 61

7100010, EMPTY, EMPTY, 16:9:23:24, 1307000, 363

7200010, EMPTY, EMPTY, 13:9:23:24, 1308000, 363

8100010, EMPTY, EMPTY, 1:5:23:24, 505000, 140

8300010, EMPTY, EMPTY, 12:9:23:24, 308000, 85

8300010, EMPTY, EMPTY, 2:20:24, 405000, 112

8600010, EMPTY, EMPTY, 5:23:24, 105000, 29

7900010, INTERESTING, INTERESTING, 19:8:23:24, 808000, 224

8000010, EMPTY, EMPTY, 7:9:23:24, 711000, 197

8000010, EMPTY, EMPTY, 19:8:23:24, 714000, 198

8500010, EMPTY, EMPTY, 12:9:23:24, 217000, 60

8300010, EMPTY, EMPTY, 4:20:24, 505000, 140

6300010, EMPTY, EMPTY, 10:8:23:24, 2505000, 695

8700010, EMPTY, EMPTY, 2:20:24, 108000, 30

8300010, INTERESTING, INTERESTING, 15:9:23:24, 508000, 141

8700010, INTERESTING, INTERESTING, 12:9:23:24, 111000, 30

8800010, EMPTY, EMPTY, 4:20:24, 105000, 29

8300010, EMPTY, EMPTY, 0:20:24, 608000, 168

8200010, EMPTY, EMPTY, 17:9:23:24, 708000, 196

8300010, EMPTY, EMPTY, 16:9:23:24, 611000, 169

9000010, INTERESTING, INTERESTING, 12:9:23:24, 7000, 1

8600010, INTERESTING, INTERESTING, 7:9:23:24, 410000, 113

8800010, EMPTY, EMPTY, 8:23:24, 213000, 59

8700010, EMPTY, EMPTY, 19:8:23:24, 316000, 87

8700010, EMPTY, EMPTY, 5:23:24, 405000, 112

8800010, EMPTY, EMPTY, 2:20:24, 305000, 84

8900010, EMPTY, EMPTY, 7:9:23:24, 208000, 57

7900010, EMPTY, EMPTY, 18:8:23:24, 1211000, 336

8800010, EMPTY, INTERESTING, 12:9:23:24, 314000, 87

8700010, EMPTY, EMPTY, 15:9:23:24, 417000, 115

9000010, EMPTY, EMPTY, 7:9:23:24, 207000, 57

9000010, EMPTY, EMPTY, 18:8:23:24, 210000, 58

9100010, INTERESTING, INTERESTING, 5:23:24, 205000, 56

7900010, INTERESTING, INTERESTING, 3:17:9:23:24, 1408000, 391

9000010, EMPTY, EMPTY, 19:8:23:24, 311000, 86

9300010, EMPTY, EMPTY, 9:23:24, 14000, 3

8300010, EMPTY, EMPTY, 11:9:23:24, 1017000, 282

8400010, EMPTY, EMPTY, 13:9:23:24, 1007000, 279

9200010, EMPTY, EMPTY, 17:9:23:24, 210000, 58

9500010, INTERESTING, INTERESTING, 8:23:24, 5000, 1

9300010, EMPTY, EMPTY, 5:23:24, 208000, 57

9400010, EMPTY, EMPTY, 17:9:23:24, 111000, 30

9100010, EMPTY, EMPTY, 12:9:23:24, 414000, 115

8900010, EMPTY, EMPTY, 16:9:23:24, 617000, 171

7100010, EMPTY, EMPTY, 14:9:23:24, 2507000, 696

9500010, EMPTY, EMPTY, 14:9:23:24, 110000, 30

9100010, EMPTY, EMPTY, 18:8:23:24, 607000, 168

9500010, EMPTY, EMPTY, 16:9:23:24, 210000, 58

9500010, EMPTY, EMPTY, 5:23:24, 305000, 84

9300010, EMPTY, EMPTY, 18:8:23:24, 508000, 141

9500010, EMPTY, EMPTY, 12:9:23:24, 311000, 86

9100010, EMPTY, EMPTY, 2:20:24, 805000, 223

8800010, EMPTY, EMPTY, 3:17:9:23:24, 1207000, 335

9600010, EMPTY, EMPTY, 16:9:23:24, 508000, 141

9200010, EMPTY, EMPTY, 19:8:23:24, 911000, 253

9700010, EMPTY, INTERESTING, 18:8:23:24, 507000, 140

9100010, EMPTY, EMPTY, 7:9:23:24, 1110000, 308

10100010, EMPTY, EMPTY, 7:9:23:24, 205000, 56

9800010, EMPTY, EMPTY, 5:23:24, 508000, 141

10300010, EMPTY, EMPTY, 9:23:24, 11000, 3

9300010, EMPTY, EMPTY, 11:9:23:24, 1014000, 281

8700010, EMPTY, EMPTY, 10:8:23:24, 1708000, 474

9800010, EMPTY, EMPTY, 19:8:23:24, 705000, 195

9400010, INTERESTING, EMPTY, 3:17:9:23:24, 1108000, 307

9300010, EMPTY, EMPTY, 13:9:23:24, 1307000, 363

9700010, EMPTY, EMPTY, 12:9:23:24, 910000, 252

10500010, INTERESTING, INTERESTING, 13:9:23:24, 113000, 31

9600010, EMPTY, EMPTY, 14:9:23:24, 1016000, 282

10300010, EMPTY, EMPTY, 11:9:23:24, 405000, 112

8900010, EMPTY, EMPTY, 4:20:24, 1805000, 501

8300010, EMPTY, EMPTY, 6:23:24, 2408000, 668

10500010, EMPTY, EMPTY, 8:23:24, 211000, 58

10700010, EMPTY, EMPTY, 9:23:24, 14000, 3

10100010, EMPTY, EMPTY, 18:8:23:24, 617000, 171

10600010, EMPTY, EMPTY, 13:9:23:24, 120000, 33

10700010, EMPTY, EMPTY, 4:20:24, 105000, 29

10600010, INTERESTING, INTERESTING, 12:9:23:24, 207000, 57

10600010, EMPTY, INTERESTING, 11:9:23:24, 210000, 58

8300010, EMPTY, EMPTY, 1:5:23:24, 2607000, 724

10200010, EMPTY, EMPTY, 7:9:23:24, 710000, 197

10300010, INTERESTING, INTERESTING, 1:5:23:24, 705000, 195

10200010, EMPTY, EMPTY, 10:8:23:24, 808000, 224

9100010, INTERESTING, EMPTY, 15:9:23:24, 1911000, 530

10700010, EMPTY, EMPTY, 13:9:23:24, 314000, 87

10900010, EMPTY, EMPTY, 13:9:23:24, 205000, 56

11100010, EMPTY, EMPTY, 9:23:24, 8000, 2

8900010, INTERESTING, INTERESTING, 0:20:24, 2305000, 640

10600010, EMPTY, EMPTY, 14:9:23:24, 605000, 168

11200010, EMPTY, EMPTY, 9:23:24, 8000, 2

10400010, EMPTY, EMPTY, 19:8:23:24, 1007000, 279

10000010, EMPTY, EMPTY, 16:9:23:24, 1410000, 391

9900010, EMPTY, EMPTY, 2:20:24, 1605000, 445

10800010, EMPTY, EMPTY, 7:9:23:24, 707000, 196

11000010, EMPTY, EMPTY, 13:9:23:24, 510000, 141

11500010, INTERESTING, INTERESTING, 2:20:24, 105000, 29

11600010, INTERESTING, INTERESTING, 19:8:23:24, 7000, 1

11200010, EMPTY, EMPTY, 16:9:23:24, 410000, 113

10700010, INTERESTING, INTERESTING, 10:8:23:24, 1005000, 279

11700010, INTERESTING, INTERESTING, 8:23:24, 8000, 2

11700010, INTERESTING, INTERESTING, 9:23:24, 11000, 3

9800010, EMPTY, EMPTY, 3:17:9:23:24, 1914000, 531

11000010, EMPTY, EMPTY, 5:23:24, 717000, 199

11400010, INTERESTING, INTERESTING, 10:8:23:24, 408000, 113

11500010, EMPTY, EMPTY, 13:9:23:24, 311000, 86

11700010, EMPTY, EMPTY, 10:8:23:24, 205000, 56

11600010, EMPTY, INTERESTING, 17:9:23:24, 308000, 85

11700010, EMPTY, EMPTY, 13:9:23:24, 211000, 58

11700010, INTERESTING, INTERESTING, 5:23:24, 305000, 84

11600010, EMPTY, INTERESTING, 2:20:24, 405000, 112

10800010, EMPTY, EMPTY, 11:9:23:24, 1208000, 335

12000010, EMPTY, EMPTY, 5:23:24, 11000, 3

10700010, EMPTY, INTERESTING, 6:23:24, 1405000, 390

10800010, EMPTY, EMPTY, 4:20:24, 1305000, 362

11500010, EMPTY, EMPTY, 16:9:23:24, 608000, 168

12100010, EMPTY, EMPTY, 6:23:24, 105000, 29

11800010, EMPTY, EMPTY, 17:9:23:24, 408000, 113

12200010, INTERESTING, INTERESTING, 6:23:24, 105000, 29

12000010, EMPTY, EMPTY, 16:9:23:24, 308000, 85

10700010, EMPTY, EMPTY, 12:9:23:24, 1611000, 447

11200010, EMPTY, EMPTY, 0:20:24, 1205000, 334

11900010, EMPTY, EMPTY, 8:23:24, 507000, 140

12100010, EMPTY, EMPTY, 4:20:24, 308000, 85

12100010, EMPTY, EMPTY, 17:9:23:24, 310000, 86

11400010, INTERESTING, INTERESTING, 7:9:23:24, 1105000, 306

10900010, EMPTY, EMPTY, 1:5:23:24, 1608000, 446

12500010, EMPTY, EMPTY, 9:23:24, 11000, 3

12400010, EMPTY, EMPTY, 0:20:24, 205000, 56

11900010, EMPTY, EMPTY, 11:9:23:24, 707000, 196

11900010, EMPTY, EMPTY, 13:9:23:24, 710000, 197

10300010, EMPTY, EMPTY, 3:17:9:23:24, 2313000, 642

12300010, INTERESTING, INTERESTING, 12:9:23:24, 316000, 87

12600010, EMPTY, EMPTY, 17:9:23:24, 105000, 29

12700010, EMPTY, EMPTY, 9:23:24, 8000, 2

10700010, EMPTY, EMPTY, 18:8:23:24, 2011000, 558

12400010, EMPTY, EMPTY, 7:9:23:24, 314000, 87

12600010, INTERESTING, INTERESTING, 13:9:23:24, 205000, 56

12800010, EMPTY, EMPTY, 9:23:24, 8000, 2

11000010, EMPTY, EMPTY, 19:8:23:24, 1811000, 503

12300010, EMPTY, EMPTY, 3:17:9:23:24, 607000, 168

11100010, INTERESTING, EMPTY, 14:9:23:24, 1810000, 502

12800010, INTERESTING, INTERESTING, 17:9:23:24, 205000, 56

13000010, EMPTY, EMPTY, 9:23:24, 105000, 29

13100010, EMPTY, EMPTY, 9:23:24, 107000, 29

12000010, EMPTY, EMPTY, 2:20:24, 1405000, 390

12500010, EMPTY, EMPTY, 5:23:24, 905000, 251

13400010, EMPTY, EMPTY, 5:23:24, 8000, 2

12200010, EMPTY, EMPTY, 16:9:23:24, 1211000, 336

12900010, EMPTY, EMPTY, 17:9:23:24, 608000, 168

11000010, EMPTY, EMPTY, 15:9:23:24, 2511000, 697

12400010, EMPTY, EMPTY, 4:20:24, 1205000, 334

12700010, EMPTY, EMPTY, 13:9:23:24, 908000, 252

13400010, EMPTY, EMPTY, 2:20:24, 208000, 57

13200010, EMPTY, EMPTY, 16:9:23:24, 411000, 114

12600010, EMPTY, EMPTY, 3:17:9:23:24, 1207000, 335

12900010, EMPTY, EMPTY, 14:9:23:24, 910000, 252

13600010, EMPTY, EMPTY, 17:9:23:24, 213000, 59

12600010, EMPTY, EMPTY, 12:9:23:24, 1307000, 363

12600010, EMPTY, EMPTY, 0:20:24, 1405000, 390

12000010, EMPTY, EMPTY, 1:5:23:24, 2008000, 557

12700010, EMPTY, EMPTY, 19:8:23:24, 1311000, 364

13800010, INTERESTING, INTERESTING, 14:9:23:24, 305000, 84

11800010, INTERESTING, INTERESTING, 10:8:23:24, 2405000, 668

13400010, INTERESTING, INTERESTING, 1:5:23:24, 907000, 251

14000010, EMPTY, EMPTY, 0:20:24, 405000, 112

14200010, EMPTY, EMPTY, 8:23:24, 207000, 57

14100010, EMPTY, EMPTY, 9:23:24, 407000, 113

14000010, EMPTY, EMPTY, 10:8:23:24, 605000, 168

13500010, EMPTY, EMPTY, 15:9:23:24, 1108000, 307

12300010, EMPTY, EMPTY, 6:23:24, 2405000, 668

13600010, EMPTY, EMPTY, 16:9:23:24, 1208000, 335

13500010, EMPTY, EMPTY, 13:9:23:24, 1311000, 364

14400010, INTERESTING, INTERESTING, 0:20:24, 505000, 140

13800010, EMPTY, EMPTY, 17:9:23:24, 1108000, 307

12700010, INTERESTING, INTERESTING, 7:9:23:24, 2211000, 614

14700010, EMPTY, EMPTY, 6:23:24, 305000, 84

14600010, EMPTY, EMPTY, 8:23:24, 408000, 113

13400010, INTERESTING, INTERESTING, 3:17:9:23:24, 1611000, 447

14800010, INTERESTING, INTERESTING, 13:9:23:24, 214000, 59

14600010, EMPTY, EMPTY, 16:9:23:24, 417000, 115

13800010, EMPTY, EMPTY, 12:9:23:24, 1220000, 338

14500010, EMPTY, EMPTY, 15:9:23:24, 607000, 168

12800010, EMPTY, EMPTY, 19:8:23:24, 2310000, 641

12400010, EMPTY, EMPTY, 18:8:23:24, 2808000, 780

13900010, EMPTY, EMPTY, 14:9:23:24, 1311000, 364

13600010, EMPTY, EMPTY, 2:20:24, 1705000, 473

15000010, EMPTY, EMPTY, 17:9:23:24, 308000, 85

15000010, EMPTY, EMPTY, 6:23:24, 405000, 112

14000010, EMPTY, EMPTY, 1:5:23:24, 1408000, 391

14900010, EMPTY, EMPTY, 16:9:23:24, 511000, 141