DWC_ID, Processed Contents, Actual Contents, Route, Total_Trans_Time, Trans_Time_Hours 
100010, EMPTY, EMPTY, 3:20:24, 105000, 29

10, EMPTY, EMPTY, 9:23:24, 205000, 56

10, EMPTY, EMPTY, 13:22:24, 205000, 56

100010, EMPTY, EMPTY, 6:20:24, 108000, 30

200010, EMPTY, EMPTY, 6:20:24, 205000, 56

200010, EMPTY, EMPTY, 13:22:24, 205000, 56

10, EMPTY, EMPTY, 17:14:22:24, 408000, 113

10, EMPTY, EMPTY, 16:14:22:24, 505000, 140

400010, EMPTY, EMPTY, 6:20:24, 105000, 29

400010, EMPTY, EMPTY, 7:20:24, 305000, 84

200010, EMPTY, INTERESTING, 19:21:24, 605000, 168

800010, EMPTY, EMPTY, 19:21:24, 205000, 56

500010, EMPTY, EMPTY, 14:22:24, 508000, 141

10, EMPTY, EMPTY, 4:22:24, 1105000, 306

1000010, EMPTY, EMPTY, 19:21:24, 105000, 29

400010, INTERESTING, INTERESTING, 16:14:22:24, 708000, 196

1000010, EMPTY, EMPTY, 10:22:24, 111000, 30

400010, INTERESTING, INTERESTING, 13:22:24, 805000, 223

500010, EMPTY, EMPTY, 5:20:24, 805000, 223

1000010, INTERESTING, INTERESTING, 12:22:24, 308000, 85

700010, EMPTY, EMPTY, 7:20:24, 608000, 168

1300010, EMPTY, EMPTY, 5:20:24, 105000, 29

10, EMPTY, EMPTY, 18:12:22:24, 1408000, 391

1400010, EMPTY, EMPTY, 8:20:24, 105000, 29

1000010, EMPTY, EMPTY, 16:14:22:24, 507000, 140

1400010, INTERESTING, INTERESTING, 5:20:24, 205000, 56

1100010, EMPTY, EMPTY, 10:22:24, 505000, 140

1500010, EMPTY, EMPTY, 8:20:24, 205000, 56

1200010, EMPTY, EMPTY, 13:22:24, 605000, 168

1600010, INTERESTING, INTERESTING, 5:20:24, 205000, 56

1300010, INTERESTING, INTERESTING, 18:12:22:24, 508000, 141

300010, EMPTY, EMPTY, 17:14:22:24, 1511000, 419

200010, EMPTY, EMPTY, 9:23:24, 1705000, 473

200010, EMPTY, EMPTY, 3:20:24, 1805000, 501

1600010, INTERESTING, INTERESTING, 10:22:24, 405000, 112

1800010, EMPTY, EMPTY, 14:22:24, 208000, 57

1800010, EMPTY, INTERESTING, 13:22:24, 305000, 84

1800010, EMPTY, INTERESTING, 5:20:24, 405000, 112

1100010, EMPTY, EMPTY, 4:22:24, 1105000, 306

1600010, EMPTY, EMPTY, 1:20:24, 608000, 168

1100010, EMPTY, EMPTY, 16:14:22:24, 1108000, 307

500010, EMPTY, EMPTY, 6:20:24, 1711000, 475

900010, EMPTY, EMPTY, 0:22:24, 1405000, 390

1300010, EMPTY, EMPTY, 7:20:24, 1005000, 279

2000010, INTERESTING, INTERESTING, 16:14:22:24, 308000, 85

1900010, EMPTY, EMPTY, 9:23:24, 605000, 168

2000010, INTERESTING, INTERESTING, 10:22:24, 505000, 140

2000010, INTERESTING, INTERESTING, 3:20:24, 605000, 168

2500010, INTERESTING, INTERESTING, 10:22:24, 105000, 29

1500010, EMPTY, EMPTY, 17:14:22:24, 1108000, 307

2300010, INTERESTING, INTERESTING, 7:20:24, 405000, 112

800010, INTERESTING, INTERESTING, 2:22:24, 1905000, 529

800010, INTERESTING, INTERESTING, 15:21:24, 1905000, 529

200010, INTERESTING, INTERESTING, 11:20:24, 2605000, 723

2600010, EMPTY, EMPTY, 10:22:24, 305000, 84

2900010, EMPTY, EMPTY, 10:22:24, 105000, 29

2600010, EMPTY, EMPTY, 14:22:24, 408000, 113

2300010, EMPTY, EMPTY, 17:14:22:24, 711000, 197

2200010, EMPTY, EMPTY, 16:14:22:24, 905000, 251

3100010, EMPTY, EMPTY, 14:22:24, 105000, 29

2200010, EMPTY, EMPTY, 1:20:24, 1005000, 279

2200010, EMPTY, EMPTY, 6:20:24, 1008000, 280

2500010, INTERESTING, INTERESTING, 9:23:24, 805000, 223

3200010, EMPTY, EMPTY, 14:22:24, 108000, 30

3300010, EMPTY, EMPTY, 9:23:24, 105000, 29

3000010, EMPTY, EMPTY, 10:22:24, 405000, 112

2600010, INTERESTING, INTERESTING, 3:20:24, 805000, 223

1400010, EMPTY, EMPTY, 18:12:22:24, 2008000, 557

1700010, INTERESTING, INTERESTING, 8:20:24, 1805000, 501

3400010, EMPTY, EMPTY, 12:22:24, 105000, 29

2800010, EMPTY, EMPTY, 11:20:24, 708000, 196

3400010, EMPTY, EMPTY, 3:20:24, 111000, 30

3500010, INTERESTING, INTERESTING, 8:20:24, 105000, 29

3500010, INTERESTING, INTERESTING, 11:20:24, 108000, 30

3000010, EMPTY, INTERESTING, 16:14:22:24, 805000, 223

3600010, EMPTY, EMPTY, 11:20:24, 205000, 56

2700010, EMPTY, EMPTY, 15:21:24, 1105000, 306

2200010, INTERESTING, INTERESTING, 5:20:24, 1705000, 473

3800010, INTERESTING, INTERESTING, 14:22:24, 105000, 29

2700010, EMPTY, EMPTY, 7:20:24, 1208000, 335

3600010, EMPTY, EMPTY, 8:20:24, 311000, 86

3200010, EMPTY, EMPTY, 1:20:24, 714000, 198

1100010, EMPTY, EMPTY, 19:21:24, 2905000, 806

3400010, INTERESTING, INTERESTING, 10:22:24, 605000, 168

2200010, EMPTY, EMPTY, 4:22:24, 1808000, 502

2300010, EMPTY, EMPTY, 0:22:24, 1711000, 475

3500010, EMPTY, EMPTY, 12:22:24, 514000, 142

3900010, EMPTY, EMPTY, 14:22:24, 117000, 32

4000010, EMPTY, EMPTY, 4:22:24, 105000, 29

4000010, EMPTY, EMPTY, 19:21:24, 105000, 29

1800010, EMPTY, EMPTY, 18:12:22:24, 2308000, 641

3300010, EMPTY, EMPTY, 16:14:22:24, 811000, 225

4100010, EMPTY, EMPTY, 4:22:24, 105000, 29

3500010, EMPTY, EMPTY, 3:20:24, 705000, 195

3800010, EMPTY, EMPTY, 15:21:24, 505000, 140

3800010, INTERESTING, INTERESTING, 11:20:24, 505000, 140

4300010, EMPTY, EMPTY, 15:21:24, 105000, 29

4200010, EMPTY, EMPTY, 3:20:24, 205000, 56

2100010, EMPTY, EMPTY, 13:22:24, 2305000, 640

3200010, EMPTY, EMPTY, 6:20:24, 1208000, 335

4000010, EMPTY, EMPTY, 10:22:24, 605000, 168

3900010, EMPTY, EMPTY, 8:20:24, 705000, 195

4400010, EMPTY, EMPTY, 6:20:24, 208000, 57

2700010, EMPTY, EMPTY, 2:22:24, 1908000, 530

4600010, EMPTY, EMPTY, 10:22:24, 105000, 29

3900010, EMPTY, EMPTY, 7:20:24, 805000, 223

4400010, EMPTY, EMPTY, 3:20:24, 308000, 85

4600010, EMPTY, EMPTY, 2:22:24, 108000, 30

4000010, EMPTY, EMPTY, 0:22:24, 711000, 197

4000010, INTERESTING, EMPTY, 16:14:22:24, 805000, 223

4700010, EMPTY, EMPTY, 3:20:24, 105000, 29

4400010, EMPTY, EMPTY, 15:21:24, 405000, 112

4700010, EMPTY, EMPTY, 0:22:24, 205000, 56

4400010, EMPTY, EMPTY, 13:22:24, 508000, 141

4600010, EMPTY, EMPTY, 6:20:24, 405000, 112

4800010, EMPTY, EMPTY, 14:22:24, 208000, 57

4700010, EMPTY, EMPTY, 7:20:24, 308000, 85

5000010, EMPTY, EMPTY, 6:20:24, 105000, 29

4900010, EMPTY, EMPTY, 0:22:24, 205000, 56

4000010, EMPTY, EMPTY, 18:12:22:24, 1205000, 334

5000010, INTERESTING, INTERESTING, 7:20:24, 205000, 56

5100010, EMPTY, EMPTY, 6:20:24, 108000, 30

5100010, EMPTY, EMPTY, 0:22:24, 108000, 30

5200010, EMPTY, EMPTY, 12:22:24, 11000, 3

3400010, EMPTY, EMPTY, 9:23:24, 1905000, 529

3000010, EMPTY, EMPTY, 17:14:22:24, 2305000, 640

3900010, EMPTY, EMPTY, 5:20:24, 1405000, 390

4600010, EMPTY, EMPTY, 8:20:24, 708000, 196

3900010, EMPTY, EMPTY, 1:20:24, 1505000, 418

4200010, EMPTY, EMPTY, 4:22:24, 1205000, 334

5400010, INTERESTING, EMPTY, 1:20:24, 105000, 29

5300010, EMPTY, EMPTY, 9:23:24, 205000, 56

5300010, EMPTY, EMPTY, 14:22:24, 207000, 57

4800010, EMPTY, EMPTY, 3:20:24, 708000, 196

5300010, EMPTY, EMPTY, 8:20:24, 305000, 84

4700010, EMPTY, EMPTY, 10:22:24, 905000, 251

4800010, EMPTY, EMPTY, 15:21:24, 805000, 223

5300010, EMPTY, EMPTY, 5:20:24, 308000, 85

4100010, EMPTY, EMPTY, 18:12:22:24, 1508000, 418

5600010, INTERESTING, INTERESTING, 8:20:24, 105000, 29

4100010, INTERESTING, INTERESTING, 16:14:22:24, 1608000, 446

5600010, EMPTY, EMPTY, 5:20:24, 108000, 30

4300010, EMPTY, EMPTY, 11:20:24, 1505000, 418

5600010, EMPTY, EMPTY, 12:22:24, 208000, 57

5700010, EMPTY, EMPTY, 8:20:24, 205000, 56

5000010, INTERESTING, INTERESTING, 17:14:22:24, 907000, 251

5500010, INTERESTING, EMPTY, 16:14:22:24, 505000, 140

4700010, INTERESTING, INTERESTING, 2:22:24, 1405000, 390

4100010, INTERESTING, INTERESTING, 19:21:24, 2005000, 556

5200010, EMPTY, EMPTY, 7:20:24, 905000, 251

5200010, EMPTY, EMPTY, 0:22:24, 908000, 252

5400010, EMPTY, EMPTY, 4:22:24, 805000, 223

5600010, INTERESTING, INTERESTING, 15:21:24, 605000, 168

5500010, EMPTY, EMPTY, 3:20:24, 705000, 195

6100010, EMPTY, EMPTY, 0:22:24, 108000, 30

5700010, EMPTY, EMPTY, 5:20:24, 605000, 168

5200010, EMPTY, EMPTY, 18:12:22:24, 1107000, 307

5800010, EMPTY, EMPTY, 11:20:24, 605000, 168

6100010, EMPTY, EMPTY, 19:21:24, 305000, 84

6000010, EMPTY, EMPTY, 14:22:24, 405000, 112

6200010, EMPTY, EMPTY, 15:21:24, 208000, 57

5800010, EMPTY, INTERESTING, 18:12:22:24, 705000, 195

6400010, INTERESTING, EMPTY, 11:20:24, 105000, 29

6400010, INTERESTING, INTERESTING, 14:22:24, 108000, 30

5600010, EMPTY, EMPTY, 10:22:24, 911000, 253

4900010, EMPTY, EMPTY, 13:22:24, 1614000, 448

5700010, EMPTY, EMPTY, 17:14:22:24, 905000, 251

5500010, INTERESTING, INTERESTING, 9:23:24, 1205000, 334

6400010, EMPTY, EMPTY, 19:21:24, 305000, 84

6200010, INTERESTING, INTERESTING, 0:22:24, 505000, 140

6200010, INTERESTING, INTERESTING, 4:22:24, 508000, 141

6100010, EMPTY, EMPTY, 2:22:24, 705000, 195

6700010, EMPTY, EMPTY, 9:23:24, 105000, 29

6100010, EMPTY, EMPTY, 7:20:24, 805000, 223

6500010, EMPTY, EMPTY, 13:22:24, 405000, 112

6300010, EMPTY, EMPTY, 5:20:24, 608000, 168

6700010, EMPTY, EMPTY, 4:22:24, 208000, 57

6800010, EMPTY, EMPTY, 9:23:24, 205000, 56

6800010, EMPTY, EMPTY, 2:22:24, 205000, 56

7000010, EMPTY, EMPTY, 2:22:24, 105000, 29

6200010, INTERESTING, INTERESTING, 3:20:24, 1005000, 279

6600010, EMPTY, EMPTY, 14:22:24, 608000, 168

6900010, EMPTY, EMPTY, 5:20:24, 308000, 85

5500010, EMPTY, EMPTY, 1:20:24, 1711000, 475

6500010, EMPTY, EMPTY, 11:20:24, 714000, 198

6900010, EMPTY, EMPTY, 7:20:24, 317000, 88

7000010, INTERESTING, INTERESTING, 9:23:24, 305000, 84

6900010, EMPTY, EMPTY, 13:22:24, 405000, 112

7200010, INTERESTING, INTERESTING, 7:20:24, 105000, 29

7200010, INTERESTING, INTERESTING, 11:20:24, 205000, 56

7200010, EMPTY, EMPTY, 1:20:24, 208000, 57

6500010, EMPTY, EMPTY, 17:14:22:24, 908000, 252

6400010, EMPTY, EMPTY, 15:21:24, 1105000, 306

7100010, EMPTY, EMPTY, 2:22:24, 505000, 140

5900010, EMPTY, EMPTY, 8:20:24, 1705000, 473

6700010, EMPTY, EMPTY, 19:21:24, 905000, 251

7200010, EMPTY, EMPTY, 3:20:24, 408000, 113

7200010, INTERESTING, INTERESTING, 17:14:22:24, 408000, 113

7400010, EMPTY, EMPTY, 1:20:24, 211000, 58

7600010, EMPTY, EMPTY, 19:21:24, 105000, 29

7800010, INTERESTING, INTERESTING, 1:20:24, 5000, 1

6500010, EMPTY, EMPTY, 12:22:24, 1305000, 362

7400010, EMPTY, EMPTY, 11:20:24, 408000, 113

7400010, EMPTY, EMPTY, 17:14:22:24, 408000, 113

7600010, EMPTY, EMPTY, 3:20:24, 211000, 58

7600010, EMPTY, EMPTY, 8:20:24, 305000, 84

7900010, INTERESTING, INTERESTING, 8:20:24, 105000, 29

7300010, INTERESTING, INTERESTING, 9:23:24, 705000, 195

5900010, EMPTY, EMPTY, 16:14:22:24, 2105000, 584

6900010, EMPTY, EMPTY, 4:22:24, 1108000, 307

7600010, EMPTY, EMPTY, 2:22:24, 505000, 140

7800010, INTERESTING, INTERESTING, 12:22:24, 308000, 85

8000010, EMPTY, EMPTY, 8:20:24, 205000, 56

8000010, INTERESTING, INTERESTING, 14:22:24, 205000, 56

8100010, EMPTY, EMPTY, 2:22:24, 108000, 30

8200010, EMPTY, EMPTY, 14:22:24, 11000, 3

7200010, EMPTY, EMPTY, 5:20:24, 1105000, 306

6700010, INTERESTING, INTERESTING, 0:22:24, 1605000, 445

7500010, EMPTY, EMPTY, 15:21:24, 805000, 223

7300010, EMPTY, EMPTY, 13:22:24, 1008000, 280

7600010, EMPTY, EMPTY, 1:20:24, 805000, 223

6500010, INTERESTING, INTERESTING, 10:22:24, 1905000, 529

8400010, EMPTY, EMPTY, 10:22:24, 105000, 29

8300010, INTERESTING, INTERESTING, 5:20:24, 205000, 56

7300010, EMPTY, EMPTY, 7:20:24, 1208000, 335

8300010, EMPTY, EMPTY, 13:22:24, 305000, 84

7700010, EMPTY, EMPTY, 19:21:24, 905000, 251

8000010, EMPTY, EMPTY, 9:23:24, 605000, 168

8500010, EMPTY, EMPTY, 5:20:24, 105000, 29

8000010, EMPTY, EMPTY, 4:22:24, 705000, 195

8400010, INTERESTING, INTERESTING, 1:20:24, 305000, 84

8600010, EMPTY, EMPTY, 19:21:24, 105000, 29

8200010, EMPTY, EMPTY, 8:20:24, 508000, 141

7600010, EMPTY, EMPTY, 17:14:22:24, 1108000, 307

5200010, EMPTY, EMPTY, 6:20:24, 3511000, 975

7800010, EMPTY, EMPTY, 3:20:24, 914000, 253

8700010, EMPTY, EMPTY, 8:20:24, 105000, 29

6300010, EMPTY, EMPTY, 18:12:22:24, 2505000, 695

8300010, EMPTY, EMPTY, 15:21:24, 505000, 140

8500010, EMPTY, EMPTY, 10:22:24, 308000, 85

8700010, INTERESTING, INTERESTING, 6:20:24, 205000, 56

8600010, EMPTY, EMPTY, 9:23:24, 305000, 84

8200010, INTERESTING, INTERESTING, 2:22:24, 705000, 195

7800010, EMPTY, EMPTY, 16:14:22:24, 1108000, 307

8800010, EMPTY, EMPTY, 12:22:24, 111000, 30

8900010, EMPTY, EMPTY, 14:22:24, 14000, 3

8900010, INTERESTING, INTERESTING, 2:22:24, 105000, 29

8600010, INTERESTING, INTERESTING, 13:22:24, 408000, 113

7800010, EMPTY, EMPTY, 11:20:24, 1305000, 362

8700010, EMPTY, EMPTY, 3:20:24, 505000, 140

9000010, INTERESTING, INTERESTING, 2:22:24, 205000, 56

8600010, EMPTY, EMPTY, 5:20:24, 608000, 168

8900010, EMPTY, EMPTY, 12:22:24, 308000, 85

8200010, EMPTY, EMPTY, 17:14:22:24, 1011000, 280

8800010, INTERESTING, INTERESTING, 15:21:24, 505000, 140

8100010, EMPTY, EMPTY, 18:12:22:24, 1205000, 334

9200010, EMPTY, EMPTY, 3:20:24, 105000, 29

8700010, EMPTY, EMPTY, 1:20:24, 608000, 168

9200010, EMPTY, EMPTY, 2:22:24, 108000, 30

9300010, EMPTY, EMPTY, 3:20:24, 105000, 29

8800010, EMPTY, EMPTY, 10:22:24, 605000, 168

9300010, EMPTY, EMPTY, 2:22:24, 108000, 30

8900010, EMPTY, EMPTY, 17:14:22:24, 605000, 168

9300010, INTERESTING, INTERESTING, 15:21:24, 205000, 56

9300010, EMPTY, EMPTY, 1:20:24, 205000, 56

9200010, EMPTY, EMPTY, 5:20:24, 405000, 112

8900010, INTERESTING, EMPTY, 9:23:24, 705000, 195

8900010, EMPTY, EMPTY, 6:20:24, 708000, 196

8500010, EMPTY, EMPTY, 7:20:24, 1111000, 308

9300010, INTERESTING, INTERESTING, 12:22:24, 405000, 112

9600010, EMPTY, EMPTY, 7:20:24, 105000, 29

9500010, EMPTY, EMPTY, 14:22:24, 208000, 57

9600010, EMPTY, EMPTY, 6:20:24, 108000, 30

9200010, INTERESTING, INTERESTING, 17:14:22:24, 511000, 141

9400010, INTERESTING, INTERESTING, 2:22:24, 405000, 112

9500010, EMPTY, EMPTY, 15:21:24, 305000, 84

8700010, EMPTY, EMPTY, 4:22:24, 1108000, 307

9700010, EMPTY, EMPTY, 12:22:24, 111000, 30

9800010, EMPTY, EMPTY, 4:22:24, 105000, 29

9100010, EMPTY, EMPTY, 11:20:24, 805000, 223

8700010, EMPTY, EMPTY, 19:21:24, 1205000, 334

9400010, EMPTY, EMPTY, 3:20:24, 508000, 141

8800010, EMPTY, EMPTY, 8:20:24, 1305000, 362

9700010, INTERESTING, EMPTY, 7:20:24, 505000, 140

8700010, EMPTY, EMPTY, 16:14:22:24, 1505000, 418

9500010, EMPTY, EMPTY, 1:20:24, 708000, 196

9800010, EMPTY, EMPTY, 2:22:24, 505000, 140

10200010, EMPTY, EMPTY, 7:20:24, 105000, 29

9700010, EMPTY, EMPTY, 6:20:24, 608000, 168

10200010, EMPTY, EMPTY, 1:20:24, 111000, 30

9800010, EMPTY, EMPTY, 15:21:24, 605000, 168

8300010, INTERESTING, INTERESTING, 0:22:24, 2105000, 584

10100010, EMPTY, EMPTY, 8:20:24, 305000, 84

10300010, EMPTY, EMPTY, 1:20:24, 108000, 30

10200010, EMPTY, EMPTY, 14:22:24, 307000, 85

9200010, EMPTY, EMPTY, 18:12:22:24, 1405000, 390

9700010, EMPTY, EMPTY, 17:14:22:24, 908000, 252

10400010, EMPTY, EMPTY, 15:21:24, 305000, 84

10400010, EMPTY, EMPTY, 1:20:24, 305000, 84

9000010, EMPTY, EMPTY, 13:22:24, 1705000, 473

9900010, EMPTY, EMPTY, 4:22:24, 808000, 224

9700010, EMPTY, EMPTY, 16:14:22:24, 1105000, 306

9900010, EMPTY, EMPTY, 3:20:24, 905000, 251

10600010, EMPTY, EMPTY, 12:22:24, 208000, 57

10800010, EMPTY, EMPTY, 3:20:24, 105000, 29

9800010, EMPTY, EMPTY, 18:12:22:24, 1105000, 306

10700010, EMPTY, EMPTY, 15:21:24, 305000, 84

9600010, INTERESTING, INTERESTING, 5:20:24, 1405000, 390

10300010, EMPTY, EMPTY, 6:20:24, 708000, 196

10900010, EMPTY, EMPTY, 3:20:24, 111000, 30

11000010, EMPTY, EMPTY, 6:20:24, 205000, 56

10800010, EMPTY, EMPTY, 14:22:24, 407000, 113

10300010, EMPTY, EMPTY, 7:20:24, 908000, 252

10600010, EMPTY, EMPTY, 16:14:22:24, 610000, 169

10700010, EMPTY, EMPTY, 13:22:24, 605000, 168

9600010, EMPTY, EMPTY, 9:23:24, 1705000, 473

10400010, EMPTY, EMPTY, 0:22:24, 908000, 252

10400010, INTERESTING, INTERESTING, 8:20:24, 1005000, 279

10900010, INTERESTING, INTERESTING, 12:22:24, 505000, 140

11000010, EMPTY, EMPTY, 3:20:24, 505000, 140

11400010, EMPTY, EMPTY, 12:22:24, 107000, 29

10700010, EMPTY, EMPTY, 1:20:24, 808000, 224

9400010, EMPTY, EMPTY, 10:22:24, 2205000, 612

10500010, EMPTY, EMPTY, 17:14:22:24, 1108000, 307

10700010, EMPTY, EMPTY, 4:22:24, 1005000, 279

11300010, EMPTY, EMPTY, 0:22:24, 408000, 113

11700010, INTERESTING, EMPTY, 4:22:24, 105000, 29

11200010, EMPTY, EMPTY, 17:14:22:24, 608000, 168

9900010, EMPTY, EMPTY, 11:20:24, 2005000, 556

11300010, EMPTY, EMPTY, 9:23:24, 605000, 168

11600010, EMPTY, EMPTY, 17:14:22:24, 307000, 85

11900010, EMPTY, EMPTY, 9:23:24, 105000, 29

10800010, EMPTY, EMPTY, 18:12:22:24, 1205000, 334

11000010, EMPTY, EMPTY, 15:21:24, 1005000, 279

10300010, EMPTY, EMPTY, 2:22:24, 1708000, 474

11000010, EMPTY, EMPTY, 5:20:24, 1105000, 306

11800010, EMPTY, EMPTY, 4:22:24, 305000, 84

12000010, EMPTY, EMPTY, 2:22:24, 108000, 30

11900010, EMPTY, EMPTY, 11:20:24, 208000, 57

11400010, INTERESTING, EMPTY, 8:20:24, 805000, 223

12000010, EMPTY, EMPTY, 9:23:24, 205000, 56

11300010, EMPTY, EMPTY, 13:22:24, 905000, 251

12100010, EMPTY, EMPTY, 4:22:24, 108000, 30

11200010, INTERESTING, INTERESTING, 7:20:24, 1008000, 280

11800010, EMPTY, EMPTY, 17:14:22:24, 411000, 114

11200010, EMPTY, EMPTY, 6:20:24, 1105000, 306

11600010, EMPTY, EMPTY, 10:22:24, 705000, 195

12200010, EMPTY, EMPTY, 8:20:24, 108000, 30

11900010, EMPTY, EMPTY, 17:14:22:24, 408000, 113

12000010, INTERESTING, EMPTY, 12:22:24, 405000, 112

12400010, EMPTY, EMPTY, 12:22:24, 8000, 2

12500010, INTERESTING, INTERESTING, 5:20:24, 5000, 1

11500010, INTERESTING, INTERESTING, 18:12:22:24, 1008000, 280

12200010, EMPTY, EMPTY, 7:20:24, 308000, 85

12200010, EMPTY, EMPTY, 13:22:24, 405000, 112

12300010, EMPTY, EMPTY, 6:20:24, 305000, 84

11700010, EMPTY, EMPTY, 0:22:24, 908000, 252

12300010, EMPTY, EMPTY, 10:22:24, 311000, 86

12200010, EMPTY, EMPTY, 17:14:22:24, 414000, 115

11500010, EMPTY, EMPTY, 1:20:24, 1205000, 334

12600010, INTERESTING, INTERESTING, 10:22:24, 105000, 29

12300010, EMPTY, EMPTY, 17:14:22:24, 408000, 113

12100010, EMPTY, EMPTY, 5:20:24, 705000, 195

12400010, EMPTY, EMPTY, 18:12:22:24, 405000, 112

12600010, EMPTY, EMPTY, 13:22:24, 208000, 57

12700010, EMPTY, EMPTY, 10:22:24, 205000, 56

12600010, EMPTY, EMPTY, 6:20:24, 305000, 84

11500010, EMPTY, EMPTY, 3:20:24, 1505000, 418

12900010, INTERESTING, INTERESTING, 6:20:24, 205000, 56

12100010, EMPTY, EMPTY, 2:22:24, 1005000, 279

12000010, INTERESTING, INTERESTING, 15:21:24, 1105000, 306

12200010, EMPTY, EMPTY, 4:22:24, 908000, 252

12600010, EMPTY, EMPTY, 0:22:24, 511000, 141

13100010, EMPTY, EMPTY, 15:21:24, 105000, 29

12700010, INTERESTING, INTERESTING, 14:22:24, 505000, 140

13200010, EMPTY, INTERESTING, 14:22:24, 8000, 2

12600010, EMPTY, EMPTY, 17:14:22:24, 705000, 195

13100010, INTERESTING, EMPTY, 6:20:24, 205000, 56

12500010, EMPTY, EMPTY, 7:20:24, 905000, 251

13300010, EMPTY, EMPTY, 14:22:24, 108000, 30

9900010, EMPTY, EMPTY, 19:21:24, 3605000, 1001

12900010, INTERESTING, INTERESTING, 10:22:24, 605000, 168

12800010, EMPTY, EMPTY, 12:22:24, 708000, 196

13100010, EMPTY, EMPTY, 2:22:24, 411000, 114

13300010, EMPTY, EMPTY, 6:20:24, 305000, 84

13200010, EMPTY, EMPTY, 15:21:24, 405000, 112

13100010, EMPTY, EMPTY, 0:22:24, 605000, 168

12300010, EMPTY, EMPTY, 8:20:24, 1405000, 390

13600010, EMPTY, INTERESTING, 15:21:24, 105000, 29

13000010, EMPTY, EMPTY, 3:20:24, 708000, 196

13700010, EMPTY, EMPTY, 15:21:24, 105000, 29

12200010, EMPTY, EMPTY, 9:23:24, 1705000, 473

13500010, INTERESTING, INTERESTING, 10:22:24, 405000, 112

13500010, EMPTY, EMPTY, 12:22:24, 408000, 113

13800010, EMPTY, EMPTY, 15:21:24, 205000, 56

13900010, EMPTY, INTERESTING, 10:22:24, 105000, 29

12700010, EMPTY, EMPTY, 1:20:24, 1305000, 362

11200010, INTERESTING, INTERESTING, 16:14:22:24, 2905000, 806

13100010, EMPTY, EMPTY, 4:22:24, 1008000, 280

13900010, EMPTY, EMPTY, 9:23:24, 305000, 84

13700010, INTERESTING, INTERESTING, 3:20:24, 505000, 140

13700010, EMPTY, EMPTY, 0:22:24, 505000, 140

12800010, EMPTY, EMPTY, 13:22:24, 1505000, 418

13600010, INTERESTING, INTERESTING, 6:20:24, 705000, 195

14200010, EMPTY, EMPTY, 9:23:24, 105000, 29

13500010, EMPTY, EMPTY, 19:21:24, 805000, 223

13700010, INTERESTING, INTERESTING, 8:20:24, 705000, 195

13500010, INTERESTING, INTERESTING, 2:22:24, 905000, 251

13400010, EMPTY, EMPTY, 7:20:24, 1008000, 280

14300010, INTERESTING, EMPTY, 9:23:24, 205000, 56

14400010, EMPTY, EMPTY, 7:20:24, 205000, 56

14100010, EMPTY, EMPTY, 14:22:24, 505000, 140

12800010, EMPTY, EMPTY, 5:20:24, 1808000, 502

14600010, EMPTY, EMPTY, 7:20:24, 105000, 29

14500010, EMPTY, EMPTY, 9:23:24, 205000, 56

14000010, EMPTY, EMPTY, 10:22:24, 705000, 195

14600010, EMPTY, EMPTY, 14:22:24, 108000, 30

14400010, EMPTY, EMPTY, 2:22:24, 405000, 112

14600010, EMPTY, EMPTY, 5:20:24, 205000, 56

13900010, EMPTY, EMPTY, 12:22:24, 908000, 252

14200010, EMPTY, EMPTY, 0:22:24, 611000, 169

14300010, INTERESTING, INTERESTING, 6:20:24, 605000, 168

14800010, EMPTY, EMPTY, 12:22:24, 105000, 29

14200010, EMPTY, EMPTY, 3:20:24, 708000, 196

14900010, EMPTY, EMPTY, 12:22:24, 8000, 2

14100010, EMPTY, EMPTY, 4:22:24, 905000, 251

12100010, EMPTY, EMPTY, 11:20:24, 2905000, 806

14300010, EMPTY, INTERESTING, 13:22:24, 708000, 196

12500010, EMPTY, EMPTY, 18:12:22:24, 2511000, 697

14700010, EMPTY, EMPTY, 14:22:24, 314000, 87

14000010, EMPTY, EMPTY, 15:21:24, 1105000, 306

14800010, INTERESTING, INTERESTING, 2:22:24, 405000, 112

15000010, EMPTY, EMPTY, 13:22:24, 208000, 57

14000010, EMPTY, EMPTY, 1:20:24, 1305000, 362

15000010, INTERESTING, INTERESTING, 14:22:24, 307000, 85

15000010, EMPTY, EMPTY, 12:22:24, 310000, 86

15100010, EMPTY, EMPTY, 15:21:24, 305000, 84

15000010, INTERESTING, INTERESTING, 11:20:24, 405000, 112

14800010, INTERESTING, INTERESTING, 5:20:24, 608000, 168

15000010, EMPTY, EMPTY, 4:22:24, 505000, 140

14900010, INTERESTING, INTERESTING, 3:20:24, 605000, 168