DWC_ID, Processed Contents, Actual Contents, Route, Total_Trans_Time, Trans_Time_Hours 
100010, EMPTY, EMPTY, 18:23:24, 105000, 29

100010, INTERESTING, INTERESTING, 7:23:24, 205000, 56

200010, EMPTY, EMPTY, 18:23:24, 108000, 30

100010, EMPTY, EMPTY, 6:23:24, 211000, 58

200010, EMPTY, EMPTY, 8:23:24, 205000, 56

300010, EMPTY, EMPTY, 17:23:24, 110000, 30

300010, INTERESTING, INTERESTING, 0:17:23:24, 113000, 31

300010, EMPTY, EMPTY, 16:0:17:23:24, 116000, 32

100010, EMPTY, EMPTY, 5:0:17:23:24, 410000, 113

300010, EMPTY, EMPTY, 6:23:24, 505000, 140

300010, EMPTY, EMPTY, 7:23:24, 605000, 168

300010, EMPTY, EMPTY, 18:23:24, 608000, 168

400010, EMPTY, EMPTY, 8:23:24, 511000, 141

300010, EMPTY, EMPTY, 15:17:23:24, 614000, 170

400010, EMPTY, EMPTY, 12:17:23:24, 517000, 143

10, EMPTY, EMPTY, 9:0:17:23:24, 1007000, 279

400010, EMPTY, EMPTY, 9:0:17:23:24, 610000, 169

900010, EMPTY, EMPTY, 12:17:23:24, 113000, 31

1000010, EMPTY, EMPTY, 0:17:23:24, 16000, 4

900010, EMPTY, EMPTY, 7:23:24, 308000, 85

700010, INTERESTING, INTERESTING, 1:23:24, 605000, 168

900010, EMPTY, EMPTY, 18:23:24, 408000, 113

900010, EMPTY, EMPTY, 8:23:24, 505000, 140

300010, INTERESTING, INTERESTING, 11:23:24, 1205000, 334

400010, EMPTY, EMPTY, 5:0:17:23:24, 1308000, 363

1800010, INTERESTING, INTERESTING, 1:23:24, 5000, 1

10, EMPTY, EMPTY, 4:17:23:24, 1809000, 502

1400010, EMPTY, EMPTY, 8:23:24, 508000, 141

900010, INTERESTING, EMPTY, 9:0:17:23:24, 1011000, 280

400010, INTERESTING, INTERESTING, 16:0:17:23:24, 1514000, 420

1800010, EMPTY, EMPTY, 16:0:17:23:24, 207000, 57

1900010, INTERESTING, INTERESTING, 2:17:23:24, 207000, 57

500010, EMPTY, EMPTY, 14:7:23:24, 1610000, 447

2000010, EMPTY, EMPTY, 2:17:23:24, 113000, 31

100010, EMPTY, EMPTY, 19:15:17:23:24, 2105000, 584

100010, EMPTY, EMPTY, 3:8:23:24, 2108000, 585

1200010, INTERESTING, INTERESTING, 14:7:23:24, 1105000, 306

2200010, INTERESTING, INTERESTING, 17:23:24, 108000, 30

2300010, INTERESTING, INTERESTING, 5:0:17:23:24, 11000, 3

1300010, EMPTY, EMPTY, 1:23:24, 1014000, 281

2100010, EMPTY, EMPTY, 2:17:23:24, 217000, 60

1500010, EMPTY, EMPTY, 11:23:24, 905000, 251

300010, EMPTY, EMPTY, 10:17:23:24, 2208000, 613

2300010, INTERESTING, INTERESTING, 10:17:23:24, 211000, 58

2200010, EMPTY, EMPTY, 8:23:24, 405000, 112

2400010, EMPTY, EMPTY, 11:23:24, 208000, 57

1000010, EMPTY, EMPTY, 9:0:17:23:24, 1611000, 447

800010, EMPTY, EMPTY, 6:23:24, 1905000, 529

2600010, EMPTY, EMPTY, 11:23:24, 108000, 30

2100010, EMPTY, EMPTY, 15:17:23:24, 611000, 169

2600010, INTERESTING, INTERESTING, 8:23:24, 205000, 56

2300010, EMPTY, EMPTY, 2:17:23:24, 510000, 141

1000010, INTERESTING, INTERESTING, 5:0:17:23:24, 1909000, 530

1900010, EMPTY, EMPTY, 16:0:17:23:24, 1108000, 307

500010, EMPTY, EMPTY, 19:15:17:23:24, 2511000, 697

2700010, EMPTY, EMPTY, 6:23:24, 405000, 112

2300010, INTERESTING, INTERESTING, 1:23:24, 905000, 251

2300010, EMPTY, EMPTY, 7:23:24, 908000, 252

2500010, INTERESTING, INTERESTING, 10:17:23:24, 711000, 197

3000010, EMPTY, EMPTY, 15:17:23:24, 214000, 59

2800010, INTERESTING, INTERESTING, 8:23:24, 505000, 140

3300010, EMPTY, EMPTY, 8:23:24, 105000, 29

2700010, EMPTY, EMPTY, 11:23:24, 708000, 196

1700010, EMPTY, EMPTY, 4:17:23:24, 1711000, 475

2700010, EMPTY, EMPTY, 2:17:23:24, 714000, 198

2700010, EMPTY, EMPTY, 13:15:17:23:24, 717000, 199

3200010, EMPTY, EMPTY, 7:23:24, 305000, 84

3400010, EMPTY, EMPTY, 11:23:24, 205000, 56

2500010, INTERESTING, INTERESTING, 5:0:17:23:24, 1108000, 307

1300010, EMPTY, EMPTY, 18:23:24, 2311000, 641

2900010, EMPTY, EMPTY, 5:0:17:23:24, 714000, 198

3000010, EMPTY, EMPTY, 13:15:17:23:24, 617000, 171

3600010, EMPTY, EMPTY, 18:23:24, 105000, 29

3500010, EMPTY, EMPTY, 7:23:24, 305000, 84

3600010, INTERESTING, INTERESTING, 15:17:23:24, 307000, 85

3200010, EMPTY, EMPTY, 10:17:23:24, 808000, 224

3700010, EMPTY, EMPTY, 18:23:24, 405000, 112

3600010, EMPTY, EMPTY, 0:17:23:24, 511000, 141

3200010, EMPTY, EMPTY, 1:23:24, 1005000, 279

3800010, INTERESTING, INTERESTING, 7:23:24, 505000, 140

3400010, EMPTY, EMPTY, 8:23:24, 908000, 252

3400010, EMPTY, EMPTY, 13:15:17:23:24, 911000, 253

4300010, EMPTY, EMPTY, 17:23:24, 14000, 3

4200010, INTERESTING, INTERESTING, 1:23:24, 205000, 56

4300010, EMPTY, EMPTY, 8:23:24, 108000, 30

4300010, EMPTY, EMPTY, 7:23:24, 205000, 56

4000010, EMPTY, EMPTY, 0:17:23:24, 508000, 141

4500010, EMPTY, EMPTY, 7:23:24, 11000, 3

3400010, EMPTY, EMPTY, 2:17:23:24, 1114000, 309

3100010, EMPTY, EMPTY, 6:23:24, 1505000, 418

2100010, EMPTY, EMPTY, 14:7:23:24, 2508000, 696

4600010, EMPTY, INTERESTING, 7:23:24, 11000, 3

3200010, EMPTY, EMPTY, 4:17:23:24, 1507000, 418

4500010, EMPTY, EMPTY, 2:17:23:24, 405000, 112

1900010, EMPTY, EMPTY, 3:8:23:24, 3008000, 835

4900010, EMPTY, EMPTY, 17:23:24, 11000, 3

4400010, EMPTY, EMPTY, 1:23:24, 605000, 168

4500010, INTERESTING, INTERESTING, 14:7:23:24, 605000, 168

4600010, INTERESTING, INTERESTING, 14:7:23:24, 508000, 141

4100010, INTERESTING, INTERESTING, 18:23:24, 1011000, 280

3600010, EMPTY, EMPTY, 11:23:24, 1514000, 420

5100010, EMPTY, EMPTY, 18:23:24, 105000, 29

2600010, INTERESTING, INTERESTING, 19:15:17:23:24, 2611000, 725

5100010, EMPTY, EMPTY, 7:23:24, 205000, 56

4100010, EMPTY, EMPTY, 19:15:17:23:24, 1210000, 336

4900010, EMPTY, EMPTY, 19:15:17:23:24, 413000, 114

5000010, EMPTY, EMPTY, 1:23:24, 405000, 112

5200010, INTERESTING, INTERESTING, 19:15:17:23:24, 208000, 57

5300010, EMPTY, EMPTY, 7:23:24, 111000, 30

3600010, EMPTY, EMPTY, 13:15:17:23:24, 1814000, 503

4600010, EMPTY, EMPTY, 6:23:24, 905000, 251

2800010, EMPTY, EMPTY, 16:0:17:23:24, 2708000, 752

3400010, EMPTY, EMPTY, 5:0:17:23:24, 2111000, 586

1000010, INTERESTING, INTERESTING, 12:17:23:24, 4514000, 1253

4900010, INTERESTING, INTERESTING, 8:23:24, 705000, 195

5400010, EMPTY, EMPTY, 1:23:24, 208000, 57

5500010, EMPTY, EMPTY, 0:17:23:24, 111000, 30

4700010, EMPTY, EMPTY, 2:17:23:24, 914000, 253

5100010, EMPTY, EMPTY, 14:7:23:24, 607000, 168

5400010, EMPTY, EMPTY, 15:17:23:24, 407000, 113

4300010, EMPTY, EMPTY, 16:0:17:23:24, 1510000, 419

5600010, EMPTY, EMPTY, 2:17:23:24, 213000, 59

5800010, EMPTY, EMPTY, 0:17:23:24, 16000, 4

5100010, INTERESTING, INTERESTING, 11:23:24, 805000, 223

5400010, INTERESTING, INTERESTING, 5:0:17:23:24, 508000, 141

5500010, EMPTY, INTERESTING, 12:17:23:24, 508000, 141

5500010, EMPTY, EMPTY, 16:0:17:23:24, 511000, 141

5600010, EMPTY, EMPTY, 8:23:24, 505000, 140

5300010, EMPTY, EMPTY, 13:15:17:23:24, 809000, 224

5200010, EMPTY, EMPTY, 18:23:24, 1005000, 279

5400010, EMPTY, EMPTY, 14:7:23:24, 808000, 224

6000010, EMPTY, EMPTY, 0:17:23:24, 211000, 58

3900010, EMPTY, EMPTY, 10:17:23:24, 2314000, 642

6200010, EMPTY, EMPTY, 7:23:24, 108000, 30

5800010, EMPTY, EMPTY, 16:0:17:23:24, 511000, 141

1900010, EMPTY, EMPTY, 9:0:17:23:24, 4414000, 1226

5800010, INTERESTING, EMPTY, 5:0:17:23:24, 608000, 168

5600010, INTERESTING, INTERESTING, 1:23:24, 905000, 251

6200010, EMPTY, EMPTY, 9:0:17:23:24, 308000, 85

5600010, EMPTY, EMPTY, 13:15:17:23:24, 911000, 253

6400010, EMPTY, EMPTY, 0:17:23:24, 114000, 31

6500010, INTERESTING, INTERESTING, 1:23:24, 105000, 29

6100010, INTERESTING, INTERESTING, 8:23:24, 508000, 141

5500010, EMPTY, EMPTY, 6:23:24, 1111000, 308

5700010, EMPTY, EMPTY, 14:7:23:24, 1005000, 279

6500010, EMPTY, EMPTY, 0:17:23:24, 208000, 57

5800010, INTERESTING, INTERESTING, 2:17:23:24, 911000, 253

6700010, EMPTY, EMPTY, 17:23:24, 14000, 3

4500010, EMPTY, EMPTY, 4:17:23:24, 2217000, 615

6200010, EMPTY, EMPTY, 18:23:24, 605000, 168

6600010, EMPTY, EMPTY, 6:23:24, 208000, 57

5900010, INTERESTING, INTERESTING, 12:17:23:24, 911000, 253

6700010, INTERESTING, INTERESTING, 0:17:23:24, 114000, 31

6100010, EMPTY, EMPTY, 16:0:17:23:24, 717000, 199

6600010, EMPTY, EMPTY, 8:23:24, 220000, 61

4400010, EMPTY, EMPTY, 3:8:23:24, 2507000, 696

6500010, EMPTY, EMPTY, 15:17:23:24, 410000, 113

6700010, EMPTY, EMPTY, 2:17:23:24, 309000, 85

6500010, EMPTY, EMPTY, 16:0:17:23:24, 513000, 142

6300010, EMPTY, EMPTY, 5:0:17:23:24, 805000, 223

7100010, EMPTY, EMPTY, 17:23:24, 107000, 29

6700010, EMPTY, EMPTY, 7:23:24, 605000, 168

6200010, EMPTY, EMPTY, 10:17:23:24, 1108000, 307

7300010, EMPTY, EMPTY, 7:23:24, 11000, 3

6800010, EMPTY, EMPTY, 12:17:23:24, 514000, 142

6000010, EMPTY, EMPTY, 13:15:17:23:24, 1317000, 365

7200010, EMPTY, EMPTY, 10:17:23:24, 120000, 33

6800010, EMPTY, EMPTY, 16:0:17:23:24, 523000, 145

6800010, EMPTY, EMPTY, 18:23:24, 605000, 168

7000010, EMPTY, EMPTY, 5:0:17:23:24, 409000, 113

6300010, EMPTY, EMPTY, 9:0:17:23:24, 1112000, 308

7400010, EMPTY, EMPTY, 18:23:24, 105000, 29

7300010, INTERESTING, INTERESTING, 15:17:23:24, 208000, 57

6800010, EMPTY, EMPTY, 6:23:24, 805000, 223

6800010, EMPTY, EMPTY, 3:8:23:24, 808000, 224

7300010, EMPTY, EMPTY, 10:17:23:24, 311000, 86

6900010, EMPTY, EMPTY, 2:17:23:24, 807000, 224

6300010, EMPTY, EMPTY, 14:7:23:24, 1410000, 391

6800010, EMPTY, EMPTY, 13:15:17:23:24, 913000, 253

7700010, EMPTY, EMPTY, 15:17:23:24, 16000, 4

6600010, EMPTY, EMPTY, 1:23:24, 1205000, 334

7300010, EMPTY, EMPTY, 14:7:23:24, 508000, 141

7400010, EMPTY, EMPTY, 13:15:17:23:24, 411000, 114

7800010, EMPTY, EMPTY, 17:23:24, 14000, 3

5300010, EMPTY, EMPTY, 19:15:17:23:24, 2517000, 699

7800010, EMPTY, EMPTY, 15:17:23:24, 108000, 30

5900010, EMPTY, EMPTY, 11:23:24, 2105000, 584

6700010, INTERESTING, EMPTY, 4:17:23:24, 1308000, 363

7300010, EMPTY, EMPTY, 12:17:23:24, 711000, 197

7700010, EMPTY, EMPTY, 13:15:17:23:24, 314000, 87

7000010, INTERESTING, INTERESTING, 16:0:17:23:24, 1017000, 282

7300010, EMPTY, EMPTY, 9:0:17:23:24, 807000, 224

8100010, INTERESTING, INTERESTING, 13:15:17:23:24, 10000, 2

8000010, EMPTY, EMPTY, 12:17:23:24, 113000, 31

7300010, EMPTY, EMPTY, 5:0:17:23:24, 816000, 226

7800010, INTERESTING, EMPTY, 7:23:24, 405000, 112

8100010, EMPTY, EMPTY, 0:17:23:24, 108000, 30

8200010, EMPTY, EMPTY, 7:23:24, 11000, 3

8000010, EMPTY, EMPTY, 15:17:23:24, 214000, 59

7600010, EMPTY, EMPTY, 2:17:23:24, 617000, 171

7500010, EMPTY, EMPTY, 18:23:24, 805000, 223

7600010, EMPTY, EMPTY, 8:23:24, 708000, 196

8200010, EMPTY, EMPTY, 15:17:23:24, 111000, 30

8000010, EMPTY, EMPTY, 9:0:17:23:24, 314000, 87

8000010, INTERESTING, INTERESTING, 11:23:24, 405000, 112

7800010, EMPTY, EMPTY, 1:23:24, 608000, 168

8000010, EMPTY, EMPTY, 5:0:17:23:24, 411000, 114

7600010, EMPTY, EMPTY, 6:23:24, 814000, 226

8400010, EMPTY, EMPTY, 17:23:24, 17000, 4

8300010, EMPTY, EMPTY, 18:23:24, 205000, 56

7700010, EMPTY, EMPTY, 19:15:17:23:24, 808000, 224

7500010, EMPTY, EMPTY, 10:17:23:24, 1011000, 280

7400010, EMPTY, EMPTY, 16:0:17:23:24, 1114000, 309

8500010, EMPTY, EMPTY, 18:23:24, 105000, 29

8200010, EMPTY, EMPTY, 19:15:17:23:24, 410000, 113

8500010, EMPTY, EMPTY, 0:17:23:24, 205000, 56

8700010, EMPTY, EMPTY, 17:23:24, 11000, 3

8400010, EMPTY, EMPTY, 6:23:24, 405000, 112

8800010, INTERESTING, INTERESTING, 17:23:24, 8000, 2

6900010, INTERESTING, INTERESTING, 3:8:23:24, 1911000, 530

8100010, EMPTY, EMPTY, 9:0:17:23:24, 714000, 198

8600010, EMPTY, EMPTY, 18:23:24, 305000, 84

8800010, EMPTY, EMPTY, 6:23:24, 108000, 30

7800010, EMPTY, EMPTY, 13:15:17:23:24, 1111000, 308

8900010, EMPTY, EMPTY, 6:23:24, 105000, 29

9000010, INTERESTING, INTERESTING, 9:0:17:23:24, 10000, 2

8300010, EMPTY, EMPTY, 5:0:17:23:24, 713000, 198

8400010, EMPTY, EMPTY, 1:23:24, 705000, 195

8300010, EMPTY, EMPTY, 3:8:23:24, 808000, 224

8800010, EMPTY, EMPTY, 15:17:23:24, 311000, 86

8400010, INTERESTING, INTERESTING, 11:23:24, 805000, 223

8800010, EMPTY, EMPTY, 3:8:23:24, 408000, 113

7700010, EMPTY, EMPTY, 14:7:23:24, 1511000, 419

8600010, EMPTY, EMPTY, 9:0:17:23:24, 614000, 170

9100010, EMPTY, EMPTY, 0:17:23:24, 117000, 32

8400010, EMPTY, EMPTY, 19:15:17:23:24, 820000, 227

9200010, EMPTY, EMPTY, 0:17:23:24, 23000, 6

9100010, INTERESTING, INTERESTING, 1:23:24, 205000, 56

8200010, EMPTY, EMPTY, 14:7:23:24, 1108000, 307

8700010, EMPTY, EMPTY, 5:0:17:23:24, 611000, 169

8900010, EMPTY, EMPTY, 9:0:17:23:24, 414000, 115

9300010, EMPTY, EMPTY, 1:23:24, 105000, 29

8500010, EMPTY, EMPTY, 10:17:23:24, 908000, 252

9400010, INTERESTING, INTERESTING, 0:17:23:24, 11000, 3

7900010, EMPTY, EMPTY, 4:17:23:24, 1514000, 420

9200010, EMPTY, EMPTY, 8:23:24, 307000, 85

9300010, EMPTY, EMPTY, 0:17:23:24, 210000, 58

9400010, EMPTY, EMPTY, 1:23:24, 205000, 56

9000010, EMPTY, EMPTY, 19:15:17:23:24, 608000, 168

8200010, EMPTY, EMPTY, 2:17:23:24, 1411000, 391

9000010, INTERESTING, INTERESTING, 6:23:24, 705000, 195

8300010, EMPTY, EMPTY, 16:0:17:23:24, 1408000, 391

9300010, EMPTY, EMPTY, 10:17:23:24, 411000, 114

9300010, EMPTY, EMPTY, 7:23:24, 505000, 140

9500010, EMPTY, EMPTY, 15:17:23:24, 308000, 85

9600010, INTERESTING, INTERESTING, 2:17:23:24, 211000, 58

9400010, EMPTY, EMPTY, 16:0:17:23:24, 508000, 141

9700010, EMPTY, EMPTY, 10:17:23:24, 310000, 86

9200010, EMPTY, EMPTY, 5:0:17:23:24, 813000, 225

9100010, EMPTY, EMPTY, 3:8:23:24, 1008000, 280

9200010, INTERESTING, INTERESTING, 19:15:17:23:24, 911000, 253

9600010, INTERESTING, INTERESTING, 1:23:24, 605000, 168

9700010, EMPTY, EMPTY, 19:15:17:23:24, 605000, 168

10300010, EMPTY, EMPTY, 17:23:24, 8000, 2

9800010, EMPTY, EMPTY, 7:23:24, 605000, 168

9900010, EMPTY, EMPTY, 10:17:23:24, 608000, 168

10200010, EMPTY, EMPTY, 1:23:24, 405000, 112

8900010, EMPTY, EMPTY, 18:23:24, 1708000, 474

9800010, INTERESTING, INTERESTING, 2:17:23:24, 811000, 225

8100010, EMPTY, EMPTY, 12:17:23:24, 2514000, 698

10600010, EMPTY, EMPTY, 1:23:24, 105000, 29

9200010, EMPTY, EMPTY, 9:0:17:23:24, 1508000, 418

10700010, INTERESTING, INTERESTING, 1:23:24, 105000, 29

10600010, INTERESTING, INTERESTING, 18:23:24, 208000, 57

10400010, EMPTY, EMPTY, 7:23:24, 411000, 114

10600010, EMPTY, EMPTY, 2:17:23:24, 214000, 59

10800010, INTERESTING, INTERESTING, 17:23:24, 107000, 29

10500010, EMPTY, EMPTY, 12:17:23:24, 410000, 113

8500010, EMPTY, EMPTY, 13:15:17:23:24, 2413000, 670

10000010, INTERESTING, INTERESTING, 9:0:17:23:24, 1005000, 279

10800010, EMPTY, EMPTY, 7:23:24, 305000, 84

11000010, EMPTY, EMPTY, 17:23:24, 108000, 30

11100010, EMPTY, EMPTY, 17:23:24, 108000, 30

10300010, EMPTY, EMPTY, 10:17:23:24, 911000, 253

10100010, EMPTY, EMPTY, 13:15:17:23:24, 1114000, 309

11300010, INTERESTING, INTERESTING, 8:23:24, 5000, 1

10800010, EMPTY, EMPTY, 1:23:24, 508000, 141

10900010, INTERESTING, INTERESTING, 13:15:17:23:24, 411000, 114

10800010, EMPTY, EMPTY, 18:23:24, 605000, 168

11100010, EMPTY, EMPTY, 7:23:24, 308000, 85

9500010, EMPTY, EMPTY, 3:8:23:24, 1911000, 530

11400010, EMPTY, EMPTY, 8:23:24, 14000, 3

10000010, EMPTY, EMPTY, 19:15:17:23:24, 1417000, 393

11200010, EMPTY, EMPTY, 19:15:17:23:24, 305000, 84

11500010, EMPTY, EMPTY, 17:23:24, 8000, 2

9400010, EMPTY, EMPTY, 4:17:23:24, 2111000, 586

9700010, EMPTY, EMPTY, 6:23:24, 1905000, 529

10100010, EMPTY, EMPTY, 3:8:23:24, 1508000, 418

11500010, INTERESTING, INTERESTING, 2:17:23:24, 111000, 30

10700010, EMPTY, EMPTY, 2:17:23:24, 914000, 253

11400010, EMPTY, INTERESTING, 15:17:23:24, 307000, 85

11600010, INTERESTING, INTERESTING, 15:17:23:24, 110000, 30

11400010, INTERESTING, INTERESTING, 18:23:24, 405000, 112

11600010, EMPTY, EMPTY, 2:17:23:24, 208000, 57

11500010, EMPTY, EMPTY, 4:17:23:24, 311000, 86

11700010, EMPTY, EMPTY, 2:17:23:24, 114000, 31

11400010, INTERESTING, INTERESTING, 3:8:23:24, 505000, 140

10600010, EMPTY, EMPTY, 9:0:17:23:24, 1308000, 363

11800010, EMPTY, EMPTY, 4:17:23:24, 111000, 30

11700010, EMPTY, EMPTY, 15:17:23:24, 214000, 59

11800010, EMPTY, EMPTY, 2:17:23:24, 117000, 32

10900010, EMPTY, EMPTY, 12:17:23:24, 1107000, 307

11900010, EMPTY, EMPTY, 8:23:24, 208000, 57

9800010, INTERESTING, EMPTY, 5:0:17:23:24, 2311000, 641

12000010, EMPTY, EMPTY, 0:17:23:24, 114000, 31

11900010, EMPTY, EMPTY, 15:17:23:24, 217000, 60

11600010, EMPTY, EMPTY, 6:23:24, 605000, 168

9600010, EMPTY, EMPTY, 16:0:17:23:24, 2608000, 724

11800010, EMPTY, EMPTY, 5:0:17:23:24, 411000, 114

11300010, INTERESTING, INTERESTING, 19:15:17:23:24, 914000, 253

12200010, EMPTY, EMPTY, 0:17:23:24, 17000, 4

11300010, EMPTY, EMPTY, 1:23:24, 1005000, 279

10900010, EMPTY, EMPTY, 9:0:17:23:24, 1409000, 391

9200010, EMPTY, EMPTY, 11:23:24, 3205000, 890

11200010, EMPTY, EMPTY, 13:15:17:23:24, 1210000, 336

12300010, INTERESTING, INTERESTING, 1:23:24, 305000, 84

12100010, INTERESTING, INTERESTING, 3:8:23:24, 508000, 141

12400010, EMPTY, EMPTY, 11:23:24, 211000, 58

11800010, EMPTY, EMPTY, 18:23:24, 814000, 226

12200010, EMPTY, EMPTY, 13:15:17:23:24, 417000, 115

12100010, EMPTY, EMPTY, 19:15:17:23:24, 520000, 144

12100010, EMPTY, EMPTY, 5:0:17:23:24, 523000, 145

12600010, EMPTY, EMPTY, 0:17:23:24, 107000, 29

11200010, INTERESTING, INTERESTING, 10:17:23:24, 1510000, 419

12600010, INTERESTING, INTERESTING, 15:17:23:24, 308000, 85

11400010, EMPTY, EMPTY, 7:23:24, 1511000, 419

12700010, EMPTY, EMPTY, 15:17:23:24, 214000, 59

12600010, EMPTY, EMPTY, 18:23:24, 405000, 112

12900010, EMPTY, EMPTY, 15:17:23:24, 210000, 58

12200010, EMPTY, EMPTY, 5:0:17:23:24, 1005000, 279

13200010, INTERESTING, INTERESTING, 17:23:24, 10000, 2

12600010, EMPTY, EMPTY, 11:23:24, 1005000, 279

11600010, INTERESTING, INTERESTING, 3:8:23:24, 2008000, 557

13600010, INTERESTING, INTERESTING, 13:15:17:23:24, 11000, 3

12600010, EMPTY, EMPTY, 5:0:17:23:24, 1014000, 281

12400010, EMPTY, EMPTY, 19:15:17:23:24, 1217000, 338

13000010, EMPTY, EMPTY, 18:23:24, 705000, 195

13600010, EMPTY, EMPTY, 15:17:23:24, 110000, 30

12100010, EMPTY, EMPTY, 16:0:17:23:24, 1613000, 448

12900010, EMPTY, EMPTY, 19:15:17:23:24, 816000, 226

12600010, EMPTY, EMPTY, 1:23:24, 1205000, 334

12600010, EMPTY, INTERESTING, 3:8:23:24, 1208000, 335

12200010, EMPTY, EMPTY, 9:0:17:23:24, 1611000, 447

13800010, EMPTY, EMPTY, 17:23:24, 14000, 3

11900010, EMPTY, EMPTY, 12:17:23:24, 1917000, 532

13800010, EMPTY, EMPTY, 1:23:24, 105000, 29

9200010, EMPTY, EMPTY, 14:7:23:24, 4708000, 1307

13100010, EMPTY, EMPTY, 5:0:17:23:24, 811000, 225

12700010, EMPTY, EMPTY, 10:17:23:24, 1307000, 363

14000010, INTERESTING, INTERESTING, 0:17:23:24, 10000, 2

13200010, INTERESTING, INTERESTING, 16:0:17:23:24, 813000, 225

12200010, EMPTY, EMPTY, 6:23:24, 2005000, 556

13800010, EMPTY, EMPTY, 12:17:23:24, 408000, 113

13800010, EMPTY, EMPTY, 8:23:24, 505000, 140

13800010, EMPTY, EMPTY, 16:0:17:23:24, 508000, 141

11900010, EMPTY, EMPTY, 4:17:23:24, 2505000, 695

14400010, INTERESTING, INTERESTING, 17:23:24, 8000, 2

11900010, EMPTY, EMPTY, 2:17:23:24, 2511000, 697

14000010, EMPTY, EMPTY, 12:17:23:24, 414000, 115

14200010, EMPTY, EMPTY, 6:23:24, 305000, 84

12900010, EMPTY, EMPTY, 14:7:23:24, 1608000, 446

14500010, EMPTY, EMPTY, 7:23:24, 11000, 3

14300010, EMPTY, EMPTY, 8:23:24, 214000, 59

14500010, EMPTY, EMPTY, 6:23:24, 105000, 29

14300010, EMPTY, EMPTY, 4:17:23:24, 309000, 85

13600010, EMPTY, EMPTY, 3:8:23:24, 1107000, 307

13900010, EMPTY, EMPTY, 14:7:23:24, 810000, 225

14200010, EMPTY, EMPTY, 0:17:23:24, 513000, 142

12300010, EMPTY, EMPTY, 13:15:17:23:24, 2416000, 671

14400010, EMPTY, EMPTY, 2:17:23:24, 407000, 113

14700010, EMPTY, EMPTY, 15:17:23:24, 111000, 30

14000010, EMPTY, EMPTY, 16:0:17:23:24, 907000, 251

14500010, EMPTY, EMPTY, 3:8:23:24, 410000, 113

14700010, EMPTY, EMPTY, 2:17:23:24, 213000, 59

13700010, INTERESTING, INTERESTING, 18:23:24, 1305000, 362

14600010, EMPTY, EMPTY, 6:23:24, 505000, 140

14800010, EMPTY, EMPTY, 15:17:23:24, 309000, 85

13700010, INTERESTING, INTERESTING, 13:15:17:23:24, 1412000, 392

14700010, EMPTY, EMPTY, 3:8:23:24, 505000, 140

14500010, EMPTY, EMPTY, 14:7:23:24, 708000, 196

14900010, EMPTY, EMPTY, 13:15:17:23:24, 311000, 86

15000010, EMPTY, EMPTY, 18:23:24, 305000, 84

14900010, EMPTY, EMPTY, 2:17:23:24, 408000, 113

13900010, EMPTY, EMPTY, 10:17:23:24, 1411000, 391

14600010, EMPTY, EMPTY, 16:0:17:23:24, 714000, 198

13600010, INTERESTING, EMPTY, 11:23:24, 1805000, 501

15400010, INTERESTING, INTERESTING, 8:23:24, 8000, 2

15300010, EMPTY, EMPTY, 18:23:24, 111000, 30

15200010, EMPTY, EMPTY, 8:23:24, 214000, 59

15200010, EMPTY, EMPTY, 7:23:24, 217000, 60

13700010, EMPTY, EMPTY, 9:0:17:23:24, 1720000, 477

15400010, INTERESTING, INTERESTING, 17:23:24, 107000, 29

13600010, EMPTY, INTERESTING, 19:15:17:23:24, 1910000, 530