DWC_ID, Processed Contents, Actual Contents, Route, Total_Trans_Time, Trans_Time_Hours 
10010, , INTERESTING, 14:12:20:24, 60000, 16

20010, , EMPTY, 18:7:20:24, 65000, 18

60010, INTERESTING, INTERESTING, 2:17:20:24, 40000, 11

10010, , EMPTY, 17:20:24, 105000, 29

10010, , INTERESTING, 8:17:20:24, 120000, 33

10010, , EMPTY, 13:15:20:24, 135000, 37

40010, , EMPTY, 2:17:20:24, 120000, 33

30010, INTERESTING, INTERESTING, 12:20:24, 145000, 40

30010, , EMPTY, 13:15:20:24, 160000, 44

40010, , EMPTY, 7:20:24, 165000, 45

70010, , EMPTY, 15:20:24, 150000, 41

60010, , EMPTY, 8:17:20:24, 175000, 48

100010, , EMPTY, 11:20:24, 150000, 41

70010, , EMPTY, 2:17:20:24, 195000, 54

110010, , INTERESTING, 11:20:24, 170000, 47

120010, , INTERESTING, 11:20:24, 175000, 48

70010, , EMPTY, 8:17:20:24, 240000, 66

70010, , EMPTY, 13:15:20:24, 255000, 70

40010, , EMPTY, 1:8:17:20:24, 300000, 83

100010, , INTERESTING, 10:15:20:24, 255000, 70

20010, , EMPTY, 3:5:20:24, 350000, 97

50010, , EMPTY, 16:15:20:24, 335000, 93

100010, , EMPTY, 2:17:20:24, 300000, 83

60010, , EMPTY, 5:20:24, 355000, 98

340010, INTERESTING, INTERESTING, 8:17:20:24, 90000, 25

130010, , INTERESTING, 11:20:24, 315000, 87

90010, , EMPTY, 13:15:20:24, 370000, 102

130010, , INTERESTING, 10:15:20:24, 345000, 95

120010, , EMPTY, 9:20:24, 370000, 102

460010, INTERESTING, INTERESTING, 6:20:24, 45000, 12

480010, INTERESTING, INTERESTING, 5:20:24, 40000, 11

110010, , EMPTY, 8:17:20:24, 425000, 118

60010, , EMPTY, 0:20:24, 490000, 136

180010, , INTERESTING, 0:20:24, 385000, 106

30010, , EMPTY, 6:20:24, 550000, 152

150010, , EMPTY, 16:15:20:24, 445000, 123

190010, , EMPTY, 0:20:24, 420000, 116

190010, , INTERESTING, 15:20:24, 435000, 120

160010, , EMPTY, 5:20:24, 480000, 133

60010, , EMPTY, 18:7:20:24, 595000, 165

160010, , EMPTY, 13:15:20:24, 510000, 141

160010, , INTERESTING, 16:15:20:24, 525000, 145

200010, , EMPTY, 15:20:24, 500000, 138

210010, , EMPTY, 15:20:24, 505000, 140

190010, , EMPTY, 6:20:24, 540000, 150

200010, , EMPTY, 5:20:24, 545000, 151

70010, , INTERESTING, 19:15:20:24, 690000, 191

230010, , EMPTY, 5:20:24, 545000, 151

200010, , INTERESTING, 0:20:24, 590000, 163

90010, , EMPTY, 18:7:20:24, 715000, 198

780010, INTERESTING, INTERESTING, 2:17:20:24, 40000, 11

790010, INTERESTING, INTERESTING, 17:20:24, 45000, 12

50010, , EMPTY, 14:12:20:24, 800000, 222

220010, , EMPTY, 15:20:24, 645000, 179

800010, INTERESTING, INTERESTING, 17:20:24, 80000, 22

240010, , EMPTY, 0:20:24, 655000, 181

230010, , EMPTY, 19:15:20:24, 680000, 188

130010, , EMPTY, 1:8:17:20:24, 795000, 220

250010, , EMPTY, 0:20:24, 690000, 191

150010, , EMPTY, 3:5:20:24, 805000, 223

40010, , INTERESTING, 4:17:20:24, 930000, 258

950010, INTERESTING, INTERESTING, 17:20:24, 35000, 9

150010, , EMPTY, 14:12:20:24, 850000, 236

140010, , INTERESTING, 10:15:20:24, 875000, 243

280010, , EMPTY, 12:20:24, 750000, 208

230010, , EMPTY, 6:20:24, 815000, 226

150010, , EMPTY, 1:8:17:20:24, 910000, 252

130010, , EMPTY, 2:17:20:24, 945000, 262

200010, , EMPTY, 13:15:20:24, 890000, 247

270010, , EMPTY, 17:20:24, 835000, 231

160010, , EMPTY, 11:20:24, 960000, 266

270010, , INTERESTING, 0:20:24, 865000, 240

300010, , EMPTY, 8:17:20:24, 850000, 236

240010, , EMPTY, 5:20:24, 925000, 256

240010, , INTERESTING, 19:15:20:24, 940000, 261

170010, , EMPTY, 1:8:17:20:24, 1025000, 284

270010, , EMPTY, 4:17:20:24, 940000, 261

240010, , EMPTY, 7:20:24, 985000, 273

300010, , EMPTY, 12:20:24, 940000, 261

200010, , INTERESTING, 18:7:20:24, 1055000, 293

320010, , EMPTY, 0:20:24, 950000, 263

280010, , EMPTY, 10:15:20:24, 1005000, 279

240010, , EMPTY, 14:12:20:24, 1060000, 294

300010, , EMPTY, 2:17:20:24, 1015000, 281

330010, , EMPTY, 7:20:24, 1000000, 277

170010, , EMPTY, 9:20:24, 1175000, 326

270010, , INTERESTING, 3:5:20:24, 1090000, 302

340010, , EMPTY, 0:20:24, 1035000, 287

350010, , EMPTY, 9:20:24, 1040000, 288

310010, , EMPTY, 8:17:20:24, 1095000, 304

300010, , EMPTY, 6:20:24, 1120000, 311

320010, , EMPTY, 4:17:20:24, 1115000, 309

320010, , EMPTY, 3:5:20:24, 1130000, 313

360010, , EMPTY, 9:20:24, 1105000, 306

360010, , EMPTY, 0:20:24, 1120000, 311

320010, , EMPTY, 2:17:20:24, 1175000, 326

360010, , EMPTY, 17:20:24, 1150000, 319

260010, , INTERESTING, 19:15:20:24, 1265000, 351

360010, , EMPTY, 4:17:20:24, 1180000, 327

310010, , EMPTY, 13:15:20:24, 1245000, 345

380010, , EMPTY, 0:20:24, 1190000, 330

200010, , EMPTY, 16:15:20:24, 1385000, 384

1520010, INTERESTING, INTERESTING, 3:5:20:24, 80000, 22

330010, , INTERESTING, 12:20:24, 1285000, 356

380010, , EMPTY, 2:17:20:24, 1250000, 347

320010, , EMPTY, 1:8:17:20:24, 1325000, 368

320010, , INTERESTING, 10:15:20:24, 1340000, 372

340010, , INTERESTING, 13:15:20:24, 1335000, 370

390010, , EMPTY, 17:20:24, 1300000, 361

1660010, INTERESTING, INTERESTING, 17:20:24, 45000, 12

350010, , EMPTY, 7:20:24, 1370000, 380

410010, , EMPTY, 10:15:20:24, 1325000, 368

330010, , EMPTY, 18:7:20:24, 1420000, 394

1710010, INTERESTING, INTERESTING, 2:17:20:24, 55000, 15

360010, , INTERESTING, 6:20:24, 1420000, 394

430010, , EMPTY, 10:15:20:24, 1365000, 379

400010, , EMPTY, 8:17:20:24, 1410000, 391

320010, , EMPTY, 11:20:24, 1505000, 418

1790010, INTERESTING, INTERESTING, 15:20:24, 50000, 13

400010, , EMPTY, 1:8:17:20:24, 1455000, 404

390010, , EMPTY, 13:15:20:24, 1480000, 411

380010, , EMPTY, 5:20:24, 1505000, 418

400010, , INTERESTING, 16:15:20:24, 1500000, 416

400010, , EMPTY, 2:17:20:24, 1515000, 420

350010, , EMPTY, 3:5:20:24, 1580000, 438

450010, , EMPTY, 10:15:20:24, 1495000, 415

460010, , INTERESTING, 10:15:20:24, 1500000, 416

430010, , EMPTY, 1:8:17:20:24, 1545000, 429

480010, , EMPTY, 16:15:20:24, 1510000, 419

400010, , INTERESTING, 0:20:24, 1605000, 445

450010, , EMPTY, 7:20:24, 1570000, 436

480010, , EMPTY, 10:15:20:24, 1555000, 431

510010, , EMPTY, 7:20:24, 1540000, 427

490010, , EMPTY, 15:20:24, 1575000, 437

390010, , EMPTY, 19:15:20:24, 1690000, 469

500010, , EMPTY, 0:20:24, 1595000, 443

2040010, INTERESTING, INTERESTING, 2:17:20:24, 70000, 19

520010, , EMPTY, 15:20:24, 1605000, 445

340010, , INTERESTING, 14:12:20:24, 1800000, 500

450010, , EMPTY, 18:7:20:24, 1705000, 473

530010, , EMPTY, 15:20:24, 1640000, 455

380010, , EMPTY, 9:20:24, 1805000, 501

520010, , EMPTY, 7:20:24, 1680000, 466

390010, , EMPTY, 4:17:20:24, 1825000, 506

490010, , EMPTY, 6:20:24, 1740000, 483

400010, , EMPTY, 14:12:20:24, 1845000, 512

470010, , INTERESTING, 13:15:20:24, 1790000, 497

530010, , INTERESTING, 14:12:20:24, 1745000, 484

530010, , INTERESTING, 0:20:24, 1760000, 488

530010, , INTERESTING, 18:7:20:24, 1775000, 493

490010, , EMPTY, 17:20:24, 1830000, 508

470010, , EMPTY, 11:20:24, 1865000, 518

570010, , EMPTY, 7:20:24, 1780000, 494

570010, , EMPTY, 0:20:24, 1795000, 498

540010, , EMPTY, 9:20:24, 1840000, 511

540010, , EMPTY, 18:7:20:24, 1855000, 515

480010, , EMPTY, 3:5:20:24, 1930000, 536

490010, , EMPTY, 16:15:20:24, 1935000, 537

490010, , EMPTY, 5:20:24, 1950000, 541

570010, , EMPTY, 12:20:24, 1885000, 523

590010, , EMPTY, 3:5:20:24, 1880000, 522

510010, , EMPTY, 10:15:20:24, 1975000, 548

2410010, INTERESTING, INTERESTING, 14:12:20:24, 90000, 25

520010, , EMPTY, 19:15:20:24, 1995000, 554

590010, , EMPTY, 7:20:24, 1940000, 538

540010, , EMPTY, 15:20:24, 2005000, 556

540010, , INTERESTING, 4:17:20:24, 2020000, 561

480010, , EMPTY, 2:17:20:24, 2095000, 581

610010, , EMPTY, 5:20:24, 1980000, 550

610010, , EMPTY, 19:15:20:24, 1995000, 554

550010, , EMPTY, 6:20:24, 2070000, 575

630010, , EMPTY, 15:20:24, 2005000, 556

590010, , EMPTY, 18:7:20:24, 2060000, 572

590010, , INTERESTING, 11:20:24, 2075000, 576

620010, , EMPTY, 18:7:20:24, 2060000, 572

650010, , INTERESTING, 6:20:24, 2045000, 568

470010, , EMPTY, 8:17:20:24, 2240000, 622

580010, , EMPTY, 17:20:24, 2145000, 595

590010, , EMPTY, 0:20:24, 2150000, 597

600010, , EMPTY, 3:5:20:24, 2155000, 598

590010, , EMPTY, 16:15:20:24, 2180000, 605

670010, , EMPTY, 6:20:24, 2115000, 587

610010, , EMPTY, 12:20:24, 2190000, 608

640010, , INTERESTING, 19:15:20:24, 2175000, 604

2650010, INTERESTING, INTERESTING, 18:7:20:24, 180000, 50

630010, , INTERESTING, 4:17:20:24, 2215000, 615

690010, , INTERESTING, 6:20:24, 2170000, 602

660010, , EMPTY, 11:20:24, 2215000, 615

550010, , EMPTY, 14:12:20:24, 2340000, 650

680010, , EMPTY, 16:15:20:24, 2225000, 618

2860010, INTERESTING, INTERESTING, 11:20:24, 60000, 16

670010, , EMPTY, 8:17:20:24, 2265000, 629

590010, , EMPTY, 9:20:24, 2360000, 655

630010, , EMPTY, 2:17:20:24, 2335000, 648

550010, , EMPTY, 13:15:20:24, 2430000, 675

690010, , EMPTY, 12:20:24, 2305000, 640

690010, , EMPTY, 15:20:24, 2320000, 644

700010, , EMPTY, 6:20:24, 2325000, 645

2970010, INTERESTING, INTERESTING, 12:20:24, 70000, 19

710010, , EMPTY, 14:12:20:24, 2345000, 651

610010, , EMPTY, 10:15:20:24, 2460000, 683

720010, , EMPTY, 13:15:20:24, 2365000, 656

730010, , EMPTY, 12:20:24, 2370000, 658

710010, , EMPTY, 11:20:24, 2405000, 668

710010, , EMPTY, 16:15:20:24, 2420000, 672

640010, , EMPTY, 5:20:24, 2505000, 695

3080010, INTERESTING, INTERESTING, 7:20:24, 80000, 22

680010, , EMPTY, 3:5:20:24, 2495000, 693

3110010, INTERESTING, INTERESTING, 15:20:24, 80000, 22

680010, , EMPTY, 17:20:24, 2525000, 701

740010, , EMPTY, 3:5:20:24, 2480000, 688

3080010, INTERESTING, INTERESTING, 10:15:20:24, 155000, 43

750010, , EMPTY, 5:20:24, 2500000, 694

690010, , EMPTY, 4:17:20:24, 2575000, 715

710010, , EMPTY, 8:17:20:24, 2570000, 713

730010, , INTERESTING, 15:20:24, 2565000, 712

720010, , EMPTY, 2:17:20:24, 2590000, 719

750010, , EMPTY, 3:5:20:24, 2575000, 715

460010, , EMPTY, 1:8:17:20:24, 2880000, 800

650010, , EMPTY, 18:7:20:24, 2705000, 751

680010, , EMPTY, 0:20:24, 2690000, 747

730010, , EMPTY, 10:15:20:24, 2655000, 737

760010, , EMPTY, 8:17:20:24, 2640000, 733

660010, , EMPTY, 18:7:20:24, 2755000, 765

760010, , INTERESTING, 5:20:24, 2670000, 741

3410010, INTERESTING, INTERESTING, 12:20:24, 35000, 9

730010, , EMPTY, 14:12:20:24, 2730000, 758

740010, , EMPTY, 11:20:24, 2735000, 759

810010, , EMPTY, 0:20:24, 2680000, 744

720010, , EMPTY, 9:20:24, 2785000, 773

790010, , EMPTY, 1:8:17:20:24, 2730000, 758

730010, , INTERESTING, 13:15:20:24, 2805000, 779

800010, , EMPTY, 2:17:20:24, 2750000, 763

730010, , EMPTY, 6:20:24, 2835000, 787

740010, , EMPTY, 16:15:20:24, 2840000, 788

850010, , INTERESTING, 11:20:24, 2745000, 762

820010, , EMPTY, 7:20:24, 2790000, 775

880010, , EMPTY, 7:20:24, 2745000, 762

850010, , EMPTY, 2:17:20:24, 2790000, 775

850010, , EMPTY, 0:20:24, 2805000, 779

870010, , EMPTY, 17:20:24, 2800000, 777

810010, , EMPTY, 1:8:17:20:24, 2875000, 798

890010, , INTERESTING, 7:20:24, 2810000, 780

780010, , INTERESTING, 10:15:20:24, 2935000, 815

850010, , EMPTY, 1:8:17:20:24, 2880000, 800

740010, , EMPTY, 12:20:24, 3005000, 834

810010, , EMPTY, 10:15:20:24, 2950000, 819

800010, , EMPTY, 18:7:20:24, 2975000, 826

910010, , EMPTY, 7:20:24, 2880000, 800

900010, , EMPTY, 0:20:24, 2905000, 806

890010, , EMPTY, 2:17:20:24, 2930000, 813

790010, , EMPTY, 3:5:20:24, 3045000, 845

650010, , EMPTY, 19:15:20:24, 3200000, 888

870010, , EMPTY, 16:15:20:24, 2995000, 831

900010, , INTERESTING, 1:8:17:20:24, 2980000, 827

750010, , EMPTY, 4:17:20:24, 3145000, 873

860010, , EMPTY, 13:15:20:24, 3050000, 847

900010, , EMPTY, 2:17:20:24, 3025000, 840

930010, , EMPTY, 8:17:20:24, 3010000, 836

910010, , EMPTY, 15:20:24, 3045000, 845

940010, , EMPTY, 17:20:24, 3030000, 841

940010, , INTERESTING, 2:17:20:24, 3045000, 845

930010, , EMPTY, 0:20:24, 3070000, 852

880010, , EMPTY, 11:20:24, 3135000, 870

870010, , EMPTY, 6:20:24, 3160000, 877

4000010, INTERESTING, INTERESTING, 13:15:20:24, 45000, 12

950010, , INTERESTING, 2:17:20:24, 3110000, 863

960010, , EMPTY, 11:20:24, 3115000, 865

930010, , INTERESTING, 19:15:20:24, 3160000, 877

940010, , EMPTY, 4:17:20:24, 3165000, 879

820010, , INTERESTING, 3:5:20:24, 3300000, 916

960010, , EMPTY, 2:17:20:24, 3175000, 881

930010, , EMPTY, 7:20:24, 3220000, 894

820010, , EMPTY, 14:12:20:24, 3345000, 929

970010, , EMPTY, 17:20:24, 3210000, 891

920010, , EMPTY, 18:7:20:24, 3275000, 909

970010, , EMPTY, 4:17:20:24, 3240000, 900

980010, , EMPTY, 7:20:24, 3245000, 901

970010, , EMPTY, 2:17:20:24, 3270000, 908

970010, , EMPTY, 11:20:24, 3285000, 912

4190010, INTERESTING, INTERESTING, 6:20:24, 80000, 22

990010, , EMPTY, 17:20:24, 3295000, 915

920010, , EMPTY, 12:20:24, 3380000, 938

1020010, , INTERESTING, 12:20:24, 3295000, 915

4300010, INTERESTING, INTERESTING, 0:20:24, 30000, 8

960010, , EMPTY, 6:20:24, 3385000, 940

950010, , EMPTY, 15:20:24, 3410000, 947

1010010, , EMPTY, 17:20:24, 3365000, 934

930010, , EMPTY, 3:5:20:24, 3460000, 961

960010, , EMPTY, 0:20:24, 3445000, 956

1030010, , INTERESTING, 17:20:24, 3390000, 941

970010, , EMPTY, 3:5:20:24, 3465000, 962

940010, , EMPTY, 8:17:20:24, 3510000, 975

920010, , EMPTY, 10:15:20:24, 3545000, 984

930010, , EMPTY, 16:15:20:24, 3550000, 986

4430010, INTERESTING, INTERESTING, 0:20:24, 65000, 18

4440010, INTERESTING, INTERESTING, 4:17:20:24, 70000, 19

1010010, , EMPTY, 11:20:24, 3515000, 976

1030010, , EMPTY, 3:5:20:24, 3510000, 975

980010, , EMPTY, 14:12:20:24, 3575000, 993

910010, , INTERESTING, 1:8:17:20:24, 3660000, 1016

850010, , EMPTY, 9:20:24, 3735000, 1037

1030010, , INTERESTING, 6:20:24, 3570000, 991

1060010, , EMPTY, 11:20:24, 3555000, 987

1040010, , INTERESTING, 17:20:24, 3590000, 997

1030010, , EMPTY, 12:20:24, 3615000, 1004

1040010, , EMPTY, 3:5:20:24, 3620000, 1005

1060010, , INTERESTING, 14:12:20:24, 3615000, 1004

1070010, , EMPTY, 11:20:24, 3620000, 1005

1070010, , EMPTY, 6:20:24, 3635000, 1009

990010, , INTERESTING, 7:20:24, 3730000, 1036

1050010, , INTERESTING, 8:17:20:24, 3685000, 1023

980010, , EMPTY, 18:7:20:24, 3770000, 1047

1030010, , EMPTY, 15:20:24, 3735000, 1037

1080010, , EMPTY, 14:12:20:24, 3700000, 1027

980010, , EMPTY, 2:17:20:24, 3815000, 1059

1080010, , EMPTY, 8:17:20:24, 3730000, 1036

1050010, , EMPTY, 16:15:20:24, 3775000, 1048

1100010, , EMPTY, 17:20:24, 3740000, 1038

1060010, , EMPTY, 3:5:20:24, 3795000, 1054

940010, , EMPTY, 13:15:20:24, 3930000, 1091

970010, , EMPTY, 19:15:20:24, 3915000, 1087

1090010, , INTERESTING, 12:20:24, 3810000, 1058

1090010, , EMPTY, 7:20:24, 3825000, 1062

4730010, INTERESTING, INTERESTING, 6:20:24, 200000, 55

4820010, INTERESTING, INTERESTING, 13:15:20:24, 125000, 34

1040010, , EMPTY, 0:20:24, 3920000, 1088

4890010, INTERESTING, INTERESTING, 7:20:24, 85000, 23

1090010, , EMPTY, 5:20:24, 3900000, 1083

1100010, , INTERESTING, 14:12:20:24, 3905000, 1084

1120010, , EMPTY, 14:12:20:24, 3900000, 1083

1100010, , EMPTY, 2:17:20:24, 3935000, 1093

1140010, , EMPTY, 12:20:24, 3910000, 1086

1100010, , EMPTY, 18:7:20:24, 3965000, 1101

1110010, , EMPTY, 15:20:24, 3970000, 1102

1110010, , EMPTY, 13:15:20:24, 3985000, 1106

1130010, , EMPTY, 0:20:24, 3980000, 1105

1090010, , INTERESTING, 6:20:24, 4035000, 1120

1110010, , EMPTY, 2:17:20:24, 4030000, 1119

1050010, , EMPTY, 10:15:20:24, 4105000, 1140

5090010, INTERESTING, INTERESTING, 11:20:24, 80000, 22

1140010, , EMPTY, 14:12:20:24, 4045000, 1123

1110010, , INTERESTING, 19:15:20:24, 4090000, 1136

5130010, INTERESTING, INTERESTING, 10:15:20:24, 85000, 23

1070010, , EMPTY, 9:20:24, 4160000, 1155

1100010, , EMPTY, 16:15:20:24, 4145000, 1151

1160010, , INTERESTING, 15:20:24, 4100000, 1138

5240010, INTERESTING, INTERESTING, 5:20:24, 35000, 9

1060010, , EMPTY, 1:8:17:20:24, 4230000, 1175

1150010, , EMPTY, 17:20:24, 4155000, 1154

1150010, , EMPTY, 14:12:20:24, 4170000, 1158

1160010, , INTERESTING, 13:15:20:24, 4175000, 1159

1180010, , EMPTY, 10:15:20:24, 4170000, 1158

1190010, , EMPTY, 9:20:24, 4175000, 1159

5290010, INTERESTING, INTERESTING, 9:20:24, 90000, 25

1120010, , INTERESTING, 18:7:20:24, 4275000, 1187

1180010, , EMPTY, 14:12:20:24, 4230000, 1175

1200010, , INTERESTING, 10:15:20:24, 4225000, 1173

1170010, , EMPTY, 0:20:24, 4270000, 1186

1100010, , EMPTY, 8:17:20:24, 4355000, 1209

1210010, , EMPTY, 12:20:24, 4260000, 1183

1180010, , EMPTY, 2:17:20:24, 4305000, 1195

1210010, , EMPTY, 10:15:20:24, 4290000, 1191

1210010, , INTERESTING, 17:20:24, 4305000, 1195

1220010, , INTERESTING, 9:20:24, 4310000, 1197

1090010, , EMPTY, 11:20:24, 4455000, 1237

1220010, , EMPTY, 14:12:20:24, 4340000, 1205

1230010, , EMPTY, 8:17:20:24, 4345000, 1206

1240010, , INTERESTING, 2:17:20:24, 4350000, 1208

1200010, , EMPTY, 1:8:17:20:24, 4405000, 1223

5560010, INTERESTING, INTERESTING, 4:17:20:24, 60000, 16

1250010, , EMPTY, 9:20:24, 4385000, 1218

5550010, INTERESTING, INTERESTING, 16:15:20:24, 100000, 27

1170010, , EMPTY, 6:20:24, 4495000, 1248

1220010, , EMPTY, 7:20:24, 4460000, 1238

1230010, , EMPTY, 0:20:24, 4465000, 1240

980010, , EMPTY, 4:17:20:24, 4730000, 1313

1240010, , INTERESTING, 12:20:24, 4485000, 1245

1250010, , EMPTY, 17:20:24, 4490000, 1247

5680010, INTERESTING, INTERESTING, 14:12:20:24, 75000, 20

1210010, , EMPTY, 13:15:20:24, 4560000, 1266

1230010, , EMPTY, 15:20:24, 4555000, 1265

1110010, , EMPTY, 3:5:20:24, 4690000, 1302

1280010, , EMPTY, 6:20:24, 4535000, 1259

1250010, , EMPTY, 8:17:20:24, 4580000, 1272

1140010, , EMPTY, 5:20:24, 4705000, 1306

1260010, , EMPTY, 1:8:17:20:24, 4600000, 1277

1260010, , EMPTY, 2:17:20:24, 4615000, 1281

1280010, , EMPTY, 4:17:20:24, 4610000, 1280

5730010, INTERESTING, INTERESTING, 14:12:20:24, 175000, 48

1300010, , EMPTY, 15:20:24, 4620000, 1283

1320010, , EMPTY, 5:20:24, 4615000, 1281

5810010, INTERESTING, INTERESTING, 7:20:24, 140000, 38

1310010, , EMPTY, 17:20:24, 4655000, 1293

1320010, , EMPTY, 8:17:20:24, 4660000, 1294

1150010, , EMPTY, 18:7:20:24, 4845000, 1345

1320010, , EMPTY, 2:17:20:24, 4690000, 1302

1290010, , INTERESTING, 13:15:20:24, 4735000, 1315

1280010, , EMPTY, 7:20:24, 4760000, 1322

1310010, , EMPTY, 6:20:24, 4745000, 1318

1300010, , INTERESTING, 3:5:20:24, 4770000, 1325

1330010, , EMPTY, 15:20:24, 4755000, 1320

1330010, , EMPTY, 17:20:24, 4770000, 1325

1280010, , EMPTY, 0:20:24, 4835000, 1343

1250010, , EMPTY, 14:12:20:24, 4880000, 1355

1340010, , EMPTY, 18:7:20:24, 4805000, 1334

1330010, , EMPTY, 5:20:24, 4830000, 1341

1350010, , EMPTY, 6:20:24, 4825000, 1340

1350010, , EMPTY, 3:5:20:24, 4840000, 1344

1280010, , EMPTY, 14:12:20:24, 4925000, 1368

1360010, , EMPTY, 0:20:24, 4860000, 1350

1330010, , EMPTY, 8:17:20:24, 4905000, 1362

1340010, , INTERESTING, 13:15:20:24, 4910000, 1363

6180010, INTERESTING, INTERESTING, 2:17:20:24, 85000, 23

1350010, , EMPTY, 7:20:24, 4930000, 1369

1360010, , EMPTY, 14:12:20:24, 4935000, 1370

1350010, , EMPTY, 13:15:20:24, 4960000, 1377

1370010, , EMPTY, 6:20:24, 4955000, 1376

1370010, , EMPTY, 12:20:24, 4970000, 1380

1250010, , EMPTY, 11:20:24, 5105000, 1418

1270010, , EMPTY, 9:20:24, 5100000, 1416

1320010, , EMPTY, 4:17:20:24, 5065000, 1406

1360010, , EMPTY, 3:5:20:24, 5040000, 1400

1400010, , INTERESTING, 9:20:24, 5015000, 1393

6340010, INTERESTING, INTERESTING, 14:12:20:24, 90000, 25

1380010, , EMPTY, 15:20:24, 5065000, 1406

1420010, , EMPTY, 9:20:24, 5040000, 1400

6400010, INTERESTING, INTERESTING, 11:20:24, 75000, 20

1380010, , INTERESTING, 14:12:20:24, 5110000, 1419

6380010, INTERESTING, INTERESTING, 0:20:24, 125000, 34

1340010, , EMPTY, 2:17:20:24, 5180000, 1438

1370010, , EMPTY, 5:20:24, 5165000, 1434

1190010, , EMPTY, 16:15:20:24, 5360000, 1488

1440010, , INTERESTING, 9:20:24, 5125000, 1423

1360010, , EMPTY, 17:20:24, 5220000, 1450

1370010, , INTERESTING, 8:17:20:24, 5225000, 1451

1390010, , EMPTY, 14:12:20:24, 5220000, 1450

1410010, , EMPTY, 4:17:20:24, 5215000, 1448

1390010, , EMPTY, 6:20:24, 5250000, 1458

1450010, , EMPTY, 9:20:24, 5205000, 1445

1440010, , INTERESTING, 2:17:20:24, 5230000, 1452

1430010, , INTERESTING, 15:20:24, 5255000, 1459

1410010, , INTERESTING, 3:5:20:24, 5290000, 1469

1440010, , EMPTY, 3:5:20:24, 5275000, 1465

1480010, , EMPTY, 3:5:20:24, 5250000, 1458

1370010, , EMPTY, 0:20:24, 5375000, 1493

1180010, , EMPTY, 19:15:20:24, 5580000, 1550

1440010, , INTERESTING, 14:12:20:24, 5335000, 1481

1440010, , EMPTY, 16:15:20:24, 5350000, 1486

1460010, , EMPTY, 14:12:20:24, 5345000, 1484

1360010, , EMPTY, 18:7:20:24, 5460000, 1516

1380010, , INTERESTING, 18:7:20:24, 5455000, 1515

1500010, , EMPTY, 19:15:20:24, 5350000, 1486

1490010, , EMPTY, 5:20:24, 5375000, 1493

1280010, , INTERESTING, 1:8:17:20:24, 5600000, 1555

1510010, , EMPTY, 15:20:24, 5385000, 1495

1510010, , EMPTY, 12:20:24, 5400000, 1500

1450010, , EMPTY, 2:17:20:24, 5475000, 1520

1490010, , EMPTY, 3:5:20:24, 5450000, 1513

1460010, , EMPTY, 4:17:20:24, 5495000, 1526

1520010, , EMPTY, 19:15:20:24, 5450000, 1513

1460010, , INTERESTING, 8:17:20:24, 5525000, 1534

1510010, , EMPTY, 14:12:20:24, 5490000, 1525

1530010, , EMPTY, 15:20:24, 5485000, 1523

1240010, , EMPTY, 10:15:20:24, 5790000, 1608

1520010, , EMPTY, 1:8:17:20:24, 5525000, 1534

1520010, , EMPTY, 7:20:24, 5540000, 1538

1530010, , EMPTY, 12:20:24, 5545000, 1540

6980010, INTERESTING, INTERESTING, 1:8:17:20:24, 110000, 30

1470010, , EMPTY, 6:20:24, 5635000, 1565

1540010, , INTERESTING, 19:15:20:24, 5580000, 1550

7060010, INTERESTING, INTERESTING, 16:15:20:24, 75000, 20

1500010, , EMPTY, 0:20:24, 5650000, 1569

1560010, , EMPTY, 15:20:24, 5605000, 1556

1380010, , EMPTY, 13:15:20:24, 5800000, 1611

1580010, , EMPTY, 6:20:24, 5615000, 1559

1590010, , EMPTY, 15:20:24, 5620000, 1561

1470010, , EMPTY, 9:20:24, 5755000, 1598

1590010, , EMPTY, 0:20:24, 5650000, 1569

1560010, , EMPTY, 10:15:20:24, 5695000, 1581

1540010, , EMPTY, 5:20:24, 5730000, 1591

1590010, , INTERESTING, 13:15:20:24, 5695000, 1581

1600010, , EMPTY, 15:20:24, 5700000, 1583

1530010, , EMPTY, 2:17:20:24, 5785000, 1606

1570010, , EMPTY, 3:5:20:24, 5760000, 1600

1470010, , EMPTY, 16:15:20:24, 5875000, 1631

7180010, INTERESTING, INTERESTING, 14:12:20:24, 180000, 50

1620010, , EMPTY, 3:5:20:24, 5755000, 1598

7280010, INTERESTING, INTERESTING, 4:17:20:24, 110000, 30

1540010, , EMPTY, 8:17:20:24, 5865000, 1629

1570010, , EMPTY, 7:20:24, 5850000, 1625

1580010, , EMPTY, 19:15:20:24, 5855000, 1626

1540010, , EMPTY, 2:17:20:24, 5910000, 1641

7400010, INTERESTING, INTERESTING, 15:20:24, 65000, 18

1630010, , INTERESTING, 15:20:24, 5850000, 1625

1630010, , EMPTY, 17:20:24, 5865000, 1629

1580010, , INTERESTING, 12:20:24, 5930000, 1647

1470010, , EMPTY, 4:17:20:24, 6055000, 1681

1600010, , EMPTY, 6:20:24, 5940000, 1650

1550010, , EMPTY, 14:12:20:24, 6005000, 1668

1650010, , EMPTY, 7:20:24, 5920000, 1644

1400010, , EMPTY, 11:20:24, 6185000, 1718

1620010, , INTERESTING, 10:15:20:24, 5980000, 1661

1670010, , EMPTY, 6:20:24, 5945000, 1651

1680010, , EMPTY, 17:20:24, 5950000, 1652

1630010, , INTERESTING, 16:15:20:24, 6015000, 1670

7580010, INTERESTING, INTERESTING, 17:20:24, 80000, 22

7630010, INTERESTING, INTERESTING, 11:20:24, 45000, 12

1700010, , EMPTY, 17:20:24, 5990000, 1663

7660010, INTERESTING, INTERESTING, 12:20:24, 45000, 12

1650010, , EMPTY, 2:17:20:24, 6070000, 1686

1650010, , EMPTY, 16:15:20:24, 6085000, 1690

1630010, , EMPTY, 3:5:20:24, 6120000, 1700

1620010, , EMPTY, 0:20:24, 6145000, 1706

1660010, , EMPTY, 4:17:20:24, 6120000, 1700

1650010, , EMPTY, 19:15:20:24, 6145000, 1706

1560010, , EMPTY, 1:8:17:20:24, 6250000, 1736

1710010, , EMPTY, 17:20:24, 6115000, 1698

1510010, , EMPTY, 18:7:20:24, 6330000, 1758

1640010, , INTERESTING, 5:20:24, 6215000, 1726

1720010, , EMPTY, 3:5:20:24, 6150000, 1708

1690010, , EMPTY, 10:15:20:24, 6195000, 1720

1700010, , EMPTY, 16:15:20:24, 6200000, 1722

1710010, , EMPTY, 10:15:20:24, 6205000, 1723

1730010, , INTERESTING, 19:15:20:24, 6200000, 1722

1730010, , INTERESTING, 4:17:20:24, 6215000, 1726

1730010, , EMPTY, 2:17:20:24, 6230000, 1730

1770010, , EMPTY, 16:15:20:24, 6205000, 1723

1760010, , EMPTY, 5:20:24, 6230000, 1730

1740010, , INTERESTING, 4:17:20:24, 6265000, 1740

1730010, , EMPTY, 8:17:20:24, 6290000, 1747

1680010, , EMPTY, 7:20:24, 6355000, 1765

1700010, , EMPTY, 6:20:24, 6350000, 1763

1610010, , EMPTY, 9:20:24, 6455000, 1793

1730010, , EMPTY, 0:20:24, 6350000, 1763

1780010, , EMPTY, 4:17:20:24, 6315000, 1754

1780010, , EMPTY, 16:15:20:24, 6330000, 1758

1780010, , INTERESTING, 2:17:20:24, 6345000, 1762

1790010, , INTERESTING, 17:20:24, 6350000, 1763

1760010, , EMPTY, 3:5:20:24, 6395000, 1776

1660010, , INTERESTING, 12:20:24, 6510000, 1808

1640010, , EMPTY, 1:8:17:20:24, 6545000, 1818

1670010, , EMPTY, 14:12:20:24, 6530000, 1813

8180010, INTERESTING, INTERESTING, 11:20:24, 35000, 9

1790010, , EMPTY, 8:17:20:24, 6440000, 1788

1800010, , INTERESTING, 6:20:24, 6445000, 1790

1820010, , EMPTY, 12:20:24, 6440000, 1788

1750010, , INTERESTING, 18:7:20:24, 6525000, 1812

1810010, , INTERESTING, 14:12:20:24, 6480000, 1800

1680010, , INTERESTING, 11:20:24, 6625000, 1840

1800010, , EMPTY, 16:15:20:24, 6520000, 1811

1790010, , EMPTY, 5:20:24, 6545000, 1818

1850010, , EMPTY, 11:20:24, 6500000, 1805

1830010, , INTERESTING, 6:20:24, 6535000, 1815

1800010, , EMPTY, 0:20:24, 6580000, 1827

1810010, , EMPTY, 3:5:20:24, 6585000, 1829

1770010, , EMPTY, 10:15:20:24, 6640000, 1844

1830010, , EMPTY, 12:20:24, 6595000, 1831

1850010, , EMPTY, 3:5:20:24, 6590000, 1830

1810010, , EMPTY, 16:15:20:24, 6645000, 1845

1850010, , INTERESTING, 16:15:20:24, 6620000, 1838

1860010, , EMPTY, 10:15:20:24, 6625000, 1840

1860010, , INTERESTING, 11:20:24, 6640000, 1844

1790010, , EMPTY, 18:7:20:24, 6725000, 1868

1800010, , INTERESTING, 2:17:20:24, 6730000, 1869

1860010, , EMPTY, 5:20:24, 6685000, 1856

8340010, INTERESTING, INTERESTING, 5:20:24, 220000, 61

1800010, , INTERESTING, 4:17:20:24, 6775000, 1881

1840010, , EMPTY, 14:12:20:24, 6750000, 1875

1800010, , EMPTY, 9:20:24, 6805000, 1890

1860010, , EMPTY, 14:12:20:24, 6760000, 1877

1810010, , EMPTY, 2:17:20:24, 6825000, 1895

1620010, , EMPTY, 13:15:20:24, 7030000, 1952

1810010, , EMPTY, 1:8:17:20:24, 6855000, 1904

1880010, , EMPTY, 4:17:20:24, 6800000, 1888

1860010, , EMPTY, 16:15:20:24, 6835000, 1898

1860010, , EMPTY, 3:5:20:24, 6850000, 1902

1870010, , EMPTY, 15:20:24, 6855000, 1904

1830010, , EMPTY, 7:20:24, 6910000, 1919

1880010, , INTERESTING, 18:7:20:24, 6875000, 1909

1880010, , EMPTY, 11:20:24, 6890000, 1913

1930010, , EMPTY, 7:20:24, 6855000, 1904

1870010, , EMPTY, 10:15:20:24, 6930000, 1925

1890010, , INTERESTING, 2:17:20:24, 6925000, 1923

1910010, , INTERESTING, 4:17:20:24, 6920000, 1922

1910010, , EMPTY, 13:15:20:24, 6935000, 1926

1820010, , EMPTY, 1:8:17:20:24, 7040000, 1955

1910010, , EMPTY, 2:17:20:24, 6965000, 1934

8750010, INTERESTING, INTERESTING, 10:15:20:24, 140000, 38

1900010, , EMPTY, 12:20:24, 7005000, 1945

1860010, , EMPTY, 6:20:24, 7060000, 1961

1950010, , EMPTY, 17:20:24, 6985000, 1940

1900010, , EMPTY, 8:17:20:24, 7050000, 1958

1890010, , EMPTY, 14:12:20:24, 7075000, 1965

1900010, , INTERESTING, 9:20:24, 7080000, 1966

1880010, , EMPTY, 3:5:20:24, 7115000, 1976

1960010, , EMPTY, 17:20:24, 7050000, 1958

8980010, INTERESTING, INTERESTING, 4:17:20:24, 45000, 12

1920010, , INTERESTING, 10:15:20:24, 7120000, 1977

1920010, , EMPTY, 16:15:20:24, 7135000, 1981

1960010, , EMPTY, 6:20:24, 7110000, 1975

1960010, , EMPTY, 12:20:24, 7125000, 1979

1950010, , EMPTY, 4:17:20:24, 7150000, 1986

1930010, , EMPTY, 18:7:20:24, 7185000, 1995

1970010, , EMPTY, 14:12:20:24, 7160000, 1988

1940010, , INTERESTING, 13:15:20:24, 7205000, 2001

1920010, , EMPTY, 3:5:20:24, 7240000, 2011

1980010, , EMPTY, 5:20:24, 7195000, 1998

1940010, , EMPTY, 7:20:24, 7250000, 2013

9180010, INTERESTING, INTERESTING, 9:20:24, 25000, 6

1950010, , EMPTY, 1:8:17:20:24, 7270000, 2019

1980010, , INTERESTING, 17:20:24, 7255000, 2015

1940010, , EMPTY, 11:20:24, 7310000, 2030

1950010, , EMPTY, 2:17:20:24, 7315000, 2031

1980010, , EMPTY, 16:15:20:24, 7300000, 2027

1860010, , EMPTY, 0:20:24, 7435000, 2065

2020010, , EMPTY, 8:17:20:24, 7290000, 2025

2020010, , EMPTY, 5:20:24, 7305000, 2029

1770010, , EMPTY, 19:15:20:24, 7570000, 2102

1990010, , EMPTY, 12:20:24, 7365000, 2045

1980010, , EMPTY, 9:20:24, 7390000, 2052

1980010, , EMPTY, 13:15:20:24, 7405000, 2056

1990010, , EMPTY, 4:17:20:24, 7410000, 2058

2010010, , EMPTY, 3:5:20:24, 7405000, 2056

1990010, , INTERESTING, 14:12:20:24, 7440000, 2066

2000010, , EMPTY, 15:20:24, 7445000, 2068

2060010, , EMPTY, 5:20:24, 7400000, 2055

2040010, , EMPTY, 17:20:24, 7435000, 2065

1950010, , EMPTY, 10:15:20:24, 7540000, 2094

9380010, INTERESTING, INTERESTING, 11:20:24, 125000, 34

2070010, , EMPTY, 3:5:20:24, 7450000, 2069

2060010, , EMPTY, 14:12:20:24, 7475000, 2076

1990010, , INTERESTING, 6:20:24, 7560000, 2100

2020010, , EMPTY, 7:20:24, 7545000, 2095

2080010, , EMPTY, 3:5:20:24, 7500000, 2083

2120010, , EMPTY, 6:20:24, 7475000, 2076

2060010, , INTERESTING, 19:15:20:24, 7550000, 2097

2050010, , EMPTY, 8:17:20:24, 7575000, 2104

2090010, , INTERESTING, 8:17:20:24, 7550000, 2097

2040010, , EMPTY, 11:20:24, 7615000, 2115

2110010, , EMPTY, 10:15:20:24, 7560000, 2100

1960010, , EMPTY, 1:8:17:20:24, 7725000, 2145

2130010, , EMPTY, 5:20:24, 7570000, 2102

2130010, , EMPTY, 7:20:24, 7585000, 2106

2130010, , EMPTY, 10:15:20:24, 7600000, 2111

2070010, , EMPTY, 4:17:20:24, 7675000, 2131

2120010, , EMPTY, 12:20:24, 7640000, 2122

2070010, , EMPTY, 9:20:24, 7705000, 2140

9750010, INTERESTING, INTERESTING, 12:20:24, 40000, 11

2140010, , EMPTY, 10:15:20:24, 7665000, 2129

2090010, , EMPTY, 2:17:20:24, 7730000, 2147

2040010, , EMPTY, 16:15:20:24, 7795000, 2165

1990010, , EMPTY, 18:7:20:24, 7860000, 2183

2130010, , EMPTY, 8:17:20:24, 7735000, 2148

2140010, , EMPTY, 1:8:17:20:24, 7740000, 2150

2150010, , EMPTY, 15:20:24, 7745000, 2151

2150010, , EMPTY, 7:20:24, 7760000, 2155

9860010, INTERESTING, INTERESTING, 8:17:20:24, 65000, 18

2070010, , EMPTY, 14:12:20:24, 7870000, 2186

2150010, , EMPTY, 5:20:24, 7805000, 2168

2130010, , EMPTY, 2:17:20:24, 7840000, 2177

2160010, , EMPTY, 10:15:20:24, 7825000, 2173

2160010, , EMPTY, 9:20:24, 7840000, 2177

2180010, , INTERESTING, 10:15:20:24, 7835000, 2176

2190010, , INTERESTING, 10:15:20:24, 7840000, 2177

2200010, , EMPTY, 9:20:24, 7845000, 2179

2150010, , INTERESTING, 4:17:20:24, 7910000, 2197

2110010, , EMPTY, 3:5:20:24, 7965000, 2212

2190010, , EMPTY, 2:17:20:24, 7900000, 2194

2070010, , EMPTY, 19:15:20:24, 8035000, 2231

2160010, , EMPTY, 1:8:17:20:24, 7960000, 2211

2200010, , EMPTY, 10:15:20:24, 7935000, 2204

2170010, , INTERESTING, 1:8:17:20:24, 7980000, 2216

2160010, , EMPTY, 12:20:24, 8005000, 2223

2170010, , EMPTY, 16:15:20:24, 8010000, 2225

2190010, , EMPTY, 5:20:24, 8005000, 2223

2210010, , EMPTY, 10:15:20:24, 8000000, 2222

2170010, , EMPTY, 18:7:20:24, 8055000, 2237

2230010, , EMPTY, 15:20:24, 8010000, 2225

2230010, , EMPTY, 10:15:20:24, 8025000, 2229

10120010, INTERESTING, INTERESTING, 13:15:20:24, 150000, 41

2180010, , EMPTY, 14:12:20:24, 8105000, 2251

2180010, , EMPTY, 18:7:20:24, 8120000, 2255

2230010, , EMPTY, 14:12:20:24, 8085000, 2245

2220010, , EMPTY, 17:20:24, 8110000, 2252

2220010, , EMPTY, 3:5:20:24, 8125000, 2256

2050010, , EMPTY, 0:20:24, 8310000, 2308

2230010, , EMPTY, 16:15:20:24, 8145000, 2262

2220010, , INTERESTING, 2:17:20:24, 8170000, 2269

2230010, , EMPTY, 8:17:20:24, 8175000, 2270

2220010, , EMPTY, 9:20:24, 8200000, 2277

2240010, , EMPTY, 14:12:20:24, 8195000, 2276

2260010, , EMPTY, 0:20:24, 8190000, 2275

10400010, INTERESTING, INTERESTING, 11:20:24, 65000, 18

2300010, , EMPTY, 0:20:24, 8180000, 2272

2250010, , EMPTY, 2:17:20:24, 8245000, 2290

2320010, , EMPTY, 0:20:24, 8190000, 2275

2290010, , EMPTY, 9:20:24, 8235000, 2287

2240010, , INTERESTING, 15:20:24, 8300000, 2305

2250010, , EMPTY, 14:12:20:24, 8305000, 2306

2260010, , EMPTY, 16:15:20:24, 8310000, 2308

2260010, , EMPTY, 5:20:24, 8325000, 2312

2070010, , INTERESTING, 13:15:20:24, 8530000, 2369

2290010, , EMPTY, 12:20:24, 8325000, 2312

2340010, , EMPTY, 14:12:20:24, 8290000, 2302

2330010, , INTERESTING, 9:20:24, 8315000, 2309

2330010, , INTERESTING, 16:15:20:24, 8330000, 2313

2240010, , EMPTY, 7:20:24, 8435000, 2343

2230010, , EMPTY, 3:5:20:24, 8460000, 2350

2140010, , EMPTY, 11:20:24, 8565000, 2379

2280010, , INTERESTING, 8:17:20:24, 8440000, 2344

10640010, INTERESTING, INTERESTING, 4:17:20:24, 95000, 26

2350010, , EMPTY, 14:12:20:24, 8400000, 2333

2340010, , EMPTY, 16:15:20:24, 8425000, 2340

2240010, , EMPTY, 18:7:20:24, 8540000, 2372

10460010, INTERESTING, INTERESTING, 16:15:20:24, 335000, 93

2220010, , INTERESTING, 19:15:20:24, 8590000, 2386

2220010, , EMPTY, 1:8:17:20:24, 8605000, 2390

2240010, , EMPTY, 10:15:20:24, 8600000, 2388

2370010, , EMPTY, 18:7:20:24, 8485000, 2356

2350010, , EMPTY, 13:15:20:24, 8520000, 2366

2380010, , EMPTY, 18:7:20:24, 8505000, 2362

2380010, , EMPTY, 11:20:24, 8520000, 2366

2370010, , EMPTY, 15:20:24, 8545000, 2373

2320010, , INTERESTING, 8:17:20:24, 8610000, 2391

2360010, , EMPTY, 14:12:20:24, 8585000, 2384

2380010, , EMPTY, 17:20:24, 8580000, 2383

2130010, , EMPTY, 6:20:24, 8845000, 2456

2410010, , EMPTY, 15:20:24, 8580000, 2383

2380010, , EMPTY, 1:8:17:20:24, 8625000, 2395

2380010, , EMPTY, 14:12:20:24, 8640000, 2400

2380010, , INTERESTING, 19:15:20:24, 8655000, 2404

2380010, , EMPTY, 10:15:20:24, 8670000, 2408

2280010, , INTERESTING, 2:17:20:24, 8785000, 2440

2410010, , EMPTY, 8:17:20:24, 8670000, 2408

2390010, , EMPTY, 18:7:20:24, 8705000, 2418

2430010, , EMPTY, 6:20:24, 8680000, 2411

11060010, INTERESTING, INTERESTING, 7:20:24, 65000, 18

2170010, , INTERESTING, 4:17:20:24, 8970000, 2491

11050010, INTERESTING, INTERESTING, 3:5:20:24, 105000, 29

2380010, , EMPTY, 16:15:20:24, 8790000, 2441

2420010, , EMPTY, 1:8:17:20:24, 8765000, 2434

2370010, , EMPTY, 9:20:24, 8830000, 2452

2440010, , EMPTY, 15:20:24, 8775000, 2437

2410010, , EMPTY, 11:20:24, 8820000, 2450

2350010, , EMPTY, 5:20:24, 8895000, 2470

2450010, , EMPTY, 19:15:20:24, 8810000, 2447

2470010, , INTERESTING, 4:17:20:24, 8805000, 2445

2450010, , EMPTY, 10:15:20:24, 8840000, 2455

2330010, , EMPTY, 0:20:24, 8975000, 2493

2470010, , EMPTY, 7:20:24, 8850000, 2458

2450010, , EMPTY, 14:12:20:24, 8885000, 2468

2470010, , EMPTY, 14:12:20:24, 8880000, 2466

2440010, , EMPTY, 1:8:17:20:24, 8925000, 2479

2500010, , EMPTY, 0:20:24, 8880000, 2466

2490010, , EMPTY, 5:20:24, 8905000, 2473

2490010, , EMPTY, 15:20:24, 8920000, 2477

11380010, INTERESTING, INTERESTING, 12:20:24, 45000, 12

2460010, , EMPTY, 2:17:20:24, 8980000, 2494

2390010, , EMPTY, 13:15:20:24, 9065000, 2518

2460010, , EMPTY, 8:17:20:24, 9010000, 2502

2480010, , EMPTY, 19:15:20:24, 9005000, 2501

2470010, , EMPTY, 6:20:24, 9030000, 2508

2470010, , EMPTY, 16:15:20:24, 9045000, 2512

2400010, , EMPTY, 18:7:20:24, 9130000, 2536

2490010, , EMPTY, 10:15:20:24, 9055000, 2515

2490010, , INTERESTING, 11:20:24, 9070000, 2519

2480010, , EMPTY, 17:20:24, 9095000, 2526

2500010, , INTERESTING, 12:20:24, 9090000, 2525

2500010, , INTERESTING, 14:12:20:24, 9105000, 2529

2490010, , EMPTY, 4:17:20:24, 9130000, 2536

2480010, , EMPTY, 9:20:24, 9155000, 2543

2510010, , EMPTY, 15:20:24, 9140000, 2538

2510010, , INTERESTING, 0:20:24, 9155000, 2543

11620010, INTERESTING, INTERESTING, 16:15:20:24, 60000, 16

2500010, , EMPTY, 7:20:24, 9195000, 2554

2510010, , EMPTY, 5:20:24, 9200000, 2555

11450010, INTERESTING, INTERESTING, 3:5:20:24, 275000, 76

11660010, INTERESTING, INTERESTING, 19:15:20:24, 80000, 22

2520010, , EMPTY, 19:15:20:24, 9235000, 2565

2560010, , EMPTY, 12:20:24, 9210000, 2558

2510010, , EMPTY, 2:17:20:24, 9275000, 2576

2530010, , EMPTY, 6:20:24, 9270000, 2575

2570010, , EMPTY, 9:20:24, 9245000, 2568

2550010, , INTERESTING, 4:17:20:24, 9280000, 2577

2530010, , EMPTY, 10:15:20:24, 9315000, 2587

2530010, , EMPTY, 18:7:20:24, 9330000, 2591

2590010, , EMPTY, 15:20:24, 9285000, 2579

2560010, , EMPTY, 14:12:20:24, 9330000, 2591

2610010, , EMPTY, 6:20:24, 9295000, 2581

11860010, INTERESTING, INTERESTING, 3:5:20:24, 60000, 16

2610010, , EMPTY, 9:20:24, 9325000, 2590

2560010, , EMPTY, 2:17:20:24, 9390000, 2608

2610010, , INTERESTING, 10:15:20:24, 9355000, 2598

11920010, INTERESTING, INTERESTING, 19:15:20:24, 60000, 16

2610010, , EMPTY, 4:17:20:24, 9385000, 2606

2630010, , EMPTY, 12:20:24, 9380000, 2605

2530010, , EMPTY, 16:15:20:24, 9495000, 2637

2500010, , EMPTY, 1:8:17:20:24, 9540000, 2650

2590010, , INTERESTING, 5:20:24, 9465000, 2629

11990010, INTERESTING, INTERESTING, 7:20:24, 80000, 22

2620010, , INTERESTING, 15:20:24, 9465000, 2629

2520010, , EMPTY, 13:15:20:24, 9580000, 2661

2630010, , EMPTY, 4:17:20:24, 9485000, 2634

2590010, , EMPTY, 7:20:24, 9540000, 2650

2630010, , EMPTY, 10:15:20:24, 9515000, 2643

2370010, , EMPTY, 3:5:20:24, 9790000, 2719

2640010, , EMPTY, 17:20:24, 9535000, 2648

2600010, , EMPTY, 2:17:20:24, 9590000, 2663

2520010, , EMPTY, 1:8:17:20:24, 9685000, 2690

2640010, , EMPTY, 8:17:20:24, 9580000, 2661

2630010, , EMPTY, 9:20:24, 9605000, 2668

2590010, , INTERESTING, 0:20:24, 9660000, 2683

2650010, , EMPTY, 5:20:24, 9615000, 2670

2680010, , EMPTY, 17:20:24, 9600000, 2666

2660010, , EMPTY, 3:5:20:24, 9635000, 2676

2580010, , EMPTY, 19:15:20:24, 9730000, 2702

2700010, , EMPTY, 5:20:24, 9625000, 2673

2650010, , EMPTY, 15:20:24, 9690000, 2691

2590010, , EMPTY, 14:12:20:24, 9765000, 2712

2650010, , EMPTY, 13:15:20:24, 9720000, 2700

2710010, , EMPTY, 5:20:24, 9675000, 2687

2640010, , EMPTY, 16:15:20:24, 9760000, 2711

12280010, INTERESTING, INTERESTING, 12:20:24, 135000, 37

2690010, , EMPTY, 9:20:24, 9740000, 2705

2710010, , EMPTY, 15:20:24, 9735000, 2704

2680010, , EMPTY, 8:17:20:24, 9780000, 2716

2730010, , EMPTY, 5:20:24, 9745000, 2706

2640010, , EMPTY, 12:20:24, 9850000, 2736

2730010, , EMPTY, 16:15:20:24, 9775000, 2715

2680010, , EMPTY, 2:17:20:24, 9840000, 2733

2680010, , EMPTY, 1:8:17:20:24, 9855000, 2737

2740010, , EMPTY, 9:20:24, 9810000, 2725

2690010, , EMPTY, 0:20:24, 9875000, 2743

2740010, , EMPTY, 16:15:20:24, 9840000, 2733

2750010, , EMPTY, 16:15:20:24, 9845000, 2734

2750010, , EMPTY, 5:20:24, 9860000, 2738

2690010, , INTERESTING, 17:20:24, 9935000, 2759

2760010, , EMPTY, 15:20:24, 9880000, 2744

2750010, , INTERESTING, 2:17:20:24, 9905000, 2751

2650010, , EMPTY, 10:15:20:24, 10020000, 2783

2710010, , INTERESTING, 14:12:20:24, 9975000, 2770

2700010, , EMPTY, 19:15:20:24, 10000000, 2777

2760010, , EMPTY, 0:20:24, 9955000, 2765

2610010, , EMPTY, 18:7:20:24, 10120000, 2811

2750010, , EMPTY, 8:17:20:24, 9995000, 2776

2760010, , EMPTY, 9:20:24, 10000000, 2777

2650010, , EMPTY, 4:17:20:24, 10125000, 2812

2760010, , EMPTY, 16:15:20:24, 10030000, 2786

2770010, , EMPTY, 2:17:20:24, 10035000, 2787

2790010, , EMPTY, 18:7:20:24, 10030000, 2786

2630010, , EMPTY, 6:20:24, 10205000, 2834

2790010, , INTERESTING, 2:17:20:24, 10060000, 2794

2810010, , EMPTY, 6:20:24, 10055000, 2793

2780010, , EMPTY, 8:17:20:24, 10100000, 2805

12820010, INTERESTING, INTERESTING, 0:20:24, 75000, 20

2800010, , EMPTY, 2:17:20:24, 10110000, 2808

2800010, , EMPTY, 9:20:24, 10125000, 2812

2740010, , INTERESTING, 1:8:17:20:24, 10200000, 2833

2770010, , EMPTY, 5:20:24, 10185000, 2829

2750010, , EMPTY, 12:20:24, 10220000, 2838

2800010, , EMPTY, 4:17:20:24, 10185000, 2829

2540010, , EMPTY, 11:20:24, 10460000, 2905

2840010, , INTERESTING, 12:20:24, 10175000, 2826

2790010, , EMPTY, 0:20:24, 10240000, 2844

12970010, INTERESTING, INTERESTING, 19:15:20:24, 75000, 20

2770010, , EMPTY, 16:15:20:24, 10290000, 2858

2780010, , EMPTY, 19:15:20:24, 10295000, 2859

2810010, , EMPTY, 7:20:24, 10280000, 2855

2830010, , EMPTY, 9:20:24, 10275000, 2854

2880010, , EMPTY, 7:20:24, 10240000, 2844

2780010, , EMPTY, 10:15:20:24, 10355000, 2876

2820010, , EMPTY, 17:20:24, 10330000, 2869

2850010, , EMPTY, 4:17:20:24, 10315000, 2865

2780010, , EMPTY, 14:12:20:24, 10400000, 2888

2820010, , EMPTY, 2:17:20:24, 10375000, 2881

2910010, , EMPTY, 17:20:24, 10300000, 2861

2820010, , EMPTY, 6:20:24, 10405000, 2890

2910010, , EMPTY, 2:17:20:24, 10330000, 2869

2690010, , INTERESTING, 3:5:20:24, 10565000, 2934

2870010, , EMPTY, 0:20:24, 10400000, 2888

2890010, , EMPTY, 9:20:24, 10395000, 2887

2720010, , EMPTY, 13:15:20:24, 10580000, 2938

2840010, , INTERESTING, 5:20:24, 10475000, 2909

2920010, , INTERESTING, 6:20:24, 10410000, 2891

13320010, INTERESTING, INTERESTING, 7:20:24, 25000, 6

2930010, , EMPTY, 9:20:24, 10430000, 2897

2860010, , EMPTY, 12:20:24, 10515000, 2920

2940010, , EMPTY, 9:20:24, 10450000, 2902

2920010, , EMPTY, 17:20:24, 10485000, 2912

2920010, , INTERESTING, 2:17:20:24, 10500000, 2916

2950010, , EMPTY, 9:20:24, 10485000, 2912

2890010, , EMPTY, 7:20:24, 10560000, 2933

2950010, , INTERESTING, 2:17:20:24, 10515000, 2920

2940010, , EMPTY, 12:20:24, 10540000, 2927

13460010, INTERESTING, INTERESTING, 6:20:24, 35000, 9

2900010, , INTERESTING, 11:20:24, 10610000, 2947

2960010, , EMPTY, 7:20:24, 10565000, 2934

13490010, INTERESTING, INTERESTING, 19:15:20:24, 50000, 13

2940010, , EMPTY, 6:20:24, 10615000, 2948

2980010, , INTERESTING, 6:20:24, 10590000, 2941

2820010, , EMPTY, 8:17:20:24, 10765000, 2990

13530010, INTERESTING, INTERESTING, 18:7:20:24, 70000, 19

2930010, , INTERESTING, 0:20:24, 10685000, 2968

2960010, , EMPTY, 9:20:24, 10670000, 2963

2800010, , INTERESTING, 16:15:20:24, 10845000, 3012

2900010, , EMPTY, 4:17:20:24, 10760000, 2988

2830010, , EMPTY, 1:8:17:20:24, 10845000, 3012

13660010, INTERESTING, INTERESTING, 7:20:24, 30000, 8

2960010, , EMPTY, 17:20:24, 10745000, 2984

2870010, , EMPTY, 16:15:20:24, 10850000, 3013

2910010, , EMPTY, 14:12:20:24, 10825000, 3006

2930010, , INTERESTING, 13:15:20:24, 10820000, 3005

13650010, INTERESTING, INTERESTING, 1:8:17:20:24, 115000, 31

2800010, , INTERESTING, 18:7:20:24, 10980000, 3050

2990010, , INTERESTING, 8:17:20:24, 10805000, 3001

3000010, , EMPTY, 1:8:17:20:24, 10810000, 3002

3000010, , EMPTY, 4:17:20:24, 10825000, 3006

3010010, , EMPTY, 8:17:20:24, 10830000, 3008

3050010, , INTERESTING, 8:17:20:24, 10805000, 3001

3070010, , EMPTY, 17:20:24, 10800000, 3000

2980010, , EMPTY, 7:20:24, 10905000, 3029

2890010, , EMPTY, 10:15:20:24, 11010000, 3058

2960010, , EMPTY, 2:17:20:24, 10955000, 3043

13850010, INTERESTING, INTERESTING, 10:15:20:24, 80000, 22

3000010, , EMPTY, 16:15:20:24, 10945000, 3040

2980010, , EMPTY, 11:20:24, 10980000, 3050

3000010, , EMPTY, 9:20:24, 10975000, 3048

3060010, , EMPTY, 4:17:20:24, 10930000, 3036

2870010, , EMPTY, 19:15:20:24, 11135000, 3093

3020010, , INTERESTING, 16:15:20:24, 11000000, 3055

3000010, , EMPTY, 0:20:24, 11035000, 3065

3040010, , EMPTY, 13:15:20:24, 11010000, 3058

3050010, , INTERESTING, 18:7:20:24, 11015000, 3059

3080010, , EMPTY, 16:15:20:24, 11000000, 3055

3020010, , EMPTY, 12:20:24, 11075000, 3076

3090010, , EMPTY, 11:20:24, 11020000, 3061

3090010, , EMPTY, 19:15:20:24, 11035000, 3065

14020010, INTERESTING, INTERESTING, 4:17:20:24, 120000, 33

3050010, , EMPTY, 1:8:17:20:24, 11105000, 3084

3080010, , EMPTY, 17:20:24, 11090000, 3080

3120010, , EMPTY, 11:20:24, 11065000, 3073

3090010, , EMPTY, 9:20:24, 11110000, 3086

3080010, , EMPTY, 2:17:20:24, 11135000, 3093

3060010, , EMPTY, 1:8:17:20:24, 11170000, 3102

3140010, , INTERESTING, 11:20:24, 11105000, 3084

3110010, , EMPTY, 16:15:20:24, 11150000, 3097

3110010, , INTERESTING, 18:7:20:24, 11165000, 3101

2920010, , EMPTY, 3:5:20:24, 11370000, 3158

3090010, , EMPTY, 4:17:20:24, 11215000, 3115

3140010, , EMPTY, 18:7:20:24, 11180000, 3105

3180010, , EMPTY, 15:20:24, 11155000, 3098

3040010, , EMPTY, 14:12:20:24, 11310000, 3141

3190010, , EMPTY, 7:20:24, 11175000, 3104

3200010, , EMPTY, 15:20:24, 11180000, 3105

3120010, , EMPTY, 1:8:17:20:24, 11275000, 3131

14210010, INTERESTING, INTERESTING, 16:15:20:24, 200000, 55

3130010, , EMPTY, 4:17:20:24, 11295000, 3137

3120010, , EMPTY, 12:20:24, 11320000, 3144

2930010, , EMPTY, 3:5:20:24, 11525000, 3201

14430010, INTERESTING, INTERESTING, 16:15:20:24, 40000, 11

3160010, , EMPTY, 1:8:17:20:24, 11325000, 3145

3200010, , INTERESTING, 14:12:20:24, 11300000, 3138

3210010, , EMPTY, 4:17:20:24, 11305000, 3140

3170010, , EMPTY, 11:20:24, 11360000, 3155

2990010, , EMPTY, 6:20:24, 11555000, 3209

3170010, , EMPTY, 16:15:20:24, 11390000, 3163

3090010, , EMPTY, 13:15:20:24, 11485000, 3190

3220010, , EMPTY, 12:20:24, 11370000, 3158

3190010, , INTERESTING, 8:17:20:24, 11415000, 3170

3120010, , EMPTY, 19:15:20:24, 11500000, 3194

3210010, , EMPTY, 15:20:24, 11425000, 3173

3140010, , EMPTY, 9:20:24, 11510000, 3197

3190010, , EMPTY, 18:7:20:24, 11475000, 3187

3220010, , EMPTY, 5:20:24, 11460000, 3183

3250010, , EMPTY, 11:20:24, 11445000, 3179

14570010, INTERESTING, INTERESTING, 13:15:20:24, 140000, 38

3210010, , EMPTY, 10:15:20:24, 11515000, 3198

3250010, , INTERESTING, 6:20:24, 11490000, 3191

3270010, , EMPTY, 5:20:24, 11485000, 3190

3260010, , EMPTY, 19:15:20:24, 11510000, 3197

3200010, , EMPTY, 18:7:20:24, 11585000, 3218

3190010, , INTERESTING, 3:5:20:24, 11610000, 3225

3280010, , EMPTY, 5:20:24, 11535000, 3204

3230010, , EMPTY, 4:17:20:24, 11600000, 3222

3250010, , INTERESTING, 16:15:20:24, 11595000, 3220

3290010, , INTERESTING, 5:20:24, 11570000, 3213

3260010, , EMPTY, 10:15:20:24, 11615000, 3226

3270010, , EMPTY, 9:20:24, 11620000, 3227

3270010, , EMPTY, 7:20:24, 11635000, 3231

3160010, , EMPTY, 2:17:20:24, 11760000, 3266

3270010, , EMPTY, 19:15:20:24, 11665000, 3240

3230010, , EMPTY, 14:12:20:24, 11720000, 3255

3280010, , EMPTY, 18:7:20:24, 11685000, 3245

3210010, , EMPTY, 1:8:17:20:24, 11770000, 3269

3300010, , EMPTY, 5:20:24, 11695000, 3248

3110010, , EMPTY, 0:20:24, 11900000, 3305

3290010, , EMPTY, 16:15:20:24, 11735000, 3259

3280010, , EMPTY, 3:5:20:24, 11760000, 3266

3300010, , EMPTY, 10:15:20:24, 11755000, 3265

3340010, , EMPTY, 15:20:24, 11730000, 3258

3310010, , EMPTY, 9:20:24, 11775000, 3270

3260010, , INTERESTING, 14:12:20:24, 11840000, 3288

3330010, , EMPTY, 16:15:20:24, 11785000, 3273

3290010, , EMPTY, 17:20:24, 11840000, 3288

3320010, , EMPTY, 14:12:20:24, 11825000, 3284

3320010, , EMPTY, 2:17:20:24, 11840000, 3288

15120010, INTERESTING, INTERESTING, 2:17:20:24, 55000, 15

3320010, , INTERESTING, 10:15:20:24, 11870000, 3297

3260010, , EMPTY, 8:17:20:24, 11945000, 3318

3350010, , EMPTY, 15:20:24, 11870000, 3297

3350010, , EMPTY, 9:20:24, 11885000, 3301

3350010, , EMPTY, 16:15:20:24, 11900000, 3305

3240010, , EMPTY, 4:17:20:24, 12025000, 3340

3260010, , EMPTY, 13:15:20:24, 12020000, 3338

3370010, , EMPTY, 10:15:20:24, 11925000, 3312

3350010, , EMPTY, 14:12:20:24, 11960000, 3322

3360010, , EMPTY, 17:20:24, 11965000, 3323

3320010, , EMPTY, 1:8:17:20:24, 12020000, 3338

3390010, , EMPTY, 10:15:20:24, 11965000, 3323

3360010, , EMPTY, 2:17:20:24, 12010000, 3336

3400010, , EMPTY, 4:17:20:24, 11985000, 3329

3380010, , EMPTY, 9:20:24, 12020000, 3338

3360010, , EMPTY, 14:12:20:24, 12055000, 3348

3280010, , EMPTY, 6:20:24, 12150000, 3375

3430010, , EMPTY, 17:20:24, 12015000, 3337

3330010, , EMPTY, 5:20:24, 12130000, 3369

3280010, , EMPTY, 19:15:20:24, 12195000, 3387

3430010, , EMPTY, 9:20:24, 12060000, 3350

3420010, , EMPTY, 15:20:24, 12085000, 3356

3400010, , EMPTY, 13:15:20:24, 12120000, 3366

3430010, , INTERESTING, 12:20:24, 12105000, 3362

3410010, , EMPTY, 2:17:20:24, 12140000, 3372

