DWC_ID, Processed Contents, Actual Contents, Route, Total_Trans_Time, Trans_Time_Hours 
10, , EMPTY, 12:11:23:24, 35000, 9

10010, , INTERESTING, 12:11:23:24, 50000, 13

20010, , INTERESTING, 11:23:24, 55000, 15

10010, , INTERESTING, 4:11:23:24, 80000, 22

40010, , EMPTY, 12:11:23:24, 65000, 18

50010, INTERESTING, INTERESTING, 12:11:23:24, 70000, 19

50010, , EMPTY, 11:23:24, 85000, 23

20010, , EMPTY, 6:11:23:24, 130000, 36

60010, , EMPTY, 11:23:24, 105000, 29

10, , INTERESTING, 13:11:23:24, 180000, 50

10, , EMPTY, 16:11:23:24, 195000, 54

50010, , EMPTY, 4:11:23:24, 160000, 44

60010, , INTERESTING, 6:11:23:24, 165000, 45

180010, INTERESTING, INTERESTING, 7:11:23:24, 60000, 16

70010, , EMPTY, 11:23:24, 185000, 51

90010, , INTERESTING, 4:11:23:24, 180000, 50

10010, , EMPTY, 15:23:24, 275000, 76

10010, , EMPTY, 5:17:11:23:24, 290000, 80

20010, , EMPTY, 5:17:11:23:24, 295000, 81

90010, , INTERESTING, 10:11:23:24, 240000, 66

60010, , EMPTY, 1:17:11:23:24, 285000, 79

90010, , EMPTY, 18:17:11:23:24, 270000, 75

130010, , EMPTY, 15:23:24, 245000, 68

80010, , INTERESTING, 16:11:23:24, 310000, 86

110010, , EMPTY, 6:11:23:24, 295000, 81

340010, INTERESTING, INTERESTING, 8:17:11:23:24, 80000, 22

380010, INTERESTING, INTERESTING, 16:11:23:24, 55000, 15

100010, , INTERESTING, 8:17:11:23:24, 350000, 97

370010, INTERESTING, INTERESTING, 5:17:11:23:24, 95000, 26

130010, , EMPTY, 17:11:23:24, 350000, 97

140010, , EMPTY, 18:17:11:23:24, 355000, 98

160010, , EMPTY, 16:11:23:24, 350000, 97

160010, , EMPTY, 7:11:23:24, 365000, 101

160010, , EMPTY, 15:23:24, 380000, 105

170010, , EMPTY, 16:11:23:24, 385000, 106

170010, , EMPTY, 6:11:23:24, 400000, 111

150010, , EMPTY, 18:17:11:23:24, 435000, 120

170010, , EMPTY, 19:17:11:23:24, 430000, 119

10010, , INTERESTING, 3:13:11:23:24, 605000, 168

150010, , EMPTY, 1:17:11:23:24, 480000, 133

190010, , EMPTY, 15:23:24, 455000, 126

10010, , EMPTY, 2:23:24, 650000, 180

170010, , EMPTY, 18:17:11:23:24, 505000, 140

180010, , EMPTY, 11:23:24, 510000, 141

650010, INTERESTING, INTERESTING, 0:23:24, 55000, 15

110010, , EMPTY, 4:11:23:24, 610000, 169

450010, INTERESTING, INTERESTING, 16:11:23:24, 285000, 79

30010, , EMPTY, 14:11:23:24, 720000, 200

190010, , INTERESTING, 6:11:23:24, 575000, 159

10010, , EMPTY, 0:23:24, 770000, 213

90010, , EMPTY, 12:11:23:24, 705000, 195

70010, , INTERESTING, 13:11:23:24, 740000, 205

190010, , EMPTY, 19:17:11:23:24, 635000, 176

610010, INTERESTING, INTERESTING, 4:11:23:24, 230000, 63

180010, , EMPTY, 16:11:23:24, 675000, 187

200010, , EMPTY, 17:11:23:24, 670000, 186

200010, , INTERESTING, 3:13:11:23:24, 685000, 190

200010, , EMPTY, 18:17:11:23:24, 700000, 194

210010, , EMPTY, 15:23:24, 705000, 195

790010, INTERESTING, INTERESTING, 1:17:11:23:24, 140000, 38

200010, , INTERESTING, 7:11:23:24, 745000, 206

140010, , EMPTY, 5:17:11:23:24, 820000, 227

170010, , EMPTY, 8:17:11:23:24, 805000, 223

210010, , EMPTY, 6:11:23:24, 780000, 216

220010, , EMPTY, 4:11:23:24, 785000, 218

240010, , EMPTY, 14:11:23:24, 780000, 216

280010, , EMPTY, 17:11:23:24, 755000, 209

290010, , EMPTY, 7:11:23:24, 760000, 211

270010, , EMPTY, 16:11:23:24, 795000, 220

200010, , INTERESTING, 9:11:23:24, 880000, 244

200010, , EMPTY, 1:17:11:23:24, 895000, 248

270010, , EMPTY, 6:11:23:24, 840000, 233

290010, , EMPTY, 4:11:23:24, 835000, 231

290010, , EMPTY, 17:11:23:24, 850000, 236

120010, , EMPTY, 10:11:23:24, 1035000, 287

260010, , EMPTY, 13:11:23:24, 910000, 252

210010, , INTERESTING, 2:23:24, 975000, 270

290010, , EMPTY, 8:17:11:23:24, 910000, 252

300010, , EMPTY, 11:23:24, 915000, 254

1200010, INTERESTING, INTERESTING, 0:23:24, 30000, 8

320010, , EMPTY, 1:17:11:23:24, 925000, 256

290010, , EMPTY, 15:23:24, 970000, 269

290010, , EMPTY, 14:11:23:24, 985000, 273

250010, , EMPTY, 18:17:11:23:24, 1040000, 288

290010, , INTERESTING, 5:17:11:23:24, 1015000, 281

260010, , INTERESTING, 0:23:24, 1060000, 294

300010, , EMPTY, 7:11:23:24, 1035000, 287

320010, , EMPTY, 16:11:23:24, 1030000, 286

340010, , INTERESTING, 17:11:23:24, 1025000, 284

350010, , EMPTY, 2:23:24, 1030000, 286

340010, , EMPTY, 10:11:23:24, 1055000, 293

260010, , INTERESTING, 19:17:11:23:24, 1150000, 319

370010, , EMPTY, 18:17:11:23:24, 1055000, 293

260010, , EMPTY, 12:11:23:24, 1180000, 327

400010, , EMPTY, 11:23:24, 1055000, 293

360010, , EMPTY, 15:23:24, 1110000, 308

1320010, INTERESTING, INTERESTING, 4:11:23:24, 165000, 45

390010, , EMPTY, 16:11:23:24, 1110000, 308

390010, , EMPTY, 10:11:23:24, 1125000, 312

350010, , EMPTY, 1:17:11:23:24, 1180000, 327

410010, , EMPTY, 11:23:24, 1135000, 315

320010, , EMPTY, 6:11:23:24, 1240000, 344

1510010, INTERESTING, INTERESTING, 14:11:23:24, 65000, 18

430010, , EMPTY, 11:23:24, 1160000, 322

360010, , EMPTY, 14:11:23:24, 1245000, 345

380010, , EMPTY, 18:17:11:23:24, 1240000, 344

270010, , EMPTY, 3:13:11:23:24, 1365000, 379

420010, , EMPTY, 16:11:23:24, 1230000, 341

430010, , EMPTY, 6:11:23:24, 1235000, 343

400010, , EMPTY, 12:11:23:24, 1280000, 355

390010, , INTERESTING, 19:17:11:23:24, 1305000, 362

420010, , EMPTY, 1:17:11:23:24, 1290000, 358

440010, , INTERESTING, 14:11:23:24, 1285000, 356

440010, , EMPTY, 6:11:23:24, 1300000, 361

390010, , EMPTY, 5:17:11:23:24, 1365000, 379

380010, , EMPTY, 7:11:23:24, 1390000, 386

440010, , EMPTY, 19:17:11:23:24, 1345000, 373

460010, , EMPTY, 12:11:23:24, 1340000, 372

460010, , EMPTY, 1:17:11:23:24, 1355000, 376

470010, , EMPTY, 12:11:23:24, 1360000, 377

480010, , EMPTY, 6:11:23:24, 1365000, 379

420010, , EMPTY, 10:11:23:24, 1440000, 400

440010, , EMPTY, 18:17:11:23:24, 1435000, 398

450010, , EMPTY, 14:11:23:24, 1440000, 400

480010, , EMPTY, 5:17:11:23:24, 1425000, 395

330010, , EMPTY, 4:11:23:24, 1590000, 441

510010, , EMPTY, 6:11:23:24, 1425000, 395

390010, , EMPTY, 2:23:24, 1560000, 433

420010, , EMPTY, 15:23:24, 1545000, 429

530010, , EMPTY, 14:11:23:24, 1450000, 402

530010, , EMPTY, 10:11:23:24, 1465000, 406

1940010, INTERESTING, INTERESTING, 16:11:23:24, 70000, 19

350010, , EMPTY, 8:17:11:23:24, 1675000, 465

490010, , EMPTY, 7:11:23:24, 1550000, 430

340010, , EMPTY, 3:13:11:23:24, 1715000, 476

500010, , EMPTY, 5:17:11:23:24, 1570000, 436

320010, , INTERESTING, 9:11:23:24, 1765000, 490

540010, , EMPTY, 14:11:23:24, 1560000, 433

550010, , EMPTY, 4:11:23:24, 1565000, 434

560010, , EMPTY, 15:23:24, 1570000, 436

550010, , EMPTY, 6:11:23:24, 1595000, 443

490010, , EMPTY, 1:17:11:23:24, 1670000, 463

520010, , EMPTY, 17:11:23:24, 1655000, 459

560010, , EMPTY, 10:11:23:24, 1630000, 452

510010, , EMPTY, 12:11:23:24, 1695000, 470

560010, , INTERESTING, 4:11:23:24, 1660000, 461

580010, , EMPTY, 5:17:11:23:24, 1655000, 459

590010, , EMPTY, 9:11:23:24, 1660000, 461

590010, , EMPTY, 10:11:23:24, 1675000, 465

600010, , INTERESTING, 1:17:11:23:24, 1680000, 466

600010, , EMPTY, 15:23:24, 1695000, 470

450010, , EMPTY, 13:11:23:24, 1860000, 516

2280010, INTERESTING, INTERESTING, 0:23:24, 45000, 12

610010, , EMPTY, 11:23:24, 1730000, 480

630010, , EMPTY, 15:23:24, 1725000, 479

2310010, INTERESTING, INTERESTING, 6:11:23:24, 60000, 16

570010, , EMPTY, 7:11:23:24, 1815000, 504

530010, , EMPTY, 18:17:11:23:24, 1870000, 519

380010, , INTERESTING, 0:23:24, 2035000, 565

560010, , EMPTY, 2:23:24, 1870000, 519

590010, , INTERESTING, 14:11:23:24, 1855000, 515

610010, , EMPTY, 1:17:11:23:24, 1850000, 513

460010, , EMPTY, 19:17:11:23:24, 2015000, 559

560010, , INTERESTING, 8:17:11:23:24, 1930000, 536

650010, , EMPTY, 2:23:24, 1855000, 515

620010, , EMPTY, 17:11:23:24, 1900000, 527

630010, , EMPTY, 17:11:23:24, 1905000, 529

640010, , EMPTY, 7:11:23:24, 1910000, 530

670010, , INTERESTING, 2:23:24, 1895000, 526

640010, , EMPTY, 18:17:11:23:24, 1940000, 538

650010, , INTERESTING, 1:17:11:23:24, 1945000, 540

660010, , EMPTY, 18:17:11:23:24, 1950000, 541

680010, , EMPTY, 2:23:24, 1945000, 540

620010, , INTERESTING, 10:11:23:24, 2020000, 561

610010, , EMPTY, 9:11:23:24, 2045000, 568

590010, , EMPTY, 6:11:23:24, 2080000, 577

660010, , EMPTY, 19:17:11:23:24, 2025000, 562

660010, , EMPTY, 8:17:11:23:24, 2040000, 566

600010, , EMPTY, 5:17:11:23:24, 2115000, 587

670010, , EMPTY, 18:17:11:23:24, 2060000, 572

2680010, INTERESTING, INTERESTING, 5:17:11:23:24, 65000, 18

660010, , INTERESTING, 1:17:11:23:24, 2100000, 583

690010, , EMPTY, 2:23:24, 2085000, 579

700010, , EMPTY, 9:11:23:24, 2090000, 580

680010, , EMPTY, 19:17:11:23:24, 2125000, 590

720010, , EMPTY, 11:23:24, 2100000, 583

720010, , EMPTY, 19:17:11:23:24, 2115000, 587

720010, , EMPTY, 5:17:11:23:24, 2130000, 591

670010, , INTERESTING, 7:11:23:24, 2195000, 609

580010, , EMPTY, 3:13:11:23:24, 2300000, 638

2810010, INTERESTING, INTERESTING, 2:23:24, 85000, 23

710010, , EMPTY, 8:17:11:23:24, 2200000, 611

730010, , EMPTY, 1:17:11:23:24, 2195000, 609

650010, , EMPTY, 14:11:23:24, 2290000, 636

740010, , EMPTY, 9:11:23:24, 2215000, 615

750010, , EMPTY, 17:11:23:24, 2220000, 616

740010, , EMPTY, 2:23:24, 2245000, 623

760010, , EMPTY, 9:11:23:24, 2240000, 622

710010, , EMPTY, 6:11:23:24, 2305000, 640

680010, , INTERESTING, 18:17:11:23:24, 2350000, 652

640010, , EMPTY, 15:23:24, 2405000, 668

750010, , INTERESTING, 1:17:11:23:24, 2310000, 641

740010, , INTERESTING, 19:17:11:23:24, 2335000, 648

760010, , EMPTY, 7:11:23:24, 2330000, 647

610010, , INTERESTING, 12:11:23:24, 2495000, 693

630010, , EMPTY, 13:11:23:24, 2490000, 691

760010, , EMPTY, 8:17:11:23:24, 2375000, 659

770010, , EMPTY, 14:11:23:24, 2380000, 661

790010, , EMPTY, 7:11:23:24, 2375000, 659

3060010, INTERESTING, INTERESTING, 4:11:23:24, 120000, 33

800010, , INTERESTING, 15:23:24, 2395000, 665

790010, , EMPTY, 2:23:24, 2420000, 672

810010, , EMPTY, 4:11:23:24, 2415000, 670

810010, , EMPTY, 13:11:23:24, 2430000, 675

820010, , EMPTY, 14:11:23:24, 2435000, 676

690010, , INTERESTING, 0:23:24, 2580000, 716

830010, , EMPTY, 15:23:24, 2455000, 681

3220010, INTERESTING, INTERESTING, 1:17:11:23:24, 80000, 22

770010, , EMPTY, 9:11:23:24, 2545000, 706

770010, , EMPTY, 8:17:11:23:24, 2560000, 711

690010, , EMPTY, 10:11:23:24, 2655000, 737

2970010, INTERESTING, INTERESTING, 18:17:11:23:24, 390000, 108

790010, , EMPTY, 6:11:23:24, 2585000, 718

800010, , EMPTY, 19:17:11:23:24, 2590000, 719

840010, , INTERESTING, 15:23:24, 2565000, 712

3350010, INTERESTING, INTERESTING, 6:11:23:24, 70000, 19

830010, , EMPTY, 11:23:24, 2605000, 723

820010, , INTERESTING, 4:11:23:24, 2630000, 730

820010, , EMPTY, 7:11:23:24, 2645000, 734

840010, , EMPTY, 17:11:23:24, 2640000, 733

850010, , INTERESTING, 6:11:23:24, 2645000, 734

860010, , EMPTY, 4:11:23:24, 2650000, 736

840010, , EMPTY, 9:11:23:24, 2685000, 745

850010, , EMPTY, 17:11:23:24, 2690000, 747

800010, , EMPTY, 8:17:11:23:24, 2755000, 765

830010, , EMPTY, 14:11:23:24, 2740000, 761

860010, , EMPTY, 7:11:23:24, 2725000, 756

900010, , EMPTY, 11:23:24, 2700000, 750

850010, , EMPTY, 10:11:23:24, 2765000, 768

900010, , EMPTY, 9:11:23:24, 2730000, 758

900010, , INTERESTING, 17:11:23:24, 2745000, 762

860010, , EMPTY, 15:23:24, 2800000, 777

920010, , EMPTY, 7:11:23:24, 2755000, 765

870010, , EMPTY, 4:11:23:24, 2820000, 783

920010, , INTERESTING, 14:11:23:24, 2785000, 773

830010, , EMPTY, 2:23:24, 2890000, 802

940010, , INTERESTING, 11:23:24, 2795000, 776

940010, , EMPTY, 15:23:24, 2810000, 780

930010, , EMPTY, 7:11:23:24, 2835000, 787

760010, , EMPTY, 3:13:11:23:24, 3020000, 838

790010, , EMPTY, 18:17:11:23:24, 3005000, 834

950010, , EMPTY, 15:23:24, 2860000, 794

830010, , EMPTY, 13:11:23:24, 2995000, 831

3700010, INTERESTING, INTERESTING, 14:11:23:24, 140000, 38

910010, , EMPTY, 1:17:11:23:24, 2945000, 818

3760010, INTERESTING, INTERESTING, 18:17:11:23:24, 110000, 30

940010, , EMPTY, 4:11:23:24, 2945000, 818

960010, , INTERESTING, 15:23:24, 2940000, 816

950010, , EMPTY, 11:23:24, 2965000, 823

930010, , EMPTY, 10:11:23:24, 3000000, 833

910010, , INTERESTING, 8:17:11:23:24, 3035000, 843

3890010, INTERESTING, INTERESTING, 17:11:23:24, 70000, 19

950010, , EMPTY, 4:11:23:24, 3025000, 840

890010, , EMPTY, 6:11:23:24, 3100000, 861

850010, , EMPTY, 19:17:11:23:24, 3155000, 876

960010, , EMPTY, 13:11:23:24, 3060000, 850

3860010, INTERESTING, INTERESTING, 8:17:11:23:24, 175000, 48

710010, , EMPTY, 16:11:23:24, 3340000, 927

920010, , EMPTY, 9:11:23:24, 3145000, 873

950010, , EMPTY, 7:11:23:24, 3130000, 869

970010, , EMPTY, 15:23:24, 3125000, 868

960010, , EMPTY, 17:11:23:24, 3150000, 875

980010, , INTERESTING, 6:11:23:24, 3145000, 873

970010, , INTERESTING, 8:17:11:23:24, 3170000, 880

980010, , EMPTY, 17:11:23:24, 3175000, 881

970010, , INTERESTING, 10:11:23:24, 3200000, 888

1000010, , EMPTY, 11:23:24, 3185000, 884

1000010, , EMPTY, 15:23:24, 3200000, 888

960010, , EMPTY, 4:11:23:24, 3255000, 904

950010, , EMPTY, 18:17:11:23:24, 3280000, 911

980010, , EMPTY, 19:17:11:23:24, 3265000, 906

4000010, INTERESTING, INTERESTING, 19:17:11:23:24, 260000, 72

950010, , EMPTY, 2:23:24, 3325000, 923

990010, , INTERESTING, 16:11:23:24, 3300000, 916

990010, , EMPTY, 7:11:23:24, 3315000, 920

940010, , EMPTY, 14:11:23:24, 3380000, 938

930010, , EMPTY, 1:17:11:23:24, 3405000, 945

990010, , EMPTY, 9:11:23:24, 3360000, 933

1000010, , EMPTY, 19:17:11:23:24, 3365000, 934

840010, , INTERESTING, 0:23:24, 3540000, 983

4310010, INTERESTING, INTERESTING, 6:11:23:24, 85000, 23

1020010, , EMPTY, 11:23:24, 3390000, 941

1020010, , EMPTY, 15:23:24, 3405000, 945

970010, , EMPTY, 13:11:23:24, 3470000, 963

1000010, , EMPTY, 8:17:11:23:24, 3455000, 959

810010, , EMPTY, 12:11:23:24, 3660000, 1016

950010, , EMPTY, 3:13:11:23:24, 3535000, 981

1040010, , EMPTY, 1:17:11:23:24, 3460000, 961

4350010, INTERESTING, INTERESTING, 19:17:11:23:24, 165000, 45

1020010, , INTERESTING, 16:11:23:24, 3510000, 975

1040010, , EMPTY, 9:11:23:24, 3505000, 973

1060010, , EMPTY, 11:23:24, 3500000, 972

1040010, , EMPTY, 8:17:11:23:24, 3535000, 981

1060010, , EMPTY, 13:11:23:24, 3530000, 980

1030010, , INTERESTING, 2:23:24, 3575000, 993

1070010, , INTERESTING, 3:13:11:23:24, 3550000, 986

4550010, INTERESTING, INTERESTING, 15:23:24, 85000, 23

1010010, , EMPTY, 10:11:23:24, 3640000, 1011

1040010, , EMPTY, 14:11:23:24, 3625000, 1006

1070010, , EMPTY, 12:11:23:24, 3610000, 1002

1080010, , EMPTY, 16:11:23:24, 3615000, 1004

1090010, , EMPTY, 3:13:11:23:24, 3620000, 1005

1080010, , EMPTY, 9:11:23:24, 3645000, 1012

1100010, , EMPTY, 3:13:11:23:24, 3640000, 1011

1060010, , EMPTY, 1:17:11:23:24, 3695000, 1026

1090010, , INTERESTING, 16:11:23:24, 3680000, 1022

4730010, INTERESTING, INTERESTING, 17:11:23:24, 55000, 15

750010, , EMPTY, 5:17:11:23:24, 4050000, 1125

1090010, , EMPTY, 8:17:11:23:24, 3725000, 1034

1120010, , EMPTY, 10:11:23:24, 3710000, 1030

4650010, INTERESTING, INTERESTING, 9:11:23:24, 195000, 54

4780010, INTERESTING, INTERESTING, 17:11:23:24, 80000, 22

1070010, , EMPTY, 1:17:11:23:24, 3805000, 1056

1060010, , EMPTY, 0:23:24, 3830000, 1063

1120010, , EMPTY, 13:11:23:24, 3785000, 1051

1020010, , EMPTY, 19:17:11:23:24, 3900000, 1083

1100010, , EMPTY, 2:23:24, 3835000, 1065

1120010, , EMPTY, 14:11:23:24, 3830000, 1063

1160010, , EMPTY, 16:11:23:24, 3805000, 1056

1180010, , EMPTY, 0:23:24, 3800000, 1055

4900010, INTERESTING, INTERESTING, 0:23:24, 95000, 26

1140010, , EMPTY, 9:11:23:24, 3870000, 1075

1160010, , INTERESTING, 17:11:23:24, 3865000, 1073

1170010, , EMPTY, 16:11:23:24, 3870000, 1075

1170010, , EMPTY, 1:17:11:23:24, 3885000, 1079

1160010, , EMPTY, 8:17:11:23:24, 3910000, 1086

5020010, INTERESTING, INTERESTING, 8:17:11:23:24, 65000, 18

1160010, , EMPTY, 5:17:11:23:24, 3940000, 1094

1020010, , EMPTY, 4:11:23:24, 4095000, 1137

1140010, , INTERESTING, 3:13:11:23:24, 3990000, 1108

1180010, , EMPTY, 19:17:11:23:24, 3965000, 1101

1180010, , EMPTY, 13:11:23:24, 3980000, 1105

1210010, , EMPTY, 0:23:24, 3965000, 1101

1120010, , EMPTY, 12:11:23:24, 4070000, 1130

1190010, , EMPTY, 16:11:23:24, 4015000, 1115

1200010, , EMPTY, 9:11:23:24, 4020000, 1116

1230010, , EMPTY, 3:13:11:23:24, 4005000, 1112

1130010, , EMPTY, 10:11:23:24, 4120000, 1144

1250010, , EMPTY, 12:11:23:24, 4015000, 1115

1240010, , EMPTY, 13:11:23:24, 4040000, 1122

1230010, , EMPTY, 4:11:23:24, 4065000, 1129

1270010, , EMPTY, 11:23:24, 4040000, 1122

1240010, , EMPTY, 3:13:11:23:24, 4085000, 1134

1020010, , INTERESTING, 18:17:11:23:24, 4320000, 1200

1000010, , EMPTY, 6:11:23:24, 4355000, 1209

1210010, , INTERESTING, 17:11:23:24, 4160000, 1155

1210010, , EMPTY, 19:17:11:23:24, 4175000, 1159

5190010, INTERESTING, INTERESTING, 3:13:11:23:24, 210000, 58

1190010, , EMPTY, 2:23:24, 4225000, 1173

1270010, , EMPTY, 10:11:23:24, 4160000, 1155

1290010, , EMPTY, 4:11:23:24, 4155000, 1154

1220010, , EMPTY, 5:17:11:23:24, 4240000, 1177

1060010, , EMPTY, 15:23:24, 4415000, 1226

1300010, , EMPTY, 13:11:23:24, 4190000, 1163

1260010, , EMPTY, 9:11:23:24, 4245000, 1179

1260010, , EMPTY, 16:11:23:24, 4260000, 1183

1300010, , EMPTY, 4:11:23:24, 4235000, 1176

1330010, , EMPTY, 2:23:24, 4220000, 1172

5490010, INTERESTING, INTERESTING, 17:11:23:24, 75000, 20

1250010, , INTERESTING, 0:23:24, 4330000, 1202

1350010, , EMPTY, 0:23:24, 4245000, 1179

1320010, , EMPTY, 10:11:23:24, 4290000, 1191

1220010, , EMPTY, 8:17:11:23:24, 4405000, 1223

1020010, , INTERESTING, 7:11:23:24, 4620000, 1283

1300010, , EMPTY, 18:17:11:23:24, 4355000, 1209

1350010, , EMPTY, 2:23:24, 4320000, 1200

1280010, , EMPTY, 12:11:23:24, 4405000, 1223

1280010, , EMPTY, 3:13:11:23:24, 4420000, 1227

5540010, INTERESTING, INTERESTING, 3:13:11:23:24, 175000, 48

1320010, , EMPTY, 17:11:23:24, 4410000, 1225

1320010, , EMPTY, 19:17:11:23:24, 4425000, 1229

1330010, , EMPTY, 10:11:23:24, 4430000, 1230

1330010, , EMPTY, 5:17:11:23:24, 4445000, 1234

1380010, , INTERESTING, 2:23:24, 4410000, 1225

1340010, , EMPTY, 9:11:23:24, 4465000, 1240

1360010, , INTERESTING, 8:17:11:23:24, 4460000, 1238

1410010, , EMPTY, 2:23:24, 4425000, 1229

1390010, , EMPTY, 10:11:23:24, 4460000, 1238

1340010, , EMPTY, 16:11:23:24, 4525000, 1256

1320010, , INTERESTING, 6:11:23:24, 4560000, 1266

1400010, , INTERESTING, 9:11:23:24, 4495000, 1248

1380010, , EMPTY, 12:11:23:24, 4530000, 1258

1320010, , EMPTY, 13:11:23:24, 4605000, 1279

5730010, INTERESTING, INTERESTING, 8:17:11:23:24, 210000, 58

1360010, , EMPTY, 19:17:11:23:24, 4595000, 1276

1420010, , EMPTY, 11:23:24, 4550000, 1263

1410010, , EMPTY, 19:17:11:23:24, 4575000, 1270

1190010, , EMPTY, 14:11:23:24, 4810000, 1336

1450010, , EMPTY, 11:23:24, 4565000, 1268

1420010, , INTERESTING, 2:23:24, 4610000, 1280

1430010, , EMPTY, 6:11:23:24, 4615000, 1281

1440010, , EMPTY, 12:11:23:24, 4620000, 1283

1460010, , EMPTY, 4:11:23:24, 4615000, 1281

1380010, , EMPTY, 3:13:11:23:24, 4710000, 1308

1460010, , EMPTY, 17:11:23:24, 4645000, 1290

1470010, , INTERESTING, 4:11:23:24, 4650000, 1291

1430010, , INTERESTING, 9:11:23:24, 4705000, 1306

1440010, , EMPTY, 13:11:23:24, 4710000, 1308

1470010, , EMPTY, 14:11:23:24, 4695000, 1304

1510010, , INTERESTING, 11:23:24, 4670000, 1297

1490010, , EMPTY, 6:11:23:24, 4705000, 1306

1500010, , INTERESTING, 17:11:23:24, 4710000, 1308

1520010, , EMPTY, 11:23:24, 4705000, 1306

1490010, , EMPTY, 12:11:23:24, 4750000, 1319

1420010, , EMPTY, 16:11:23:24, 4835000, 1343

1500010, , EMPTY, 3:13:11:23:24, 4770000, 1325

1340010, , EMPTY, 15:23:24, 4945000, 1373

1500010, , EMPTY, 4:11:23:24, 4800000, 1333

1540010, , EMPTY, 11:23:24, 4775000, 1326

1360010, , EMPTY, 0:23:24, 4970000, 1380

1510010, , EMPTY, 9:11:23:24, 4835000, 1343

1550010, , EMPTY, 14:11:23:24, 4810000, 1336

1370010, , EMPTY, 7:11:23:24, 5005000, 1390

1380010, , INTERESTING, 5:17:11:23:24, 5010000, 1391

1550010, , EMPTY, 16:11:23:24, 4855000, 1348

1560010, , EMPTY, 4:11:23:24, 4860000, 1350

1570010, , EMPTY, 9:11:23:24, 4865000, 1351

1480010, , INTERESTING, 2:23:24, 4970000, 1380

1590010, , INTERESTING, 4:11:23:24, 4875000, 1354

1590010, , INTERESTING, 16:11:23:24, 4890000, 1358

1560010, , EMPTY, 15:23:24, 4935000, 1370

1570010, , INTERESTING, 0:23:24, 4940000, 1372

1580010, , INTERESTING, 9:11:23:24, 4945000, 1373

6510010, INTERESTING, INTERESTING, 2:23:24, 30000, 8

1400010, , EMPTY, 8:17:11:23:24, 5155000, 1431

1620010, , EMPTY, 15:23:24, 4950000, 1375

1590010, , EMPTY, 7:11:23:24, 4995000, 1387

1510010, , EMPTY, 13:11:23:24, 5090000, 1413

1610010, , EMPTY, 2:23:24, 5005000, 1390

1610010, , EMPTY, 11:23:24, 5020000, 1394

1620010, , EMPTY, 0:23:24, 5025000, 1395

1630010, , EMPTY, 13:11:23:24, 5030000, 1397

1410010, , INTERESTING, 10:11:23:24, 5265000, 1462

1550010, , EMPTY, 3:13:11:23:24, 5140000, 1427

1600010, , EMPTY, 4:11:23:24, 5105000, 1418

1650010, , EMPTY, 0:23:24, 5070000, 1408

1630010, , INTERESTING, 15:23:24, 5105000, 1418

1620010, , EMPTY, 9:11:23:24, 5130000, 1425

1630010, , INTERESTING, 7:11:23:24, 5135000, 1426

1650010, , EMPTY, 11:23:24, 5130000, 1425

1530010, , EMPTY, 17:11:23:24, 5265000, 1462

1560010, , EMPTY, 14:11:23:24, 5250000, 1458

6760010, INTERESTING, INTERESTING, 6:11:23:24, 65000, 18

1440010, , EMPTY, 19:17:11:23:24, 5400000, 1500

1650010, , EMPTY, 9:11:23:24, 5205000, 1445

1640010, , EMPTY, 2:23:24, 5230000, 1452

1650010, , EMPTY, 4:11:23:24, 5235000, 1454

1610010, , EMPTY, 16:11:23:24, 5290000, 1469

1670010, , EMPTY, 11:23:24, 5245000, 1456

1680010, , INTERESTING, 14:11:23:24, 5250000, 1458

6820010, INTERESTING, INTERESTING, 13:11:23:24, 125000, 34

1690010, , EMPTY, 2:23:24, 5270000, 1463

1670010, , INTERESTING, 17:11:23:24, 5305000, 1473

1370010, , EMPTY, 18:17:11:23:24, 5620000, 1561

6950010, INTERESTING, INTERESTING, 17:11:23:24, 55000, 15

1650010, , INTERESTING, 10:11:23:24, 5370000, 1491

1660010, , EMPTY, 7:11:23:24, 5375000, 1493

1640010, , INTERESTING, 13:11:23:24, 5410000, 1502

1690010, , EMPTY, 11:23:24, 5375000, 1493

1650010, , EMPTY, 3:13:11:23:24, 5430000, 1508

6950010, INTERESTING, INTERESTING, 8:17:11:23:24, 145000, 40

7050010, INTERESTING, INTERESTING, 17:11:23:24, 60000, 16

1700010, , EMPTY, 17:11:23:24, 5425000, 1506

1720010, , EMPTY, 7:11:23:24, 5420000, 1505

1690010, , EMPTY, 16:11:23:24, 5465000, 1518

1720010, , EMPTY, 17:11:23:24, 5450000, 1513

1710010, , EMPTY, 18:17:11:23:24, 5475000, 1520

1740010, , INTERESTING, 11:23:24, 5460000, 1516

1660010, , EMPTY, 0:23:24, 5555000, 1543

1690010, , EMPTY, 14:11:23:24, 5540000, 1538

1540010, , EMPTY, 12:11:23:24, 5705000, 1584

1740010, , EMPTY, 7:11:23:24, 5520000, 1533

1750010, , EMPTY, 17:11:23:24, 5525000, 1534

1750010, , EMPTY, 18:17:11:23:24, 5540000, 1538

1700010, , EMPTY, 2:23:24, 5605000, 1556

1770010, , EMPTY, 14:11:23:24, 5550000, 1541

1780010, , EMPTY, 14:11:23:24, 5555000, 1543

1680010, , EMPTY, 9:11:23:24, 5670000, 1575

1680010, , INTERESTING, 19:17:11:23:24, 5685000, 1579

1730010, , EMPTY, 13:11:23:24, 5650000, 1569

7330010, INTERESTING, INTERESTING, 1:17:11:23:24, 65000, 18

1760010, , EMPTY, 17:11:23:24, 5650000, 1569

1790010, , INTERESTING, 14:11:23:24, 5635000, 1565

1800010, , EMPTY, 11:23:24, 5640000, 1566

1530010, , EMPTY, 6:11:23:24, 5925000, 1645

1770010, , EMPTY, 18:17:11:23:24, 5700000, 1583

1770010, , EMPTY, 7:11:23:24, 5715000, 1587

1800010, , EMPTY, 13:11:23:24, 5700000, 1583

1210010, , EMPTY, 1:17:11:23:24, 6305000, 1751

1660010, , EMPTY, 15:23:24, 5870000, 1630

7450010, INTERESTING, INTERESTING, 8:17:11:23:24, 95000, 26

1800010, , EMPTY, 19:17:11:23:24, 5760000, 1600

1750010, , EMPTY, 16:11:23:24, 5825000, 1618

1720010, , EMPTY, 10:11:23:24, 5870000, 1630

1680010, , EMPTY, 4:11:23:24, 5925000, 1645

1800010, , INTERESTING, 9:11:23:24, 5820000, 1616

1820010, , EMPTY, 11:23:24, 5815000, 1615

1770010, , INTERESTING, 12:11:23:24, 5880000, 1633

7280010, INTERESTING, INTERESTING, 5:17:11:23:24, 385000, 106

1800010, , EMPTY, 14:11:23:24, 5880000, 1633

7660010, INTERESTING, INTERESTING, 0:23:24, 35000, 9

1820010, , EMPTY, 6:11:23:24, 5890000, 1636

1820010, , EMPTY, 19:17:11:23:24, 5905000, 1640

1590010, , EMPTY, 5:17:11:23:24, 6150000, 1708

1830010, , INTERESTING, 7:11:23:24, 5925000, 1645

1850010, , EMPTY, 10:11:23:24, 5920000, 1644

1860010, , EMPTY, 12:11:23:24, 5925000, 1645

1620010, , EMPTY, 8:17:11:23:24, 6180000, 1716

1800010, , EMPTY, 18:17:11:23:24, 6015000, 1670

1830010, , INTERESTING, 19:17:11:23:24, 6000000, 1666

1860010, , INTERESTING, 10:11:23:24, 5985000, 1662

1860010, , EMPTY, 17:11:23:24, 6000000, 1666

7730010, INTERESTING, INTERESTING, 2:23:24, 145000, 40

1770010, , INTERESTING, 0:23:24, 6120000, 1700

7750010, INTERESTING, INTERESTING, 5:17:11:23:24, 155000, 43

1910010, , INTERESTING, 0:23:24, 6010000, 1669

7870010, INTERESTING, INTERESTING, 13:11:23:24, 65000, 18

1920010, , INTERESTING, 0:23:24, 6030000, 1675

7930010, INTERESTING, INTERESTING, 15:23:24, 35000, 9

1850010, , EMPTY, 9:11:23:24, 6130000, 1702

1850010, , INTERESTING, 6:11:23:24, 6145000, 1706

1840010, , INTERESTING, 16:11:23:24, 6170000, 1713

1860010, , EMPTY, 7:11:23:24, 6165000, 1712

1830010, , EMPTY, 1:17:11:23:24, 6210000, 1725

1720010, , EMPTY, 3:13:11:23:24, 6335000, 1759

1870010, , INTERESTING, 12:11:23:24, 6200000, 1722

1900010, , EMPTY, 17:11:23:24, 6185000, 1718

1840010, , EMPTY, 15:23:24, 6260000, 1738

1930010, , EMPTY, 6:11:23:24, 6185000, 1718

1940010, , EMPTY, 7:11:23:24, 6190000, 1719

2000010, , EMPTY, 15:23:24, 6145000, 1706

1790010, , INTERESTING, 2:23:24, 6370000, 1769

8130010, INTERESTING, INTERESTING, 1:17:11:23:24, 45000, 12

1850010, , EMPTY, 4:11:23:24, 6340000, 1761

1830010, , EMPTY, 13:11:23:24, 6375000, 1770

1860010, , INTERESTING, 14:11:23:24, 6360000, 1766

1890010, , EMPTY, 8:17:11:23:24, 6345000, 1762

1990010, , EMPTY, 7:11:23:24, 6260000, 1738

8210010, INTERESTING, INTERESTING, 0:23:24, 55000, 15

2020010, , INTERESTING, 14:11:23:24, 6260000, 1738

1930010, , EMPTY, 0:23:24, 6365000, 1768

2020010, , EMPTY, 4:11:23:24, 6290000, 1747

8290010, INTERESTING, INTERESTING, 11:23:24, 35000, 9

2000010, , EMPTY, 7:11:23:24, 6340000, 1761

1890010, , INTERESTING, 18:17:11:23:24, 6465000, 1795

1950010, , EMPTY, 1:17:11:23:24, 6420000, 1783

2030010, , EMPTY, 11:23:24, 6355000, 1765

1980010, , EMPTY, 16:11:23:24, 6420000, 1783

2010010, , INTERESTING, 15:23:24, 6405000, 1779

2030010, , INTERESTING, 14:11:23:24, 6400000, 1777

1960010, , EMPTY, 3:13:11:23:24, 6485000, 1801

8390010, INTERESTING, INTERESTING, 6:11:23:24, 70000, 19

2020010, , EMPTY, 8:17:11:23:24, 6455000, 1793

2040010, , INTERESTING, 7:11:23:24, 6450000, 1791

1900010, , EMPTY, 12:11:23:24, 6605000, 1834

1890010, , EMPTY, 19:17:11:23:24, 6630000, 1841

1930010, , EMPTY, 9:11:23:24, 6605000, 1834

2030010, , INTERESTING, 4:11:23:24, 6520000, 1811

1970010, , EMPTY, 1:17:11:23:24, 6595000, 1831

2040010, , EMPTY, 18:17:11:23:24, 6540000, 1816

2010010, , EMPTY, 2:23:24, 6585000, 1829

2060010, , EMPTY, 14:11:23:24, 6550000, 1819

1870010, , EMPTY, 5:17:11:23:24, 6755000, 1876

8470010, INTERESTING, INTERESTING, 15:23:24, 170000, 47

8550010, INTERESTING, INTERESTING, 9:11:23:24, 105000, 29

2090010, , EMPTY, 12:11:23:24, 6580000, 1827

2040010, , EMPTY, 8:17:11:23:24, 6645000, 1845

2090010, , INTERESTING, 19:17:11:23:24, 6610000, 1836

2100010, , EMPTY, 14:11:23:24, 6615000, 1837

2000010, , EMPTY, 6:11:23:24, 6730000, 1869

2100010, , EMPTY, 1:17:11:23:24, 6645000, 1845

2110010, , EMPTY, 2:23:24, 6650000, 1847

2100010, , EMPTY, 4:11:23:24, 6675000, 1854

2080010, , EMPTY, 18:17:11:23:24, 6710000, 1863

8770010, INTERESTING, INTERESTING, 15:23:24, 35000, 9

8670010, INTERESTING, INTERESTING, 0:23:24, 150000, 41

2080010, , EMPTY, 8:17:11:23:24, 6755000, 1876

8780010, INTERESTING, INTERESTING, 16:11:23:24, 70000, 19

2080010, , EMPTY, 15:23:24, 6785000, 1884

2100010, , EMPTY, 12:11:23:24, 6780000, 1883

2110010, , EMPTY, 5:17:11:23:24, 6785000, 1884

2130010, , INTERESTING, 5:17:11:23:24, 6780000, 1883

2170010, , EMPTY, 15:23:24, 6755000, 1876

2150010, , EMPTY, 6:11:23:24, 6790000, 1886

2160010, , EMPTY, 2:23:24, 6795000, 1887

8670010, INTERESTING, INTERESTING, 9:11:23:24, 300000, 83

2040010, , EMPTY, 0:23:24, 6945000, 1929

2160010, , EMPTY, 18:17:11:23:24, 6840000, 1900

2160010, , EMPTY, 8:17:11:23:24, 6855000, 1904

8960010, INTERESTING, INTERESTING, 17:11:23:24, 70000, 19

2170010, , INTERESTING, 17:11:23:24, 6875000, 1909

2160010, , EMPTY, 12:11:23:24, 6900000, 1916

2020010, , INTERESTING, 3:13:11:23:24, 7055000, 1959

9030010, INTERESTING, INTERESTING, 8:17:11:23:24, 60000, 16

2130010, , EMPTY, 19:17:11:23:24, 6975000, 1937

2170010, , EMPTY, 5:17:11:23:24, 6950000, 1930

2080010, , EMPTY, 13:11:23:24, 7055000, 1959

2090010, , INTERESTING, 9:11:23:24, 7060000, 1961

2200010, , EMPTY, 11:23:24, 6965000, 1934

2200010, , INTERESTING, 8:17:11:23:24, 6980000, 1938

2140010, , EMPTY, 1:17:11:23:24, 7055000, 1959

2180010, , EMPTY, 18:17:11:23:24, 7030000, 1952

2180010, , EMPTY, 15:23:24, 7045000, 1956

2150010, , EMPTY, 4:11:23:24, 7090000, 1969

2210010, , EMPTY, 12:11:23:24, 7045000, 1956

2210010, , EMPTY, 3:13:11:23:24, 7060000, 1961

2200010, , EMPTY, 2:23:24, 7085000, 1968

2200010, , EMPTY, 0:23:24, 7100000, 1972

9250010, INTERESTING, INTERESTING, 12:11:23:24, 65000, 18

2210010, , INTERESTING, 19:17:11:23:24, 7120000, 1977

2170010, , INTERESTING, 6:11:23:24, 7175000, 1993

2230010, , EMPTY, 9:11:23:24, 7130000, 1980

2240010, , EMPTY, 17:11:23:24, 7135000, 1981

2070010, , EMPTY, 16:11:23:24, 7320000, 2033

2240010, , INTERESTING, 19:17:11:23:24, 7165000, 1990

2240010, , EMPTY, 18:17:11:23:24, 7180000, 1994

2260010, , EMPTY, 0:23:24, 7175000, 1993

2250010, , EMPTY, 15:23:24, 7200000, 2000

2260010, , INTERESTING, 11:23:24, 7205000, 2001

2240010, , INTERESTING, 9:11:23:24, 7240000, 2011

2210010, , EMPTY, 8:17:11:23:24, 7285000, 2023

2230010, , EMPTY, 13:11:23:24, 7280000, 2022

2260010, , EMPTY, 6:11:23:24, 7265000, 2018

9470010, INTERESTING, INTERESTING, 3:13:11:23:24, 70000, 19

2240010, , EMPTY, 1:17:11:23:24, 7315000, 2031

2280010, , EMPTY, 11:23:24, 7290000, 2025

1880010, , INTERESTING, 10:11:23:24, 7705000, 2140

2080010, , EMPTY, 7:11:23:24, 7520000, 2088

9500010, INTERESTING, INTERESTING, 5:17:11:23:24, 115000, 31

2230010, , EMPTY, 12:11:23:24, 7400000, 2055

2240010, , EMPTY, 3:13:11:23:24, 7405000, 2056

2250010, , EMPTY, 19:17:11:23:24, 7410000, 2058

2270010, , EMPTY, 16:11:23:24, 7405000, 2056

2260010, , EMPTY, 2:23:24, 7430000, 2063

9650010, INTERESTING, INTERESTING, 14:11:23:24, 55000, 15

2270010, , EMPTY, 1:17:11:23:24, 7450000, 2069

2290010, , EMPTY, 6:11:23:24, 7445000, 2068

2290010, , EMPTY, 9:11:23:24, 7460000, 2072

2290010, , EMPTY, 8:17:11:23:24, 7475000, 2076

2290010, , EMPTY, 3:13:11:23:24, 7490000, 2080

2300010, , EMPTY, 1:17:11:23:24, 7495000, 2081

2310010, , EMPTY, 11:23:24, 7500000, 2083

9430010, INTERESTING, INTERESTING, 19:17:11:23:24, 395000, 109

2330010, , EMPTY, 2:23:24, 7510000, 2086

2250010, , INTERESTING, 18:17:11:23:24, 7605000, 2112

2310010, , EMPTY, 16:11:23:24, 7560000, 2100

2310010, , EMPTY, 13:11:23:24, 7575000, 2104

9830010, INTERESTING, INTERESTING, 12:11:23:24, 70000, 19

2320010, , INTERESTING, 17:11:23:24, 7595000, 2109

2320010, , EMPTY, 19:17:11:23:24, 7610000, 2113

9820010, INTERESTING, INTERESTING, 3:13:11:23:24, 125000, 34

2350010, , EMPTY, 2:23:24, 7610000, 2113

2320010, , EMPTY, 6:11:23:24, 7655000, 2126

2310010, , EMPTY, 7:11:23:24, 7680000, 2133

2200010, , EMPTY, 5:17:11:23:24, 7805000, 2168

2320010, , EMPTY, 1:17:11:23:24, 7700000, 2138

2330010, , EMPTY, 16:11:23:24, 7705000, 2140

9980010, INTERESTING, INTERESTING, 1:17:11:23:24, 70000, 19

2250010, , EMPTY, 4:11:23:24, 7815000, 2170

2340010, , EMPTY, 1:17:11:23:24, 7740000, 2150

2360010, , EMPTY, 16:11:23:24, 7735000, 2148

2120010, , EMPTY, 14:11:23:24, 7990000, 2219

2330010, , EMPTY, 19:17:11:23:24, 7795000, 2165

2330010, , INTERESTING, 3:13:11:23:24, 7810000, 2169

2280010, , INTERESTING, 15:23:24, 7875000, 2187

2320010, , EMPTY, 9:11:23:24, 7850000, 2180

2330010, , INTERESTING, 8:17:11:23:24, 7855000, 2181

2370010, , EMPTY, 16:11:23:24, 7830000, 2175

2370010, , EMPTY, 1:17:11:23:24, 7845000, 2179

2380010, , EMPTY, 17:11:23:24, 7850000, 2180

2370010, , EMPTY, 5:17:11:23:24, 7875000, 2187

2390010, , EMPTY, 11:23:24, 7870000, 2186

2360010, , EMPTY, 6:11:23:24, 7915000, 2198

2350010, , EMPTY, 13:11:23:24, 7940000, 2205

2400010, , EMPTY, 15:23:24, 7905000, 2195

2350010, , EMPTY, 18:17:11:23:24, 7970000, 2213

2310010, , EMPTY, 0:23:24, 8025000, 2229

2370010, , EMPTY, 7:11:23:24, 7980000, 2216

2390010, , EMPTY, 17:11:23:24, 7975000, 2215

2390010, , EMPTY, 19:17:11:23:24, 7990000, 2219

2400010, , EMPTY, 11:23:24, 7995000, 2220

2390010, , EMPTY, 16:11:23:24, 8020000, 2227

2400010, , EMPTY, 9:11:23:24, 8025000, 2229

2400010, , EMPTY, 17:11:23:24, 8040000, 2233

2380010, , EMPTY, 4:11:23:24, 8075000, 2243

2400010, , INTERESTING, 1:17:11:23:24, 8070000, 2241

2420010, , EMPTY, 6:11:23:24, 8065000, 2240

2390010, , EMPTY, 14:11:23:24, 8110000, 2252

2430010, , INTERESTING, 7:11:23:24, 8085000, 2245

2430010, , EMPTY, 9:11:23:24, 8100000, 2250

2310010, , EMPTY, 12:11:23:24, 8235000, 2287

2310010, , EMPTY, 10:11:23:24, 8250000, 2291

2450010, , EMPTY, 4:11:23:24, 8125000, 2256

2410010, , EMPTY, 5:17:11:23:24, 8180000, 2272

2420010, , EMPTY, 19:17:11:23:24, 8185000, 2273

10490010, INTERESTING, INTERESTING, 13:11:23:24, 130000, 36

2440010, , EMPTY, 7:11:23:24, 8195000, 2276

2460010, , EMPTY, 9:11:23:24, 8190000, 2275

2440010, , EMPTY, 1:17:11:23:24, 8225000, 2284

2460010, , EMPTY, 4:11:23:24, 8220000, 2283

2370010, , EMPTY, 2:23:24, 8325000, 2312

2450010, , INTERESTING, 6:11:23:24, 8260000, 2294

2470010, , EMPTY, 12:11:23:24, 8255000, 2293

2420010, , EMPTY, 18:17:11:23:24, 8320000, 2311

2490010, , EMPTY, 17:11:23:24, 8265000, 2295

2480010, , EMPTY, 9:11:23:24, 8290000, 2302

2490010, , EMPTY, 19:17:11:23:24, 8295000, 2304

2500010, , EMPTY, 4:11:23:24, 8300000, 2305

2490010, , EMPTY, 12:11:23:24, 8325000, 2312

2510010, , EMPTY, 17:11:23:24, 8320000, 2311

2510010, , EMPTY, 6:11:23:24, 8335000, 2315

2430010, , EMPTY, 15:23:24, 8430000, 2341

2510010, , EMPTY, 4:11:23:24, 8365000, 2323

2390010, , EMPTY, 3:13:11:23:24, 8500000, 2361

2440010, , EMPTY, 5:17:11:23:24, 8465000, 2351

2510010, , EMPTY, 18:17:11:23:24, 8410000, 2336

2500010, , INTERESTING, 1:17:11:23:24, 8435000, 2343

2520010, , INTERESTING, 17:11:23:24, 8430000, 2341

2520010, , EMPTY, 9:11:23:24, 8445000, 2345

2530010, , INTERESTING, 11:23:24, 8450000, 2347

10880010, INTERESTING, INTERESTING, 9:11:23:24, 115000, 31

2540010, , EMPTY, 9:11:23:24, 8470000, 2352

2530010, , EMPTY, 12:11:23:24, 8495000, 2359

2390010, , EMPTY, 8:17:11:23:24, 8650000, 2402

2530010, , EMPTY, 17:11:23:24, 8525000, 2368

2490010, , EMPTY, 7:11:23:24, 8580000, 2383

2530010, , EMPTY, 4:11:23:24, 8555000, 2376

2550010, , EMPTY, 9:11:23:24, 8550000, 2375

2540010, , EMPTY, 5:17:11:23:24, 8575000, 2381

2540010, , EMPTY, 18:17:11:23:24, 8590000, 2386

2530010, , INTERESTING, 6:11:23:24, 8615000, 2393

2570010, , EMPTY, 11:23:24, 8590000, 2386

2420010, , EMPTY, 3:13:11:23:24, 8755000, 2431

2580010, , EMPTY, 9:11:23:24, 8610000, 2391

2540010, , INTERESTING, 3:13:11:23:24, 8665000, 2406

2430010, , INTERESTING, 0:23:24, 8790000, 2441

2540010, , EMPTY, 15:23:24, 8695000, 2415

2550010, , EMPTY, 1:17:11:23:24, 8700000, 2416

2600010, , EMPTY, 9:11:23:24, 8665000, 2406

2600010, , EMPTY, 3:13:11:23:24, 8680000, 2411

2520010, , INTERESTING, 19:17:11:23:24, 8775000, 2437

2570010, , INTERESTING, 8:17:11:23:24, 8740000, 2427

11150010, INTERESTING, INTERESTING, 18:17:11:23:24, 175000, 48

2590010, , EMPTY, 18:17:11:23:24, 8750000, 2430

2610010, , EMPTY, 9:11:23:24, 8745000, 2429

2630010, , INTERESTING, 9:11:23:24, 8740000, 2427

2630010, , EMPTY, 17:11:23:24, 8755000, 2431

11330010, INTERESTING, INTERESTING, 6:11:23:24, 70000, 19

2460010, , EMPTY, 14:11:23:24, 8955000, 2487

2480010, , EMPTY, 10:11:23:24, 8950000, 2486

2580010, , EMPTY, 7:11:23:24, 8865000, 2462

2640010, , EMPTY, 19:17:11:23:24, 8820000, 2450

2570010, , EMPTY, 12:11:23:24, 8905000, 2473

2640010, , EMPTY, 8:17:11:23:24, 8850000, 2458

2570010, , EMPTY, 5:17:11:23:24, 8935000, 2481

2640010, , EMPTY, 18:17:11:23:24, 8880000, 2466

2630010, , INTERESTING, 0:23:24, 8905000, 2473

11430010, INTERESTING, INTERESTING, 2:23:24, 120000, 33

11500010, INTERESTING, INTERESTING, 12:11:23:24, 65000, 18

11520010, INTERESTING, INTERESTING, 12:11:23:24, 60000, 16

2630010, , EMPTY, 15:23:24, 8965000, 2490

2650010, , EMPTY, 19:17:11:23:24, 8960000, 2488

2660010, , EMPTY, 10:11:23:24, 8965000, 2490

2660010, , EMPTY, 7:11:23:24, 8980000, 2494

2580010, , INTERESTING, 4:11:23:24, 9075000, 2520

11590010, INTERESTING, INTERESTING, 19:17:11:23:24, 80000, 22

2660010, , EMPTY, 17:11:23:24, 9025000, 2506

2670010, , EMPTY, 10:11:23:24, 9030000, 2508

2620010, , EMPTY, 13:11:23:24, 9095000, 2526

2680010, , EMPTY, 19:17:11:23:24, 9050000, 2513

2590010, , INTERESTING, 1:17:11:23:24, 9155000, 2543

2700010, , INTERESTING, 4:11:23:24, 9060000, 2516

2690010, , EMPTY, 15:23:24, 9085000, 2523

2720010, , INTERESTING, 13:11:23:24, 9070000, 2519

11740010, INTERESTING, INTERESTING, 18:17:11:23:24, 65000, 18

2730010, , EMPTY, 13:11:23:24, 9090000, 2525

2660010, , EMPTY, 14:11:23:24, 9175000, 2548

2650010, , EMPTY, 8:17:11:23:24, 9200000, 2555

2690010, , EMPTY, 7:11:23:24, 9175000, 2548

2690010, , EMPTY, 5:17:11:23:24, 9190000, 2552

2710010, , INTERESTING, 10:11:23:24, 9185000, 2551

2730010, , EMPTY, 17:11:23:24, 9180000, 2550

2740010, , EMPTY, 15:23:24, 9185000, 2551

2440010, , EMPTY, 16:11:23:24, 9500000, 2638

2670010, , EMPTY, 12:11:23:24, 9285000, 2579

2730010, , EMPTY, 1:17:11:23:24, 9240000, 2566

2770010, , INTERESTING, 15:23:24, 9215000, 2559

2740010, , INTERESTING, 1:17:11:23:24, 9260000, 2572

2600010, , INTERESTING, 6:11:23:24, 9415000, 2615

2750010, , INTERESTING, 17:11:23:24, 9280000, 2577

2750010, , EMPTY, 5:17:11:23:24, 9295000, 2581

2650010, , EMPTY, 9:11:23:24, 9410000, 2613

2720010, , EMPTY, 4:11:23:24, 9355000, 2598

2740010, , EMPTY, 13:11:23:24, 9350000, 2597

2750010, , EMPTY, 8:17:11:23:24, 9355000, 2598

2510010, , INTERESTING, 2:23:24, 9610000, 2669

2750010, , INTERESTING, 14:11:23:24, 9385000, 2606

2770010, , INTERESTING, 12:11:23:24, 9380000, 2605

2770010, , EMPTY, 1:17:11:23:24, 9395000, 2609

2780010, , INTERESTING, 15:23:24, 9400000, 2611

2770010, , INTERESTING, 8:17:11:23:24, 9425000, 2618

2760010, , EMPTY, 10:11:23:24, 9450000, 2625

2820010, , EMPTY, 11:23:24, 9405000, 2612

2770010, , EMPTY, 16:11:23:24, 9470000, 2630

2780010, , EMPTY, 12:11:23:24, 9475000, 2631

2810010, , EMPTY, 14:11:23:24, 9460000, 2627

2810010, , EMPTY, 17:11:23:24, 9475000, 2631

2680010, , EMPTY, 18:17:11:23:24, 9620000, 2672

2830010, , EMPTY, 11:23:24, 9485000, 2634

2830010, , INTERESTING, 14:11:23:24, 9500000, 2638

12290010, INTERESTING, INTERESTING, 5:17:11:23:24, 55000, 15

2790010, , EMPTY, 4:11:23:24, 9570000, 2658

2790010, , EMPTY, 13:11:23:24, 9585000, 2662

2810010, , EMPTY, 8:17:11:23:24, 9580000, 2661

2690010, , EMPTY, 0:23:24, 9715000, 2698

2780010, , EMPTY, 6:11:23:24, 9640000, 2677

2820010, , EMPTY, 10:11:23:24, 9615000, 2670

2830010, , EMPTY, 12:11:23:24, 9620000, 2672

2750010, , EMPTY, 7:11:23:24, 9715000, 2698

2790010, , EMPTY, 1:17:11:23:24, 9690000, 2691

2830010, , EMPTY, 8:17:11:23:24, 9665000, 2684

2830010, , EMPTY, 16:11:23:24, 9680000, 2688

2840010, , EMPTY, 11:23:24, 9685000, 2690

2840010, , EMPTY, 14:11:23:24, 9700000, 2694

2820010, , EMPTY, 15:23:24, 9735000, 2704

12510010, INTERESTING, INTERESTING, 14:11:23:24, 60000, 16

2850010, , EMPTY, 17:11:23:24, 9735000, 2704

2860010, , EMPTY, 11:23:24, 9740000, 2705

2860010, , EMPTY, 16:11:23:24, 9755000, 2709

2860010, , EMPTY, 17:11:23:24, 9770000, 2713

2890010, , INTERESTING, 15:23:24, 9755000, 2709

2850010, , EMPTY, 13:11:23:24, 9810000, 2725

2630010, , EMPTY, 3:13:11:23:24, 10045000, 2790

12610010, INTERESTING, INTERESTING, 1:17:11:23:24, 80000, 22

12610010, INTERESTING, INTERESTING, 4:11:23:24, 95000, 26

12630010, INTERESTING, INTERESTING, 12:11:23:24, 90000, 25

2870010, , EMPTY, 7:11:23:24, 9865000, 2740

12610010, INTERESTING, INTERESTING, 7:11:23:24, 140000, 38

2860010, , EMPTY, 0:23:24, 9905000, 2751

2850010, , EMPTY, 4:11:23:24, 9930000, 2758

2840010, , EMPTY, 18:17:11:23:24, 9955000, 2765

2870010, , EMPTY, 1:17:11:23:24, 9940000, 2761

2870010, , INTERESTING, 14:11:23:24, 9955000, 2765

2890010, , EMPTY, 11:23:24, 9950000, 2763

12740010, INTERESTING, INTERESTING, 14:11:23:24, 115000, 31

2860010, , EMPTY, 6:11:23:24, 10010000, 2780

2890010, , INTERESTING, 1:17:11:23:24, 9995000, 2776

2920010, , EMPTY, 4:11:23:24, 9980000, 2772

2940010, , EMPTY, 11:23:24, 9975000, 2770

2920010, , EMPTY, 18:17:11:23:24, 10010000, 2780

12770010, INTERESTING, INTERESTING, 15:23:24, 175000, 48

2940010, , EMPTY, 4:11:23:24, 10020000, 2783

2930010, , EMPTY, 14:11:23:24, 10045000, 2790

2850010, , EMPTY, 8:17:11:23:24, 10140000, 2816

2900010, , EMPTY, 13:11:23:24, 10105000, 2806

2790010, , EMPTY, 9:11:23:24, 10230000, 2841

2930010, , EMPTY, 17:11:23:24, 10105000, 2806

13000010, INTERESTING, INTERESTING, 8:17:11:23:24, 50000, 13

2920010, , EMPTY, 0:23:24, 10145000, 2818

2870010, , EMPTY, 2:23:24, 10210000, 2836

2850010, , EMPTY, 12:11:23:24, 10245000, 2845

2940010, , EMPTY, 6:11:23:24, 10170000, 2825

2700010, , INTERESTING, 19:17:11:23:24, 10425000, 2895

2900010, , EMPTY, 15:23:24, 10240000, 2844

2950010, , EMPTY, 4:11:23:24, 10205000, 2834

2950010, , EMPTY, 18:17:11:23:24, 10220000, 2838

2960010, , EMPTY, 11:23:24, 10225000, 2840

2960010, , EMPTY, 8:17:11:23:24, 10240000, 2844

2980010, , INTERESTING, 6:11:23:24, 10235000, 2843

2980010, , INTERESTING, 8:17:11:23:24, 10250000, 2847

2980010, , EMPTY, 2:23:24, 10265000, 2851

2980010, , EMPTY, 0:23:24, 10280000, 2855

2990010, , EMPTY, 15:23:24, 10285000, 2856

3020010, , EMPTY, 2:23:24, 10270000, 2852

2970010, , EMPTY, 9:11:23:24, 10335000, 2870

2980010, , EMPTY, 19:17:11:23:24, 10340000, 2872

3020010, , INTERESTING, 0:23:24, 10315000, 2865

2980010, , EMPTY, 4:11:23:24, 10370000, 2880

13330010, INTERESTING, INTERESTING, 6:11:23:24, 35000, 9

2960010, , INTERESTING, 14:11:23:24, 10420000, 2894

2990010, , EMPTY, 17:11:23:24, 10405000, 2890

2900010, , EMPTY, 3:13:11:23:24, 10510000, 2919

2990010, , INTERESTING, 8:17:11:23:24, 10435000, 2898

2990010, , EMPTY, 6:11:23:24, 10450000, 2902

3030010, , INTERESTING, 2:23:24, 10425000, 2895

3040010, , EMPTY, 14:11:23:24, 10430000, 2897

3040010, , INTERESTING, 17:11:23:24, 10445000, 2901

3030010, , EMPTY, 19:17:11:23:24, 10470000, 2908

3040010, , INTERESTING, 4:11:23:24, 10475000, 2909

2890010, , EMPTY, 16:11:23:24, 10640000, 2955

2770010, , EMPTY, 5:17:11:23:24, 10775000, 2993

2980010, , EMPTY, 12:11:23:24, 10580000, 2938

3030010, , EMPTY, 9:11:23:24, 10545000, 2929

2960010, , EMPTY, 3:13:11:23:24, 10630000, 2952

3050010, , EMPTY, 14:11:23:24, 10555000, 2931

2850010, , EMPTY, 10:11:23:24, 10770000, 2991

3070010, , EMPTY, 16:11:23:24, 10565000, 2934

13580010, INTERESTING, INTERESTING, 12:11:23:24, 70000, 19

3060010, , EMPTY, 2:23:24, 10605000, 2945

2910010, , EMPTY, 7:11:23:24, 10770000, 2991

2940010, , EMPTY, 1:17:11:23:24, 10755000, 2987

3050010, , EMPTY, 13:11:23:24, 10660000, 2961

3080010, , EMPTY, 9:11:23:24, 10645000, 2956

3060010, , INTERESTING, 14:11:23:24, 10680000, 2966

3060010, , EMPTY, 17:11:23:24, 10695000, 2970

3070010, , EMPTY, 5:17:11:23:24, 10700000, 2972

3120010, , EMPTY, 2:23:24, 10665000, 2962

3050010, , EMPTY, 6:11:23:24, 10750000, 2986

3080010, , EMPTY, 3:13:11:23:24, 10735000, 2981

3090010, , EMPTY, 10:11:23:24, 10740000, 2983

3110010, , EMPTY, 9:11:23:24, 10735000, 2981

3120010, , INTERESTING, 7:11:23:24, 10740000, 2983

3040010, , EMPTY, 0:23:24, 10835000, 3009

3120010, , EMPTY, 1:17:11:23:24, 10770000, 2991

3120010, , EMPTY, 13:11:23:24, 10785000, 2995

3130010, , EMPTY, 5:17:11:23:24, 10790000, 2997

3130010, , EMPTY, 14:11:23:24, 10805000, 3001

3140010, , INTERESTING, 6:11:23:24, 10810000, 3002

3060010, , INTERESTING, 19:17:11:23:24, 10905000, 3029

3130010, , INTERESTING, 7:11:23:24, 10850000, 3013

3140010, , EMPTY, 17:11:23:24, 10855000, 3015

3130010, , EMPTY, 3:13:11:23:24, 10880000, 3022

3120010, , EMPTY, 10:11:23:24, 10905000, 3029

3150010, , EMPTY, 13:11:23:24, 10890000, 3025

3150010, , EMPTY, 6:11:23:24, 10905000, 3029

3020010, , EMPTY, 15:23:24, 11050000, 3069

3160010, , INTERESTING, 13:11:23:24, 10925000, 3034

3080010, , EMPTY, 16:11:23:24, 11020000, 3061

3180010, , EMPTY, 7:11:23:24, 10935000, 3037

3190010, , EMPTY, 3:13:11:23:24, 10940000, 3038

3140010, , EMPTY, 5:17:11:23:24, 11005000, 3056

3130010, , INTERESTING, 1:17:11:23:24, 11030000, 3063

3200010, , EMPTY, 6:11:23:24, 10975000, 3048

3210010, , EMPTY, 11:23:24, 10980000, 3050

3140010, , EMPTY, 2:23:24, 11065000, 3073

3070010, , EMPTY, 12:11:23:24, 11150000, 3097

3220010, , EMPTY, 17:11:23:24, 11015000, 3059

3170010, , EMPTY, 19:17:11:23:24, 11080000, 3077

3180010, , EMPTY, 5:17:11:23:24, 11085000, 3079

3130010, , EMPTY, 9:11:23:24, 11150000, 3097

3200010, , EMPTY, 7:11:23:24, 11095000, 3081

3260010, , EMPTY, 17:11:23:24, 11050000, 3069

3260010, , EMPTY, 5:17:11:23:24, 11065000, 3073

3230010, , EMPTY, 1:17:11:23:24, 11110000, 3086

3210010, , EMPTY, 16:11:23:24, 11145000, 3095

14310010, INTERESTING, INTERESTING, 5:17:11:23:24, 60000, 16

3200010, , INTERESTING, 3:13:11:23:24, 11185000, 3106

3270010, , EMPTY, 7:11:23:24, 11130000, 3091

3210010, , INTERESTING, 3:13:11:23:24, 11205000, 3112

3270010, , EMPTY, 17:11:23:24, 11160000, 3100

3270010, , INTERESTING, 9:11:23:24, 11175000, 3104

3280010, , EMPTY, 11:23:24, 11180000, 3105

3220010, , EMPTY, 6:11:23:24, 11255000, 3126

3260010, , EMPTY, 19:17:11:23:24, 11230000, 3119

3270010, , EMPTY, 5:17:11:23:24, 11235000, 3120

3210010, , EMPTY, 15:23:24, 11310000, 3141

3300010, , EMPTY, 11:23:24, 11235000, 3120

3300010, , EMPTY, 13:11:23:24, 11250000, 3125

3000010, , EMPTY, 8:17:11:23:24, 11565000, 3212

3280010, , EMPTY, 1:17:11:23:24, 11300000, 3138

3240010, , INTERESTING, 2:23:24, 11355000, 3154

3150010, , EMPTY, 4:11:23:24, 11460000, 3183

3250010, , INTERESTING, 12:11:23:24, 11375000, 3159

3290010, , EMPTY, 5:17:11:23:24, 11350000, 3152

14490010, INTERESTING, INTERESTING, 4:11:23:24, 165000, 45

3290010, , EMPTY, 3:13:11:23:24, 11380000, 3161

3160010, , INTERESTING, 14:11:23:24, 11525000, 3201

3300010, , EMPTY, 9:11:23:24, 11400000, 3166

3350010, , EMPTY, 2:23:24, 11365000, 3156

3310010, , EMPTY, 6:11:23:24, 11420000, 3172

14680010, INTERESTING, INTERESTING, 0:23:24, 65000, 18

3290010, , INTERESTING, 7:11:23:24, 11470000, 3186

3310010, , EMPTY, 19:17:11:23:24, 11465000, 3184

14720010, INTERESTING, INTERESTING, 11:23:24, 70000, 19

3320010, , EMPTY, 11:23:24, 11485000, 3190

3310010, , EMPTY, 13:11:23:24, 11510000, 3197

3330010, , EMPTY, 8:17:11:23:24, 11505000, 3195

3350010, , EMPTY, 9:11:23:24, 11500000, 3194

3350010, , EMPTY, 17:11:23:24, 11515000, 3198

3360010, , EMPTY, 17:11:23:24, 11520000, 3200

3360010, , INTERESTING, 9:11:23:24, 11535000, 3204

3320010, , EMPTY, 15:23:24, 11590000, 3219

3290010, , EMPTY, 16:11:23:24, 11635000, 3231

3330010, , INTERESTING, 18:17:11:23:24, 11610000, 3225

3330010, , INTERESTING, 5:17:11:23:24, 11625000, 3229

3370010, , EMPTY, 19:17:11:23:24, 11600000, 3222

3310010, , INTERESTING, 1:17:11:23:24, 11675000, 3243

3350010, , EMPTY, 12:11:23:24, 11650000, 3236

3380010, , INTERESTING, 17:11:23:24, 11635000, 3231

3360010, , EMPTY, 14:11:23:24, 11670000, 3241

3380010, , EMPTY, 19:17:11:23:24, 11665000, 3240

3380010, , EMPTY, 13:11:23:24, 11680000, 3244

3390010, , EMPTY, 6:11:23:24, 11685000, 3245

3390010, , EMPTY, 19:17:11:23:24, 11700000, 3250

3400010, , EMPTY, 16:11:23:24, 11705000, 3251

3410010, , EMPTY, 13:11:23:24, 11710000, 3252

3360010, , EMPTY, 8:17:11:23:24, 11775000, 3270

3410010, , EMPTY, 12:11:23:24, 11740000, 3261

3160010, , EMPTY, 0:23:24, 12005000, 3334

15090010, INTERESTING, INTERESTING, 0:23:24, 90000, 25

3410010, , INTERESTING, 1:17:11:23:24, 11785000, 3273

3390010, , EMPTY, 9:11:23:24, 11820000, 3283

3400010, , EMPTY, 19:17:11:23:24, 11825000, 3284

3420010, , EMPTY, 13:11:23:24, 11820000, 3283

3400010, , EMPTY, 15:23:24, 11855000, 3293

3350010, , EMPTY, 3:13:11:23:24, 11920000, 3311

3490010, , EMPTY, 15:23:24, 11795000, 3276

3420010, , EMPTY, 6:11:23:24, 11880000, 3300

3350010, , INTERESTING, 4:11:23:24, 11965000, 3323

3400010, , EMPTY, 5:17:11:23:24, 11930000, 3313

3420010, , EMPTY, 14:11:23:24, 11925000, 3312

3420010, , EMPTY, 17:11:23:24, 11940000, 3316

3430010, , EMPTY, 13:11:23:24, 11945000, 3318

3370010, , EMPTY, 7:11:23:24, 12020000, 3338

3400010, , EMPTY, 18:17:11:23:24, 12005000, 3334

3480010, , EMPTY, 6:11:23:24, 11940000, 3316

3470010, , EMPTY, 19:17:11:23:24, 11965000, 3323

3500010, , EMPTY, 4:11:23:24, 11950000, 3319

3430010, , INTERESTING, 12:11:23:24, 12035000, 3343

3500010, , EMPTY, 5:17:11:23:24, 11980000, 3327

3370010, , EMPTY, 2:23:24, 12125000, 3368

3500010, , INTERESTING, 15:23:24, 12010000, 3336

3510010, , EMPTY, 5:17:11:23:24, 12015000, 3337

3440010, , EMPTY, 1:17:11:23:24, 12100000, 3361

