DWC_ID, Processed Contents, Actual Contents, Route, Total_Trans_Time, Trans_Time_Hours 
10, INTERESTING, INTERESTING, 12:23:24, 25000, 6

10, EMPTY, EMPTY, 4:23:24, 40000, 11

10010, EMPTY, INTERESTING, 13:23:24, 45000, 12

30010, INTERESTING, INTERESTING, 3:20:24, 25000, 6

20010, EMPTY, EMPTY, 6:20:24, 50000, 13

10010, EMPTY, EMPTY, 19:13:23:24, 60000, 16

50010, INTERESTING, INTERESTING, 1:20:24, 35000, 9

60010, INTERESTING, EMPTY, 19:13:23:24, 25000, 6

20010, EMPTY, EMPTY, 19:13:23:24, 80000, 22

10010, EMPTY, EMPTY, 1:20:24, 90000, 25

30010, EMPTY, INTERESTING, 9:23:24, 85000, 23

40010, EMPTY, EMPTY, 6:20:24, 75000, 20

20010, EMPTY, EMPTY, 18:13:23:24, 110000, 30

70010, EMPTY, EMPTY, 6:20:24, 75000, 20

10010, INTERESTING, INTERESTING, 12:23:24, 135000, 37

120010, INTERESTING, INTERESTING, 12:23:24, 40000, 11

160010, INTERESTING, INTERESTING, 17:13:23:24, 15000, 4

40010, EMPTY, EMPTY, 3:20:24, 135000, 37

160010, INTERESTING, INTERESTING, 16:13:23:24, 30000, 8

170010, INTERESTING, INTERESTING, 10:23:24, 35000, 9

50010, EMPTY, EMPTY, 18:13:23:24, 170000, 47

60010, EMPTY, EMPTY, 9:23:24, 175000, 48

180010, EMPTY, EMPTY, 0:20:24, 55000, 15

30010, EMPTY, EMPTY, 14:13:23:24, 220000, 61

200010, INTERESTING, INTERESTING, 12:23:24, 65000, 18

160010, EMPTY, EMPTY, 3:20:24, 105000, 29

210010, INTERESTING, INTERESTING, 11:13:23:24, 70000, 19

220010, EMPTY, EMPTY, 0:20:24, 65000, 18

280010, INTERESTING, INTERESTING, 12:23:24, 15000, 4

70010, EMPTY, EMPTY, 1:20:24, 230000, 63

30010, EMPTY, EMPTY, 19:13:23:24, 280000, 77

130010, INTERESTING, INTERESTING, 6:20:24, 185000, 51

90010, EMPTY, EMPTY, 9:23:24, 235000, 65

250010, EMPTY, EMPTY, 3:20:24, 80000, 22

20010, EMPTY, EMPTY, 4:23:24, 320000, 88

290010, INTERESTING, INTERESTING, 6:20:24, 65000, 18

240010, INTERESTING, INTERESTING, 4:23:24, 115000, 31

60010, EMPTY, EMPTY, 7:13:23:24, 310000, 86

290010, EMPTY, EMPTY, 3:20:24, 80000, 22

360010, INTERESTING, INTERESTING, 2:23:24, 25000, 6

270010, EMPTY, EMPTY, 1:20:24, 125000, 34

100010, EMPTY, EMPTY, 9:23:24, 300000, 83

80010, EMPTY, EMPTY, 14:13:23:24, 335000, 93

270010, EMPTY, EMPTY, 0:20:24, 155000, 43

330010, INTERESTING, INTERESTING, 4:23:24, 100000, 27

410010, EMPTY, EMPTY, 0:20:24, 30000, 8

430010, INTERESTING, INTERESTING, 2:23:24, 15000, 4

340010, EMPTY, EMPTY, 6:20:24, 115000, 31

430010, INTERESTING, INTERESTING, 11:13:23:24, 30000, 8

340010, EMPTY, INTERESTING, 3:20:24, 130000, 36

330010, INTERESTING, INTERESTING, 19:13:23:24, 145000, 40

450010, INTERESTING, INTERESTING, 14:13:23:24, 40000, 11

380010, EMPTY, EMPTY, 1:20:24, 115000, 31

470010, INTERESTING, INTERESTING, 15:13:23:24, 35000, 9

440010, EMPTY, EMPTY, 3:20:24, 70000, 19

480010, INTERESTING, INTERESTING, 8:23:24, 40000, 11

480010, INTERESTING, INTERESTING, 14:13:23:24, 55000, 15

490010, INTERESTING, INTERESTING, 11:13:23:24, 60000, 16

450010, INTERESTING, INTERESTING, 19:13:23:24, 115000, 31

480010, EMPTY, EMPTY, 1:20:24, 95000, 26

510010, INTERESTING, INTERESTING, 16:13:23:24, 70000, 19

510010, INTERESTING, INTERESTING, 5:13:23:24, 85000, 23

520010, INTERESTING, INTERESTING, 8:23:24, 90000, 25

560010, INTERESTING, INTERESTING, 10:23:24, 65000, 18

490010, EMPTY, INTERESTING, 3:20:24, 145000, 40

580010, INTERESTING, EMPTY, 10:23:24, 60000, 16

420010, EMPTY, EMPTY, 0:20:24, 230000, 63

120010, EMPTY, EMPTY, 9:23:24, 535000, 148

620010, EMPTY, EMPTY, 0:20:24, 45000, 12

560010, INTERESTING, INTERESTING, 14:13:23:24, 110000, 30

630010, INTERESTING, INTERESTING, 0:20:24, 50000, 13

650010, INTERESTING, INTERESTING, 8:23:24, 35000, 9

660010, INTERESTING, INTERESTING, 6:20:24, 35000, 9

650010, INTERESTING, EMPTY, 11:13:23:24, 50000, 13

560010, EMPTY, EMPTY, 1:20:24, 150000, 41

670010, INTERESTING, INTERESTING, 17:13:23:24, 45000, 12

430010, EMPTY, EMPTY, 6:20:24, 295000, 81

690010, INTERESTING, INTERESTING, 13:23:24, 40000, 11

630010, EMPTY, EMPTY, 1:20:24, 110000, 30

690010, INTERESTING, INTERESTING, 10:23:24, 55000, 15

660010, EMPTY, EMPTY, 1:20:24, 95000, 26

730010, INTERESTING, INTERESTING, 15:13:23:24, 30000, 8

620010, EMPTY, EMPTY, 3:20:24, 150000, 41

760010, INTERESTING, INTERESTING, 16:13:23:24, 15000, 4

640010, EMPTY, EMPTY, 6:20:24, 145000, 40

110010, EMPTY, EMPTY, 4:23:24, 680000, 188

680010, EMPTY, EMPTY, 1:20:24, 120000, 33

10, EMPTY, INTERESTING, 16:13:23:24, 805000, 223

660010, EMPTY, EMPTY, 0:20:24, 155000, 43

130010, EMPTY, EMPTY, 12:23:24, 690000, 191

740010, EMPTY, EMPTY, 6:20:24, 90000, 25

80010, EMPTY, EMPTY, 8:23:24, 755000, 209

770010, EMPTY, EMPTY, 1:20:24, 75000, 20

110010, EMPTY, EMPTY, 14:13:23:24, 740000, 205

810010, EMPTY, EMPTY, 1:20:24, 50000, 13

840010, INTERESTING, INTERESTING, 11:13:23:24, 25000, 6

70010, EMPTY, EMPTY, 11:13:23:24, 810000, 225

810010, EMPTY, INTERESTING, 6:20:24, 85000, 23

150010, EMPTY, EMPTY, 14:13:23:24, 745000, 206

890010, INTERESTING, INTERESTING, 7:13:23:24, 20000, 5

730010, INTERESTING, INTERESTING, 3:20:24, 180000, 50

840010, INTERESTING, INTERESTING, 9:23:24, 85000, 23

880010, EMPTY, EMPTY, 6:20:24, 45000, 12

890010, EMPTY, EMPTY, 6:20:24, 50000, 13

900010, INTERESTING, INTERESTING, 13:23:24, 40000, 11

890010, EMPTY, INTERESTING, 3:20:24, 65000, 18

870010, INTERESTING, INTERESTING, 18:13:23:24, 85000, 23

160010, EMPTY, EMPTY, 11:13:23:24, 810000, 225

910010, EMPTY, EMPTY, 6:20:24, 60000, 16

10010, EMPTY, EMPTY, 15:13:23:24, 975000, 270

920010, EMPTY, EMPTY, 3:20:24, 65000, 18

980010, INTERESTING, INTERESTING, 10:23:24, 20000, 5

160010, EMPTY, EMPTY, 12:23:24, 855000, 237

820010, EMPTY, EMPTY, 1:20:24, 195000, 54

170010, EMPTY, EMPTY, 11:13:23:24, 860000, 238

960010, INTERESTING, EMPTY, 3:20:24, 85000, 23

980010, INTERESTING, INTERESTING, 18:13:23:24, 65000, 18

940010, EMPTY, EMPTY, 6:20:24, 120000, 33

1030010, INTERESTING, EMPTY, 13:23:24, 30000, 8

1050010, INTERESTING, INTERESTING, 5:13:23:24, 25000, 6

1030010, EMPTY, EMPTY, 3:20:24, 45000, 12

1060010, INTERESTING, INTERESTING, 9:23:24, 30000, 8

1050010, EMPTY, INTERESTING, 3:20:24, 45000, 12

100010, EMPTY, EMPTY, 10:23:24, 1005000, 279

1040010, EMPTY, EMPTY, 6:20:24, 70000, 19

160010, EMPTY, EMPTY, 8:23:24, 960000, 266

1110010, INTERESTING, INTERESTING, 3:20:24, 15000, 4

180010, EMPTY, EMPTY, 11:13:23:24, 955000, 265

1000010, EMPTY, EMPTY, 1:20:24, 140000, 38

150010, EMPTY, EMPTY, 4:23:24, 1000000, 277

800010, EMPTY, EMPTY, 0:20:24, 355000, 98

90010, EMPTY, EMPTY, 19:13:23:24, 1075000, 298

230010, EMPTY, EMPTY, 10:23:24, 950000, 263

1080010, EMPTY, EMPTY, 3:20:24, 105000, 29

1180010, INTERESTING, INTERESTING, 2:23:24, 15000, 4

1180010, INTERESTING, INTERESTING, 1:20:24, 20000, 5

1170010, INTERESTING, INTERESTING, 9:23:24, 40000, 11

1190010, INTERESTING, INTERESTING, 6:20:24, 25000, 6

1130010, INTERESTING, INTERESTING, 11:13:23:24, 95000, 26

1210010, INTERESTING, INTERESTING, 3:20:24, 20000, 5

250010, EMPTY, EMPTY, 13:23:24, 990000, 275

1080010, EMPTY, EMPTY, 6:20:24, 165000, 45

230010, EMPTY, EMPTY, 19:13:23:24, 1025000, 284

1080010, EMPTY, EMPTY, 1:20:24, 180000, 50

90010, EMPTY, EMPTY, 17:13:23:24, 1180000, 327

1140010, EMPTY, EMPTY, 0:20:24, 135000, 37

180010, EMPTY, EMPTY, 15:13:23:24, 1105000, 306

1270010, INTERESTING, INTERESTING, 1:20:24, 20000, 5

1230010, INTERESTING, INTERESTING, 19:13:23:24, 70000, 19

1180010, EMPTY, EMPTY, 6:20:24, 125000, 34

1200010, INTERESTING, INTERESTING, 14:13:23:24, 115000, 31

1190010, EMPTY, EMPTY, 1:20:24, 130000, 36

1280010, INTERESTING, INTERESTING, 19:13:23:24, 50000, 13

1200010, EMPTY, EMPTY, 0:20:24, 135000, 37

1310010, INTERESTING, INTERESTING, 18:13:23:24, 35000, 9

1250010, EMPTY, INTERESTING, 1:20:24, 100000, 27

1310010, INTERESTING, EMPTY, 15:13:23:24, 50000, 13

1220010, EMPTY, EMPTY, 6:20:24, 145000, 40

1240010, INTERESTING, INTERESTING, 10:23:24, 135000, 37

1280010, EMPTY, EMPTY, 1:20:24, 100000, 27

1320010, INTERESTING, INTERESTING, 5:13:23:24, 70000, 19

1270010, EMPTY, EMPTY, 0:20:24, 125000, 34

1330010, INTERESTING, INTERESTING, 12:23:24, 75000, 20

1170010, EMPTY, INTERESTING, 3:20:24, 240000, 66

1340010, INTERESTING, INTERESTING, 4:23:24, 80000, 22

1360010, EMPTY, EMPTY, 3:20:24, 65000, 18

1300010, INTERESTING, INTERESTING, 14:13:23:24, 135000, 37

1280010, EMPTY, INTERESTING, 6:20:24, 160000, 44

1360010, INTERESTING, INTERESTING, 10:23:24, 90000, 25

1340010, EMPTY, EMPTY, 0:20:24, 115000, 31

1410010, INTERESTING, INTERESTING, 7:13:23:24, 55000, 15

1330010, EMPTY, INTERESTING, 1:20:24, 140000, 38

1420010, INTERESTING, INTERESTING, 8:23:24, 60000, 16

1430010, EMPTY, EMPTY, 1:20:24, 55000, 15

1420010, INTERESTING, INTERESTING, 2:23:24, 75000, 20

1400010, EMPTY, EMPTY, 6:20:24, 100000, 27

1430010, INTERESTING, INTERESTING, 14:13:23:24, 80000, 22

1350010, INTERESTING, INTERESTING, 9:23:24, 175000, 48

1440010, INTERESTING, INTERESTING, 11:13:23:24, 100000, 27

1480010, INTERESTING, INTERESTING, 2:23:24, 75000, 20

1480010, INTERESTING, INTERESTING, 14:13:23:24, 90000, 25

1420010, EMPTY, EMPTY, 0:20:24, 155000, 43

1480010, INTERESTING, INTERESTING, 17:13:23:24, 105000, 29

1470010, EMPTY, EMPTY, 1:20:24, 125000, 34

1490010, INTERESTING, INTERESTING, 15:13:23:24, 110000, 30

1470010, EMPTY, EMPTY, 6:20:24, 145000, 40

1510010, INTERESTING, INTERESTING, 18:13:23:24, 105000, 29

1580010, INTERESTING, EMPTY, 7:13:23:24, 50000, 13

1580010, EMPTY, EMPTY, 1:20:24, 65000, 18

250010, EMPTY, EMPTY, 12:23:24, 1395000, 387

1640010, INTERESTING, INTERESTING, 2:23:24, 20000, 5

1560010, EMPTY, EMPTY, 0:20:24, 115000, 31

120010, EMPTY, EMPTY, 16:13:23:24, 1555000, 431

90010, EMPTY, EMPTY, 7:13:23:24, 1600000, 444

1600010, EMPTY, EMPTY, 6:20:24, 90000, 25

1630010, EMPTY, EMPTY, 1:20:24, 75000, 20

1680010, INTERESTING, EMPTY, 2:23:24, 25000, 6

260010, EMPTY, EMPTY, 10:23:24, 1460000, 405

1540010, INTERESTING, INTERESTING, 4:23:24, 195000, 54

1650010, INTERESTING, INTERESTING, 10:23:24, 100000, 27

1660010, EMPTY, EMPTY, 0:20:24, 95000, 26

1730010, INTERESTING, INTERESTING, 9:23:24, 35000, 9

1730010, INTERESTING, INTERESTING, 18:13:23:24, 50000, 13

1670010, EMPTY, EMPTY, 6:20:24, 115000, 31

1770010, INTERESTING, INTERESTING, 16:13:23:24, 25000, 6

1740010, EMPTY, EMPTY, 0:20:24, 60000, 16

1780010, INTERESTING, INTERESTING, 2:23:24, 30000, 8

1690010, EMPTY, EMPTY, 1:20:24, 125000, 34

1710010, INTERESTING, INTERESTING, 4:23:24, 115000, 31

1390010, EMPTY, EMPTY, 3:20:24, 440000, 122

1780010, INTERESTING, INTERESTING, 10:23:24, 60000, 16

1770010, EMPTY, EMPTY, 6:20:24, 75000, 20

1810010, INTERESTING, INTERESTING, 4:23:24, 45000, 12

1780010, INTERESTING, INTERESTING, 0:20:24, 80000, 22

290010, EMPTY, EMPTY, 7:13:23:24, 1580000, 438

1800010, EMPTY, INTERESTING, 1:20:24, 75000, 20

320010, EMPTY, EMPTY, 13:23:24, 1565000, 434

1800010, EMPTY, INTERESTING, 3:20:24, 90000, 25

1740010, INTERESTING, EMPTY, 18:13:23:24, 160000, 44

1890010, INTERESTING, INTERESTING, 18:13:23:24, 25000, 6

1810010, INTERESTING, INTERESTING, 6:20:24, 115000, 31

260010, EMPTY, EMPTY, 19:13:23:24, 1670000, 463

1910010, EMPTY, EMPTY, 6:20:24, 30000, 8

270010, EMPTY, EMPTY, 17:13:23:24, 1675000, 465

1840010, EMPTY, EMPTY, 1:20:24, 115000, 31

1940010, INTERESTING, EMPTY, 16:13:23:24, 20000, 5

1840010, EMPTY, EMPTY, 0:20:24, 130000, 36

1950010, INTERESTING, INTERESTING, 15:13:23:24, 25000, 6

320010, EMPTY, EMPTY, 10:23:24, 1670000, 463

1920010, EMPTY, INTERESTING, 6:20:24, 75000, 20

80010, EMPTY, EMPTY, 18:13:23:24, 1925000, 534

1990010, INTERESTING, INTERESTING, 1:20:24, 20000, 5

130010, EMPTY, INTERESTING, 9:23:24, 1890000, 525

1930010, EMPTY, EMPTY, 1:20:24, 95000, 26

290010, EMPTY, EMPTY, 12:23:24, 1745000, 484

1980010, EMPTY, EMPTY, 6:20:24, 60000, 16

360010, EMPTY, EMPTY, 10:23:24, 1690000, 469

1850010, EMPTY, EMPTY, 3:20:24, 205000, 56

2020010, INTERESTING, INTERESTING, 17:13:23:24, 45000, 12

1930010, EMPTY, EMPTY, 0:20:24, 140000, 38

350010, EMPTY, EMPTY, 17:13:23:24, 1730000, 480

2070010, INTERESTING, INTERESTING, 1:20:24, 15000, 4

170010, EMPTY, EMPTY, 14:13:23:24, 1925000, 534

1980010, EMPTY, INTERESTING, 1:20:24, 120000, 33

90010, EMPTY, EMPTY, 5:13:23:24, 2020000, 561

2110010, INTERESTING, INTERESTING, 1:20:24, 15000, 4

380010, EMPTY, EMPTY, 12:23:24, 1745000, 484

2000010, EMPTY, EMPTY, 3:20:24, 140000, 38

380010, EMPTY, INTERESTING, 9:23:24, 1760000, 488

230010, EMPTY, EMPTY, 8:23:24, 1925000, 534

370010, EMPTY, EMPTY, 17:13:23:24, 1800000, 500

2110010, EMPTY, EMPTY, 3:20:24, 65000, 18

2160010, INTERESTING, INTERESTING, 19:13:23:24, 25000, 6

2030010, EMPTY, EMPTY, 1:20:24, 165000, 45

380010, EMPTY, EMPTY, 14:13:23:24, 1820000, 505

2010010, EMPTY, EMPTY, 0:20:24, 200000, 55

2190010, INTERESTING, INTERESTING, 18:13:23:24, 25000, 6

2210010, INTERESTING, INTERESTING, 9:23:24, 20000, 5

400010, EMPTY, EMPTY, 14:13:23:24, 1845000, 512

1990010, EMPTY, EMPTY, 6:20:24, 265000, 73

2240010, INTERESTING, INTERESTING, 9:23:24, 20000, 5

380010, EMPTY, EMPTY, 17:13:23:24, 1895000, 526

2180010, EMPTY, EMPTY, 1:20:24, 105000, 29

380010, EMPTY, EMPTY, 10:23:24, 1910000, 530

2220010, INTERESTING, EMPTY, 19:13:23:24, 85000, 23

2290010, INTERESTING, INTERESTING, 12:23:24, 30000, 8

2160010, INTERESTING, EMPTY, 3:20:24, 175000, 48

2320010, INTERESTING, INTERESTING, 11:13:23:24, 15000, 4

2330010, INTERESTING, INTERESTING, 9:23:24, 20000, 5

2190010, EMPTY, EMPTY, 0:20:24, 160000, 44

2270010, EMPTY, EMPTY, 1:20:24, 95000, 26

2350010, INTERESTING, INTERESTING, 18:13:23:24, 15000, 4

280010, EMPTY, EMPTY, 15:13:23:24, 2100000, 583

2320010, EMPTY, EMPTY, 1:20:24, 60000, 16

2380010, INTERESTING, INTERESTING, 15:13:23:24, 15000, 4

2240010, EMPTY, EMPTY, 6:20:24, 155000, 43

2330010, EMPTY, EMPTY, 1:20:24, 80000, 22

2390010, INTERESTING, INTERESTING, 16:13:23:24, 20000, 5

2400010, INTERESTING, INTERESTING, 1:20:24, 25000, 6

2410010, INTERESTING, INTERESTING, 19:13:23:24, 15000, 4

2400010, INTERESTING, INTERESTING, 16:13:23:24, 40000, 11

2420010, INTERESTING, EMPTY, 1:20:24, 20000, 5

2320010, EMPTY, EMPTY, 0:20:24, 135000, 37

2420010, INTERESTING, INTERESTING, 13:23:24, 35000, 9

2420010, INTERESTING, INTERESTING, 5:13:23:24, 50000, 13

2390010, INTERESTING, INTERESTING, 0:20:24, 95000, 26

2460010, INTERESTING, INTERESTING, 4:23:24, 25000, 6

2460010, INTERESTING, INTERESTING, 12:23:24, 40000, 11

2380010, EMPTY, EMPTY, 1:20:24, 125000, 34

2450010, INTERESTING, INTERESTING, 19:13:23:24, 65000, 18

2340010, EMPTY, EMPTY, 6:20:24, 180000, 50

410010, EMPTY, EMPTY, 15:13:23:24, 2120000, 588

2510010, INTERESTING, INTERESTING, 0:20:24, 25000, 6

2510010, INTERESTING, INTERESTING, 17:13:23:24, 35000, 9

2500010, EMPTY, EMPTY, 6:20:24, 50000, 13

430010, EMPTY, EMPTY, 10:23:24, 2130000, 591

2490010, EMPTY, EMPTY, 1:20:24, 75000, 20

410010, EMPTY, EMPTY, 4:23:24, 2165000, 601

2320010, EMPTY, EMPTY, 3:20:24, 260000, 72

260010, EMPTY, EMPTY, 11:13:23:24, 2330000, 647

2570010, INTERESTING, INTERESTING, 6:20:24, 25000, 6

410010, EMPTY, EMPTY, 17:13:23:24, 2195000, 609

310010, EMPTY, EMPTY, 7:13:23:24, 2310000, 641

2520010, INTERESTING, INTERESTING, 17:13:23:24, 115000, 31

2520010, EMPTY, EMPTY, 6:20:24, 115000, 31

2560010, EMPTY, EMPTY, 3:20:24, 90000, 25

2610010, INTERESTING, EMPTY, 18:13:23:24, 40000, 11

2650010, INTERESTING, INTERESTING, 5:13:23:24, 15000, 4

2630010, EMPTY, EMPTY, 3:20:24, 35000, 9

2650010, INTERESTING, INTERESTING, 18:13:23:24, 30000, 8

2470010, EMPTY, EMPTY, 0:20:24, 210000, 58

2670010, INTERESTING, INTERESTING, 3:20:24, 25000, 6

2670010, INTERESTING, INTERESTING, 4:23:24, 25000, 6

2680010, INTERESTING, INTERESTING, 15:13:23:24, 30000, 8

2620010, EMPTY, EMPTY, 6:20:24, 90000, 25

2640010, EMPTY, EMPTY, 3:20:24, 85000, 23

2570010, INTERESTING, INTERESTING, 8:23:24, 155000, 43

350010, EMPTY, EMPTY, 18:13:23:24, 2390000, 663

2660010, EMPTY, EMPTY, 3:20:24, 80000, 22

2730010, INTERESTING, INTERESTING, 4:23:24, 25000, 6

2710010, EMPTY, EMPTY, 3:20:24, 45000, 12

2730010, INTERESTING, EMPTY, 16:13:23:24, 40000, 11

2640010, EMPTY, EMPTY, 0:20:24, 130000, 36

2740010, INTERESTING, INTERESTING, 11:13:23:24, 45000, 12

2660010, EMPTY, EMPTY, 6:20:24, 125000, 34

2760010, INTERESTING, INTERESTING, 16:13:23:24, 40000, 11

2750010, EMPTY, EMPTY, 6:20:24, 50000, 13

2770010, INTERESTING, EMPTY, 16:13:23:24, 45000, 12

2740010, EMPTY, EMPTY, 3:20:24, 75000, 20

2750010, INTERESTING, INTERESTING, 0:20:24, 80000, 22

2810010, INTERESTING, EMPTY, 12:23:24, 20000, 5

2820010, INTERESTING, INTERESTING, 15:13:23:24, 25000, 6

2820010, INTERESTING, INTERESTING, 1:20:24, 25000, 6

2780010, EMPTY, EMPTY, 6:20:24, 80000, 22

2830010, INTERESTING, INTERESTING, 2:23:24, 30000, 8

2790010, INTERESTING, INTERESTING, 10:23:24, 85000, 23

2830010, INTERESTING, INTERESTING, 1:20:24, 45000, 12

460010, EMPTY, EMPTY, 4:23:24, 2430000, 675

2800010, EMPTY, EMPTY, 3:20:24, 90000, 25

2880010, INTERESTING, INTERESTING, 2:23:24, 25000, 6

2530010, EMPTY, EMPTY, 1:20:24, 375000, 104

2880010, INTERESTING, EMPTY, 10:23:24, 40000, 11

2810010, EMPTY, EMPTY, 6:20:24, 110000, 30

2820010, INTERESTING, INTERESTING, 3:20:24, 115000, 31

400010, EMPTY, EMPTY, 8:23:24, 2535000, 704

2810010, EMPTY, EMPTY, 0:20:24, 140000, 38

2700010, INTERESTING, INTERESTING, 18:13:23:24, 250000, 69

2950010, INTERESTING, INTERESTING, 4:23:24, 15000, 4

2870010, EMPTY, INTERESTING, 6:20:24, 95000, 26

210010, EMPTY, EMPTY, 2:23:24, 2770000, 769

2920010, EMPTY, EMPTY, 0:20:24, 60000, 16

410010, EMPTY, EMPTY, 14:13:23:24, 2585000, 718

2910010, EMPTY, EMPTY, 3:20:24, 85000, 23

2940010, INTERESTING, INTERESTING, 5:13:23:24, 70000, 19

2960010, EMPTY, EMPTY, 3:20:24, 50000, 13

380010, EMPTY, EMPTY, 5:13:23:24, 2645000, 734

2850010, EMPTY, EMPTY, 1:20:24, 175000, 48

3020010, INTERESTING, INTERESTING, 1:20:24, 20000, 5

3020010, INTERESTING, INTERESTING, 2:23:24, 20000, 5

400010, EMPTY, EMPTY, 9:23:24, 2655000, 737

2950010, EMPTY, EMPTY, 6:20:24, 105000, 29

500010, EMPTY, EMPTY, 9:23:24, 2570000, 713

2970010, EMPTY, EMPTY, 3:20:24, 100000, 27

2950010, EMPTY, EMPTY, 0:20:24, 135000, 37

3070010, INTERESTING, INTERESTING, 2:23:24, 15000, 4

280010, EMPTY, EMPTY, 16:13:23:24, 2820000, 783

2970010, EMPTY, EMPTY, 1:20:24, 130000, 36

450010, EMPTY, EMPTY, 17:13:23:24, 2665000, 740

3040010, EMPTY, EMPTY, 0:20:24, 75000, 20

3030010, EMPTY, EMPTY, 3:20:24, 100000, 27

3110010, INTERESTING, INTERESTING, 16:13:23:24, 20000, 5

2970010, EMPTY, EMPTY, 6:20:24, 175000, 48

3120010, INTERESTING, INTERESTING, 17:13:23:24, 25000, 6

3060010, EMPTY, EMPTY, 1:20:24, 100000, 27

490010, EMPTY, EMPTY, 5:13:23:24, 2670000, 741

520010, EMPTY, EMPTY, 13:23:24, 2655000, 737

3080010, EMPTY, EMPTY, 0:20:24, 95000, 26

3120010, EMPTY, EMPTY, 1:20:24, 70000, 19

460010, EMPTY, EMPTY, 7:13:23:24, 2730000, 758

3190010, INTERESTING, INTERESTING, 3:20:24, 15000, 4

3070010, INTERESTING, INTERESTING, 11:13:23:24, 135000, 37

450010, EMPTY, EMPTY, 11:13:23:24, 2770000, 769

3200010, INTERESTING, INTERESTING, 6:20:24, 20000, 5

3160010, EMPTY, EMPTY, 1:20:24, 75000, 20

490010, EMPTY, EMPTY, 2:23:24, 2745000, 762

3090010, EMPTY, INTERESTING, 3:20:24, 160000, 44

510010, EMPTY, EMPTY, 17:13:23:24, 2740000, 761

3220010, EMPTY, EMPTY, 3:20:24, 45000, 12

3180010, INTERESTING, INTERESTING, 11:13:23:24, 85000, 23

3190010, INTERESTING, INTERESTING, 18:13:23:24, 90000, 25

3110010, EMPTY, EMPTY, 6:20:24, 170000, 47

3220010, INTERESTING, INTERESTING, 16:13:23:24, 75000, 20

3280010, INTERESTING, INTERESTING, 15:13:23:24, 30000, 8

3300010, INTERESTING, INTERESTING, 3:20:24, 15000, 4

3290010, INTERESTING, INTERESTING, 13:23:24, 35000, 9

3310010, INTERESTING, INTERESTING, 10:23:24, 30000, 8

530010, EMPTY, EMPTY, 11:13:23:24, 2825000, 784

460010, EMPTY, EMPTY, 10:23:24, 2910000, 808

3370010, INTERESTING, INTERESTING, 15:13:23:24, 15000, 4

3210010, EMPTY, EMPTY, 1:20:24, 175000, 48

3160010, EMPTY, EMPTY, 0:20:24, 240000, 66

510010, EMPTY, EMPTY, 14:13:23:24, 2890000, 802

470010, EMPTY, EMPTY, 18:13:23:24, 2945000, 818

3380010, EMPTY, EMPTY, 0:20:24, 45000, 12

3400010, INTERESTING, INTERESTING, 5:13:23:24, 30000, 8

3420010, INTERESTING, INTERESTING, 19:13:23:24, 25000, 6

3430010, INTERESTING, INTERESTING, 1:20:24, 15000, 4

3420010, INTERESTING, INTERESTING, 17:13:23:24, 40000, 11

3250010, EMPTY, EMPTY, 3:20:24, 210000, 58

490010, EMPTY, EMPTY, 16:13:23:24, 2985000, 829

3410010, EMPTY, EMPTY, 0:20:24, 65000, 18

3370010, INTERESTING, INTERESTING, 11:13:23:24, 120000, 33

3370010, EMPTY, EMPTY, 1:20:24, 125000, 34

3480010, INTERESTING, INTERESTING, 5:13:23:24, 25000, 6

3430010, EMPTY, EMPTY, 3:20:24, 80000, 22

3500010, INTERESTING, INTERESTING, 17:13:23:24, 20000, 5

3520010, INTERESTING, INTERESTING, 6:20:24, 15000, 4

580010, EMPTY, EMPTY, 13:23:24, 2955000, 820

3470010, INTERESTING, INTERESTING, 2:23:24, 80000, 22

490010, EMPTY, EMPTY, 4:23:24, 3075000, 854

430010, EMPTY, EMPTY, 15:13:23:24, 3150000, 875

3440010, EMPTY, EMPTY, 0:20:24, 155000, 43

3560010, INTERESTING, INTERESTING, 7:13:23:24, 35000, 9

3530010, INTERESTING, INTERESTING, 19:13:23:24, 80000, 22

3250010, EMPTY, EMPTY, 6:20:24, 365000, 101

3490010, INTERESTING, INTERESTING, 11:13:23:24, 135000, 37

3600010, EMPTY, EMPTY, 6:20:24, 30000, 8

3580010, INTERESTING, EMPTY, 10:23:24, 60000, 16

3610010, EMPTY, EMPTY, 6:20:24, 35000, 9

3580010, INTERESTING, EMPTY, 4:23:24, 75000, 20

3640010, INTERESTING, INTERESTING, 1:20:24, 20000, 5

3580010, INTERESTING, EMPTY, 17:13:23:24, 90000, 25

3480010, EMPTY, EMPTY, 1:20:24, 195000, 54

3590010, INTERESTING, INTERESTING, 18:13:23:24, 95000, 26

3580010, EMPTY, EMPTY, 0:20:24, 110000, 30

3620010, INTERESTING, INTERESTING, 11:13:23:24, 80000, 22

3620010, INTERESTING, INTERESTING, 16:13:23:24, 95000, 26

3690010, INTERESTING, EMPTY, 11:13:23:24, 40000, 11

3660010, INTERESTING, INTERESTING, 14:13:23:24, 85000, 23

3640010, EMPTY, EMPTY, 0:20:24, 105000, 29

540010, EMPTY, EMPTY, 2:23:24, 3220000, 894

3620010, EMPTY, EMPTY, 6:20:24, 145000, 40

3750010, INTERESTING, INTERESTING, 15:13:23:24, 25000, 6

3730010, EMPTY, EMPTY, 0:20:24, 50000, 13

490010, EMPTY, EMPTY, 8:23:24, 3300000, 916

3770010, INTERESTING, INTERESTING, 3:20:24, 25000, 6

590010, EMPTY, EMPTY, 4:23:24, 3215000, 893

3630010, EMPTY, INTERESTING, 1:20:24, 180000, 50

3790010, INTERESTING, INTERESTING, 13:23:24, 30000, 8

3820010, INTERESTING, INTERESTING, 14:13:23:24, 15000, 4

3480010, EMPTY, EMPTY, 3:20:24, 355000, 98

3760010, EMPTY, EMPTY, 0:20:24, 90000, 25

610010, EMPTY, EMPTY, 13:23:24, 3240000, 900

3850010, INTERESTING, INTERESTING, 13:23:24, 15000, 4

510010, EMPTY, EMPTY, 9:23:24, 3370000, 936

3880010, INTERESTING, EMPTY, 19:13:23:24, 15000, 4

3820010, EMPTY, EMPTY, 3:20:24, 85000, 23

3890010, INTERESTING, INTERESTING, 11:13:23:24, 20000, 5

3890010, EMPTY, EMPTY, 3:20:24, 30000, 8

3900010, INTERESTING, INTERESTING, 17:13:23:24, 25000, 6

3830010, EMPTY, EMPTY, 0:20:24, 105000, 29

530010, EMPTY, EMPTY, 17:13:23:24, 3410000, 947

3860010, INTERESTING, INTERESTING, 16:13:23:24, 95000, 26

630010, EMPTY, EMPTY, 4:23:24, 3340000, 927

3920010, EMPTY, EMPTY, 0:20:24, 55000, 15

3940010, INTERESTING, INTERESTING, 14:13:23:24, 45000, 12

3750010, EMPTY, EMPTY, 6:20:24, 245000, 68

3970010, INTERESTING, INTERESTING, 14:13:23:24, 30000, 8

580010, EMPTY, EMPTY, 15:13:23:24, 3435000, 954

620010, EMPTY, EMPTY, 2:23:24, 3410000, 947

4000010, INTERESTING, EMPTY, 4:23:24, 45000, 12

4020010, INTERESTING, INTERESTING, 9:23:24, 40000, 11

3900010, EMPTY, EMPTY, 3:20:24, 165000, 45

4040010, INTERESTING, INTERESTING, 2:23:24, 35000, 9

3980010, EMPTY, EMPTY, 6:20:24, 100000, 27

4060010, INTERESTING, INTERESTING, 13:23:24, 30000, 8

4050010, EMPTY, EMPTY, 3:20:24, 45000, 12

4050010, INTERESTING, INTERESTING, 10:23:24, 55000, 15

4030010, INTERESTING, EMPTY, 4:23:24, 90000, 25

4060010, EMPTY, EMPTY, 6:20:24, 65000, 18

4100010, INTERESTING, INTERESTING, 7:13:23:24, 35000, 9

4080010, EMPTY, EMPTY, 3:20:24, 60000, 16

4100010, INTERESTING, INTERESTING, 4:23:24, 50000, 13

4120010, EMPTY, EMPTY, 3:20:24, 35000, 9

4110010, INTERESTING, INTERESTING, 13:23:24, 55000, 15

4150010, INTERESTING, INTERESTING, 0:20:24, 20000, 5

4120010, INTERESTING, INTERESTING, 2:23:24, 60000, 16

3960010, EMPTY, EMPTY, 0:20:24, 225000, 62

4150010, INTERESTING, INTERESTING, 11:13:23:24, 45000, 12

4180010, INTERESTING, INTERESTING, 6:20:24, 20000, 5

4190010, INTERESTING, INTERESTING, 12:23:24, 20000, 5

4140010, EMPTY, EMPTY, 3:20:24, 75000, 20

4200010, INTERESTING, INTERESTING, 8:23:24, 25000, 6

3780010, EMPTY, EMPTY, 1:20:24, 450000, 125

4200010, INTERESTING, EMPTY, 9:23:24, 40000, 11

4160010, EMPTY, EMPTY, 3:20:24, 85000, 23

4200010, INTERESTING, INTERESTING, 18:13:23:24, 55000, 15

4190010, EMPTY, EMPTY, 3:20:24, 70000, 19

4210010, INTERESTING, INTERESTING, 5:13:23:24, 60000, 16

4110010, EMPTY, EMPTY, 6:20:24, 165000, 45

4220010, INTERESTING, INTERESTING, 9:23:24, 65000, 18

4200010, EMPTY, EMPTY, 3:20:24, 90000, 25

4240010, INTERESTING, INTERESTING, 9:23:24, 60000, 16

4210010, EMPTY, EMPTY, 6:20:24, 95000, 26

4280010, INTERESTING, EMPTY, 10:23:24, 35000, 9

4300010, INTERESTING, INTERESTING, 0:20:24, 20000, 5

4290010, INTERESTING, EMPTY, 12:23:24, 40000, 11

4170010, EMPTY, EMPTY, 1:20:24, 165000, 45

4290010, INTERESTING, EMPTY, 16:13:23:24, 55000, 15

4220010, EMPTY, EMPTY, 3:20:24, 130000, 36

570010, EMPTY, EMPTY, 10:23:24, 3790000, 1052

4260010, EMPTY, EMPTY, 3:20:24, 105000, 29

630010, EMPTY, EMPTY, 17:13:23:24, 3745000, 1040

4270010, EMPTY, INTERESTING, 3:20:24, 110000, 30

630010, EMPTY, EMPTY, 8:23:24, 3760000, 1044

4160010, EMPTY, EMPTY, 0:20:24, 235000, 65

4380010, INTERESTING, INTERESTING, 4:23:24, 25000, 6

4230010, EMPTY, EMPTY, 6:20:24, 180000, 50

640010, EMPTY, EMPTY, 9:23:24, 3780000, 1050

4250010, EMPTY, EMPTY, 1:20:24, 175000, 48

690010, EMPTY, EMPTY, 8:23:24, 3745000, 1040

4300010, EMPTY, EMPTY, 1:20:24, 140000, 38

4380010, INTERESTING, INTERESTING, 19:13:23:24, 70000, 19

4280010, EMPTY, EMPTY, 0:20:24, 175000, 48

4450010, INTERESTING, INTERESTING, 7:13:23:24, 15000, 4

4320010, EMPTY, EMPTY, 1:20:24, 150000, 41

670010, EMPTY, EMPTY, 10:23:24, 3810000, 1058

4320010, EMPTY, EMPTY, 0:20:24, 165000, 45

4470010, INTERESTING, INTERESTING, 9:23:24, 25000, 6

4330010, EMPTY, EMPTY, 0:20:24, 170000, 47

4470010, INTERESTING, INTERESTING, 7:13:23:24, 40000, 11

4280010, EMPTY, EMPTY, 6:20:24, 235000, 65

4450010, INTERESTING, INTERESTING, 4:23:24, 75000, 20

4360010, EMPTY, EMPTY, 6:20:24, 170000, 47

390010, EMPTY, EMPTY, 12:23:24, 4150000, 1152

4280010, EMPTY, EMPTY, 3:20:24, 265000, 73

4530010, INTERESTING, EMPTY, 17:13:23:24, 25000, 6

4330010, EMPTY, EMPTY, 1:20:24, 230000, 63

4530010, INTERESTING, INTERESTING, 7:13:23:24, 40000, 11

4470010, INTERESTING, INTERESTING, 6:20:24, 105000, 29

4550010, INTERESTING, INTERESTING, 11:13:23:24, 35000, 9

4390010, EMPTY, EMPTY, 3:20:24, 200000, 55

540010, EMPTY, EMPTY, 11:13:23:24, 4060000, 1127

4350010, EMPTY, EMPTY, 0:20:24, 255000, 70

4530010, INTERESTING, INTERESTING, 10:23:24, 85000, 23

4380010, EMPTY, EMPTY, 6:20:24, 240000, 66

4590010, INTERESTING, INTERESTING, 10:23:24, 40000, 11

4430010, EMPTY, EMPTY, 0:20:24, 205000, 56

4630010, INTERESTING, EMPTY, 16:13:23:24, 15000, 4

4420010, EMPTY, EMPTY, 3:20:24, 230000, 63

4600010, INTERESTING, INTERESTING, 19:13:23:24, 60000, 16

4650010, INTERESTING, INTERESTING, 6:20:24, 15000, 4

4640010, INTERESTING, INTERESTING, 16:13:23:24, 35000, 9

4410010, EMPTY, EMPTY, 1:20:24, 270000, 75

700010, EMPTY, EMPTY, 9:23:24, 3990000, 1108

4510010, EMPTY, INTERESTING, 0:20:24, 185000, 51

520010, EMPTY, EMPTY, 7:13:23:24, 4185000, 1162

4560010, EMPTY, EMPTY, 6:20:24, 150000, 41

710010, EMPTY, EMPTY, 7:13:23:24, 4010000, 1113

4540010, EMPTY, EMPTY, 1:20:24, 185000, 51

4720010, INTERESTING, INTERESTING, 14:13:23:24, 15000, 4

4530010, EMPTY, EMPTY, 3:20:24, 210000, 58

4720010, INTERESTING, INTERESTING, 11:13:23:24, 30000, 8

4570010, EMPTY, EMPTY, 6:20:24, 185000, 51

4750010, INTERESTING, INTERESTING, 15:13:23:24, 15000, 4

4620010, EMPTY, EMPTY, 3:20:24, 150000, 41

4760010, INTERESTING, EMPTY, 9:23:24, 20000, 5

4680010, EMPTY, EMPTY, 3:20:24, 105000, 29

720010, EMPTY, EMPTY, 7:13:23:24, 4075000, 1131

4730010, INTERESTING, INTERESTING, 3:20:24, 70000, 19

650010, EMPTY, EMPTY, 4:23:24, 4160000, 1155

4790010, INTERESTING, INTERESTING, 1:20:24, 25000, 6

4770010, INTERESTING, INTERESTING, 11:13:23:24, 55000, 15

4810010, INTERESTING, INTERESTING, 0:20:24, 20000, 5

700010, EMPTY, EMPTY, 8:23:24, 4140000, 1150

4620010, EMPTY, EMPTY, 1:20:24, 225000, 62

4830010, INTERESTING, INTERESTING, 19:13:23:24, 25000, 6

4740010, EMPTY, EMPTY, 1:20:24, 120000, 33

720010, EMPTY, EMPTY, 9:23:24, 4150000, 1152

4780010, EMPTY, EMPTY, 3:20:24, 95000, 26

4870010, INTERESTING, EMPTY, 15:13:23:24, 15000, 4

4800010, EMPTY, EMPTY, 3:20:24, 90000, 25

650010, EMPTY, EMPTY, 14:13:23:24, 4250000, 1180

4880010, INTERESTING, INTERESTING, 6:20:24, 25000, 6

4840010, INTERESTING, INTERESTING, 4:23:24, 75000, 20

4890010, INTERESTING, INTERESTING, 6:20:24, 30000, 8

4900010, INTERESTING, INTERESTING, 11:13:23:24, 30000, 8

4670010, EMPTY, EMPTY, 6:20:24, 265000, 73

4920010, INTERESTING, INTERESTING, 15:13:23:24, 25000, 6

4550010, EMPTY, EMPTY, 0:20:24, 400000, 111

4920010, INTERESTING, INTERESTING, 5:13:23:24, 40000, 11

4950010, INTERESTING, INTERESTING, 1:20:24, 15000, 4

4950010, INTERESTING, INTERESTING, 13:23:24, 25000, 6

4920010, INTERESTING, INTERESTING, 6:20:24, 60000, 16

650010, EMPTY, EMPTY, 17:13:23:24, 4340000, 1205

4820010, EMPTY, EMPTY, 3:20:24, 175000, 48

570010, EMPTY, EMPTY, 16:13:23:24, 4435000, 1231

4860010, EMPTY, EMPTY, 3:20:24, 150000, 41

730010, EMPTY, EMPTY, 7:13:23:24, 4290000, 1191

4860010, EMPTY, EMPTY, 6:20:24, 165000, 45

4890010, INTERESTING, INTERESTING, 16:13:23:24, 145000, 40

4860010, EMPTY, EMPTY, 0:20:24, 180000, 50

5010010, INTERESTING, INTERESTING, 16:13:23:24, 40000, 11

4870010, EMPTY, EMPTY, 3:20:24, 185000, 51

5020010, INTERESTING, INTERESTING, 14:13:23:24, 45000, 12

4890010, EMPTY, EMPTY, 0:20:24, 180000, 50

5030010, INTERESTING, INTERESTING, 5:13:23:24, 50000, 13

4890010, EMPTY, EMPTY, 3:20:24, 195000, 54

5050010, INTERESTING, INTERESTING, 19:13:23:24, 45000, 12

4900010, EMPTY, EMPTY, 6:20:24, 200000, 55

5080010, INTERESTING, INTERESTING, 10:23:24, 30000, 8

4920010, EMPTY, EMPTY, 3:20:24, 195000, 54

740010, EMPTY, EMPTY, 4:23:24, 4385000, 1218

4960010, EMPTY, EMPTY, 6:20:24, 170000, 47

580010, EMPTY, EMPTY, 5:13:23:24, 4560000, 1266

5120010, INTERESTING, INTERESTING, 6:20:24, 25000, 6

5130010, INTERESTING, INTERESTING, 8:23:24, 25000, 6

5000010, EMPTY, EMPTY, 6:20:24, 160000, 44

5140010, INTERESTING, INTERESTING, 16:13:23:24, 30000, 8

4950010, INTERESTING, EMPTY, 3:20:24, 225000, 62

5150010, INTERESTING, INTERESTING, 16:13:23:24, 35000, 9

5160010, INTERESTING, INTERESTING, 3:20:24, 30000, 8

5180010, INTERESTING, INTERESTING, 4:23:24, 20000, 5

4910010, EMPTY, EMPTY, 0:20:24, 295000, 81

5170010, INTERESTING, INTERESTING, 16:13:23:24, 45000, 12

5010010, EMPTY, EMPTY, 0:20:24, 210000, 58

5200010, INTERESTING, INTERESTING, 5:13:23:24, 30000, 8

5010010, EMPTY, EMPTY, 6:20:24, 225000, 62

730010, EMPTY, EMPTY, 17:13:23:24, 4515000, 1254

4760010, EMPTY, EMPTY, 1:20:24, 490000, 136

5190010, INTERESTING, INTERESTING, 17:13:23:24, 70000, 19

5110010, EMPTY, EMPTY, 1:20:24, 155000, 43

5210010, INTERESTING, INTERESTING, 18:13:23:24, 65000, 18

5130010, EMPTY, INTERESTING, 1:20:24, 150000, 41

790010, EMPTY, EMPTY, 13:23:24, 4500000, 1250

5040010, EMPTY, EMPTY, 0:20:24, 255000, 70

760010, EMPTY, EMPTY, 5:13:23:24, 4545000, 1262

5160010, EMPTY, EMPTY, 1:20:24, 150000, 41

5230010, INTERESTING, INTERESTING, 19:13:23:24, 90000, 25

5160010, EMPTY, EMPTY, 0:20:24, 165000, 45

5290010, INTERESTING, EMPTY, 15:13:23:24, 45000, 12

5170010, EMPTY, EMPTY, 3:20:24, 170000, 47

5300010, INTERESTING, EMPTY, 9:23:24, 50000, 13

5250010, EMPTY, EMPTY, 0:20:24, 105000, 29

5300010, INTERESTING, INTERESTING, 13:23:24, 65000, 18

5260010, EMPTY, EMPTY, 0:20:24, 110000, 30

5330010, INTERESTING, EMPTY, 5:13:23:24, 50000, 13

5080010, EMPTY, EMPTY, 6:20:24, 305000, 84

740010, EMPTY, EMPTY, 7:13:23:24, 4655000, 1293

5270010, EMPTY, EMPTY, 0:20:24, 130000, 36

5380010, INTERESTING, EMPTY, 12:23:24, 30000, 8

5250010, EMPTY, EMPTY, 3:20:24, 165000, 45

5390010, INTERESTING, INTERESTING, 18:13:23:24, 35000, 9

5320010, EMPTY, EMPTY, 0:20:24, 110000, 30

5390010, INTERESTING, EMPTY, 2:23:24, 50000, 13

5320010, EMPTY, EMPTY, 3:20:24, 125000, 34

5400010, INTERESTING, INTERESTING, 11:13:23:24, 55000, 15

5360010, EMPTY, EMPTY, 3:20:24, 100000, 27

5400010, INTERESTING, INTERESTING, 17:13:23:24, 70000, 19

5290010, EMPTY, EMPTY, 6:20:24, 185000, 51

5410010, INTERESTING, EMPTY, 2:23:24, 75000, 20

5390010, EMPTY, EMPTY, 6:20:24, 100000, 27

5410010, INTERESTING, INTERESTING, 4:23:24, 90000, 25

5220010, EMPTY, EMPTY, 1:20:24, 285000, 79

5420010, INTERESTING, INTERESTING, 2:23:24, 95000, 26

5400010, EMPTY, EMPTY, 6:20:24, 120000, 33

740010, EMPTY, EMPTY, 8:23:24, 4790000, 1330

5340010, EMPTY, EMPTY, 0:20:24, 195000, 54

740010, EMPTY, EMPTY, 9:23:24, 4805000, 1334

5470010, EMPTY, EMPTY, 0:20:24, 80000, 22

740010, EMPTY, EMPTY, 16:13:23:24, 4820000, 1338

5370010, INTERESTING, INTERESTING, 3:20:24, 195000, 54

770010, EMPTY, EMPTY, 4:23:24, 4805000, 1334

5420010, EMPTY, EMPTY, 1:20:24, 160000, 44

670010, EMPTY, EMPTY, 11:13:23:24, 4920000, 1366

5490010, EMPTY, EMPTY, 0:20:24, 105000, 29

820010, EMPTY, EMPTY, 9:23:24, 4785000, 1329

5420010, EMPTY, EMPTY, 6:20:24, 190000, 52

5600010, INTERESTING, INTERESTING, 15:13:23:24, 20000, 5

5550010, EMPTY, EMPTY, 3:20:24, 75000, 20

5540010, INTERESTING, INTERESTING, 14:13:23:24, 95000, 26

5510010, EMPTY, EMPTY, 1:20:24, 130000, 36

5620010, INTERESTING, INTERESTING, 17:13:23:24, 30000, 8

5620010, INTERESTING, INTERESTING, 0:20:24, 35000, 9

5640010, INTERESTING, INTERESTING, 16:13:23:24, 25000, 6

5550010, EMPTY, EMPTY, 0:20:24, 120000, 33

5650010, INTERESTING, INTERESTING, 13:23:24, 30000, 8

5670010, INTERESTING, INTERESTING, 6:20:24, 15000, 4

5610010, INTERESTING, INTERESTING, 14:13:23:24, 85000, 23

5600010, EMPTY, EMPTY, 1:20:24, 100000, 27

5600010, INTERESTING, INTERESTING, 18:13:23:24, 110000, 30

5630010, EMPTY, EMPTY, 0:20:24, 85000, 23

5690010, INTERESTING, INTERESTING, 13:23:24, 35000, 9

5650010, EMPTY, EMPTY, 0:20:24, 80000, 22

5670010, INTERESTING, EMPTY, 14:13:23:24, 70000, 19

5670010, EMPTY, EMPTY, 0:20:24, 75000, 20

5700010, INTERESTING, INTERESTING, 13:23:24, 55000, 15

5690010, EMPTY, EMPTY, 0:20:24, 70000, 19

5740010, INTERESTING, INTERESTING, 10:23:24, 30000, 8

5560010, EMPTY, EMPTY, 6:20:24, 215000, 59

5760010, INTERESTING, EMPTY, 16:13:23:24, 25000, 6

5580010, EMPTY, EMPTY, 3:20:24, 210000, 58

790010, EMPTY, EMPTY, 5:13:23:24, 5010000, 1391

5720010, INTERESTING, INTERESTING, 6:20:24, 85000, 23

5700010, INTERESTING, INTERESTING, 2:23:24, 115000, 31

5700010, EMPTY, EMPTY, 0:20:24, 120000, 33

5680010, INTERESTING, INTERESTING, 4:23:24, 150000, 41

5760010, EMPTY, EMPTY, 0:20:24, 75000, 20

5830010, INTERESTING, EMPTY, 12:23:24, 15000, 4

5780010, EMPTY, EMPTY, 0:20:24, 70000, 19

5810010, INTERESTING, INTERESTING, 2:23:24, 50000, 13

5790010, EMPTY, EMPTY, 6:20:24, 75000, 20

5840010, INTERESTING, INTERESTING, 2:23:24, 35000, 9

5640010, EMPTY, EMPTY, 1:20:24, 240000, 66

710010, EMPTY, EMPTY, 10:23:24, 5180000, 1438

5730010, EMPTY, EMPTY, 3:20:24, 165000, 45

5750010, INTERESTING, INTERESTING, 10:23:24, 155000, 43

5800010, EMPTY, EMPTY, 0:20:24, 110000, 30

5850010, INTERESTING, INTERESTING, 2:23:24, 70000, 19

5910010, INTERESTING, INTERESTING, 6:20:24, 15000, 4

5890010, INTERESTING, INTERESTING, 14:13:23:24, 45000, 12

5900010, INTERESTING, INTERESTING, 9:23:24, 50000, 13

5910010, INTERESTING, EMPTY, 14:13:23:24, 55000, 15

5890010, INTERESTING, EMPTY, 10:23:24, 90000, 25

5950010, INTERESTING, INTERESTING, 4:23:24, 45000, 12

5950010, INTERESTING, INTERESTING, 7:13:23:24, 60000, 16

5840010, EMPTY, EMPTY, 3:20:24, 175000, 48

5960010, INTERESTING, INTERESTING, 10:23:24, 65000, 18

5830010, EMPTY, EMPTY, 1:20:24, 200000, 55

5980010, INTERESTING, INTERESTING, 12:23:24, 60000, 16

6020010, INTERESTING, INTERESTING, 17:13:23:24, 35000, 9

5880010, INTERESTING, INTERESTING, 0:20:24, 175000, 48

5990010, INTERESTING, INTERESTING, 10:23:24, 80000, 22

6020010, INTERESTING, INTERESTING, 7:13:23:24, 65000, 18

6040010, EMPTY, EMPTY, 0:20:24, 55000, 15

6050010, INTERESTING, EMPTY, 13:23:24, 50000, 13

5810010, EMPTY, EMPTY, 6:20:24, 300000, 83

5980010, INTERESTING, INTERESTING, 5:13:23:24, 135000, 37

540010, EMPTY, EMPTY, 19:13:23:24, 5590000, 1552

6120010, INTERESTING, INTERESTING, 0:20:24, 15000, 4

6130010, INTERESTING, INTERESTING, 16:13:23:24, 15000, 4

6080010, EMPTY, EMPTY, 0:20:24, 70000, 19

6110010, INTERESTING, INTERESTING, 7:13:23:24, 50000, 13

640010, EMPTY, EMPTY, 15:13:23:24, 5535000, 1537

6010010, EMPTY, EMPTY, 1:20:24, 175000, 48

6170010, INTERESTING, INTERESTING, 16:13:23:24, 20000, 5

6170010, EMPTY, EMPTY, 1:20:24, 30000, 8

6150010, INTERESTING, INTERESTING, 14:13:23:24, 55000, 15

6190010, INTERESTING, INTERESTING, 3:20:24, 25000, 6

820010, EMPTY, EMPTY, 11:13:23:24, 5400000, 1500

6200010, INTERESTING, INTERESTING, 3:20:24, 30000, 8

6040010, INTERESTING, INTERESTING, 4:23:24, 195000, 54

6090010, EMPTY, EMPTY, 6:20:24, 155000, 43

6210010, INTERESTING, EMPTY, 11:13:23:24, 40000, 11

6180010, EMPTY, EMPTY, 1:20:24, 80000, 22

570010, EMPTY, EMPTY, 18:13:23:24, 5695000, 1581

6190010, EMPTY, EMPTY, 1:20:24, 85000, 23

6260010, INTERESTING, INTERESTING, 17:13:23:24, 20000, 5

6130010, EMPTY, EMPTY, 0:20:24, 160000, 44

850010, EMPTY, EMPTY, 10:23:24, 5445000, 1512

6000010, EMPTY, EMPTY, 3:20:24, 305000, 84

6050010, INTERESTING, INTERESTING, 10:23:24, 260000, 72

6270010, EMPTY, EMPTY, 3:20:24, 55000, 15

730010, EMPTY, EMPTY, 14:13:23:24, 5595000, 1554

860010, EMPTY, EMPTY, 18:13:23:24, 5480000, 1522

6250010, EMPTY, EMPTY, 0:20:24, 90000, 25

870010, EMPTY, EMPTY, 10:23:24, 5485000, 1523

6190010, EMPTY, EMPTY, 6:20:24, 165000, 45

6350010, INTERESTING, INTERESTING, 2:23:24, 20000, 5

6240010, EMPTY, EMPTY, 1:20:24, 135000, 37

810010, EMPTY, EMPTY, 8:23:24, 5575000, 1548

6320010, EMPTY, EMPTY, 6:20:24, 75000, 20

910010, EMPTY, EMPTY, 8:23:24, 5490000, 1525

6310010, EMPTY, EMPTY, 3:20:24, 100000, 27

900010, EMPTY, EMPTY, 9:23:24, 5515000, 1531

6390010, EMPTY, EMPTY, 3:20:24, 35000, 9

710010, EMPTY, EMPTY, 12:23:24, 5720000, 1588

6270010, INTERESTING, INTERESTING, 16:13:23:24, 175000, 48

6380010, EMPTY, EMPTY, 6:20:24, 65000, 18

6420010, INTERESTING, INTERESTING, 13:23:24, 40000, 11

6400010, EMPTY, EMPTY, 3:20:24, 65000, 18

850010, EMPTY, EMPTY, 11:13:23:24, 5625000, 1562

6430010, EMPTY, EMPTY, 6:20:24, 50000, 13

6470010, INTERESTING, INTERESTING, 8:23:24, 20000, 5

6320010, EMPTY, EMPTY, 0:20:24, 175000, 48

890010, EMPTY, EMPTY, 11:13:23:24, 5615000, 1559

6450010, EMPTY, EMPTY, 6:20:24, 60000, 16

830010, EMPTY, EMPTY, 4:23:24, 5690000, 1580

6360010, EMPTY, EMPTY, 1:20:24, 165000, 45

920010, EMPTY, EMPTY, 8:23:24, 5615000, 1559

660010, EMPTY, EMPTY, 2:23:24, 5890000, 1636

900010, EMPTY, EMPTY, 10:23:24, 5665000, 1573

6560010, INTERESTING, INTERESTING, 13:23:24, 20000, 5

6500010, EMPTY, EMPTY, 1:20:24, 95000, 26

6560010, INTERESTING, INTERESTING, 15:13:23:24, 35000, 9

6510010, INTERESTING, INTERESTING, 2:23:24, 100000, 27

6570010, INTERESTING, INTERESTING, 9:23:24, 55000, 15

830010, EMPTY, EMPTY, 5:13:23:24, 5810000, 1613

6580010, EMPTY, EMPTY, 1:20:24, 75000, 20

6610010, INTERESTING, EMPTY, 18:13:23:24, 45000, 12

800010, EMPTY, EMPTY, 7:13:23:24, 5870000, 1630

6450010, EMPTY, EMPTY, 3:20:24, 220000, 61

6640010, EMPTY, EMPTY, 1:20:24, 45000, 12

960010, EMPTY, EMPTY, 7:13:23:24, 5725000, 1590

840010, EMPTY, INTERESTING, 19:13:23:24, 5860000, 1627

6480010, EMPTY, EMPTY, 0:20:24, 220000, 61

6650010, EMPTY, EMPTY, 1:20:24, 65000, 18

6500010, INTERESTING, INTERESTING, 19:13:23:24, 215000, 59

6660010, EMPTY, EMPTY, 0:20:24, 70000, 19

930010, EMPTY, INTERESTING, 18:13:23:24, 5800000, 1611

6670010, EMPTY, EMPTY, 1:20:24, 75000, 20

6630010, INTERESTING, INTERESTING, 9:23:24, 115000, 31

6700010, INTERESTING, EMPTY, 19:13:23:24, 60000, 16

6640010, EMPTY, EMPTY, 3:20:24, 120000, 33

6750010, INTERESTING, INTERESTING, 5:13:23:24, 25000, 6

6490010, EMPTY, EMPTY, 6:20:24, 285000, 79

6730010, EMPTY, EMPTY, 6:20:24, 60000, 16

770010, EMPTY, EMPTY, 17:13:23:24, 6020000, 1672

6730010, INTERESTING, INTERESTING, 9:23:24, 75000, 20

6700010, EMPTY, EMPTY, 0:20:24, 105000, 29

6600010, INTERESTING, EMPTY, 10:23:24, 220000, 61

6800010, INTERESTING, INTERESTING, 6:20:24, 20000, 5

6780010, EMPTY, EMPTY, 0:20:24, 55000, 15

6480010, INTERESTING, INTERESTING, 11:13:23:24, 355000, 98

6810010, INTERESTING, EMPTY, 2:23:24, 40000, 11

6720010, EMPTY, EMPTY, 3:20:24, 130000, 36

6800010, EMPTY, EMPTY, 3:20:24, 65000, 18

6830010, INTERESTING, INTERESTING, 13:23:24, 35000, 9

6850010, INTERESTING, INTERESTING, 8:23:24, 30000, 8

6710010, EMPTY, EMPTY, 1:20:24, 170000, 47

6760010, INTERESTING, EMPTY, 7:13:23:24, 135000, 37

6790010, EMPTY, EMPTY, 0:20:24, 105000, 29

6840010, EMPTY, EMPTY, 1:20:24, 70000, 19

6860010, INTERESTING, INTERESTING, 9:23:24, 50000, 13

6830010, EMPTY, EMPTY, 3:20:24, 95000, 26

6860010, INTERESTING, INTERESTING, 17:13:23:24, 65000, 18

6750010, INTERESTING, INTERESTING, 19:13:23:24, 190000, 52

6840010, EMPTY, EMPTY, 0:20:24, 100000, 27

6880010, INTERESTING, INTERESTING, 14:13:23:24, 75000, 20

6740010, EMPTY, EMPTY, 6:20:24, 215000, 59

6900010, EMPTY, EMPTY, 0:20:24, 70000, 19

6890010, INTERESTING, INTERESTING, 12:23:24, 80000, 22

6870010, EMPTY, EMPTY, 1:20:24, 115000, 31

6870010, INTERESTING, INTERESTING, 7:13:23:24, 115000, 31

6920010, INTERESTING, INTERESTING, 2:23:24, 80000, 22

6930010, EMPTY, EMPTY, 0:20:24, 70000, 19

6900010, EMPTY, EMPTY, 6:20:24, 115000, 31

6930010, INTERESTING, INTERESTING, 14:13:23:24, 85000, 23

6930010, EMPTY, EMPTY, 1:20:24, 100000, 27

6950010, INTERESTING, INTERESTING, 5:13:23:24, 80000, 22

6960010, INTERESTING, INTERESTING, 7:13:23:24, 85000, 23

7030010, INTERESTING, INTERESTING, 6:20:24, 15000, 4

6990010, INTERESTING, INTERESTING, 7:13:23:24, 70000, 19

6970010, EMPTY, EMPTY, 1:20:24, 90000, 25

7010010, INTERESTING, INTERESTING, 4:23:24, 65000, 18

7000010, INTERESTING, INTERESTING, 0:20:24, 75000, 20

7010010, INTERESTING, INTERESTING, 15:13:23:24, 80000, 22

6950010, EMPTY, EMPTY, 0:20:24, 140000, 38

7030010, INTERESTING, INTERESTING, 13:23:24, 75000, 20

6880010, EMPTY, EMPTY, 3:20:24, 225000, 62

6990010, INTERESTING, INTERESTING, 14:13:23:24, 130000, 36

7100010, INTERESTING, INTERESTING, 1:20:24, 20000, 5

7020010, EMPTY, EMPTY, 3:20:24, 115000, 31

800010, EMPTY, INTERESTING, 16:13:23:24, 6335000, 1759

850010, EMPTY, EMPTY, 15:13:23:24, 6300000, 1750

6990010, EMPTY, EMPTY, 1:20:24, 160000, 44

7030010, INTERESTING, INTERESTING, 7:13:23:24, 135000, 37

7050010, EMPTY, EMPTY, 0:20:24, 115000, 31

6960010, EMPTY, EMPTY, 6:20:24, 220000, 61

7070010, INTERESTING, INTERESTING, 12:23:24, 110000, 30

7100010, INTERESTING, INTERESTING, 14:13:23:24, 95000, 26

7030010, EMPTY, EMPTY, 3:20:24, 165000, 45

7060010, INTERESTING, INTERESTING, 18:13:23:24, 150000, 41

7050010, EMPTY, EMPTY, 1:20:24, 160000, 44

7120010, INTERESTING, INTERESTING, 5:13:23:24, 105000, 29

7100010, EMPTY, EMPTY, 6:20:24, 125000, 34

7110010, EMPTY, EMPTY, 3:20:24, 130000, 36

7160010, INTERESTING, INTERESTING, 8:23:24, 80000, 22

7180010, INTERESTING, INTERESTING, 4:23:24, 75000, 20

7220010, INTERESTING, INTERESTING, 8:23:24, 50000, 13

7230010, INTERESTING, INTERESTING, 14:13:23:24, 55000, 15

7070010, EMPTY, EMPTY, 0:20:24, 225000, 62

930010, EMPTY, EMPTY, 5:13:23:24, 6370000, 1769

7140010, INTERESTING, INTERESTING, 16:13:23:24, 175000, 48

950010, EMPTY, EMPTY, 2:23:24, 6380000, 1772

7190010, INTERESTING, INTERESTING, 18:13:23:24, 155000, 43

7110010, EMPTY, EMPTY, 1:20:24, 245000, 68

7300010, INTERESTING, INTERESTING, 14:13:23:24, 60000, 16

7340010, EMPTY, EMPTY, 1:20:24, 30000, 8

7340010, INTERESTING, INTERESTING, 14:13:23:24, 35000, 9

7350010, EMPTY, EMPTY, 1:20:24, 35000, 9

7350010, INTERESTING, INTERESTING, 5:13:23:24, 40000, 11

7280010, EMPTY, EMPTY, 0:20:24, 120000, 33

7380010, INTERESTING, INTERESTING, 18:13:23:24, 25000, 6

7390010, INTERESTING, INTERESTING, 1:20:24, 25000, 6

860010, EMPTY, EMPTY, 14:13:23:24, 6560000, 1822

7190010, EMPTY, EMPTY, 3:20:24, 240000, 66

930010, EMPTY, EMPTY, 11:13:23:24, 6505000, 1806

7410010, EMPTY, EMPTY, 3:20:24, 35000, 9

7400010, INTERESTING, INTERESTING, 4:23:24, 50000, 13

7370010, EMPTY, EMPTY, 1:20:24, 90000, 25

1050010, EMPTY, EMPTY, 14:13:23:24, 6415000, 1781

7370010, EMPTY, EMPTY, 0:20:24, 105000, 29

980010, EMPTY, EMPTY, 7:13:23:24, 6500000, 1805

1030010, EMPTY, EMPTY, 5:13:23:24, 6465000, 1795

7420010, EMPTY, EMPTY, 3:20:24, 85000, 23

7490010, INTERESTING, INTERESTING, 9:23:24, 20000, 5

7460010, EMPTY, EMPTY, 0:20:24, 65000, 18

7510010, INTERESTING, INTERESTING, 9:23:24, 15000, 4

7490010, INTERESTING, INTERESTING, 12:23:24, 50000, 13

7420010, EMPTY, EMPTY, 1:20:24, 120000, 33

7530010, INTERESTING, INTERESTING, 17:13:23:24, 25000, 6

7550010, INTERESTING, INTERESTING, 17:13:23:24, 20000, 5

7560010, INTERESTING, INTERESTING, 1:20:24, 15000, 4

7560010, INTERESTING, INTERESTING, 10:23:24, 25000, 6

7180010, INTERESTING, INTERESTING, 6:20:24, 415000, 115

7560010, INTERESTING, INTERESTING, 15:13:23:24, 40000, 11

7490010, EMPTY, EMPTY, 3:20:24, 125000, 34

1010010, EMPTY, EMPTY, 16:13:23:24, 6605000, 1834

7550010, INTERESTING, INTERESTING, 18:13:23:24, 80000, 22

7510010, EMPTY, EMPTY, 1:20:24, 120000, 33

1030010, EMPTY, EMPTY, 15:13:23:24, 6615000, 1837

7510010, EMPTY, EMPTY, 0:20:24, 135000, 37

7640010, INTERESTING, INTERESTING, 3:20:24, 20000, 5

1070010, EMPTY, EMPTY, 5:13:23:24, 6590000, 1830

7600010, EMPTY, EMPTY, 3:20:24, 75000, 20

1060010, EMPTY, EMPTY, 2:23:24, 6615000, 1837

7600010, EMPTY, EMPTY, 0:20:24, 90000, 25

940010, EMPTY, EMPTY, 4:23:24, 6750000, 1875

7680010, INTERESTING, INTERESTING, 0:20:24, 25000, 6

930010, EMPTY, EMPTY, 12:23:24, 6775000, 1881

1120010, EMPTY, EMPTY, 12:23:24, 6600000, 1833

920010, EMPTY, EMPTY, 9:23:24, 6815000, 1893

7640010, EMPTY, EMPTY, 0:20:24, 95000, 26

1020010, EMPTY, EMPTY, 18:13:23:24, 6730000, 1869

7630010, EMPTY, EMPTY, 3:20:24, 120000, 33

7730010, INTERESTING, INTERESTING, 3:20:24, 35000, 9

1060010, EMPTY, EMPTY, 11:13:23:24, 6705000, 1862

7580010, EMPTY, EMPTY, 6:20:24, 200000, 55

980010, EMPTY, EMPTY, 19:13:23:24, 6800000, 1888

7730010, EMPTY, EMPTY, 6:20:24, 65000, 18

1100010, EMPTY, EMPTY, 5:13:23:24, 6695000, 1859

7600010, EMPTY, EMPTY, 1:20:24, 210000, 58

1100010, EMPTY, INTERESTING, 18:13:23:24, 6710000, 1863

7760010, EMPTY, EMPTY, 6:20:24, 65000, 18

7800010, INTERESTING, INTERESTING, 5:13:23:24, 25000, 6

1060010, EMPTY, INTERESTING, 14:13:23:24, 6780000, 1883

7840010, INTERESTING, INTERESTING, 18:13:23:24, 15000, 4

7720010, EMPTY, EMPTY, 0:20:24, 145000, 40

1130010, EMPTY, EMPTY, 9:23:24, 6740000, 1872

7740010, INTERESTING, EMPTY, 3:20:24, 145000, 40

1110010, EMPTY, EMPTY, 2:23:24, 6775000, 1881

1090010, EMPTY, EMPTY, 15:13:23:24, 6810000, 1891

7770010, INTERESTING, EMPTY, 6:20:24, 135000, 37

7870010, INTERESTING, INTERESTING, 15:13:23:24, 45000, 12

7870010, EMPTY, EMPTY, 3:20:24, 50000, 13

7840010, INTERESTING, INTERESTING, 17:13:23:24, 90000, 25

7890010, INTERESTING, INTERESTING, 6:20:24, 45000, 12

7890010, INTERESTING, INTERESTING, 15:13:23:24, 55000, 15

7850010, EMPTY, EMPTY, 0:20:24, 100000, 27

7920010, INTERESTING, INTERESTING, 17:13:23:24, 40000, 11

7770010, EMPTY, EMPTY, 1:20:24, 195000, 54

7930010, INTERESTING, INTERESTING, 13:23:24, 45000, 12

7920010, EMPTY, EMPTY, 6:20:24, 60000, 16

7930010, INTERESTING, INTERESTING, 7:13:23:24, 60000, 16

7960010, EMPTY, EMPTY, 6:20:24, 35000, 9

7940010, INTERESTING, INTERESTING, 4:23:24, 65000, 18

7950010, INTERESTING, INTERESTING, 18:13:23:24, 70000, 19

7930010, EMPTY, EMPTY, 1:20:24, 95000, 26

7960010, INTERESTING, INTERESTING, 7:13:23:24, 75000, 20

8010010, EMPTY, EMPTY, 1:20:24, 30000, 8

7990010, INTERESTING, INTERESTING, 16:13:23:24, 60000, 16

8030010, INTERESTING, INTERESTING, 12:23:24, 35000, 9

7980010, EMPTY, EMPTY, 6:20:24, 85000, 23

8030010, INTERESTING, INTERESTING, 5:13:23:24, 50000, 13

8060010, INTERESTING, INTERESTING, 3:20:24, 20000, 5

8050010, INTERESTING, INTERESTING, 14:13:23:24, 45000, 12

8020010, EMPTY, EMPTY, 1:20:24, 75000, 20

8090010, INTERESTING, INTERESTING, 17:13:23:24, 20000, 5

7900010, EMPTY, EMPTY, 3:20:24, 215000, 59

8110010, INTERESTING, EMPTY, 13:23:24, 15000, 4

8050010, EMPTY, EMPTY, 1:20:24, 80000, 22

8120010, INTERESTING, INTERESTING, 2:23:24, 20000, 5

7900010, EMPTY, EMPTY, 0:20:24, 245000, 68

8140010, INTERESTING, INTERESTING, 11:13:23:24, 15000, 4

8100010, EMPTY, EMPTY, 3:20:24, 60000, 16

1160010, EMPTY, EMPTY, 9:23:24, 7010000, 1947

8160010, INTERESTING, INTERESTING, 0:20:24, 15000, 4

8130010, INTERESTING, INTERESTING, 5:13:23:24, 55000, 15

8110010, EMPTY, EMPTY, 3:20:24, 80000, 22

8160010, INTERESTING, INTERESTING, 17:13:23:24, 40000, 11

8050010, EMPTY, EMPTY, 6:20:24, 155000, 43

8170010, INTERESTING, INTERESTING, 2:23:24, 45000, 12

8150010, EMPTY, EMPTY, 6:20:24, 70000, 19

950010, EMPTY, EMPTY, 8:23:24, 7280000, 2022

8200010, EMPTY, EMPTY, 6:20:24, 45000, 12

990010, EMPTY, EMPTY, 17:13:23:24, 7255000, 2015

8230010, INTERESTING, EMPTY, 11:13:23:24, 30000, 8

8110010, EMPTY, EMPTY, 1:20:24, 150000, 41

8250010, INTERESTING, INTERESTING, 16:13:23:24, 25000, 6

8140010, EMPTY, INTERESTING, 3:20:24, 135000, 37

8230010, EMPTY, EMPTY, 1:20:24, 60000, 16

8260010, INTERESTING, INTERESTING, 2:23:24, 30000, 8

1160010, EMPTY, EMPTY, 2:23:24, 7145000, 1984

8230010, EMPTY, EMPTY, 6:20:24, 75000, 20

1070010, EMPTY, EMPTY, 7:13:23:24, 7250000, 2013

8320010, INTERESTING, INTERESTING, 3:20:24, 15000, 4

8320010, INTERESTING, INTERESTING, 18:13:23:24, 15000, 4

8330010, INTERESTING, INTERESTING, 6:20:24, 20000, 5

8320010, INTERESTING, INTERESTING, 15:13:23:24, 30000, 8

8300010, INTERESTING, INTERESTING, 11:13:23:24, 65000, 18

8330010, INTERESTING, INTERESTING, 3:20:24, 35000, 9

8240010, EMPTY, EMPTY, 1:20:24, 140000, 38

8340010, INTERESTING, INTERESTING, 13:23:24, 40000, 11

1150010, EMPTY, EMPTY, 14:13:23:24, 7245000, 2012

8230010, EMPTY, EMPTY, 3:20:24, 165000, 45

8110010, EMPTY, EMPTY, 0:20:24, 300000, 83

8390010, INTERESTING, INTERESTING, 16:13:23:24, 20000, 5

8340010, EMPTY, EMPTY, 3:20:24, 85000, 23

1130010, EMPTY, EMPTY, 12:23:24, 7295000, 2026

8350010, EMPTY, EMPTY, 0:20:24, 90000, 25

8420010, INTERESTING, EMPTY, 13:23:24, 20000, 5

1140010, EMPTY, EMPTY, 5:13:23:24, 7315000, 2031

8390010, EMPTY, EMPTY, 0:20:24, 75000, 20

1070010, EMPTY, EMPTY, 16:13:23:24, 7400000, 2055

8420010, INTERESTING, INTERESTING, 12:23:24, 65000, 18

8250010, EMPTY, EMPTY, 6:20:24, 235000, 65

8350010, EMPTY, EMPTY, 3:20:24, 150000, 41

8430010, INTERESTING, INTERESTING, 9:23:24, 70000, 19

8210010, INTERESTING, INTERESTING, 5:13:23:24, 305000, 84

8450010, EMPTY, EMPTY, 0:20:24, 65000, 18

8460010, INTERESTING, EMPTY, 12:23:24, 70000, 19

1190010, EMPTY, EMPTY, 2:23:24, 7355000, 2043

8540010, INTERESTING, INTERESTING, 6:20:24, 15000, 4

1190010, EMPTY, EMPTY, 14:13:23:24, 7370000, 2047

8480010, EMPTY, EMPTY, 3:20:24, 90000, 25

8560010, INTERESTING, INTERESTING, 19:13:23:24, 15000, 4

8480010, EMPTY, EMPTY, 0:20:24, 105000, 29

960010, EMPTY, EMPTY, 10:23:24, 7630000, 2119

8330010, EMPTY, EMPTY, 1:20:24, 270000, 75

1200010, EMPTY, EMPTY, 11:13:23:24, 7405000, 2056

8570010, EMPTY, EMPTY, 0:20:24, 45000, 12

1230010, EMPTY, EMPTY, 10:23:24, 7390000, 2052

8610010, INTERESTING, INTERESTING, 1:20:24, 20000, 5

8500010, INTERESTING, INTERESTING, 17:13:23:24, 135000, 37

8620010, INTERESTING, INTERESTING, 3:20:24, 25000, 6

8610010, INTERESTING, INTERESTING, 17:13:23:24, 40000, 11

8470010, EMPTY, EMPTY, 6:20:24, 190000, 52

8640010, INTERESTING, EMPTY, 5:13:23:24, 25000, 6

8650010, INTERESTING, INTERESTING, 6:20:24, 25000, 6

8620010, INTERESTING, INTERESTING, 8:23:24, 60000, 16

8630010, EMPTY, EMPTY, 6:20:24, 60000, 16

1210010, EMPTY, EMPTY, 2:23:24, 7485000, 2079

8660010, EMPTY, EMPTY, 6:20:24, 45000, 12

1140010, EMPTY, EMPTY, 19:13:23:24, 7570000, 2102

8670010, EMPTY, EMPTY, 6:20:24, 50000, 13

1220010, EMPTY, EMPTY, 11:13:23:24, 7505000, 2084

1190010, EMPTY, EMPTY, 5:13:23:24, 7550000, 2097

8690010, EMPTY, EMPTY, 6:20:24, 55000, 15

8740010, INTERESTING, INTERESTING, 13:23:24, 15000, 4

8580010, EMPTY, EMPTY, 1:20:24, 180000, 50

8690010, INTERESTING, INTERESTING, 9:23:24, 80000, 22

8760010, INTERESTING, INTERESTING, 14:13:23:24, 25000, 6

8730010, EMPTY, EMPTY, 6:20:24, 55000, 15

1200010, EMPTY, EMPTY, 12:23:24, 7600000, 2111

8550010, EMPTY, EMPTY, 3:20:24, 250000, 69

1170010, EMPTY, EMPTY, 8:23:24, 7645000, 2123

8780010, INTERESTING, INTERESTING, 1:20:24, 35000, 9

8730010, EMPTY, EMPTY, 1:20:24, 100000, 27

8800010, INTERESTING, INTERESTING, 5:13:23:24, 30000, 8

1120010, EMPTY, EMPTY, 4:23:24, 7725000, 2145

8600010, EMPTY, EMPTY, 0:20:24, 245000, 68

8790010, EMPTY, EMPTY, 1:20:24, 70000, 19

8840010, INTERESTING, INTERESTING, 5:13:23:24, 20000, 5

1160010, EMPTY, EMPTY, 17:13:23:24, 7715000, 2143

8780010, EMPTY, EMPTY, 3:20:24, 95000, 26

8870010, INTERESTING, INTERESTING, 10:23:24, 20000, 5

8820010, EMPTY, EMPTY, 3:20:24, 70000, 19

8820010, EMPTY, EMPTY, 1:20:24, 85000, 23

8870010, INTERESTING, INTERESTING, 18:13:23:24, 35000, 9

8880010, INTERESTING, INTERESTING, 5:13:23:24, 40000, 11

8840010, EMPTY, EMPTY, 3:20:24, 80000, 22

8860010, EMPTY, EMPTY, 3:20:24, 75000, 20

8920010, INTERESTING, INTERESTING, 12:23:24, 15000, 4

8810010, EMPTY, EMPTY, 0:20:24, 140000, 38

1280010, EMPTY, EMPTY, 17:13:23:24, 7670000, 2130

8770010, EMPTY, EMPTY, 6:20:24, 195000, 54

1250010, EMPTY, EMPTY, 2:23:24, 7715000, 2143

1290010, EMPTY, EMPTY, 19:13:23:24, 7690000, 2136

8840010, EMPTY, EMPTY, 1:20:24, 140000, 38

8930010, EMPTY, INTERESTING, 1:20:24, 65000, 18

8980010, INTERESTING, INTERESTING, 4:23:24, 15000, 4

8980010, INTERESTING, EMPTY, 2:23:24, 30000, 8

8950010, EMPTY, EMPTY, 1:20:24, 60000, 16

8960010, EMPTY, EMPTY, 1:20:24, 65000, 18

9000010, INTERESTING, INTERESTING, 18:13:23:24, 25000, 6

8930010, EMPTY, EMPTY, 6:20:24, 110000, 30

8890010, INTERESTING, INTERESTING, 5:13:23:24, 150000, 41

9010010, INTERESTING, INTERESTING, 15:13:23:24, 45000, 12

9010010, EMPTY, EMPTY, 6:20:24, 55000, 15

9010010, INTERESTING, INTERESTING, 5:13:23:24, 60000, 16

8970010, INTERESTING, INTERESTING, 1:20:24, 110000, 30

1200010, EMPTY, EMPTY, 16:13:23:24, 7885000, 2190

9060010, EMPTY, EMPTY, 1:20:24, 35000, 9

1180010, EMPTY, EMPTY, 7:13:23:24, 7920000, 2200

8920010, EMPTY, EMPTY, 0:20:24, 190000, 52

9090010, INTERESTING, INTERESTING, 2:23:24, 25000, 6

9050010, EMPTY, EMPTY, 6:20:24, 75000, 20

9110010, INTERESTING, INTERESTING, 16:13:23:24, 20000, 5

1150010, EMPTY, EMPTY, 15:13:23:24, 7995000, 2220

9140010, INTERESTING, INTERESTING, 5:13:23:24, 20000, 5

9150010, INTERESTING, INTERESTING, 3:20:24, 15000, 4

9160010, INTERESTING, INTERESTING, 13:23:24, 15000, 4

9080010, EMPTY, EMPTY, 1:20:24, 105000, 29

1190010, EMPTY, EMPTY, 9:23:24, 8000000, 2222

1290010, EMPTY, EMPTY, 17:13:23:24, 7915000, 2198

9200010, INTERESTING, INTERESTING, 4:23:24, 20000, 5

9210010, INTERESTING, INTERESTING, 0:20:24, 15000, 4

9210010, INTERESTING, EMPTY, 12:23:24, 25000, 6

1320010, EMPTY, EMPTY, 7:13:23:24, 7930000, 2202

9080010, EMPTY, EMPTY, 0:20:24, 175000, 48

1310010, EMPTY, EMPTY, 16:13:23:24, 7955000, 2209

9170010, EMPTY, EMPTY, 1:20:24, 105000, 29

1290010, EMPTY, EMPTY, 12:23:24, 7990000, 2219

9270010, INTERESTING, EMPTY, 0:20:24, 20000, 5

1290010, EMPTY, EMPTY, 4:23:24, 8005000, 2223

9290010, INTERESTING, INTERESTING, 6:20:24, 15000, 4

1250010, EMPTY, EMPTY, 11:13:23:24, 8060000, 2238

9240010, EMPTY, EMPTY, 0:20:24, 80000, 22

9110010, INTERESTING, INTERESTING, 9:23:24, 215000, 59

8870010, EMPTY, EMPTY, 3:20:24, 465000, 129

1310010, EMPTY, EMPTY, 2:23:24, 8030000, 2230

9330010, INTERESTING, EMPTY, 4:23:24, 25000, 6

9330010, INTERESTING, INTERESTING, 12:23:24, 40000, 11

9320010, INTERESTING, INTERESTING, 18:13:23:24, 65000, 18

9350010, INTERESTING, INTERESTING, 10:23:24, 50000, 13

9370010, INTERESTING, EMPTY, 11:13:23:24, 45000, 12

9260010, EMPTY, EMPTY, 1:20:24, 165000, 45

1290010, EMPTY, EMPTY, 8:23:24, 8140000, 2261

9390010, INTERESTING, EMPTY, 19:13:23:24, 55000, 15

9080010, EMPTY, EMPTY, 6:20:24, 365000, 101

1380010, EMPTY, EMPTY, 13:23:24, 8080000, 2244

9450010, INTERESTING, INTERESTING, 2:23:24, 25000, 6

9320010, EMPTY, EMPTY, 3:20:24, 165000, 45

9470010, INTERESTING, INTERESTING, 9:23:24, 20000, 5

9410010, EMPTY, EMPTY, 1:20:24, 90000, 25

9470010, INTERESTING, INTERESTING, 2:23:24, 35000, 9

9470010, EMPTY, EMPTY, 3:20:24, 45000, 12

1340010, EMPTY, EMPTY, 17:13:23:24, 8180000, 2272

9510010, INTERESTING, INTERESTING, 11:13:23:24, 25000, 6

9510010, INTERESTING, INTERESTING, 5:13:23:24, 40000, 11

9430010, EMPTY, EMPTY, 6:20:24, 125000, 34

9540010, INTERESTING, INTERESTING, 10:23:24, 25000, 6

9260010, EMPTY, EMPTY, 0:20:24, 310000, 86

1350010, EMPTY, EMPTY, 7:13:23:24, 8230000, 2286

9540010, EMPTY, EMPTY, 6:20:24, 45000, 12

1390010, EMPTY, EMPTY, 8:23:24, 8205000, 2279

9580010, INTERESTING, INTERESTING, 11:13:23:24, 30000, 8

9480010, EMPTY, EMPTY, 1:20:24, 145000, 40

9560010, INTERESTING, INTERESTING, 19:13:23:24, 65000, 18

9490010, EMPTY, EMPTY, 3:20:24, 150000, 41

9600010, INTERESTING, INTERESTING, 7:13:23:24, 40000, 11

9550010, EMPTY, EMPTY, 6:20:24, 105000, 29

9610010, INTERESTING, INTERESTING, 2:23:24, 45000, 12

9620010, EMPTY, EMPTY, 6:20:24, 50000, 13

1380010, EMPTY, EMPTY, 12:23:24, 8290000, 2302

1320010, EMPTY, EMPTY, 15:13:23:24, 8365000, 2323

9630010, EMPTY, EMPTY, 6:20:24, 55000, 15

1390010, EMPTY, EMPTY, 7:13:23:24, 8310000, 2308

9620010, EMPTY, EMPTY, 3:20:24, 80000, 22

9490010, INTERESTING, EMPTY, 12:23:24, 225000, 62

9650010, INTERESTING, INTERESTING, 3:20:24, 65000, 18

9670010, INTERESTING, EMPTY, 9:23:24, 60000, 16

9640010, EMPTY, EMPTY, 3:20:24, 90000, 25

9680010, INTERESTING, INTERESTING, 6:20:24, 65000, 18

9690010, INTERESTING, INTERESTING, 19:13:23:24, 55000, 15

9540010, EMPTY, EMPTY, 0:20:24, 220000, 61

9590010, INTERESTING, INTERESTING, 11:13:23:24, 170000, 47

9610010, EMPTY, EMPTY, 1:20:24, 165000, 45

9700010, INTERESTING, INTERESTING, 14:13:23:24, 75000, 20

9640010, EMPTY, EMPTY, 6:20:24, 150000, 41

9700010, INTERESTING, INTERESTING, 9:23:24, 90000, 25

9600010, INTERESTING, INTERESTING, 15:13:23:24, 205000, 56

9790010, INTERESTING, INTERESTING, 0:20:24, 15000, 4

9680010, EMPTY, EMPTY, 1:20:24, 140000, 38

9780010, INTERESTING, INTERESTING, 8:23:24, 40000, 11

9810010, INTERESTING, EMPTY, 1:20:24, 25000, 6

9740010, INTERESTING, INTERESTING, 9:23:24, 95000, 26

9760010, EMPTY, EMPTY, 1:20:24, 90000, 25

9810010, INTERESTING, INTERESTING, 8:23:24, 40000, 11

9820010, INTERESTING, INTERESTING, 13:23:24, 45000, 12

9730010, INTERESTING, INTERESTING, 6:20:24, 135000, 37

9700010, EMPTY, EMPTY, 3:20:24, 180000, 50

9830010, INTERESTING, INTERESTING, 12:23:24, 50000, 13

9770010, EMPTY, EMPTY, 1:20:24, 125000, 34

9640010, INTERESTING, INTERESTING, 10:23:24, 255000, 70

9830010, INTERESTING, INTERESTING, 18:13:23:24, 80000, 22

9870010, EMPTY, EMPTY, 1:20:24, 45000, 12

9830010, INTERESTING, INTERESTING, 19:13:23:24, 95000, 26

9900010, EMPTY, EMPTY, 1:20:24, 30000, 8

9860010, INTERESTING, INTERESTING, 13:23:24, 80000, 22

9910010, EMPTY, EMPTY, 1:20:24, 35000, 9

9900010, INTERESTING, INTERESTING, 2:23:24, 55000, 15

9860010, EMPTY, EMPTY, 3:20:24, 100000, 27

9900010, INTERESTING, INTERESTING, 19:13:23:24, 70000, 19

9960010, INTERESTING, INTERESTING, 10:23:24, 25000, 6

1400010, EMPTY, EMPTY, 10:23:24, 8600000, 2388

9990010, INTERESTING, INTERESTING, 0:20:24, 15000, 4

10000010, INTERESTING, INTERESTING, 10:23:24, 15000, 4

9840010, EMPTY, EMPTY, 6:20:24, 180000, 50

10010010, INTERESTING, INTERESTING, 2:23:24, 20000, 5

9920010, EMPTY, EMPTY, 1:20:24, 115000, 31

10020010, INTERESTING, INTERESTING, 14:13:23:24, 25000, 6

10000010, EMPTY, EMPTY, 1:20:24, 50000, 13

1370010, EMPTY, EMPTY, 11:13:23:24, 8690000, 2413

10010010, INTERESTING, INTERESTING, 1:20:24, 55000, 15

1400010, EMPTY, EMPTY, 7:13:23:24, 8675000, 2409

10050010, INTERESTING, EMPTY, 6:20:24, 30000, 8

1410010, EMPTY, EMPTY, 11:13:23:24, 8680000, 2411

10000010, EMPTY, EMPTY, 6:20:24, 95000, 26

1420010, EMPTY, EMPTY, 14:13:23:24, 8685000, 2412

9660010, EMPTY, EMPTY, 0:20:24, 450000, 125

10100010, INTERESTING, INTERESTING, 13:23:24, 20000, 5

10040010, EMPTY, INTERESTING, 0:20:24, 85000, 23

10100010, INTERESTING, EMPTY, 2:23:24, 35000, 9

9930010, EMPTY, EMPTY, 3:20:24, 210000, 58

10130010, INTERESTING, INTERESTING, 7:13:23:24, 20000, 5

10030010, EMPTY, EMPTY, 6:20:24, 125000, 34

1400010, EMPTY, INTERESTING, 12:23:24, 8765000, 2434

10090010, EMPTY, EMPTY, 6:20:24, 80000, 22

1360010, EMPTY, EMPTY, 16:13:23:24, 8820000, 2450

10050010, EMPTY, EMPTY, 0:20:24, 135000, 37

10140010, INTERESTING, INTERESTING, 11:13:23:24, 55000, 15

10130010, EMPTY, EMPTY, 6:20:24, 70000, 19

1300010, EMPTY, EMPTY, 19:13:23:24, 8910000, 2475

10090010, EMPTY, EMPTY, 3:20:24, 125000, 34

10210010, INTERESTING, INTERESTING, 12:23:24, 15000, 4

10210010, INTERESTING, INTERESTING, 6:20:24, 20000, 5

10220010, INTERESTING, INTERESTING, 16:13:23:24, 20000, 5

10150010, EMPTY, EMPTY, 6:20:24, 95000, 26

10160010, INTERESTING, INTERESTING, 7:13:23:24, 95000, 26

10170010, EMPTY, EMPTY, 3:20:24, 90000, 25

10220010, INTERESTING, EMPTY, 15:13:23:24, 50000, 13

10040010, EMPTY, EMPTY, 1:20:24, 235000, 65

10230010, INTERESTING, INTERESTING, 7:13:23:24, 55000, 15

10200010, INTERESTING, INTERESTING, 4:23:24, 100000, 27

10260010, EMPTY, EMPTY, 1:20:24, 45000, 12

10260010, INTERESTING, INTERESTING, 19:13:23:24, 55000, 15

10220010, EMPTY, EMPTY, 3:20:24, 100000, 27

10310010, INTERESTING, INTERESTING, 7:13:23:24, 20000, 5

10130010, EMPTY, EMPTY, 0:20:24, 205000, 56

1440010, EMPTY, EMPTY, 12:23:24, 8905000, 2473

10340010, INTERESTING, INTERESTING, 2:23:24, 20000, 5

1440010, EMPTY, EMPTY, 19:13:23:24, 8935000, 2481

10290010, EMPTY, EMPTY, 1:20:24, 85000, 23

10240010, INTERESTING, INTERESTING, 18:13:23:24, 150000, 41

10320010, INTERESTING, EMPTY, 0:20:24, 70000, 19

10370010, INTERESTING, INTERESTING, 18:13:23:24, 35000, 9

10360010, EMPTY, INTERESTING, 1:20:24, 45000, 12

10370010, EMPTY, EMPTY, 1:20:24, 50000, 13

10380010, INTERESTING, INTERESTING, 13:23:24, 40000, 11

10370010, EMPTY, EMPTY, 0:20:24, 65000, 18

10380010, INTERESTING, EMPTY, 14:13:23:24, 55000, 15

10390010, INTERESTING, INTERESTING, 16:13:23:24, 60000, 16

10300010, EMPTY, EMPTY, 3:20:24, 150000, 41

10380010, EMPTY, EMPTY, 3:20:24, 85000, 23

10400010, INTERESTING, INTERESTING, 14:13:23:24, 65000, 18

1460010, EMPTY, EMPTY, 12:23:24, 9020000, 2505

10380010, EMPTY, EMPTY, 0:20:24, 100000, 27

10440010, EMPTY, EMPTY, 0:20:24, 55000, 15

10370010, INTERESTING, INTERESTING, 5:13:23:24, 125000, 34

10390010, INTERESTING, EMPTY, 18:13:23:24, 120000, 33

10170010, EMPTY, EMPTY, 6:20:24, 340000, 94

10420010, INTERESTING, INTERESTING, 4:23:24, 105000, 29

10380010, EMPTY, EMPTY, 1:20:24, 145000, 40

10480010, INTERESTING, INTERESTING, 13:23:24, 60000, 16

10480010, INTERESTING, EMPTY, 1:20:24, 60000, 16

10450010, EMPTY, EMPTY, 0:20:24, 105000, 29

10490010, INTERESTING, INTERESTING, 14:13:23:24, 65000, 18

10500010, INTERESTING, INTERESTING, 12:23:24, 70000, 19

10490010, EMPTY, EMPTY, 0:20:24, 80000, 22

10500010, EMPTY, EMPTY, 0:20:24, 85000, 23

10520010, INTERESTING, EMPTY, 12:23:24, 65000, 18

10430010, INTERESTING, INTERESTING, 17:13:23:24, 170000, 47

10520010, EMPTY, EMPTY, 1:20:24, 80000, 22

10530010, INTERESTING, INTERESTING, 14:13:23:24, 85000, 23

10450010, EMPTY, EMPTY, 6:20:24, 165000, 45

10580010, INTERESTING, INTERESTING, 17:13:23:24, 50000, 13

10390010, EMPTY, EMPTY, 3:20:24, 240000, 66

10510010, EMPTY, EMPTY, 0:20:24, 135000, 37

10580010, INTERESTING, INTERESTING, 16:13:23:24, 65000, 18

1400010, EMPTY, EMPTY, 8:23:24, 9260000, 2572

10570010, EMPTY, EMPTY, 3:20:24, 90000, 25

10540010, EMPTY, EMPTY, 6:20:24, 135000, 37

1150010, EMPTY, EMPTY, 18:13:23:24, 9525000, 2645

10620010, EMPTY, EMPTY, 6:20:24, 70000, 19

1390010, EMPTY, EMPTY, 17:13:23:24, 9300000, 2583

10680010, INTERESTING, INTERESTING, 0:20:24, 25000, 6

10690010, INTERESTING, INTERESTING, 2:23:24, 15000, 4

10600010, EMPTY, EMPTY, 0:20:24, 120000, 33

1470010, EMPTY, EMPTY, 12:23:24, 9250000, 2569

1420010, EMPTY, EMPTY, 11:13:23:24, 9315000, 2587

10640010, EMPTY, EMPTY, 6:20:24, 95000, 26

1420010, EMPTY, EMPTY, 7:13:23:24, 9330000, 2591

10530010, EMPTY, EMPTY, 1:20:24, 220000, 61

1430010, EMPTY, EMPTY, 16:13:23:24, 9335000, 2593

10650010, EMPTY, EMPTY, 6:20:24, 115000, 31

10640010, EMPTY, EMPTY, 0:20:24, 140000, 38

10760010, INTERESTING, INTERESTING, 19:13:23:24, 20000, 5

10680010, EMPTY, EMPTY, 1:20:24, 115000, 31

1490010, EMPTY, EMPTY, 12:23:24, 9305000, 2584

10780010, INTERESTING, INTERESTING, 18:13:23:24, 30000, 8

10750010, INTERESTING, INTERESTING, 5:13:23:24, 75000, 20

10730010, EMPTY, EMPTY, 1:20:24, 95000, 26

10790010, INTERESTING, INTERESTING, 18:13:23:24, 50000, 13

10620010, EMPTY, EMPTY, 3:20:24, 225000, 62

10820010, INTERESTING, INTERESTING, 2:23:24, 35000, 9

1420010, EMPTY, EMPTY, 10:23:24, 9450000, 2625

10720010, INTERESTING, EMPTY, 11:13:23:24, 165000, 45

10870010, INTERESTING, INTERESTING, 14:13:23:24, 30000, 8

1500010, EMPTY, EMPTY, 10:23:24, 9415000, 2615

10720010, EMPTY, EMPTY, 0:20:24, 195000, 54

10810010, EMPTY, EMPTY, 1:20:24, 120000, 33

1390010, EMPTY, EMPTY, 2:23:24, 9540000, 2650

10880010, INTERESTING, INTERESTING, 19:13:23:24, 65000, 18

10910010, EMPTY, EMPTY, 1:20:24, 35000, 9

10940010, INTERESTING, INTERESTING, 6:20:24, 20000, 5

10920010, INTERESTING, INTERESTING, 10:23:24, 40000, 11

10820010, INTERESTING, INTERESTING, 18:13:23:24, 155000, 43

10720010, EMPTY, EMPTY, 6:20:24, 255000, 70

10920010, EMPTY, EMPTY, 1:20:24, 70000, 19

10820010, INTERESTING, EMPTY, 15:13:23:24, 170000, 47

10920010, INTERESTING, INTERESTING, 19:13:23:24, 85000, 23

10930010, EMPTY, EMPTY, 1:20:24, 75000, 20

10980010, INTERESTING, EMPTY, 4:23:24, 40000, 11

10920010, EMPTY, EMPTY, 6:20:24, 100000, 27

10900010, EMPTY, EMPTY, 0:20:24, 135000, 37

11010010, INTERESTING, EMPTY, 13:23:24, 25000, 6

11020010, INTERESTING, INTERESTING, 5:13:23:24, 30000, 8

10940010, EMPTY, EMPTY, 1:20:24, 110000, 30

1500010, EMPTY, EMPTY, 12:23:24, 9565000, 2656

10830010, EMPTY, EMPTY, 3:20:24, 245000, 68

1500010, EMPTY, EMPTY, 13:23:24, 9580000, 2661

10960010, EMPTY, EMPTY, 6:20:24, 135000, 37

11070010, INTERESTING, INTERESTING, 2:23:24, 25000, 6

11020010, INTERESTING, EMPTY, 10:23:24, 90000, 25

11080010, INTERESTING, INTERESTING, 6:20:24, 35000, 9

1480010, EMPTY, EMPTY, 11:13:23:24, 9645000, 2679

11000010, EMPTY, EMPTY, 0:20:24, 130000, 36

1270010, EMPTY, EMPTY, 5:13:23:24, 9870000, 2741

11100010, EMPTY, INTERESTING, 0:20:24, 45000, 12

10960010, INTERESTING, INTERESTING, 18:13:23:24, 195000, 54

11060010, EMPTY, EMPTY, 3:20:24, 100000, 27

11120010, INTERESTING, INTERESTING, 13:23:24, 50000, 13

11030010, EMPTY, EMPTY, 1:20:24, 145000, 40

11140010, INTERESTING, INTERESTING, 8:23:24, 45000, 12

11110010, EMPTY, EMPTY, 0:20:24, 85000, 23

11180010, INTERESTING, EMPTY, 13:23:24, 20000, 5

11130010, EMPTY, EMPTY, 3:20:24, 80000, 22

11180010, INTERESTING, INTERESTING, 5:13:23:24, 35000, 9

11180010, EMPTY, EMPTY, 0:20:24, 45000, 12

11190010, INTERESTING, INTERESTING, 8:23:24, 40000, 11

11190010, INTERESTING, INTERESTING, 9:23:24, 55000, 15

11100010, EMPTY, EMPTY, 6:20:24, 155000, 43

1460010, EMPTY, EMPTY, 18:13:23:24, 9800000, 2722

1380010, EMPTY, EMPTY, 4:23:24, 9895000, 2748

11260010, INTERESTING, EMPTY, 1:20:24, 15000, 4

1510010, EMPTY, EMPTY, 11:13:23:24, 9780000, 2716

1480010, EMPTY, EMPTY, 7:13:23:24, 9825000, 2729

1510010, EMPTY, EMPTY, 12:23:24, 9810000, 2725

11230010, INTERESTING, EMPTY, 2:23:24, 105000, 29

11330010, INTERESTING, INTERESTING, 16:13:23:24, 20000, 5

11240010, INTERESTING, INTERESTING, 6:20:24, 115000, 31

11320010, INTERESTING, INTERESTING, 14:13:23:24, 45000, 12

11180010, EMPTY, EMPTY, 3:20:24, 190000, 52

11350010, INTERESTING, INTERESTING, 18:13:23:24, 30000, 8

11340010, EMPTY, EMPTY, 3:20:24, 45000, 12

1390010, EMPTY, EMPTY, 15:13:23:24, 10005000, 2779

11390010, INTERESTING, INTERESTING, 0:20:24, 15000, 4

11390010, INTERESTING, INTERESTING, 15:13:23:24, 20000, 5

11350010, INTERESTING, EMPTY, 17:13:23:24, 75000, 20

11150010, EMPTY, EMPTY, 1:20:24, 285000, 79

11390010, INTERESTING, INTERESTING, 16:13:23:24, 50000, 13

11200010, EMPTY, EMPTY, 0:20:24, 250000, 69

11410010, INTERESTING, INTERESTING, 12:23:24, 45000, 12

11370010, EMPTY, EMPTY, 3:20:24, 95000, 26

11420010, INTERESTING, INTERESTING, 9:23:24, 50000, 13

11410010, INTERESTING, INTERESTING, 17:13:23:24, 75000, 20

11430010, INTERESTING, EMPTY, 10:23:24, 70000, 19

11420010, EMPTY, EMPTY, 1:20:24, 95000, 26

11440010, INTERESTING, INTERESTING, 8:23:24, 75000, 20

11460010, INTERESTING, INTERESTING, 19:13:23:24, 70000, 19

11500010, EMPTY, EMPTY, 1:20:24, 35000, 9

11470010, INTERESTING, INTERESTING, 13:23:24, 75000, 20

11480010, INTERESTING, INTERESTING, 18:13:23:24, 80000, 22

11550010, INTERESTING, INTERESTING, 6:20:24, 15000, 4

11500010, INTERESTING, INTERESTING, 10:23:24, 75000, 20

11440010, EMPTY, EMPTY, 3:20:24, 140000, 38

11500010, INTERESTING, INTERESTING, 11:13:23:24, 90000, 25

11560010, EMPTY, EMPTY, 3:20:24, 35000, 9

11560010, INTERESTING, INTERESTING, 19:13:23:24, 45000, 12

11340010, EMPTY, EMPTY, 6:20:24, 270000, 75

11580010, INTERESTING, INTERESTING, 16:13:23:24, 40000, 11

11520010, EMPTY, EMPTY, 1:20:24, 105000, 29

11570010, INTERESTING, INTERESTING, 8:23:24, 65000, 18

1550010, EMPTY, EMPTY, 12:23:24, 10100000, 2805

1510010, EMPTY, EMPTY, 2:23:24, 10155000, 2820

11660010, INTERESTING, INTERESTING, 2:23:24, 20000, 5

11570010, EMPTY, INTERESTING, 3:20:24, 115000, 31

11550010, INTERESTING, INTERESTING, 11:13:23:24, 145000, 40

11650010, INTERESTING, INTERESTING, 12:23:24, 60000, 16

1490010, EMPTY, EMPTY, 16:13:23:24, 10235000, 2843

1540010, EMPTY, EMPTY, 17:13:23:24, 10200000, 2833

11620010, INTERESTING, EMPTY, 8:23:24, 135000, 37

11670010, EMPTY, EMPTY, 3:20:24, 95000, 26

11730010, INTERESTING, INTERESTING, 4:23:24, 40000, 11

11750010, INTERESTING, INTERESTING, 12:23:24, 35000, 9

11420010, INTERESTING, INTERESTING, 0:20:24, 375000, 104

11720010, INTERESTING, INTERESTING, 17:13:23:24, 80000, 22

11590010, EMPTY, EMPTY, 6:20:24, 220000, 61

11640010, INTERESTING, INTERESTING, 18:13:23:24, 175000, 48

11750010, EMPTY, EMPTY, 3:20:24, 75000, 20

11770010, INTERESTING, INTERESTING, 9:23:24, 60000, 16

11810010, INTERESTING, INTERESTING, 9:23:24, 35000, 9

1540010, EMPTY, EMPTY, 15:13:23:24, 10320000, 2866

11800010, EMPTY, EMPTY, 3:20:24, 65000, 18

11850010, INTERESTING, INTERESTING, 8:23:24, 25000, 6

11860010, INTERESTING, INTERESTING, 5:13:23:24, 30000, 8

11890010, INTERESTING, INTERESTING, 2:23:24, 15000, 4

11780010, EMPTY, EMPTY, 6:20:24, 125000, 34

11730010, INTERESTING, INTERESTING, 14:13:23:24, 190000, 52

11850010, EMPTY, EMPTY, 3:20:24, 70000, 19

11910010, INTERESTING, INTERESTING, 8:23:24, 25000, 6

11900010, EMPTY, EMPTY, 3:20:24, 45000, 12

1580010, EMPTY, EMPTY, 12:23:24, 10370000, 2880

1530010, EMPTY, EMPTY, 18:13:23:24, 10435000, 2898

1590010, EMPTY, EMPTY, 17:13:23:24, 10390000, 2886

1600010, EMPTY, EMPTY, 12:23:24, 10395000, 2887

11600010, EMPTY, EMPTY, 1:20:24, 405000, 112

11990010, INTERESTING, EMPTY, 8:23:24, 20000, 5

11880010, INTERESTING, INTERESTING, 4:23:24, 145000, 40

12020010, INTERESTING, EMPTY, 0:20:24, 15000, 4

11990010, INTERESTING, INTERESTING, 19:13:23:24, 50000, 13

12030010, INTERESTING, INTERESTING, 0:20:24, 20000, 5

12030010, INTERESTING, INTERESTING, 13:23:24, 25000, 6

11990010, EMPTY, EMPTY, 1:20:24, 75000, 20

12040010, INTERESTING, INTERESTING, 12:23:24, 30000, 8

12060010, INTERESTING, EMPTY, 6:20:24, 20000, 5

12070010, INTERESTING, INTERESTING, 11:13:23:24, 15000, 4

12020010, EMPTY, EMPTY, 1:20:24, 75000, 20

1520010, EMPTY, EMPTY, 5:13:23:24, 10580000, 2938

11890010, EMPTY, EMPTY, 6:20:24, 220000, 61

1600010, EMPTY, EMPTY, 17:13:23:24, 10515000, 2920

11930010, EMPTY, INTERESTING, 3:20:24, 195000, 54

12110010, INTERESTING, INTERESTING, 9:23:24, 20000, 5

12040010, EMPTY, EMPTY, 6:20:24, 100000, 27

12110010, INTERESTING, INTERESTING, 16:13:23:24, 35000, 9

12070010, EMPTY, INTERESTING, 6:20:24, 85000, 23

12130010, INTERESTING, INTERESTING, 19:13:23:24, 30000, 8

11780010, EMPTY, INTERESTING, 0:20:24, 390000, 108

12160010, INTERESTING, INTERESTING, 17:13:23:24, 15000, 4

12160010, INTERESTING, INTERESTING, 1:20:24, 25000, 6

12150010, INTERESTING, EMPTY, 5:13:23:24, 40000, 11

1480010, EMPTY, EMPTY, 8:23:24, 10725000, 2979

12080010, EMPTY, EMPTY, 6:20:24, 135000, 37

1460010, EMPTY, EMPTY, 14:13:23:24, 10760000, 2988

12030010, EMPTY, EMPTY, 1:20:24, 200000, 55

12210010, INTERESTING, INTERESTING, 9:23:24, 25000, 6

12200010, EMPTY, INTERESTING, 6:20:24, 45000, 12

12210010, INTERESTING, INTERESTING, 18:13:23:24, 40000, 11

12210010, EMPTY, EMPTY, 6:20:24, 50000, 13

1510010, EMPTY, EMPTY, 10:23:24, 10755000, 2987

12150010, EMPTY, EMPTY, 0:20:24, 125000, 34

1540010, EMPTY, INTERESTING, 7:13:23:24, 10740000, 2983

12040010, EMPTY, EMPTY, 3:20:24, 250000, 69

12180010, INTERESTING, INTERESTING, 7:13:23:24, 115000, 31

12260010, EMPTY, EMPTY, 3:20:24, 45000, 12

12250010, INTERESTING, INTERESTING, 16:13:23:24, 60000, 16

12260010, EMPTY, EMPTY, 0:20:24, 60000, 16

12280010, INTERESTING, INTERESTING, 7:13:23:24, 45000, 12

12310010, INTERESTING, INTERESTING, 0:20:24, 25000, 6

12300010, INTERESTING, EMPTY, 19:13:23:24, 40000, 11

12210010, EMPTY, EMPTY, 1:20:24, 140000, 38

1560010, EMPTY, EMPTY, 16:13:23:24, 10795000, 2998

12300010, EMPTY, EMPTY, 1:20:24, 65000, 18

1590010, EMPTY, EMPTY, 15:13:23:24, 10780000, 2994

12310010, EMPTY, EMPTY, 1:20:24, 70000, 19

1450010, EMPTY, EMPTY, 19:13:23:24, 10935000, 3037

12380010, INTERESTING, INTERESTING, 1:20:24, 15000, 4

12350010, INTERESTING, INTERESTING, 12:23:24, 50000, 13

12320010, EMPTY, EMPTY, 1:20:24, 90000, 25

1670010, EMPTY, EMPTY, 13:23:24, 10745000, 2984

12230010, EMPTY, EMPTY, 6:20:24, 195000, 54

1660010, EMPTY, EMPTY, 15:13:23:24, 10770000, 2991

12330010, EMPTY, EMPTY, 1:20:24, 110000, 30

12270010, INTERESTING, INTERESTING, 4:23:24, 175000, 48

12270010, EMPTY, EMPTY, 3:20:24, 185000, 51

1530010, EMPTY, EMPTY, 11:13:23:24, 10930000, 3036

12360010, EMPTY, EMPTY, 1:20:24, 110000, 30

12450010, INTERESTING, INTERESTING, 12:23:24, 25000, 6

12290010, EMPTY, EMPTY, 0:20:24, 195000, 54

12460010, INTERESTING, EMPTY, 17:13:23:24, 30000, 8

12420010, EMPTY, EMPTY, 3:20:24, 80000, 22

12480010, INTERESTING, INTERESTING, 9:23:24, 25000, 6

12330010, EMPTY, EMPTY, 6:20:24, 185000, 51

1670010, EMPTY, EMPTY, 15:13:23:24, 10850000, 3013

12500010, EMPTY, EMPTY, 6:20:24, 30000, 8

1590010, EMPTY, EMPTY, 2:23:24, 10945000, 3040

12440010, EMPTY, EMPTY, 0:20:24, 105000, 29

1660010, EMPTY, EMPTY, 19:13:23:24, 10890000, 3025

12470010, EMPTY, INTERESTING, 3:20:24, 95000, 26

12550010, INTERESTING, INTERESTING, 7:13:23:24, 15000, 4

1660010, EMPTY, EMPTY, 16:13:23:24, 10920000, 3033

12330010, INTERESTING, INTERESTING, 19:13:23:24, 265000, 73

12570010, INTERESTING, INTERESTING, 18:13:23:24, 40000, 11

12590010, INTERESTING, INTERESTING, 10:23:24, 35000, 9

12610010, INTERESTING, INTERESTING, 6:20:24, 15000, 4

12510010, EMPTY, EMPTY, 6:20:24, 130000, 36

12590010, INTERESTING, INTERESTING, 18:13:23:24, 50000, 13

12510010, EMPTY, EMPTY, 0:20:24, 145000, 40

12610010, INTERESTING, INTERESTING, 4:23:24, 45000, 12

12610010, INTERESTING, INTERESTING, 15:13:23:24, 60000, 16

12550010, EMPTY, EMPTY, 3:20:24, 125000, 34

12640010, INTERESTING, INTERESTING, 11:13:23:24, 45000, 12

12660010, EMPTY, EMPTY, 3:20:24, 30000, 8

12670010, INTERESTING, INTERESTING, 18:13:23:24, 30000, 8

12640010, EMPTY, INTERESTING, 0:20:24, 65000, 18

12530010, INTERESTING, INTERESTING, 17:13:23:24, 185000, 51

12690010, EMPTY, EMPTY, 0:20:24, 30000, 8

12680010, INTERESTING, INTERESTING, 10:23:24, 50000, 13

12670010, EMPTY, EMPTY, 3:20:24, 65000, 18

12700010, INTERESTING, INTERESTING, 17:13:23:24, 45000, 12

12620010, EMPTY, EMPTY, 6:20:24, 130000, 36

12720010, INTERESTING, INTERESTING, 9:23:24, 40000, 11

12700010, EMPTY, EMPTY, 0:20:24, 65000, 18

12730010, INTERESTING, INTERESTING, 19:13:23:24, 45000, 12

12710010, EMPTY, EMPTY, 3:20:24, 70000, 19

12680010, INTERESTING, INTERESTING, 18:13:23:24, 110000, 30

12440010, EMPTY, EMPTY, 1:20:24, 355000, 98

12730010, INTERESTING, INTERESTING, 16:13:23:24, 75000, 20

12760010, EMPTY, EMPTY, 3:20:24, 50000, 13

12740010, INTERESTING, INTERESTING, 9:23:24, 80000, 22

12800010, INTERESTING, INTERESTING, 1:20:24, 25000, 6

12740010, INTERESTING, INTERESTING, 15:13:23:24, 95000, 26

12720010, EMPTY, EMPTY, 6:20:24, 125000, 34

1700010, EMPTY, EMPTY, 15:13:23:24, 11150000, 3097

1630010, EMPTY, EMPTY, 8:23:24, 11235000, 3120

12790010, EMPTY, EMPTY, 3:20:24, 75000, 20

12760010, EMPTY, EMPTY, 1:20:24, 120000, 33

1700010, EMPTY, EMPTY, 19:13:23:24, 11180000, 3105

12830010, INTERESTING, INTERESTING, 6:20:24, 65000, 18

1620010, EMPTY, EMPTY, 14:13:23:24, 11275000, 3131

1600010, EMPTY, EMPTY, 5:13:23:24, 11310000, 3141

12850010, EMPTY, EMPTY, 1:20:24, 60000, 16

12870010, INTERESTING, EMPTY, 0:20:24, 55000, 15

1590010, EMPTY, EMPTY, 18:13:23:24, 11335000, 3148

12910010, INTERESTING, INTERESTING, 12:23:24, 30000, 8

12750010, EMPTY, INTERESTING, 0:20:24, 190000, 52

12870010, EMPTY, EMPTY, 1:20:24, 85000, 23

12860010, INTERESTING, INTERESTING, 14:13:23:24, 95000, 26

12930010, INTERESTING, INTERESTING, 8:23:24, 40000, 11

12950010, INTERESTING, INTERESTING, 6:20:24, 20000, 5

12850010, EMPTY, EMPTY, 3:20:24, 135000, 37

1730010, EMPTY, EMPTY, 8:23:24, 11255000, 3126

1730010, EMPTY, EMPTY, 5:13:23:24, 11270000, 3130

12880010, EMPTY, EMPTY, 1:20:24, 120000, 33

1710010, EMPTY, EMPTY, 15:13:23:24, 11305000, 3140

13000010, INTERESTING, INTERESTING, 6:20:24, 15000, 4

12880010, EMPTY, EMPTY, 3:20:24, 150000, 41

1610010, EMPTY, EMPTY, 12:23:24, 11420000, 3172

12980010, INTERESTING, EMPTY, 3:20:24, 65000, 18

13020010, INTERESTING, INTERESTING, 12:23:24, 25000, 6

13020010, INTERESTING, INTERESTING, 15:13:23:24, 40000, 11

13030010, INTERESTING, INTERESTING, 6:20:24, 30000, 8

13030010, INTERESTING, INTERESTING, 11:13:23:24, 45000, 12

12890010, EMPTY, EMPTY, 1:20:24, 185000, 51

13040010, INTERESTING, INTERESTING, 4:23:24, 50000, 13

12880010, EMPTY, EMPTY, 6:20:24, 210000, 58

1740010, EMPTY, EMPTY, 5:13:23:24, 11365000, 3156

12920010, EMPTY, EMPTY, 3:20:24, 185000, 51

12930010, EMPTY, EMPTY, 1:20:24, 190000, 52

1710010, EMPTY, EMPTY, 19:13:23:24, 11410000, 3169

13000010, EMPTY, EMPTY, 1:20:24, 135000, 37

13080010, INTERESTING, INTERESTING, 18:13:23:24, 55000, 15

13110010, INTERESTING, INTERESTING, 18:13:23:24, 40000, 11

13130010, INTERESTING, INTERESTING, 3:20:24, 20000, 5

1680010, EMPTY, EMPTY, 11:13:23:24, 11485000, 3190

12910010, EMPTY, EMPTY, 0:20:24, 255000, 70

13160010, INTERESTING, INTERESTING, 15:13:23:24, 20000, 5

12970010, EMPTY, EMPTY, 6:20:24, 210000, 58

13030010, EMPTY, EMPTY, 3:20:24, 165000, 45

13180010, INTERESTING, INTERESTING, 8:23:24, 15000, 4

13180010, INTERESTING, EMPTY, 18:13:23:24, 30000, 8

13090010, EMPTY, EMPTY, 3:20:24, 120000, 33

13030010, INTERESTING, INTERESTING, 7:13:23:24, 195000, 54

13060010, EMPTY, EMPTY, 0:20:24, 165000, 45

13140010, EMPTY, EMPTY, 0:20:24, 100000, 27

13210010, INTERESTING, INTERESTING, 2:23:24, 30000, 8

13060010, EMPTY, EMPTY, 1:20:24, 195000, 54

1720010, EMPTY, EMPTY, 10:23:24, 11535000, 3204

13180010, EMPTY, EMPTY, 1:20:24, 90000, 25

1710010, EMPTY, EMPTY, 16:13:23:24, 11560000, 3211

1790010, EMPTY, EMPTY, 5:13:23:24, 11495000, 3193

13080010, EMPTY, EMPTY, 6:20:24, 205000, 56

1820010, EMPTY, EMPTY, 4:23:24, 11480000, 3188

13180010, EMPTY, EMPTY, 0:20:24, 120000, 33

13220010, EMPTY, EMPTY, 1:20:24, 95000, 26

13290010, INTERESTING, INTERESTING, 12:23:24, 25000, 6

13290010, INTERESTING, INTERESTING, 15:13:23:24, 40000, 11

13250010, INTERESTING, INTERESTING, 6:20:24, 80000, 22

13310010, INTERESTING, INTERESTING, 2:23:24, 35000, 9

13260010, INTERESTING, INTERESTING, 1:20:24, 85000, 23

13310010, INTERESTING, INTERESTING, 1:20:24, 50000, 13

13310010, INTERESTING, INTERESTING, 8:23:24, 50000, 13

13360010, INTERESTING, INTERESTING, 1:20:24, 15000, 4

13330010, INTERESTING, INTERESTING, 2:23:24, 45000, 12

13330010, INTERESTING, INTERESTING, 17:13:23:24, 60000, 16

13370010, INTERESTING, EMPTY, 3:20:24, 20000, 5

13390010, INTERESTING, INTERESTING, 2:23:24, 15000, 4

13250010, EMPTY, EMPTY, 0:20:24, 155000, 43

1760010, EMPTY, EMPTY, 8:23:24, 11660000, 3238

13140010, EMPTY, EMPTY, 3:20:24, 280000, 77

13410010, INTERESTING, INTERESTING, 9:23:24, 25000, 6

13280010, EMPTY, EMPTY, 0:20:24, 155000, 43

13340010, INTERESTING, INTERESTING, 15:13:23:24, 110000, 30

13310010, EMPTY, EMPTY, 6:20:24, 140000, 38

13450010, INTERESTING, INTERESTING, 11:13:23:24, 15000, 4

13320010, EMPTY, EMPTY, 6:20:24, 145000, 40

13300010, EMPTY, EMPTY, 0:20:24, 180000, 50

1800010, EMPTY, EMPTY, 11:13:23:24, 11680000, 3244

13330010, EMPTY, EMPTY, 6:20:24, 165000, 45

1620010, EMPTY, EMPTY, 17:13:23:24, 11875000, 3298

1820010, EMPTY, EMPTY, 10:23:24, 11690000, 3247

13280010, EMPTY, EMPTY, 3:20:24, 230000, 63

1800010, EMPTY, EMPTY, 19:13:23:24, 11725000, 3256

13360010, EMPTY, EMPTY, 0:20:24, 165000, 45

13520010, INTERESTING, INTERESTING, 3:20:24, 20000, 5

13520010, INTERESTING, INTERESTING, 2:23:24, 20000, 5

13420010, EMPTY, EMPTY, 3:20:24, 135000, 37

1840010, EMPTY, EMPTY, 4:23:24, 11715000, 3254

13380010, EMPTY, EMPTY, 6:20:24, 190000, 52

13550010, INTERESTING, INTERESTING, 19:13:23:24, 20000, 5

13340010, EMPTY, EMPTY, 1:20:24, 245000, 68

13560010, INTERESTING, INTERESTING, 9:23:24, 25000, 6

13450010, EMPTY, EMPTY, 0:20:24, 150000, 41

1850010, EMPTY, EMPTY, 10:23:24, 11750000, 3263

1800010, EMPTY, EMPTY, 12:23:24, 11815000, 3281

13460010, EMPTY, EMPTY, 3:20:24, 155000, 43

13500010, EMPTY, EMPTY, 3:20:24, 130000, 36

1840010, EMPTY, INTERESTING, 8:23:24, 11790000, 3275

1820010, EMPTY, EMPTY, 5:13:23:24, 11825000, 3284

13490010, EMPTY, EMPTY, 6:20:24, 155000, 43

13490010, EMPTY, EMPTY, 1:20:24, 170000, 47

13640010, INTERESTING, INTERESTING, 8:23:24, 20000, 5

13650010, INTERESTING, INTERESTING, 3:20:24, 25000, 6

13650010, INTERESTING, INTERESTING, 13:23:24, 25000, 6

13510010, EMPTY, EMPTY, 3:20:24, 180000, 50

13660010, INTERESTING, INTERESTING, 7:13:23:24, 30000, 8

1870010, EMPTY, EMPTY, 13:23:24, 11835000, 3287

13500010, EMPTY, EMPTY, 0:20:24, 205000, 56

13530010, INTERESTING, INTERESTING, 2:23:24, 190000, 52

13570010, EMPTY, EMPTY, 1:20:24, 150000, 41

13600010, EMPTY, EMPTY, 3:20:24, 135000, 37

13580010, INTERESTING, INTERESTING, 12:23:24, 155000, 43

13520010, EMPTY, EMPTY, 6:20:24, 230000, 63

13640010, INTERESTING, INTERESTING, 19:13:23:24, 110000, 30

13700010, INTERESTING, INTERESTING, 2:23:24, 65000, 18

13600010, EMPTY, EMPTY, 0:20:24, 165000, 45

13710010, INTERESTING, INTERESTING, 10:23:24, 70000, 19

13630010, EMPTY, EMPTY, 6:20:24, 150000, 41

13670010, EMPTY, EMPTY, 6:20:24, 125000, 34

13680010, INTERESTING, INTERESTING, 15:13:23:24, 115000, 31

13710010, INTERESTING, INTERESTING, 2:23:24, 100000, 27

13790010, INTERESTING, INTERESTING, 3:20:24, 20000, 5

13650010, EMPTY, EMPTY, 0:20:24, 175000, 48

13720010, INTERESTING, INTERESTING, 2:23:24, 105000, 29

13770010, EMPTY, EMPTY, 6:20:24, 70000, 19

13740010, INTERESTING, INTERESTING, 11:13:23:24, 100000, 27

13750010, INTERESTING, INTERESTING, 10:23:24, 105000, 29

13600010, EMPTY, EMPTY, 1:20:24, 255000, 70

13800010, INTERESTING, INTERESTING, 13:23:24, 70000, 19

13770010, EMPTY, EMPTY, 0:20:24, 100000, 27

13840010, INTERESTING, INTERESTING, 17:13:23:24, 45000, 12

13800010, EMPTY, EMPTY, 0:20:24, 85000, 23

13610010, EMPTY, EMPTY, 3:20:24, 290000, 80

13880010, INTERESTING, INTERESTING, 11:13:23:24, 20000, 5

13790010, EMPTY, EMPTY, 1:20:24, 125000, 34

1860010, EMPTY, EMPTY, 4:23:24, 12055000, 3348

1860010, EMPTY, EMPTY, 12:23:24, 12070000, 3352

13860010, EMPTY, EMPTY, 1:20:24, 70000, 19

13920010, INTERESTING, INTERESTING, 8:23:24, 25000, 6

13780010, EMPTY, EMPTY, 6:20:24, 165000, 45

1840010, EMPTY, EMPTY, 17:13:23:24, 12120000, 3366

13870010, EMPTY, EMPTY, 1:20:24, 90000, 25

1730010, EMPTY, EMPTY, 14:13:23:24, 12245000, 3401

13910010, EMPTY, EMPTY, 1:20:24, 65000, 18

1860010, EMPTY, EMPTY, 10:23:24, 12130000, 3369

13820010, EMPTY, EMPTY, 0:20:24, 175000, 48

1500010, EMPTY, INTERESTING, 9:23:24, 12505000, 3473

14000010, INTERESTING, INTERESTING, 6:20:24, 15000, 4

14000010, INTERESTING, INTERESTING, 2:23:24, 20000, 5

13960010, EMPTY, EMPTY, 1:20:24, 70000, 19

13990010, INTERESTING, INTERESTING, 9:23:24, 45000, 12

14000010, EMPTY, INTERESTING, 1:20:24, 45000, 12

14020010, INTERESTING, EMPTY, 8:23:24, 30000, 8

13890010, EMPTY, EMPTY, 6:20:24, 170000, 47

13980010, INTERESTING, EMPTY, 11:13:23:24, 85000, 23

14010010, INTERESTING, INTERESTING, 6:20:24, 65000, 18

1890010, EMPTY, EMPTY, 13:23:24, 12190000, 3386

14010010, EMPTY, EMPTY, 1:20:24, 80000, 22

1870010, EMPTY, EMPTY, 17:13:23:24, 12225000, 3395

14020010, INTERESTING, INTERESTING, 1:20:24, 85000, 23

14090010, INTERESTING, INTERESTING, 8:23:24, 20000, 5

13980010, EMPTY, EMPTY, 0:20:24, 140000, 38

14110010, INTERESTING, INTERESTING, 4:23:24, 15000, 4

13840010, EMPTY, EMPTY, 3:20:24, 295000, 81

14080010, INTERESTING, INTERESTING, 7:13:23:24, 60000, 16

14050010, EMPTY, INTERESTING, 6:20:24, 100000, 27

1840010, EMPTY, EMPTY, 19:13:23:24, 12315000, 3420

14030010, EMPTY, EMPTY, 0:20:24, 135000, 37

1880010, EMPTY, EMPTY, 4:23:24, 12290000, 3413

14080010, EMPTY, EMPTY, 0:20:24, 100000, 27

14120010, INTERESTING, INTERESTING, 15:13:23:24, 65000, 18

14060010, EMPTY, EMPTY, 6:20:24, 135000, 37

1790010, EMPTY, EMPTY, 15:13:23:24, 12410000, 3447

14190010, INTERESTING, INTERESTING, 6:20:24, 20000, 5

14160010, INTERESTING, INTERESTING, 15:13:23:24, 55000, 15

14200010, INTERESTING, INTERESTING, 3:20:24, 25000, 6

14210010, INTERESTING, INTERESTING, 5:13:23:24, 20000, 5

14090010, EMPTY, EMPTY, 1:20:24, 150000, 41

14230010, INTERESTING, INTERESTING, 9:23:24, 15000, 4

14230010, INTERESTING, INTERESTING, 1:20:24, 25000, 6

1830010, EMPTY, EMPTY, 11:13:23:24, 12430000, 3452

14170010, EMPTY, INTERESTING, 6:20:24, 100000, 27

14250010, INTERESTING, EMPTY, 18:13:23:24, 25000, 6

14250010, INTERESTING, INTERESTING, 17:13:23:24, 40000, 11

14200010, EMPTY, EMPTY, 6:20:24, 95000, 26

14260010, INTERESTING, INTERESTING, 5:13:23:24, 45000, 12

14120010, EMPTY, EMPTY, 0:20:24, 195000, 54

14260010, INTERESTING, INTERESTING, 9:23:24, 60000, 16

14280010, EMPTY, EMPTY, 6:20:24, 50000, 13

1910010, EMPTY, EMPTY, 13:23:24, 12425000, 3451

1640010, EMPTY, EMPTY, 7:13:23:24, 12710000, 3530

14300010, INTERESTING, INTERESTING, 0:20:24, 65000, 18

14290010, INTERESTING, INTERESTING, 11:13:23:24, 75000, 20

14320010, INTERESTING, INTERESTING, 19:13:23:24, 60000, 16

14310010, EMPTY, EMPTY, 6:20:24, 70000, 19

14360010, INTERESTING, INTERESTING, 8:23:24, 35000, 9

14040010, EMPTY, EMPTY, 3:20:24, 355000, 98

14390010, INTERESTING, INTERESTING, 0:20:24, 20000, 5

14370010, INTERESTING, INTERESTING, 16:13:23:24, 40000, 11

14350010, EMPTY, EMPTY, 0:20:24, 75000, 20

14380010, INTERESTING, INTERESTING, 10:23:24, 45000, 12

1710010, EMPTY, EMPTY, 2:23:24, 12730000, 3536

14190010, EMPTY, EMPTY, 1:20:24, 250000, 69

14350010, EMPTY, EMPTY, 6:20:24, 105000, 29

1910010, EMPTY, EMPTY, 4:23:24, 12545000, 3484

1880010, EMPTY, EMPTY, 12:23:24, 12590000, 3497

14360010, EMPTY, INTERESTING, 0:20:24, 115000, 31

14470010, INTERESTING, INTERESTING, 14:13:23:24, 15000, 4

14470010, INTERESTING, INTERESTING, 1:20:24, 20000, 5

1900010, EMPTY, EMPTY, 11:13:23:24, 12600000, 3500

14440010, INTERESTING, INTERESTING, 19:13:23:24, 75000, 20

1880010, EMPTY, EMPTY, 14:13:23:24, 12650000, 3513

14480010, INTERESTING, INTERESTING, 16:13:23:24, 65000, 18

14520010, INTERESTING, INTERESTING, 19:13:23:24, 40000, 11

14400010, EMPTY, EMPTY, 1:20:24, 165000, 45

14540010, INTERESTING, INTERESTING, 4:23:24, 35000, 9

14460010, EMPTY, EMPTY, 0:20:24, 120000, 33

14560010, INTERESTING, INTERESTING, 14:13:23:24, 30000, 8

14550010, EMPTY, EMPTY, 0:20:24, 45000, 12

14570010, INTERESTING, INTERESTING, 14:13:23:24, 35000, 9

14360010, EMPTY, EMPTY, 3:20:24, 250000, 69

14590010, INTERESTING, INTERESTING, 19:13:23:24, 30000, 8

14570010, INTERESTING, EMPTY, 3:20:24, 55000, 15

14620010, INTERESTING, INTERESTING, 11:13:23:24, 15000, 4

14550010, EMPTY, EMPTY, 1:20:24, 90000, 25

1860010, EMPTY, EMPTY, 8:23:24, 12790000, 3552

14600010, EMPTY, EMPTY, 3:20:24, 55000, 15

14650010, INTERESTING, INTERESTING, 15:13:23:24, 15000, 4

14620010, EMPTY, EMPTY, 3:20:24, 50000, 13

1940010, EMPTY, EMPTY, 4:23:24, 12740000, 3538

14560010, EMPTY, EMPTY, 0:20:24, 125000, 34

14560010, INTERESTING, INTERESTING, 17:13:23:24, 135000, 37

14430010, EMPTY, EMPTY, 6:20:24, 270000, 75

14670010, INTERESTING, EMPTY, 16:13:23:24, 40000, 11

14650010, EMPTY, INTERESTING, 3:20:24, 65000, 18

14490010, INTERESTING, INTERESTING, 18:13:23:24, 235000, 65

14660010, EMPTY, EMPTY, 0:20:24, 70000, 19

14690010, INTERESTING, INTERESTING, 8:23:24, 50000, 13

14580010, EMPTY, EMPTY, 1:20:24, 165000, 45

1900010, EMPTY, EMPTY, 19:13:23:24, 12855000, 3570

14680010, EMPTY, EMPTY, 0:20:24, 80000, 22

14740010, INTERESTING, EMPTY, 19:13:23:24, 30000, 8

14680010, EMPTY, EMPTY, 1:20:24, 95000, 26

14610010, INTERESTING, INTERESTING, 7:13:23:24, 175000, 48

14670010, EMPTY, EMPTY, 3:20:24, 120000, 33

14750010, INTERESTING, EMPTY, 12:23:24, 50000, 13

14710010, EMPTY, EMPTY, 3:20:24, 95000, 26

14750010, INTERESTING, INTERESTING, 13:23:24, 65000, 18

14760010, EMPTY, EMPTY, 3:20:24, 60000, 16

14740010, INTERESTING, EMPTY, 8:23:24, 90000, 25

14660010, INTERESTING, INTERESTING, 6:20:24, 175000, 48

14750010, INTERESTING, EMPTY, 5:13:23:24, 95000, 26

14690010, EMPTY, EMPTY, 1:20:24, 165000, 45

14750010, INTERESTING, INTERESTING, 2:23:24, 110000, 30

14760010, INTERESTING, INTERESTING, 10:23:24, 115000, 31

14790010, INTERESTING, INTERESTING, 7:13:23:24, 100000, 27

14810010, INTERESTING, INTERESTING, 6:20:24, 85000, 23

14800010, INTERESTING, INTERESTING, 14:13:23:24, 105000, 29

14840010, INTERESTING, INTERESTING, 1:20:24, 75000, 20

14830010, INTERESTING, INTERESTING, 9:23:24, 90000, 25

14870010, INTERESTING, INTERESTING, 7:13:23:24, 65000, 18

14930010, INTERESTING, INTERESTING, 12:23:24, 20000, 5

1920010, EMPTY, EMPTY, 11:13:23:24, 13045000, 3623

1930010, EMPTY, EMPTY, 2:23:24, 13050000, 3625

14980010, INTERESTING, INTERESTING, 5:13:23:24, 15000, 4

1950010, EMPTY, EMPTY, 13:23:24, 13060000, 3627

14990010, INTERESTING, INTERESTING, 14:13:23:24, 35000, 9

14790010, EMPTY, EMPTY, 3:20:24, 245000, 68

1940010, EMPTY, EMPTY, 11:13:23:24, 13100000, 3638

15040010, INTERESTING, EMPTY, 8:23:24, 15000, 4

14690010, EMPTY, EMPTY, 0:20:24, 375000, 104

15040010, INTERESTING, INTERESTING, 13:23:24, 30000, 8

14880010, INTERESTING, INTERESTING, 6:20:24, 200000, 55

1960010, EMPTY, EMPTY, 13:23:24, 13125000, 3645

15060010, INTERESTING, EMPTY, 6:20:24, 35000, 9

14960010, INTERESTING, INTERESTING, 7:13:23:24, 140000, 38

15020010, EMPTY, EMPTY, 3:20:24, 90000, 25

15080010, INTERESTING, INTERESTING, 19:13:23:24, 35000, 9

15090010, EMPTY, EMPTY, 3:20:24, 35000, 9

15100010, INTERESTING, INTERESTING, 16:13:23:24, 30000, 8

14900010, EMPTY, EMPTY, 1:20:24, 240000, 66

15070010, INTERESTING, EMPTY, 8:23:24, 75000, 20

15120010, EMPTY, EMPTY, 1:20:24, 35000, 9

1950010, EMPTY, EMPTY, 11:13:23:24, 13210000, 3669

15150010, INTERESTING, INTERESTING, 0:20:24, 20000, 5

15160010, INTERESTING, INTERESTING, 16:13:23:24, 15000, 4

15140010, EMPTY, EMPTY, 1:20:24, 45000, 12

1850010, EMPTY, INTERESTING, 5:13:23:24, 13340000, 3705

15080010, EMPTY, EMPTY, 6:20:24, 120000, 33

15180010, INTERESTING, INTERESTING, 16:13:23:24, 25000, 6

15160010, EMPTY, EMPTY, 6:20:24, 55000, 15

1940010, EMPTY, EMPTY, 19:13:23:24, 13280000, 3688

15200010, EMPTY, EMPTY, 6:20:24, 30000, 8

15150010, INTERESTING, EMPTY, 2:23:24, 85000, 23

15210010, INTERESTING, INTERESTING, 9:23:24, 40000, 11

15050010, EMPTY, EMPTY, 0:20:24, 205000, 56

1900010, EMPTY, EMPTY, 9:23:24, 13365000, 3712

15100010, EMPTY, EMPTY, 3:20:24, 170000, 47

15260010, INTERESTING, EMPTY, 9:23:24, 20000, 5

1910010, EMPTY, INTERESTING, 7:13:23:24, 13385000, 3718

1980010, EMPTY, EMPTY, 13:23:24, 13330000, 3702

15300010, INTERESTING, INTERESTING, 7:13:23:24, 25000, 6

15240010, EMPTY, EMPTY, 3:20:24, 95000, 26

1880010, EMPTY, EMPTY, 18:13:23:24, 13460000, 3738

15330010, INTERESTING, INTERESTING, 16:13:23:24, 25000, 6

15310010, INTERESTING, INTERESTING, 7:13:23:24, 60000, 16

15150010, EMPTY, EMPTY, 1:20:24, 225000, 62

15360010, INTERESTING, INTERESTING, 10:23:24, 25000, 6

15240010, EMPTY, EMPTY, 0:20:24, 150000, 41

15300010, INTERESTING, INTERESTING, 4:23:24, 100000, 27

15370010, INTERESTING, INTERESTING, 0:20:24, 35000, 9

15350010, INTERESTING, INTERESTING, 7:13:23:24, 65000, 18

15400010, INTERESTING, INTERESTING, 1:20:24, 20000, 5

15400010, INTERESTING, INTERESTING, 4:23:24, 30000, 8

15360010, EMPTY, EMPTY, 0:20:24, 75000, 20

15430010, INTERESTING, INTERESTING, 2:23:24, 15000, 4

15360010, EMPTY, EMPTY, 1:20:24, 90000, 25

1900010, EMPTY, INTERESTING, 17:13:23:24, 13560000, 3766

15320010, EMPTY, EMPTY, 3:20:24, 145000, 40

1960010, EMPTY, EMPTY, 11:13:23:24, 13515000, 3754

15390010, EMPTY, INTERESTING, 0:20:24, 90000, 25

1940010, EMPTY, EMPTY, 14:13:23:24, 13550000, 3763

15420010, EMPTY, EMPTY, 0:20:24, 75000, 20

15480010, INTERESTING, INTERESTING, 17:13:23:24, 25000, 6

15440010, EMPTY, EMPTY, 0:20:24, 70000, 19

15320010, INTERESTING, INTERESTING, 18:13:23:24, 200000, 55

15390010, EMPTY, EMPTY, 3:20:24, 135000, 37

1960010, EMPTY, EMPTY, 5:13:23:24, 13575000, 3770

15470010, EMPTY, EMPTY, 3:20:24, 70000, 19

1940010, EMPTY, EMPTY, 12:23:24, 13610000, 3780

