DWC_ID, Processed Contents, Actual Contents, Route, Total_Trans_Time, Trans_Time_Hours 
10, , EMPTY, 6:21:24, 25000, 6

10, , EMPTY, 17:20:24, 25000, 6

10, , EMPTY, 11:20:24, 40000, 11

10010, , EMPTY, 17:20:24, 45000, 12

20010, , INTERESTING, 0:20:24, 50000, 13

10, , EMPTY, 5:6:21:24, 70000, 19

20010, , EMPTY, 11:20:24, 65000, 18

10, , EMPTY, 10:6:21:24, 90000, 25

40010, , EMPTY, 0:20:24, 60000, 16

10010, , EMPTY, 5:6:21:24, 95000, 26

40010, , EMPTY, 17:20:24, 75000, 20

50010, , EMPTY, 5:6:21:24, 70000, 19

70010, , INTERESTING, 12:20:24, 60000, 16

90010, , EMPTY, 6:21:24, 45000, 12

40010, , EMPTY, 11:20:24, 105000, 29

100010, , INTERESTING, 9:21:24, 50000, 13

30010, , EMPTY, 15:20:24, 130000, 36

90010, , EMPTY, 1:21:24, 75000, 20

20010, , EMPTY, 18:20:24, 155000, 43

70010, , EMPTY, 10:6:21:24, 110000, 30

70010, , EMPTY, 17:20:24, 120000, 33

60010, , INTERESTING, 3:21:24, 135000, 37

80010, , EMPTY, 4:20:24, 125000, 34

100010, , EMPTY, 6:21:24, 110000, 30

100010, , EMPTY, 12:20:24, 120000, 33

110010, , EMPTY, 9:21:24, 115000, 31

70010, , INTERESTING, 7:20:24, 165000, 45

110010, , INTERESTING, 6:21:24, 130000, 36

70010, , EMPTY, 16:20:24, 180000, 50

140010, , INTERESTING, 1:21:24, 115000, 31

110010, , EMPTY, 14:18:20:24, 155000, 43

150010, , EMPTY, 2:21:24, 120000, 33

110010, , INTERESTING, 17:20:24, 170000, 47

170010, , EMPTY, 3:21:24, 115000, 31

110010, , EMPTY, 19:20:24, 185000, 51

80010, , INTERESTING, 5:6:21:24, 220000, 61

120010, , EMPTY, 11:20:24, 190000, 52

190010, , EMPTY, 1:21:24, 125000, 34

130010, , EMPTY, 11:20:24, 195000, 54

210010, , EMPTY, 9:21:24, 120000, 33

140010, , EMPTY, 15:20:24, 200000, 55

220010, , EMPTY, 9:21:24, 125000, 34

70010, , EMPTY, 0:20:24, 285000, 79

220010, , EMPTY, 6:21:24, 140000, 38

150010, , EMPTY, 18:20:24, 220000, 61

230010, , EMPTY, 2:21:24, 145000, 40

150010, , EMPTY, 4:20:24, 235000, 65

230010, , EMPTY, 1:21:24, 160000, 44

160010, , EMPTY, 11:20:24, 240000, 66

270010, , EMPTY, 3:21:24, 135000, 37

160010, , EMPTY, 12:20:24, 255000, 70

270010, , EMPTY, 5:6:21:24, 150000, 41

160010, , EMPTY, 8:20:24, 270000, 75

290010, , EMPTY, 9:21:24, 145000, 40

170010, , EMPTY, 11:20:24, 275000, 76

290010, , EMPTY, 13:6:21:24, 160000, 44

170010, , INTERESTING, 12:20:24, 290000, 80

160010, , INTERESTING, 10:6:21:24, 305000, 84

180010, , INTERESTING, 18:20:24, 295000, 81

300010, , EMPTY, 6:21:24, 180000, 50

180010, , INTERESTING, 14:18:20:24, 310000, 86

300010, , EMPTY, 2:21:24, 195000, 54

190010, , EMPTY, 19:20:24, 315000, 87

310010, , EMPTY, 6:21:24, 200000, 55

190010, , EMPTY, 8:20:24, 330000, 91

320010, , EMPTY, 3:21:24, 205000, 56

190010, , INTERESTING, 17:20:24, 345000, 95

320010, , EMPTY, 6:21:24, 220000, 61

190010, , EMPTY, 11:20:24, 360000, 100

320010, , INTERESTING, 5:6:21:24, 235000, 65

200010, , EMPTY, 4:20:24, 365000, 101

320010, , EMPTY, 1:21:24, 250000, 69

210010, , INTERESTING, 19:20:24, 370000, 102

340010, , INTERESTING, 9:21:24, 245000, 68

210010, , INTERESTING, 7:20:24, 385000, 106

360010, , EMPTY, 3:21:24, 240000, 66

220010, , EMPTY, 19:20:24, 390000, 108

370010, , EMPTY, 9:21:24, 245000, 68

220010, , EMPTY, 16:20:24, 405000, 112

380010, , INTERESTING, 2:21:24, 250000, 69

220010, , EMPTY, 8:20:24, 420000, 116

380010, , EMPTY, 13:6:21:24, 265000, 73

230010, , EMPTY, 4:20:24, 425000, 118

390010, , EMPTY, 6:21:24, 270000, 75

230010, , EMPTY, 12:20:24, 440000, 122

400010, , EMPTY, 2:21:24, 275000, 76

230010, , EMPTY, 19:20:24, 455000, 126

410010, , EMPTY, 13:6:21:24, 280000, 77

240010, , EMPTY, 7:20:24, 460000, 127

440010, , EMPTY, 6:21:24, 265000, 73

240010, , EMPTY, 4:20:24, 475000, 131

450010, , EMPTY, 10:6:21:24, 270000, 75

250010, , EMPTY, 18:20:24, 480000, 133

460010, , EMPTY, 13:6:21:24, 275000, 76

250010, , EMPTY, 14:18:20:24, 495000, 137

460010, , EMPTY, 5:6:21:24, 290000, 80

250010, , EMPTY, 7:20:24, 510000, 141

460010, , EMPTY, 3:21:24, 305000, 84

260010, , INTERESTING, 14:18:20:24, 515000, 143

470010, , EMPTY, 1:21:24, 310000, 86

270010, , EMPTY, 17:20:24, 520000, 144

470010, , INTERESTING, 13:6:21:24, 325000, 90

280010, , EMPTY, 4:20:24, 525000, 145

480010, , EMPTY, 1:21:24, 330000, 91

280010, , EMPTY, 15:20:24, 540000, 150

490010, , EMPTY, 5:6:21:24, 335000, 93

280010, , EMPTY, 18:20:24, 555000, 154

490010, , INTERESTING, 2:21:24, 350000, 97

290010, , EMPTY, 11:20:24, 560000, 155

500010, , EMPTY, 13:6:21:24, 355000, 98

290010, , INTERESTING, 7:20:24, 575000, 159

500010, , EMPTY, 10:6:21:24, 370000, 102

300010, , EMPTY, 14:18:20:24, 580000, 161

510010, , EMPTY, 3:21:24, 375000, 104

310010, , EMPTY, 16:20:24, 585000, 162

510010, , EMPTY, 5:6:21:24, 390000, 108

310010, , INTERESTING, 12:20:24, 600000, 166

510010, , EMPTY, 13:6:21:24, 405000, 112

320010, , INTERESTING, 4:20:24, 605000, 168

530010, , EMPTY, 3:21:24, 400000, 111

330010, , EMPTY, 11:20:24, 610000, 169

530010, , EMPTY, 1:21:24, 415000, 115

330010, , EMPTY, 15:20:24, 625000, 173

540010, , INTERESTING, 10:6:21:24, 420000, 116

330010, , EMPTY, 0:20:24, 640000, 177

540010, , INTERESTING, 2:21:24, 435000, 120

340010, , EMPTY, 16:20:24, 645000, 179

540010, , EMPTY, 9:21:24, 450000, 125

340010, , EMPTY, 14:18:20:24, 660000, 183

550010, , EMPTY, 6:21:24, 455000, 126

340010, , EMPTY, 11:20:24, 675000, 187

550010, , INTERESTING, 10:6:21:24, 470000, 130

350010, , EMPTY, 8:20:24, 680000, 188

550010, , EMPTY, 3:21:24, 485000, 134

350010, , EMPTY, 15:20:24, 695000, 193

550010, , EMPTY, 1:21:24, 500000, 138

370010, , EMPTY, 18:20:24, 690000, 191

560010, , EMPTY, 5:6:21:24, 505000, 140

370010, , EMPTY, 4:20:24, 705000, 195

570010, , EMPTY, 13:6:21:24, 510000, 141

370010, , EMPTY, 16:20:24, 720000, 200

570010, , EMPTY, 10:6:21:24, 525000, 145

380010, , EMPTY, 18:20:24, 725000, 201

580010, , EMPTY, 2:21:24, 530000, 147

390010, , EMPTY, 19:20:24, 730000, 202

580010, , EMPTY, 13:6:21:24, 545000, 151

390010, , EMPTY, 17:20:24, 745000, 206

590010, , EMPTY, 3:21:24, 550000, 152

400010, , EMPTY, 12:20:24, 750000, 208

590010, , INTERESTING, 2:21:24, 565000, 156

400010, , EMPTY, 19:20:24, 765000, 212

590010, , INTERESTING, 10:6:21:24, 580000, 161

410010, , EMPTY, 8:20:24, 770000, 213

600010, , EMPTY, 13:6:21:24, 585000, 162

410010, , EMPTY, 4:20:24, 785000, 218

620010, , EMPTY, 5:6:21:24, 580000, 161

420010, , EMPTY, 0:20:24, 790000, 219

620010, , EMPTY, 1:21:24, 595000, 165

430010, , EMPTY, 0:20:24, 795000, 220

630010, , EMPTY, 6:21:24, 600000, 166

430010, , EMPTY, 7:20:24, 810000, 225

690010, , INTERESTING, 6:21:24, 555000, 154

450010, , EMPTY, 18:20:24, 805000, 223

690010, , EMPTY, 3:21:24, 570000, 158

450010, , INTERESTING, 0:20:24, 820000, 227

700010, , INTERESTING, 9:21:24, 575000, 159

450010, , INTERESTING, 15:20:24, 835000, 231

710010, , INTERESTING, 6:21:24, 580000, 161

460010, , EMPTY, 17:20:24, 840000, 233

710010, , EMPTY, 10:6:21:24, 595000, 165

460010, , EMPTY, 12:20:24, 855000, 237

710010, , EMPTY, 2:21:24, 610000, 169

460010, , EMPTY, 8:20:24, 870000, 241

720010, , EMPTY, 3:21:24, 615000, 170

470010, , EMPTY, 18:20:24, 875000, 243

720010, , EMPTY, 6:21:24, 630000, 175

470010, , EMPTY, 14:18:20:24, 890000, 247

720010, , EMPTY, 5:6:21:24, 645000, 179

480010, , EMPTY, 11:20:24, 895000, 248

730010, , EMPTY, 3:21:24, 650000, 180

490010, , INTERESTING, 7:20:24, 900000, 250

730010, , INTERESTING, 6:21:24, 665000, 184

500010, , EMPTY, 0:20:24, 905000, 251

730010, , EMPTY, 10:6:21:24, 680000, 188

500010, , INTERESTING, 7:20:24, 920000, 255

730010, , EMPTY, 9:21:24, 695000, 193

510010, , EMPTY, 17:20:24, 925000, 256

740010, , EMPTY, 2:21:24, 700000, 194

510010, , EMPTY, 11:20:24, 940000, 261

740010, , EMPTY, 3:21:24, 715000, 198

510010, , INTERESTING, 18:20:24, 955000, 265

740010, , EMPTY, 1:21:24, 730000, 202

510010, , INTERESTING, 16:20:24, 970000, 269

750010, , INTERESTING, 5:6:21:24, 735000, 204

520010, , EMPTY, 14:18:20:24, 975000, 270

770010, , EMPTY, 2:21:24, 730000, 202

520010, , INTERESTING, 19:20:24, 990000, 275

770010, , EMPTY, 10:6:21:24, 745000, 206

530010, , EMPTY, 17:20:24, 995000, 276

780010, , EMPTY, 2:21:24, 750000, 208

540010, , EMPTY, 4:20:24, 1000000, 277

780010, , EMPTY, 5:6:21:24, 765000, 212

550010, , EMPTY, 15:20:24, 1005000, 279

790010, , EMPTY, 2:21:24, 770000, 213

550010, , EMPTY, 4:20:24, 1020000, 283

790010, , EMPTY, 13:6:21:24, 785000, 218

560010, , EMPTY, 15:20:24, 1025000, 284

800010, , EMPTY, 9:21:24, 790000, 219

580010, , EMPTY, 11:20:24, 1020000, 283

810010, , EMPTY, 2:21:24, 795000, 220

580010, , EMPTY, 17:20:24, 1035000, 287

830010, , EMPTY, 2:21:24, 790000, 219

600010, , INTERESTING, 18:20:24, 1030000, 286

840010, , EMPTY, 1:21:24, 795000, 220

600010, , EMPTY, 14:18:20:24, 1045000, 290

840010, , EMPTY, 9:21:24, 810000, 225

620010, , EMPTY, 12:20:24, 1040000, 288

840010, , INTERESTING, 3:21:24, 825000, 229

620010, , EMPTY, 14:18:20:24, 1055000, 293

850010, , EMPTY, 1:21:24, 830000, 230

620010, , INTERESTING, 19:20:24, 1070000, 297

860010, , EMPTY, 9:21:24, 835000, 231

630010, , EMPTY, 11:20:24, 1075000, 298

860010, , EMPTY, 2:21:24, 850000, 236

630010, , EMPTY, 12:20:24, 1090000, 302

870010, , EMPTY, 3:21:24, 855000, 237

640010, , EMPTY, 18:20:24, 1095000, 304

870010, , EMPTY, 9:21:24, 870000, 241

640010, , EMPTY, 14:18:20:24, 1110000, 308

870010, , EMPTY, 13:6:21:24, 885000, 245

650010, , EMPTY, 15:20:24, 1115000, 309

880010, , EMPTY, 3:21:24, 890000, 247

650010, , EMPTY, 0:20:24, 1130000, 313

880010, , INTERESTING, 6:21:24, 905000, 251

660010, , INTERESTING, 18:20:24, 1135000, 315

900010, , EMPTY, 9:21:24, 900000, 250

660010, , INTERESTING, 4:20:24, 1150000, 319

900010, , EMPTY, 13:6:21:24, 915000, 254

670010, , EMPTY, 7:20:24, 1155000, 320

910010, , EMPTY, 2:21:24, 920000, 255

670010, , EMPTY, 18:20:24, 1170000, 325

930010, , EMPTY, 3:21:24, 915000, 254

670010, , EMPTY, 14:18:20:24, 1185000, 329

930010, , EMPTY, 9:21:24, 930000, 258

690010, , EMPTY, 19:20:24, 1180000, 327

940010, , EMPTY, 5:6:21:24, 935000, 259

690010, , EMPTY, 15:20:24, 1195000, 331

940010, , EMPTY, 13:6:21:24, 950000, 263

700010, , INTERESTING, 16:20:24, 1200000, 333

940010, , EMPTY, 1:21:24, 965000, 268

710010, , EMPTY, 16:20:24, 1205000, 334

950010, , EMPTY, 5:6:21:24, 970000, 269

720010, , EMPTY, 11:20:24, 1210000, 336

960010, , EMPTY, 3:21:24, 975000, 270

720010, , EMPTY, 12:20:24, 1225000, 340

960010, , EMPTY, 2:21:24, 990000, 275

720010, , EMPTY, 7:20:24, 1240000, 344

970010, , EMPTY, 13:6:21:24, 995000, 276

730010, , EMPTY, 11:20:24, 1245000, 345

980010, , EMPTY, 13:6:21:24, 1000000, 277

730010, , EMPTY, 16:20:24, 1260000, 350

990010, , EMPTY, 5:6:21:24, 1005000, 279

740010, , EMPTY, 4:20:24, 1265000, 351

1000010, , EMPTY, 1:21:24, 1010000, 280

750010, , INTERESTING, 14:18:20:24, 1270000, 352

1010010, , EMPTY, 1:21:24, 1015000, 281

750010, , EMPTY, 8:20:24, 1285000, 356

1020010, , EMPTY, 3:21:24, 1020000, 283

760010, , EMPTY, 17:20:24, 1290000, 358

1020010, , INTERESTING, 1:21:24, 1035000, 287

760010, , EMPTY, 12:20:24, 1305000, 362

1030010, , INTERESTING, 5:6:21:24, 1040000, 288

760010, , EMPTY, 14:18:20:24, 1320000, 366

1050010, , EMPTY, 3:21:24, 1035000, 287

760010, , EMPTY, 4:20:24, 1335000, 370

1050010, , INTERESTING, 5:6:21:24, 1050000, 291

770010, , EMPTY, 7:20:24, 1340000, 372

1050010, , INTERESTING, 2:21:24, 1065000, 295

770010, , INTERESTING, 14:18:20:24, 1355000, 376

1070010, , EMPTY, 3:21:24, 1060000, 294

780010, , EMPTY, 17:20:24, 1360000, 377

1070010, , EMPTY, 1:21:24, 1075000, 298

790010, , EMPTY, 12:20:24, 1365000, 379

1080010, , EMPTY, 6:21:24, 1080000, 300

800010, , EMPTY, 14:18:20:24, 1370000, 380

1090010, , EMPTY, 13:6:21:24, 1085000, 301

800010, , EMPTY, 12:20:24, 1385000, 384

1090010, , INTERESTING, 9:21:24, 1100000, 305

820010, , EMPTY, 8:20:24, 1380000, 383

1100010, , EMPTY, 6:21:24, 1105000, 306

820010, , EMPTY, 7:20:24, 1395000, 387

1110010, , INTERESTING, 10:6:21:24, 1110000, 308

830010, , EMPTY, 18:20:24, 1400000, 388

1110010, , EMPTY, 13:6:21:24, 1125000, 312

830010, , INTERESTING, 14:18:20:24, 1415000, 393

1110010, , EMPTY, 5:6:21:24, 1140000, 316

840010, , INTERESTING, 17:20:24, 1420000, 394

1120010, , EMPTY, 9:21:24, 1145000, 318

840010, , EMPTY, 11:20:24, 1435000, 398

1150010, , EMPTY, 10:6:21:24, 1130000, 313

850010, , EMPTY, 19:20:24, 1440000, 400

1160010, , EMPTY, 13:6:21:24, 1135000, 315

870010, , EMPTY, 15:20:24, 1435000, 398

1160010, , EMPTY, 10:6:21:24, 1150000, 319

880010, , EMPTY, 12:20:24, 1440000, 400

1180010, , EMPTY, 6:21:24, 1145000, 318

880010, , INTERESTING, 19:20:24, 1455000, 404

1190010, , EMPTY, 13:6:21:24, 1150000, 319

880010, , EMPTY, 18:20:24, 1470000, 408

1190010, , EMPTY, 9:21:24, 1165000, 323

890010, , INTERESTING, 8:20:24, 1475000, 409

1210010, , EMPTY, 6:21:24, 1160000, 322

910010, , EMPTY, 4:20:24, 1470000, 408

1210010, , EMPTY, 3:21:24, 1175000, 326

920010, , INTERESTING, 15:20:24, 1475000, 409

1210010, , EMPTY, 1:21:24, 1190000, 330

920010, , EMPTY, 4:20:24, 1490000, 413

1220010, , EMPTY, 5:6:21:24, 1195000, 331

920010, , EMPTY, 7:20:24, 1505000, 418

1220010, , INTERESTING, 13:6:21:24, 1210000, 336

920010, , EMPTY, 12:20:24, 1520000, 422

1230010, , INTERESTING, 5:6:21:24, 1215000, 337

930010, , EMPTY, 15:20:24, 1525000, 423

1270010, , INTERESTING, 5:6:21:24, 1190000, 330

950010, , EMPTY, 19:20:24, 1520000, 422

1280010, , EMPTY, 6:21:24, 1195000, 331

960010, , EMPTY, 17:20:24, 1525000, 423

1280010, , EMPTY, 5:6:21:24, 1210000, 336

960010, , EMPTY, 14:18:20:24, 1540000, 427

1290010, , EMPTY, 13:6:21:24, 1215000, 337

970010, , EMPTY, 4:20:24, 1545000, 429

1300010, , INTERESTING, 13:6:21:24, 1220000, 338

970010, , INTERESTING, 11:20:24, 1560000, 433

1300010, , INTERESTING, 3:21:24, 1235000, 343

970010, , EMPTY, 15:20:24, 1575000, 437

1310010, , EMPTY, 13:6:21:24, 1240000, 344

980010, , EMPTY, 7:20:24, 1580000, 438

1320010, , EMPTY, 5:6:21:24, 1245000, 345

980010, , INTERESTING, 16:20:24, 1595000, 443

1340010, , INTERESTING, 5:6:21:24, 1240000, 344

990010, , EMPTY, 4:20:24, 1600000, 444

1340010, , EMPTY, 10:6:21:24, 1255000, 348

990010, , EMPTY, 17:20:24, 1615000, 448

1390010, , EMPTY, 3:21:24, 1220000, 338

1000010, , EMPTY, 0:20:24, 1620000, 450

1400010, , EMPTY, 9:21:24, 1225000, 340

1010010, , EMPTY, 14:18:20:24, 1625000, 451

1400010, , INTERESTING, 5:6:21:24, 1240000, 344

1010010, , EMPTY, 12:20:24, 1640000, 455

1400010, , EMPTY, 1:21:24, 1255000, 348

1020010, , EMPTY, 14:18:20:24, 1645000, 456

1420010, , EMPTY, 2:21:24, 1250000, 347

1030010, , EMPTY, 0:20:24, 1650000, 458

1420010, , INTERESTING, 5:6:21:24, 1265000, 351

1030010, , EMPTY, 4:20:24, 1665000, 462

1430010, , INTERESTING, 9:21:24, 1270000, 352

1050010, , EMPTY, 19:20:24, 1660000, 461

1440010, , EMPTY, 6:21:24, 1275000, 354

1050010, , INTERESTING, 0:20:24, 1675000, 465

1440010, , EMPTY, 13:6:21:24, 1290000, 358

1060010, , EMPTY, 8:20:24, 1680000, 466

1450010, , EMPTY, 2:21:24, 1295000, 359

1060010, , INTERESTING, 14:18:20:24, 1695000, 470

1460010, , INTERESTING, 1:21:24, 1300000, 361

1060010, , EMPTY, 19:20:24, 1710000, 475

1470010, , INTERESTING, 6:21:24, 1305000, 362

1060010, , EMPTY, 11:20:24, 1725000, 479

1470010, , EMPTY, 10:6:21:24, 1320000, 366

1070010, , EMPTY, 17:20:24, 1730000, 480

1470010, , EMPTY, 1:21:24, 1335000, 370

1080010, , EMPTY, 12:20:24, 1735000, 481

1500010, , EMPTY, 13:6:21:24, 1320000, 366

1080010, , EMPTY, 7:20:24, 1750000, 486

1500010, , EMPTY, 2:21:24, 1335000, 370

1080010, , INTERESTING, 0:20:24, 1765000, 490

1520010, , EMPTY, 13:6:21:24, 1330000, 369

1090010, , EMPTY, 15:20:24, 1770000, 491

1520010, , EMPTY, 3:21:24, 1345000, 373

1120010, , INTERESTING, 8:20:24, 1755000, 487

1520010, , EMPTY, 5:6:21:24, 1360000, 377

1130010, , INTERESTING, 14:18:20:24, 1760000, 488

1520010, , EMPTY, 9:21:24, 1375000, 381

1130010, , EMPTY, 17:20:24, 1775000, 493

1550010, , EMPTY, 13:6:21:24, 1360000, 377

1130010, , EMPTY, 15:20:24, 1790000, 497

1550010, , EMPTY, 10:6:21:24, 1375000, 381

1140010, , INTERESTING, 4:20:24, 1795000, 498

1570010, , EMPTY, 1:21:24, 1370000, 380

1140010, , EMPTY, 14:18:20:24, 1810000, 502

1580010, , EMPTY, 13:6:21:24, 1375000, 381

1160010, , EMPTY, 18:20:24, 1805000, 501

1600010, , INTERESTING, 13:6:21:24, 1370000, 380

1170010, , EMPTY, 7:20:24, 1810000, 502

1600010, , INTERESTING, 2:21:24, 1385000, 384

1170010, , INTERESTING, 12:20:24, 1825000, 506

1600010, , INTERESTING, 3:21:24, 1400000, 388

1170010, , EMPTY, 16:20:24, 1840000, 511

1610010, , EMPTY, 10:6:21:24, 1405000, 390

1170010, , EMPTY, 19:20:24, 1855000, 515

1610010, , EMPTY, 13:6:21:24, 1420000, 394

1170010, , EMPTY, 11:20:24, 1870000, 519

1620010, , EMPTY, 10:6:21:24, 1425000, 395

1170010, , EMPTY, 8:20:24, 1885000, 523

1630010, , EMPTY, 2:21:24, 1430000, 397

1180010, , INTERESTING, 17:20:24, 1890000, 525

1650010, , INTERESTING, 13:6:21:24, 1425000, 395

1190010, , EMPTY, 4:20:24, 1895000, 526

1670010, , EMPTY, 5:6:21:24, 1420000, 394

1190010, , EMPTY, 7:20:24, 1910000, 530

1680010, , EMPTY, 6:21:24, 1425000, 395

1190010, , INTERESTING, 15:20:24, 1925000, 534

1680010, , EMPTY, 1:21:24, 1440000, 400

1210010, , INTERESTING, 16:20:24, 1920000, 533

1700010, , EMPTY, 5:6:21:24, 1435000, 398

1210010, , EMPTY, 12:20:24, 1935000, 537

1710010, , EMPTY, 2:21:24, 1440000, 400

1210010, , INTERESTING, 4:20:24, 1950000, 541

1710010, , INTERESTING, 6:21:24, 1455000, 404

1220010, , INTERESTING, 17:20:24, 1955000, 543

1720010, , EMPTY, 2:21:24, 1460000, 405

1220010, , EMPTY, 14:18:20:24, 1970000, 547

1720010, , EMPTY, 9:21:24, 1475000, 409

1250010, , EMPTY, 18:20:24, 1955000, 543

1750010, , EMPTY, 13:6:21:24, 1460000, 405

1250010, , EMPTY, 19:20:24, 1970000, 547

1760010, , EMPTY, 6:21:24, 1465000, 406

1250010, , EMPTY, 7:20:24, 1985000, 551

1770010, , EMPTY, 2:21:24, 1470000, 408

1250010, , EMPTY, 17:20:24, 2000000, 555

1770010, , EMPTY, 6:21:24, 1485000, 412

1260010, , EMPTY, 14:18:20:24, 2005000, 556

1780010, , INTERESTING, 10:6:21:24, 1490000, 413

1260010, , EMPTY, 11:20:24, 2020000, 561

1780010, , EMPTY, 2:21:24, 1505000, 418

1270010, , EMPTY, 16:20:24, 2025000, 562

1800010, , EMPTY, 10:6:21:24, 1500000, 416

1270010, , EMPTY, 12:20:24, 2040000, 566

1810010, , INTERESTING, 3:21:24, 1505000, 418

1270010, , EMPTY, 14:18:20:24, 2055000, 570

1810010, , INTERESTING, 6:21:24, 1520000, 422

1280010, , INTERESTING, 11:20:24, 2060000, 572

1810010, , EMPTY, 2:21:24, 1535000, 426

1280010, , EMPTY, 18:20:24, 2075000, 576

1820010, , EMPTY, 1:21:24, 1540000, 427

1280010, , EMPTY, 0:20:24, 2090000, 580

1820010, , EMPTY, 5:6:21:24, 1555000, 431

1290010, , INTERESTING, 19:20:24, 2095000, 581

1830010, , EMPTY, 3:21:24, 1560000, 433

1290010, , EMPTY, 15:20:24, 2110000, 586

1830010, , EMPTY, 13:6:21:24, 1575000, 437

1310010, , EMPTY, 16:20:24, 2105000, 584

1840010, , EMPTY, 1:21:24, 1580000, 438

1310010, , EMPTY, 11:20:24, 2120000, 588

1860010, , INTERESTING, 6:21:24, 1575000, 437

1310010, , EMPTY, 18:20:24, 2135000, 593

1870010, , INTERESTING, 9:21:24, 1580000, 438

1330010, , EMPTY, 12:20:24, 2130000, 591

1900010, , EMPTY, 1:21:24, 1565000, 434

1340010, , EMPTY, 11:20:24, 2135000, 593

1910010, , EMPTY, 2:21:24, 1570000, 436

1340010, , EMPTY, 16:20:24, 2150000, 597

1910010, , INTERESTING, 6:21:24, 1585000, 440

1340010, , EMPTY, 19:20:24, 2165000, 601

1910010, , EMPTY, 10:6:21:24, 1600000, 444

1340010, , EMPTY, 0:20:24, 2180000, 605

1930010, , EMPTY, 5:6:21:24, 1595000, 443

1340010, , EMPTY, 4:20:24, 2195000, 609

1950010, , EMPTY, 2:21:24, 1590000, 441

1340010, , INTERESTING, 8:20:24, 2210000, 613

1960010, , EMPTY, 10:6:21:24, 1595000, 443

1350010, , EMPTY, 11:20:24, 2215000, 615

1970010, , EMPTY, 3:21:24, 1600000, 444

1360010, , EMPTY, 7:20:24, 2220000, 616

1970010, , EMPTY, 10:6:21:24, 1615000, 448

1370010, , EMPTY, 16:20:24, 2225000, 618

1970010, , EMPTY, 9:21:24, 1630000, 452

1370010, , EMPTY, 19:20:24, 2240000, 622

1990010, , EMPTY, 3:21:24, 1625000, 451

1380010, , EMPTY, 16:20:24, 2245000, 623

1990010, , EMPTY, 6:21:24, 1640000, 455

1390010, , EMPTY, 0:20:24, 2250000, 625

1990010, , EMPTY, 13:6:21:24, 1655000, 459

1390010, , EMPTY, 11:20:24, 2265000, 629

2000010, , EMPTY, 10:6:21:24, 1660000, 461

1400010, , INTERESTING, 16:20:24, 2270000, 630

2000010, , EMPTY, 5:6:21:24, 1675000, 465

1410010, , EMPTY, 0:20:24, 2275000, 631

2010010, , EMPTY, 10:6:21:24, 1680000, 466

1430010, , EMPTY, 16:20:24, 2270000, 630

2010010, , INTERESTING, 3:21:24, 1695000, 470

1440010, , EMPTY, 7:20:24, 2275000, 631

2010010, , EMPTY, 1:21:24, 1710000, 475

1440010, , INTERESTING, 4:20:24, 2290000, 636

2020010, , EMPTY, 9:21:24, 1715000, 476

1450010, , INTERESTING, 17:20:24, 2295000, 637

2020010, , EMPTY, 6:21:24, 1730000, 480

1450010, , INTERESTING, 11:20:24, 2310000, 641

2020010, , EMPTY, 10:6:21:24, 1745000, 484

1460010, , EMPTY, 18:20:24, 2315000, 643

2050010, , EMPTY, 13:6:21:24, 1730000, 480

1470010, , EMPTY, 17:20:24, 2320000, 644

2070010, , EMPTY, 3:21:24, 1725000, 479

1480010, , EMPTY, 16:20:24, 2325000, 645

2080010, , EMPTY, 13:6:21:24, 1730000, 480

1490010, , EMPTY, 19:20:24, 2330000, 647

2080010, , EMPTY, 10:6:21:24, 1745000, 484

1500010, , INTERESTING, 12:20:24, 2335000, 648

2080010, , EMPTY, 3:21:24, 1760000, 488

1500010, , EMPTY, 19:20:24, 2350000, 652

2080010, , INTERESTING, 9:21:24, 1775000, 493

1500010, , EMPTY, 7:20:24, 2365000, 656

2090010, , EMPTY, 2:21:24, 1780000, 494

1510010, , EMPTY, 8:20:24, 2370000, 658

2120010, , EMPTY, 5:6:21:24, 1765000, 490

1540010, , EMPTY, 0:20:24, 2355000, 654

2130010, , EMPTY, 2:21:24, 1770000, 491

1550010, , EMPTY, 12:20:24, 2360000, 655

2170010, , EMPTY, 13:6:21:24, 1745000, 484

1550010, , EMPTY, 19:20:24, 2375000, 659

2170010, , INTERESTING, 2:21:24, 1760000, 488

1550010, , EMPTY, 8:20:24, 2390000, 663

2200010, , EMPTY, 1:21:24, 1745000, 484

1560010, , EMPTY, 14:18:20:24, 2395000, 665

2210010, , EMPTY, 13:6:21:24, 1750000, 486

1570010, , EMPTY, 11:20:24, 2400000, 666

2210010, , EMPTY, 10:6:21:24, 1765000, 490

1570010, , EMPTY, 14:18:20:24, 2415000, 670

2230010, , EMPTY, 3:21:24, 1760000, 488

1580010, , INTERESTING, 18:20:24, 2420000, 672

2230010, , EMPTY, 13:6:21:24, 1775000, 493

1580010, , INTERESTING, 12:20:24, 2435000, 676

2240010, , INTERESTING, 10:6:21:24, 1780000, 494

1580010, , EMPTY, 4:20:24, 2450000, 680

2270010, , EMPTY, 13:6:21:24, 1765000, 490

1580010, , EMPTY, 11:20:24, 2465000, 684

2280010, , EMPTY, 2:21:24, 1770000, 491

1580010, , EMPTY, 14:18:20:24, 2480000, 688

2280010, , EMPTY, 3:21:24, 1785000, 495

1590010, , EMPTY, 7:20:24, 2485000, 690

2290010, , EMPTY, 5:6:21:24, 1790000, 497

1590010, , INTERESTING, 19:20:24, 2500000, 694

2300010, , EMPTY, 6:21:24, 1795000, 498

1600010, , EMPTY, 0:20:24, 2505000, 695

2310010, , EMPTY, 6:21:24, 1800000, 500

1610010, , EMPTY, 18:20:24, 2510000, 697

2310010, , EMPTY, 5:6:21:24, 1815000, 504

1610010, , EMPTY, 12:20:24, 2525000, 701

2310010, , EMPTY, 10:6:21:24, 1830000, 508

1620010, , INTERESTING, 4:20:24, 2530000, 702

2310010, , EMPTY, 1:21:24, 1845000, 512

1620010, , INTERESTING, 7:20:24, 2545000, 706

2330010, , EMPTY, 2:21:24, 1840000, 511

1620010, , EMPTY, 0:20:24, 2560000, 711

2330010, , EMPTY, 5:6:21:24, 1855000, 515

1630010, , EMPTY, 15:20:24, 2565000, 712

2340010, , EMPTY, 10:6:21:24, 1860000, 516

1640010, , EMPTY, 19:20:24, 2570000, 713

2350010, , EMPTY, 10:6:21:24, 1865000, 518

1650010, , EMPTY, 17:20:24, 2575000, 715

2390010, , EMPTY, 1:21:24, 1840000, 511

1660010, , EMPTY, 4:20:24, 2580000, 716

2410010, , EMPTY, 1:21:24, 1835000, 509

1660010, , EMPTY, 8:20:24, 2595000, 720

2440010, , EMPTY, 2:21:24, 1820000, 505

1660010, , EMPTY, 11:20:24, 2610000, 725

2440010, , EMPTY, 1:21:24, 1835000, 509

1670010, , EMPTY, 4:20:24, 2615000, 726

2460010, , EMPTY, 3:21:24, 1830000, 508

1680010, , EMPTY, 18:20:24, 2620000, 727

2460010, , EMPTY, 5:6:21:24, 1845000, 512

1680010, , EMPTY, 14:18:20:24, 2635000, 731

2480010, , EMPTY, 3:21:24, 1840000, 511

1700010, , EMPTY, 14:18:20:24, 2630000, 730

2480010, , EMPTY, 10:6:21:24, 1855000, 515

1700010, , INTERESTING, 16:20:24, 2645000, 734

2500010, , EMPTY, 2:21:24, 1850000, 513

1700010, , EMPTY, 7:20:24, 2660000, 738

2510010, , EMPTY, 10:6:21:24, 1855000, 515

1700010, , EMPTY, 12:20:24, 2675000, 743

2520010, , EMPTY, 9:21:24, 1860000, 516

1710010, , INTERESTING, 4:20:24, 2680000, 744

2530010, , EMPTY, 13:6:21:24, 1865000, 518

1710010, , EMPTY, 15:20:24, 2695000, 748

2530010, , EMPTY, 1:21:24, 1880000, 522

1710010, , EMPTY, 8:20:24, 2710000, 752

2560010, , EMPTY, 3:21:24, 1865000, 518

1710010, , EMPTY, 18:20:24, 2725000, 756

2580010, , EMPTY, 3:21:24, 1860000, 516

1710010, , INTERESTING, 14:18:20:24, 2740000, 761

2590010, , INTERESTING, 3:21:24, 1865000, 518

1720010, , EMPTY, 0:20:24, 2745000, 762

2590010, , EMPTY, 5:6:21:24, 1880000, 522

1730010, , EMPTY, 4:20:24, 2750000, 763

2600010, , EMPTY, 2:21:24, 1885000, 523

1740010, , EMPTY, 4:20:24, 2755000, 765

2620010, , EMPTY, 13:6:21:24, 1880000, 522

1740010, , EMPTY, 0:20:24, 2770000, 769

2620010, , EMPTY, 3:21:24, 1895000, 526

1750010, , EMPTY, 15:20:24, 2775000, 770

2640010, , EMPTY, 5:6:21:24, 1890000, 525

1750010, , EMPTY, 19:20:24, 2790000, 775

2650010, , INTERESTING, 13:6:21:24, 1895000, 526

1760010, , EMPTY, 11:20:24, 2795000, 776

2660010, , EMPTY, 1:21:24, 1900000, 527

1770010, , EMPTY, 8:20:24, 2800000, 777

2660010, , EMPTY, 9:21:24, 1915000, 531

1770010, , INTERESTING, 17:20:24, 2815000, 781

2670010, , EMPTY, 1:21:24, 1920000, 533

1770010, , EMPTY, 4:20:24, 2830000, 786

2670010, , EMPTY, 6:21:24, 1935000, 537

1770010, , EMPTY, 16:20:24, 2845000, 790

2670010, , EMPTY, 10:6:21:24, 1950000, 541

1780010, , INTERESTING, 7:20:24, 2850000, 791

2680010, , EMPTY, 2:21:24, 1955000, 543

1790010, , EMPTY, 8:20:24, 2855000, 793

2680010, , INTERESTING, 3:21:24, 1970000, 547

1790010, , EMPTY, 7:20:24, 2870000, 797

2690010, , EMPTY, 1:21:24, 1975000, 548

1800010, , EMPTY, 17:20:24, 2875000, 798

2700010, , EMPTY, 6:21:24, 1980000, 550

1800010, , EMPTY, 14:18:20:24, 2890000, 802

2700010, , INTERESTING, 5:6:21:24, 1995000, 554

1810010, , EMPTY, 17:20:24, 2895000, 804

2700010, , INTERESTING, 2:21:24, 2010000, 558

1810010, , INTERESTING, 8:20:24, 2910000, 808

2710010, , EMPTY, 6:21:24, 2015000, 559

1820010, , EMPTY, 7:20:24, 2915000, 809

2720010, , INTERESTING, 10:6:21:24, 2020000, 561

1820010, , EMPTY, 0:20:24, 2930000, 813

2720010, , EMPTY, 5:6:21:24, 2035000, 565

1830010, , INTERESTING, 18:20:24, 2935000, 815

2730010, , INTERESTING, 6:21:24, 2040000, 566

1830010, , EMPTY, 15:20:24, 2950000, 819

2740010, , EMPTY, 9:21:24, 2045000, 568

1840010, , EMPTY, 17:20:24, 2955000, 820

2740010, , EMPTY, 6:21:24, 2060000, 572

1840010, , EMPTY, 14:18:20:24, 2970000, 825

2740010, , INTERESTING, 3:21:24, 2075000, 576

1840010, , EMPTY, 4:20:24, 2985000, 829

2740010, , EMPTY, 10:6:21:24, 2090000, 580

1840010, , EMPTY, 19:20:24, 3000000, 833

2750010, , INTERESTING, 9:21:24, 2095000, 581

1860010, , EMPTY, 17:20:24, 2995000, 831

2750010, , EMPTY, 10:6:21:24, 2110000, 586

1860010, , INTERESTING, 8:20:24, 3010000, 836

2760010, , EMPTY, 3:21:24, 2115000, 587

1870010, , EMPTY, 18:20:24, 3015000, 837

2760010, , EMPTY, 10:6:21:24, 2130000, 591

1870010, , EMPTY, 7:20:24, 3030000, 841

2770010, , EMPTY, 5:6:21:24, 2135000, 593

1870010, , INTERESTING, 14:18:20:24, 3045000, 845

2770010, , EMPTY, 9:21:24, 2150000, 597

1880010, , EMPTY, 4:20:24, 3050000, 847

2780010, , INTERESTING, 3:21:24, 2155000, 598

1880010, , EMPTY, 17:20:24, 3065000, 851

2790010, , INTERESTING, 2:21:24, 2160000, 600

1880010, , EMPTY, 19:20:24, 3080000, 855

2790010, , EMPTY, 3:21:24, 2175000, 604

1890010, , INTERESTING, 4:20:24, 3085000, 856

2790010, , EMPTY, 5:6:21:24, 2190000, 608

1890010, , EMPTY, 0:20:24, 3100000, 861

2800010, , INTERESTING, 2:21:24, 2195000, 609

1900010, , INTERESTING, 8:20:24, 3105000, 862

2820010, , EMPTY, 2:21:24, 2190000, 608

1900010, , EMPTY, 18:20:24, 3120000, 866

2820010, , EMPTY, 1:21:24, 2205000, 612

1920010, , EMPTY, 4:20:24, 3115000, 865

2830010, , EMPTY, 2:21:24, 2210000, 613

1920010, , INTERESTING, 17:20:24, 3130000, 869

2830010, , EMPTY, 3:21:24, 2225000, 618

1940010, , INTERESTING, 16:20:24, 3125000, 868

2840010, , EMPTY, 5:6:21:24, 2230000, 619

1950010, , EMPTY, 16:20:24, 3130000, 869

2850010, , EMPTY, 2:21:24, 2235000, 620

1950010, , EMPTY, 11:20:24, 3145000, 873

2860010, , INTERESTING, 2:21:24, 2240000, 622

1950010, , EMPTY, 8:20:24, 3160000, 877

2870010, , EMPTY, 10:6:21:24, 2245000, 623

1960010, , EMPTY, 7:20:24, 3165000, 879

2870010, , EMPTY, 3:21:24, 2260000, 627

1970010, , EMPTY, 16:20:24, 3170000, 880

2890010, , INTERESTING, 2:21:24, 2255000, 626

1980010, , EMPTY, 19:20:24, 3175000, 881

2890010, , EMPTY, 13:6:21:24, 2270000, 630

1990010, , EMPTY, 16:20:24, 3180000, 883

2900010, , INTERESTING, 1:21:24, 2275000, 631

2000010, , EMPTY, 19:20:24, 3185000, 884

2930010, , EMPTY, 2:21:24, 2260000, 627

2000010, , EMPTY, 16:20:24, 3200000, 888

2930010, , EMPTY, 13:6:21:24, 2275000, 631

2000010, , EMPTY, 4:20:24, 3215000, 893

2930010, , EMPTY, 10:6:21:24, 2290000, 636

2000010, , EMPTY, 17:20:24, 3230000, 897

2940010, , EMPTY, 9:21:24, 2295000, 637

2000010, , EMPTY, 12:20:24, 3245000, 901

2940010, , EMPTY, 1:21:24, 2310000, 641

2010010, , EMPTY, 0:20:24, 3250000, 902

2960010, , EMPTY, 9:21:24, 2305000, 640

2010010, , INTERESTING, 11:20:24, 3265000, 906

2960010, , EMPTY, 2:21:24, 2320000, 644

2020010, , INTERESTING, 8:20:24, 3270000, 908

2980010, , EMPTY, 13:6:21:24, 2315000, 643

2020010, , EMPTY, 0:20:24, 3285000, 912

2990010, , EMPTY, 9:21:24, 2320000, 644

2020010, , EMPTY, 18:20:24, 3300000, 916

2990010, , EMPTY, 1:21:24, 2335000, 648

2030010, , EMPTY, 19:20:24, 3305000, 918

3010010, , EMPTY, 6:21:24, 2330000, 647

2030010, , EMPTY, 16:20:24, 3320000, 922

3010010, , EMPTY, 5:6:21:24, 2345000, 651

2040010, , EMPTY, 11:20:24, 3325000, 923

3030010, , EMPTY, 13:6:21:24, 2340000, 650

2060010, , INTERESTING, 19:20:24, 3320000, 922

3070010, , EMPTY, 5:6:21:24, 2315000, 643

2060010, , EMPTY, 7:20:24, 3335000, 926

3080010, , EMPTY, 3:21:24, 2320000, 644

2080010, , EMPTY, 17:20:24, 3330000, 925

3090010, , EMPTY, 9:21:24, 2325000, 645

2080010, , INTERESTING, 19:20:24, 3345000, 929

3100010, , EMPTY, 9:21:24, 2330000, 647

2080010, , EMPTY, 8:20:24, 3360000, 933

3100010, , EMPTY, 3:21:24, 2345000, 651

2080010, , EMPTY, 4:20:24, 3375000, 937

3110010, , EMPTY, 5:6:21:24, 2350000, 652

2090010, , EMPTY, 0:20:24, 3380000, 938

3110010, , EMPTY, 13:6:21:24, 2365000, 656

2090010, , EMPTY, 7:20:24, 3395000, 943

3120010, , INTERESTING, 5:6:21:24, 2370000, 658

2090010, , EMPTY, 15:20:24, 3410000, 947

3130010, , EMPTY, 13:6:21:24, 2375000, 659

2100010, , EMPTY, 12:20:24, 3415000, 948

3130010, , EMPTY, 9:21:24, 2390000, 663

2100010, , EMPTY, 18:20:24, 3430000, 952

3130010, , EMPTY, 2:21:24, 2405000, 668

2110010, , EMPTY, 12:20:24, 3435000, 954

3140010, , EMPTY, 5:6:21:24, 2410000, 669

2120010, , EMPTY, 18:20:24, 3440000, 955

3140010, , INTERESTING, 3:21:24, 2425000, 673

2130010, , EMPTY, 14:18:20:24, 3445000, 956

3160010, , EMPTY, 6:21:24, 2420000, 672

2130010, , EMPTY, 0:20:24, 3460000, 961

3160010, , EMPTY, 13:6:21:24, 2435000, 676

2140010, , INTERESTING, 7:20:24, 3465000, 962

3170010, , EMPTY, 9:21:24, 2440000, 677

2160010, , EMPTY, 15:20:24, 3460000, 961

3190010, , EMPTY, 2:21:24, 2435000, 676

2170010, , EMPTY, 14:18:20:24, 3465000, 962

3190010, , EMPTY, 1:21:24, 2450000, 680

2170010, , EMPTY, 15:20:24, 3480000, 966

3200010, , INTERESTING, 13:6:21:24, 2455000, 681

2180010, , EMPTY, 14:18:20:24, 3485000, 968

3220010, , EMPTY, 9:21:24, 2450000, 680

2190010, , EMPTY, 7:20:24, 3490000, 969

3230010, , EMPTY, 2:21:24, 2455000, 681

2190010, , EMPTY, 17:20:24, 3505000, 973

3240010, , EMPTY, 5:6:21:24, 2460000, 683

2190010, , INTERESTING, 14:18:20:24, 3520000, 977

3250010, , EMPTY, 10:6:21:24, 2465000, 684

2200010, , EMPTY, 7:20:24, 3525000, 979

3250010, , EMPTY, 13:6:21:24, 2480000, 688

2200010, , INTERESTING, 19:20:24, 3540000, 983

3260010, , EMPTY, 1:21:24, 2485000, 690

2200010, , EMPTY, 15:20:24, 3555000, 987

3270010, , INTERESTING, 6:21:24, 2490000, 691

2210010, , INTERESTING, 7:20:24, 3560000, 988

3310010, , INTERESTING, 10:6:21:24, 2465000, 684

2210010, , EMPTY, 18:20:24, 3575000, 993

3320010, , INTERESTING, 13:6:21:24, 2470000, 686

2230010, , INTERESTING, 7:20:24, 3570000, 991

3320010, , EMPTY, 5:6:21:24, 2485000, 690

2240010, , EMPTY, 7:20:24, 3575000, 993

3320010, , INTERESTING, 10:6:21:24, 2500000, 694

2240010, , INTERESTING, 19:20:24, 3590000, 997

3350010, , EMPTY, 3:21:24, 2485000, 690

2240010, , EMPTY, 8:20:24, 3605000, 1001

3350010, , EMPTY, 13:6:21:24, 2500000, 694

2250010, , EMPTY, 0:20:24, 3610000, 1002

3350010, , EMPTY, 9:21:24, 2515000, 698

2250010, , INTERESTING, 7:20:24, 3625000, 1006

3360010, , EMPTY, 6:21:24, 2520000, 700

2250010, , INTERESTING, 15:20:24, 3640000, 1011

3360010, , INTERESTING, 3:21:24, 2535000, 704

2250010, , EMPTY, 17:20:24, 3655000, 1015

3370010, , EMPTY, 5:6:21:24, 2540000, 705

2260010, , EMPTY, 12:20:24, 3660000, 1016

3370010, , EMPTY, 2:21:24, 2555000, 709

2270010, , EMPTY, 18:20:24, 3665000, 1018

3380010, , EMPTY, 6:21:24, 2560000, 711

2280010, , EMPTY, 4:20:24, 3670000, 1019

3390010, , EMPTY, 5:6:21:24, 2565000, 712

2290010, , EMPTY, 19:20:24, 3675000, 1020

3390010, , INTERESTING, 13:6:21:24, 2580000, 716

2290010, , INTERESTING, 12:20:24, 3690000, 1025

3400010, , EMPTY, 10:6:21:24, 2585000, 718

2290010, , EMPTY, 8:20:24, 3705000, 1029

3400010, , EMPTY, 5:6:21:24, 2600000, 722

2290010, , INTERESTING, 18:20:24, 3720000, 1033

3410010, , INTERESTING, 1:21:24, 2605000, 723

2290010, , INTERESTING, 0:20:24, 3735000, 1037

3410010, , EMPTY, 2:21:24, 2620000, 727

2290010, , INTERESTING, 4:20:24, 3750000, 1041

3450010, , EMPTY, 10:6:21:24, 2595000, 720

2300010, , EMPTY, 14:18:20:24, 3755000, 1043

3470010, , EMPTY, 1:21:24, 2590000, 719

2310010, , EMPTY, 19:20:24, 3760000, 1044

3470010, , EMPTY, 5:6:21:24, 2605000, 723

2320010, , EMPTY, 12:20:24, 3765000, 1045

3480010, , INTERESTING, 1:21:24, 2610000, 725

2330010, , EMPTY, 19:20:24, 3770000, 1047

3480010, , EMPTY, 6:21:24, 2625000, 729

2350010, , EMPTY, 8:20:24, 3765000, 1045

3480010, , EMPTY, 5:6:21:24, 2640000, 733

2350010, , EMPTY, 7:20:24, 3780000, 1050

3500010, , EMPTY, 1:21:24, 2635000, 731

2360010, , EMPTY, 11:20:24, 3785000, 1051

3520010, , EMPTY, 10:6:21:24, 2630000, 730

2370010, , EMPTY, 8:20:24, 3790000, 1052

3550010, , EMPTY, 13:6:21:24, 2615000, 726

2370010, , EMPTY, 12:20:24, 3805000, 1056

3560010, , EMPTY, 9:21:24, 2620000, 727

2380010, , EMPTY, 18:20:24, 3810000, 1058

3570010, , EMPTY, 3:21:24, 2625000, 729

2380010, , INTERESTING, 15:20:24, 3825000, 1062

3570010, , EMPTY, 1:21:24, 2640000, 733

2380010, , EMPTY, 19:20:24, 3840000, 1066

3590010, , EMPTY, 6:21:24, 2635000, 731

2390010, , INTERESTING, 17:20:24, 3845000, 1068

3590010, , EMPTY, 9:21:24, 2650000, 736

2390010, , EMPTY, 11:20:24, 3860000, 1072

3610010, , EMPTY, 3:21:24, 2645000, 734

2390010, , EMPTY, 7:20:24, 3875000, 1076

3610010, , INTERESTING, 6:21:24, 2660000, 738

2390010, , EMPTY, 0:20:24, 3890000, 1080

3610010, , EMPTY, 5:6:21:24, 2675000, 743

2400010, , INTERESTING, 15:20:24, 3895000, 1081

3610010, , EMPTY, 13:6:21:24, 2690000, 747

2400010, , EMPTY, 8:20:24, 3910000, 1086

3620010, , EMPTY, 3:21:24, 2695000, 748

2400010, , INTERESTING, 18:20:24, 3925000, 1090

3630010, , EMPTY, 10:6:21:24, 2700000, 750

2430010, , EMPTY, 17:20:24, 3910000, 1086

3630010, , EMPTY, 5:6:21:24, 2715000, 754

2440010, , EMPTY, 14:18:20:24, 3915000, 1087

3650010, , INTERESTING, 2:21:24, 2710000, 752

2440010, , EMPTY, 15:20:24, 3930000, 1091

3660010, , EMPTY, 3:21:24, 2715000, 754

2440010, , INTERESTING, 11:20:24, 3945000, 1095

3660010, , EMPTY, 6:21:24, 2730000, 758

2450010, , INTERESTING, 8:20:24, 3950000, 1097

3660010, , EMPTY, 9:21:24, 2745000, 762

2460010, , INTERESTING, 12:20:24, 3955000, 1098

3690010, , EMPTY, 3:21:24, 2730000, 758

2460010, , EMPTY, 18:20:24, 3970000, 1102

3690010, , EMPTY, 10:6:21:24, 2745000, 762

2460010, , INTERESTING, 14:18:20:24, 3985000, 1106

3700010, , EMPTY, 6:21:24, 2750000, 763

2460010, , EMPTY, 4:20:24, 4000000, 1111

3700010, , EMPTY, 5:6:21:24, 2765000, 768

2470010, , EMPTY, 16:20:24, 4005000, 1112

3700010, , INTERESTING, 13:6:21:24, 2780000, 772

2480010, , EMPTY, 15:20:24, 4010000, 1113

3720010, , EMPTY, 6:21:24, 2775000, 770

2480010, , EMPTY, 7:20:24, 4025000, 1118

3730010, , EMPTY, 10:6:21:24, 2780000, 772

2490010, , EMPTY, 12:20:24, 4030000, 1119

3730010, , EMPTY, 3:21:24, 2795000, 776

2490010, , EMPTY, 14:18:20:24, 4045000, 1123

3740010, , EMPTY, 10:6:21:24, 2800000, 777

2490010, , EMPTY, 16:20:24, 4060000, 1127

3760010, , EMPTY, 5:6:21:24, 2795000, 776

2500010, , EMPTY, 12:20:24, 4065000, 1129

3760010, , INTERESTING, 1:21:24, 2810000, 780

2500010, , INTERESTING, 11:20:24, 4080000, 1133

3770010, , EMPTY, 9:21:24, 2815000, 781

2500010, , EMPTY, 18:20:24, 4095000, 1137

3770010, , EMPTY, 2:21:24, 2830000, 786

2510010, , EMPTY, 17:20:24, 4100000, 1138

3780010, , INTERESTING, 10:6:21:24, 2835000, 787

2510010, , EMPTY, 12:20:24, 4115000, 1143

3800010, , EMPTY, 9:21:24, 2830000, 786

2520010, , EMPTY, 15:20:24, 4120000, 1144

3800010, , INTERESTING, 5:6:21:24, 2845000, 790

2520010, , INTERESTING, 19:20:24, 4135000, 1148

3800010, , EMPTY, 13:6:21:24, 2860000, 794

2530010, , EMPTY, 7:20:24, 4140000, 1150

3810010, , EMPTY, 6:21:24, 2865000, 795

2530010, , EMPTY, 14:18:20:24, 4155000, 1154

3810010, , EMPTY, 10:6:21:24, 2880000, 800

2530010, , INTERESTING, 11:20:24, 4170000, 1158

3840010, , EMPTY, 9:21:24, 2865000, 795

2530010, , EMPTY, 17:20:24, 4185000, 1162

3840010, , INTERESTING, 3:21:24, 2880000, 800

2530010, , INTERESTING, 12:20:24, 4200000, 1166

3850010, , EMPTY, 2:21:24, 2885000, 801

2540010, , EMPTY, 15:20:24, 4205000, 1168

3860010, , EMPTY, 9:21:24, 2890000, 802

2540010, , EMPTY, 18:20:24, 4220000, 1172

3880010, , INTERESTING, 1:21:24, 2885000, 801

2550010, , EMPTY, 8:20:24, 4225000, 1173

3890010, , EMPTY, 2:21:24, 2890000, 802

2560010, , EMPTY, 8:20:24, 4230000, 1175

3910010, , EMPTY, 6:21:24, 2885000, 801

2570010, , EMPTY, 15:20:24, 4235000, 1176

3930010, , EMPTY, 3:21:24, 2880000, 800

2570010, , EMPTY, 16:20:24, 4250000, 1180

3940010, , EMPTY, 5:6:21:24, 2885000, 801

2590010, , INTERESTING, 7:20:24, 4245000, 1179

3960010, , EMPTY, 5:6:21:24, 2880000, 800

2590010, , EMPTY, 8:20:24, 4260000, 1183

3970010, , EMPTY, 5:6:21:24, 2885000, 801

2590010, , EMPTY, 14:18:20:24, 4275000, 1187

3970010, , EMPTY, 10:6:21:24, 2900000, 805

2600010, , EMPTY, 11:20:24, 4280000, 1188

3980010, , EMPTY, 3:21:24, 2905000, 806

2610010, , EMPTY, 15:20:24, 4285000, 1190

3980010, , EMPTY, 9:21:24, 2920000, 811

2610010, , EMPTY, 16:20:24, 4300000, 1194

3980010, , EMPTY, 6:21:24, 2935000, 815

2620010, , EMPTY, 11:20:24, 4305000, 1195

3980010, , EMPTY, 5:6:21:24, 2950000, 819

2620010, , INTERESTING, 7:20:24, 4320000, 1200

3990010, , EMPTY, 2:21:24, 2955000, 820

2630010, , EMPTY, 16:20:24, 4325000, 1201

4000010, , EMPTY, 10:6:21:24, 2960000, 822

2630010, , EMPTY, 15:20:24, 4340000, 1205

4020010, , EMPTY, 9:21:24, 2955000, 820

2640010, , INTERESTING, 11:20:24, 4345000, 1206

4020010, , INTERESTING, 3:21:24, 2970000, 825

2650010, , EMPTY, 8:20:24, 4350000, 1208

4050010, , INTERESTING, 1:21:24, 2955000, 820

2660010, , EMPTY, 7:20:24, 4355000, 1209

4050010, , EMPTY, 5:6:21:24, 2970000, 825

2670010, , EMPTY, 11:20:24, 4360000, 1211

4050010, , EMPTY, 9:21:24, 2985000, 829

2680010, , INTERESTING, 4:20:24, 4365000, 1212

4070010, , INTERESTING, 13:6:21:24, 2980000, 827

2680010, , EMPTY, 19:20:24, 4380000, 1216

4090010, , INTERESTING, 1:21:24, 2975000, 826

2690010, , INTERESTING, 8:20:24, 4385000, 1218

4110010, , EMPTY, 10:6:21:24, 2970000, 825

2690010, , INTERESTING, 7:20:24, 4400000, 1222

4120010, , EMPTY, 2:21:24, 2975000, 826

2700010, , EMPTY, 11:20:24, 4405000, 1223

4170010, , EMPTY, 5:6:21:24, 2940000, 816

2710010, , EMPTY, 16:20:24, 4410000, 1225

4170010, , EMPTY, 1:21:24, 2955000, 820

2710010, , EMPTY, 4:20:24, 4425000, 1229

4180010, , INTERESTING, 2:21:24, 2960000, 822

2710010, , EMPTY, 8:20:24, 4440000, 1233

4200010, , INTERESTING, 3:21:24, 2955000, 820

2720010, , EMPTY, 14:18:20:24, 4445000, 1234

4220010, , EMPTY, 6:21:24, 2950000, 819

2730010, , EMPTY, 0:20:24, 4450000, 1236

4220010, , EMPTY, 10:6:21:24, 2965000, 823

2730010, , EMPTY, 18:20:24, 4465000, 1240

4220010, , EMPTY, 2:21:24, 2980000, 827

2740010, , EMPTY, 11:20:24, 4470000, 1241

4240010, , EMPTY, 9:21:24, 2975000, 826

2740010, , EMPTY, 0:20:24, 4485000, 1245

4240010, , EMPTY, 5:6:21:24, 2990000, 830

2750010, , EMPTY, 15:20:24, 4490000, 1247

4300010, , EMPTY, 6:21:24, 2945000, 818

2760010, , EMPTY, 11:20:24, 4495000, 1248

4300010, , INTERESTING, 3:21:24, 2960000, 822

2760010, , EMPTY, 15:20:24, 4510000, 1252

4310010, , EMPTY, 10:6:21:24, 2965000, 823

2760010, , EMPTY, 19:20:24, 4525000, 1256

4320010, , EMPTY, 6:21:24, 2970000, 825

2770010, , EMPTY, 12:20:24, 4530000, 1258

4320010, , EMPTY, 1:21:24, 2985000, 829

2770010, , EMPTY, 17:20:24, 4545000, 1262

4320010, , EMPTY, 10:6:21:24, 3000000, 833

2770010, , EMPTY, 11:20:24, 4560000, 1266

4330010, , INTERESTING, 10:6:21:24, 3005000, 834

2780010, , INTERESTING, 12:20:24, 4565000, 1268

4340010, , EMPTY, 9:21:24, 3010000, 836

2790010, , EMPTY, 14:18:20:24, 4570000, 1269

4340010, , EMPTY, 5:6:21:24, 3025000, 840

2790010, , EMPTY, 12:20:24, 4585000, 1273

4340010, , EMPTY, 13:6:21:24, 3040000, 844

2790010, , EMPTY, 17:20:24, 4600000, 1277

4350010, , EMPTY, 1:21:24, 3045000, 845

2800010, , INTERESTING, 0:20:24, 4605000, 1279

4360010, , EMPTY, 1:21:24, 3050000, 847

2800010, , EMPTY, 14:18:20:24, 4620000, 1283

4390010, , INTERESTING, 9:21:24, 3035000, 843

2800010, , EMPTY, 16:20:24, 4635000, 1287

4400010, , EMPTY, 1:21:24, 3040000, 844

2800010, , INTERESTING, 4:20:24, 4650000, 1291

4400010, , EMPTY, 10:6:21:24, 3055000, 848

2810010, , EMPTY, 0:20:24, 4655000, 1293

4420010, , EMPTY, 2:21:24, 3050000, 847

2820010, , EMPTY, 14:18:20:24, 4660000, 1294

4420010, , INTERESTING, 6:21:24, 3065000, 851

2820010, , EMPTY, 15:20:24, 4675000, 1298

4430010, , INTERESTING, 5:6:21:24, 3070000, 852

2830010, , EMPTY, 18:20:24, 4680000, 1300

4440010, , EMPTY, 1:21:24, 3075000, 854

2840010, , INTERESTING, 19:20:24, 4685000, 1301

4450010, , EMPTY, 2:21:24, 3080000, 855

2840010, , EMPTY, 11:20:24, 4700000, 1305

4460010, , EMPTY, 2:21:24, 3085000, 856

2850010, , INTERESTING, 12:20:24, 4705000, 1306

4490010, , EMPTY, 2:21:24, 3070000, 852

2860010, , EMPTY, 0:20:24, 4710000, 1308

4500010, , EMPTY, 9:21:24, 3075000, 854

2860010, , EMPTY, 16:20:24, 4725000, 1312

4500010, , INTERESTING, 13:6:21:24, 3090000, 858

2860010, , INTERESTING, 4:20:24, 4740000, 1316

4500010, , EMPTY, 2:21:24, 3105000, 862

2860010, , EMPTY, 19:20:24, 4755000, 1320

4510010, , EMPTY, 1:21:24, 3110000, 863

2870010, , EMPTY, 11:20:24, 4760000, 1322

4520010, , EMPTY, 3:21:24, 3115000, 865

2870010, , EMPTY, 12:20:24, 4775000, 1326

4520010, , EMPTY, 6:21:24, 3130000, 869

2880010, , EMPTY, 0:20:24, 4780000, 1327

4530010, , EMPTY, 9:21:24, 3135000, 870

2890010, , EMPTY, 16:20:24, 4785000, 1329

4540010, , EMPTY, 5:6:21:24, 3140000, 872

2890010, , EMPTY, 8:20:24, 4800000, 1333

4550010, , EMPTY, 3:21:24, 3145000, 873

2900010, , EMPTY, 4:20:24, 4805000, 1334

4550010, , EMPTY, 13:6:21:24, 3160000, 877

2900010, , EMPTY, 16:20:24, 4820000, 1338

4560010, , EMPTY, 1:21:24, 3165000, 879

2910010, , EMPTY, 18:20:24, 4825000, 1340

4560010, , EMPTY, 5:6:21:24, 3180000, 883

2910010, , EMPTY, 4:20:24, 4840000, 1344

4570010, , EMPTY, 1:21:24, 3185000, 884

2920010, , EMPTY, 11:20:24, 4845000, 1345

4590010, , INTERESTING, 6:21:24, 3180000, 883

2920010, , INTERESTING, 14:18:20:24, 4860000, 1350

4590010, , EMPTY, 2:21:24, 3195000, 887

2930010, , INTERESTING, 11:20:24, 4865000, 1351

4590010, , EMPTY, 9:21:24, 3210000, 891

2930010, , INTERESTING, 18:20:24, 4880000, 1355

4600010, , EMPTY, 10:6:21:24, 3215000, 893

2940010, , EMPTY, 16:20:24, 4885000, 1356

4600010, , INTERESTING, 5:6:21:24, 3230000, 897

2960010, , EMPTY, 7:20:24, 4880000, 1355

4610010, , INTERESTING, 13:6:21:24, 3235000, 898

2960010, , EMPTY, 16:20:24, 4895000, 1359

4610010, , EMPTY, 3:21:24, 3250000, 902

2970010, , EMPTY, 11:20:24, 4900000, 1361

4620010, , EMPTY, 1:21:24, 3255000, 904

2980010, , EMPTY, 17:20:24, 4905000, 1362

4630010, , EMPTY, 10:6:21:24, 3260000, 905

2990010, , EMPTY, 7:20:24, 4910000, 1363

4640010, , EMPTY, 2:21:24, 3265000, 906

3000010, , EMPTY, 19:20:24, 4915000, 1365

4650010, , EMPTY, 5:6:21:24, 3270000, 908

3000010, , EMPTY, 4:20:24, 4930000, 1369

4660010, , EMPTY, 5:6:21:24, 3275000, 909

3000010, , INTERESTING, 17:20:24, 4945000, 1373

4670010, , EMPTY, 1:21:24, 3280000, 911

3010010, , EMPTY, 14:18:20:24, 4950000, 1375

4670010, , EMPTY, 2:21:24, 3295000, 915

3020010, , EMPTY, 16:20:24, 4955000, 1376

4670010, , INTERESTING, 6:21:24, 3310000, 919

3020010, , EMPTY, 14:18:20:24, 4970000, 1380

4680010, , EMPTY, 1:21:24, 3315000, 920

3030010, , EMPTY, 19:20:24, 4975000, 1381

4710010, , EMPTY, 2:21:24, 3300000, 916

3030010, , EMPTY, 11:20:24, 4990000, 1386

4720010, , EMPTY, 9:21:24, 3305000, 918

3050010, , EMPTY, 12:20:24, 4985000, 1384

4740010, , EMPTY, 10:6:21:24, 3300000, 916

3050010, , EMPTY, 16:20:24, 5000000, 1388

4750010, , EMPTY, 1:21:24, 3305000, 918

3050010, , EMPTY, 14:18:20:24, 5015000, 1393

4770010, , EMPTY, 13:6:21:24, 3300000, 916

3060010, , EMPTY, 7:20:24, 5020000, 1394

4770010, , INTERESTING, 10:6:21:24, 3315000, 920

3070010, , EMPTY, 0:20:24, 5025000, 1395

4780010, , INTERESTING, 2:21:24, 3320000, 922

3070010, , EMPTY, 19:20:24, 5040000, 1400

4790010, , EMPTY, 9:21:24, 3325000, 923

3090010, , EMPTY, 8:20:24, 5035000, 1398

4800010, , EMPTY, 9:21:24, 3330000, 925

3090010, , EMPTY, 7:20:24, 5050000, 1402

4800010, , EMPTY, 3:21:24, 3345000, 929

3090010, , INTERESTING, 0:20:24, 5065000, 1406

4820010, , EMPTY, 9:21:24, 3340000, 927

3110010, , EMPTY, 8:20:24, 5060000, 1405

4830010, , EMPTY, 2:21:24, 3345000, 929

3110010, , EMPTY, 11:20:24, 5075000, 1409

4840010, , EMPTY, 2:21:24, 3350000, 930

3110010, , EMPTY, 19:20:24, 5090000, 1413

4840010, , EMPTY, 5:6:21:24, 3365000, 934

3120010, , EMPTY, 15:20:24, 5095000, 1415

4840010, , EMPTY, 9:21:24, 3380000, 938

3120010, , EMPTY, 8:20:24, 5110000, 1419

4860010, , EMPTY, 2:21:24, 3375000, 937

3130010, , INTERESTING, 4:20:24, 5115000, 1420

4860010, , EMPTY, 5:6:21:24, 3390000, 941

3140010, , EMPTY, 7:20:24, 5120000, 1422

4870010, , INTERESTING, 13:6:21:24, 3395000, 943

3140010, , EMPTY, 11:20:24, 5135000, 1426

4870010, , EMPTY, 2:21:24, 3410000, 947

3150010, , EMPTY, 7:20:24, 5140000, 1427

4880010, , EMPTY, 3:21:24, 3415000, 948

3150010, , EMPTY, 17:20:24, 5155000, 1431

4880010, , EMPTY, 13:6:21:24, 3430000, 952

3160010, , EMPTY, 11:20:24, 5160000, 1433

4890010, , EMPTY, 13:6:21:24, 3435000, 954

3160010, , EMPTY, 12:20:24, 5175000, 1437

4900010, , EMPTY, 10:6:21:24, 3440000, 955

3170010, , EMPTY, 15:20:24, 5180000, 1438

4920010, , INTERESTING, 3:21:24, 3435000, 954

3170010, , EMPTY, 8:20:24, 5195000, 1443

4940010, , EMPTY, 1:21:24, 3430000, 952

3180010, , EMPTY, 15:20:24, 5200000, 1444

4950010, , EMPTY, 6:21:24, 3435000, 954

3180010, , EMPTY, 19:20:24, 5215000, 1448

4970010, , EMPTY, 6:21:24, 3430000, 952

3180010, , EMPTY, 4:20:24, 5230000, 1452

4990010, , INTERESTING, 6:21:24, 3425000, 951

3190010, , EMPTY, 19:20:24, 5235000, 1454

4990010, , INTERESTING, 13:6:21:24, 3440000, 955

3190010, , INTERESTING, 15:20:24, 5250000, 1458

5000010, , EMPTY, 13:6:21:24, 3445000, 956

3190010, , EMPTY, 7:20:24, 5265000, 1462

5000010, , EMPTY, 3:21:24, 3460000, 961

3200010, , EMPTY, 11:20:24, 5270000, 1463

5010010, , INTERESTING, 10:6:21:24, 3465000, 962

3200010, , EMPTY, 8:20:24, 5285000, 1468

5020010, , EMPTY, 13:6:21:24, 3470000, 963

3200010, , EMPTY, 19:20:24, 5300000, 1472

5020010, , INTERESTING, 5:6:21:24, 3485000, 968

3210010, , EMPTY, 18:20:24, 5305000, 1473

5020010, , EMPTY, 1:21:24, 3500000, 972

3210010, , INTERESTING, 16:20:24, 5320000, 1477

5030010, , EMPTY, 13:6:21:24, 3505000, 973

3220010, , INTERESTING, 11:20:24, 5325000, 1479

5040010, , EMPTY, 3:21:24, 3510000, 975

3220010, , EMPTY, 15:20:24, 5340000, 1483

5040010, , EMPTY, 2:21:24, 3525000, 979

3240010, , EMPTY, 18:20:24, 5335000, 1481

5050010, , EMPTY, 5:6:21:24, 3530000, 980

3250010, , INTERESTING, 11:20:24, 5340000, 1483

5050010, , EMPTY, 3:21:24, 3545000, 984

3250010, , EMPTY, 7:20:24, 5355000, 1487

5060010, , INTERESTING, 6:21:24, 3550000, 986

3260010, , EMPTY, 18:20:24, 5360000, 1488

5060010, , EMPTY, 2:21:24, 3565000, 990

3260010, , EMPTY, 0:20:24, 5375000, 1493

5060010, , EMPTY, 10:6:21:24, 3580000, 994

3270010, , INTERESTING, 11:20:24, 5380000, 1494

5080010, , EMPTY, 6:21:24, 3575000, 993

3270010, , EMPTY, 8:20:24, 5395000, 1498

5080010, , EMPTY, 1:21:24, 3590000, 997

3270010, , EMPTY, 16:20:24, 5410000, 1502

5090010, , EMPTY, 2:21:24, 3595000, 998

3280010, , EMPTY, 12:20:24, 5415000, 1504

5090010, , EMPTY, 6:21:24, 3610000, 1002

3290010, , EMPTY, 7:20:24, 5420000, 1505

5090010, , INTERESTING, 9:21:24, 3625000, 1006

3310010, , EMPTY, 19:20:24, 5415000, 1504

5120010, , EMPTY, 2:21:24, 3610000, 1002

3310010, , EMPTY, 14:18:20:24, 5430000, 1508

5130010, , EMPTY, 10:6:21:24, 3615000, 1004

3310010, , EMPTY, 15:20:24, 5445000, 1512

5140010, , INTERESTING, 13:6:21:24, 3620000, 1005

3320010, , INTERESTING, 17:20:24, 5450000, 1513

5170010, , EMPTY, 2:21:24, 3605000, 1001

3340010, , EMPTY, 11:20:24, 5445000, 1512

5190010, , EMPTY, 2:21:24, 3600000, 1000

3340010, , EMPTY, 18:20:24, 5460000, 1516

5190010, , EMPTY, 6:21:24, 3615000, 1004

3340010, , INTERESTING, 4:20:24, 5475000, 1520

5210010, , EMPTY, 2:21:24, 3610000, 1002

3350010, , EMPTY, 0:20:24, 5480000, 1522

5210010, , EMPTY, 13:6:21:24, 3625000, 1006

3350010, , EMPTY, 19:20:24, 5495000, 1526

5230010, , EMPTY, 9:21:24, 3620000, 1005

3350010, , EMPTY, 14:18:20:24, 5510000, 1530

5240010, , EMPTY, 2:21:24, 3625000, 1006

3360010, , INTERESTING, 11:20:24, 5515000, 1531

5240010, , EMPTY, 6:21:24, 3640000, 1011

3360010, , INTERESTING, 0:20:24, 5530000, 1536

5270010, , INTERESTING, 5:6:21:24, 3625000, 1006

3360010, , EMPTY, 12:20:24, 5545000, 1540

5270010, , INTERESTING, 2:21:24, 3640000, 1011

3360010, , EMPTY, 14:18:20:24, 5560000, 1544

5300010, , EMPTY, 13:6:21:24, 3625000, 1006

3370010, , EMPTY, 15:20:24, 5565000, 1545

5300010, , EMPTY, 5:6:21:24, 3640000, 1011

3370010, , EMPTY, 7:20:24, 5580000, 1550

5330010, , EMPTY, 6:21:24, 3625000, 1006

3380010, , EMPTY, 8:20:24, 5585000, 1551

5330010, , EMPTY, 3:21:24, 3640000, 1011

3390010, , EMPTY, 11:20:24, 5590000, 1552

5350010, , EMPTY, 6:21:24, 3635000, 1009

3390010, , EMPTY, 16:20:24, 5605000, 1556

5350010, , EMPTY, 13:6:21:24, 3650000, 1013

3400010, , EMPTY, 11:20:24, 5610000, 1558

5360010, , EMPTY, 6:21:24, 3655000, 1015

3400010, , EMPTY, 16:20:24, 5625000, 1562

5370010, , EMPTY, 2:21:24, 3660000, 1016

3400010, , EMPTY, 4:20:24, 5640000, 1566

5370010, , INTERESTING, 3:21:24, 3675000, 1020

3440010, , EMPTY, 19:20:24, 5615000, 1559

5390010, , EMPTY, 6:21:24, 3670000, 1019

3450010, , EMPTY, 11:20:24, 5620000, 1561

5390010, , INTERESTING, 5:6:21:24, 3685000, 1023

3450010, , EMPTY, 16:20:24, 5635000, 1565

5400010, , EMPTY, 9:21:24, 3690000, 1025

3470010, , EMPTY, 11:20:24, 5630000, 1563

5400010, , EMPTY, 10:6:21:24, 3705000, 1029

3470010, , EMPTY, 0:20:24, 5645000, 1568

5420010, , EMPTY, 13:6:21:24, 3700000, 1027

3480010, , EMPTY, 15:20:24, 5650000, 1569

5430010, , EMPTY, 2:21:24, 3705000, 1029

3480010, , EMPTY, 19:20:24, 5665000, 1573

5450010, , EMPTY, 10:6:21:24, 3700000, 1027

3490010, , EMPTY, 8:20:24, 5670000, 1575

5460010, , INTERESTING, 2:21:24, 3705000, 1029

3490010, , EMPTY, 17:20:24, 5685000, 1579

5470010, , EMPTY, 2:21:24, 3710000, 1030

3490010, , EMPTY, 11:20:24, 5700000, 1583

5470010, , EMPTY, 9:21:24, 3725000, 1034

3490010, , EMPTY, 16:20:24, 5715000, 1587

5500010, , EMPTY, 2:21:24, 3710000, 1030

3490010, , EMPTY, 12:20:24, 5730000, 1591

5510010, , EMPTY, 2:21:24, 3715000, 1031

3500010, , INTERESTING, 0:20:24, 5735000, 1593

5520010, , INTERESTING, 10:6:21:24, 3720000, 1033

3510010, , INTERESTING, 15:20:24, 5740000, 1594

5530010, , EMPTY, 13:6:21:24, 3725000, 1034

3520010, , INTERESTING, 19:20:24, 5745000, 1595

5530010, , EMPTY, 5:6:21:24, 3740000, 1038

3560010, , EMPTY, 8:20:24, 5720000, 1588

5540010, , EMPTY, 1:21:24, 3745000, 1040

3570010, , EMPTY, 7:20:24, 5725000, 1590

5550010, , EMPTY, 13:6:21:24, 3750000, 1041

3570010, , INTERESTING, 0:20:24, 5740000, 1594

5550010, , EMPTY, 2:21:24, 3765000, 1045

3580010, , INTERESTING, 19:20:24, 5745000, 1595

5560010, , EMPTY, 10:6:21:24, 3770000, 1047

3580010, , EMPTY, 15:20:24, 5760000, 1600

5570010, , EMPTY, 6:21:24, 3775000, 1048

3600010, , EMPTY, 15:20:24, 5755000, 1598

5570010, , EMPTY, 9:21:24, 3790000, 1052

3600010, , EMPTY, 17:20:24, 5770000, 1602

5580010, , EMPTY, 13:6:21:24, 3795000, 1054

3600010, , EMPTY, 19:20:24, 5785000, 1606

5600010, , INTERESTING, 2:21:24, 3790000, 1052

3610010, , EMPTY, 18:20:24, 5790000, 1608

5610010, , EMPTY, 3:21:24, 3795000, 1054

3610010, , EMPTY, 8:20:24, 5805000, 1612

5620010, , EMPTY, 1:21:24, 3800000, 1055

3620010, , INTERESTING, 17:20:24, 5810000, 1613

5620010, , INTERESTING, 6:21:24, 3815000, 1059

3620010, , EMPTY, 15:20:24, 5825000, 1618

5620010, , EMPTY, 5:6:21:24, 3830000, 1063

3630010, , EMPTY, 18:20:24, 5830000, 1619

5630010, , EMPTY, 13:6:21:24, 3835000, 1065

3630010, , EMPTY, 16:20:24, 5845000, 1623

5630010, , EMPTY, 3:21:24, 3850000, 1069

3630010, , EMPTY, 19:20:24, 5860000, 1627

5650010, , EMPTY, 9:21:24, 3845000, 1068

3630010, , EMPTY, 11:20:24, 5875000, 1631

5660010, , EMPTY, 1:21:24, 3850000, 1069

3640010, , INTERESTING, 16:20:24, 5880000, 1633

5660010, , EMPTY, 2:21:24, 3865000, 1073

3640010, , EMPTY, 4:20:24, 5895000, 1637

5670010, , EMPTY, 5:6:21:24, 3870000, 1075

3640010, , EMPTY, 18:20:24, 5910000, 1641

5680010, , EMPTY, 9:21:24, 3875000, 1076

3650010, , EMPTY, 7:20:24, 5915000, 1643

5690010, , EMPTY, 6:21:24, 3880000, 1077

3650010, , INTERESTING, 12:20:24, 5930000, 1647

5690010, , EMPTY, 10:6:21:24, 3895000, 1081

3660010, , EMPTY, 16:20:24, 5935000, 1648

5710010, , EMPTY, 13:6:21:24, 3890000, 1080

3660010, , INTERESTING, 17:20:24, 5950000, 1652

5710010, , EMPTY, 1:21:24, 3905000, 1084

3670010, , INTERESTING, 0:20:24, 5955000, 1654

5720010, , EMPTY, 9:21:24, 3910000, 1086

3680010, , INTERESTING, 19:20:24, 5960000, 1655

5730010, , EMPTY, 6:21:24, 3915000, 1087

3680010, , EMPTY, 7:20:24, 5975000, 1659

5730010, , EMPTY, 5:6:21:24, 3930000, 1091

3680010, , EMPTY, 16:20:24, 5990000, 1663

5740010, , EMPTY, 10:6:21:24, 3935000, 1093

3690010, , EMPTY, 15:20:24, 5995000, 1665

5740010, , EMPTY, 13:6:21:24, 3950000, 1097

3690010, , EMPTY, 14:18:20:24, 6010000, 1669

5740010, , EMPTY, 5:6:21:24, 3965000, 1101

3710010, , EMPTY, 0:20:24, 6005000, 1668

5750010, , INTERESTING, 3:21:24, 3970000, 1102

3710010, , EMPTY, 17:20:24, 6020000, 1672

5770010, , INTERESTING, 1:21:24, 3965000, 1101

3730010, , EMPTY, 19:20:24, 6015000, 1670

5800010, , EMPTY, 6:21:24, 3950000, 1097

3740010, , EMPTY, 12:20:24, 6020000, 1672

5800010, , INTERESTING, 3:21:24, 3965000, 1101

3750010, , EMPTY, 0:20:24, 6025000, 1673

5800010, , EMPTY, 9:21:24, 3980000, 1105

3760010, , INTERESTING, 8:20:24, 6030000, 1675

5830010, , INTERESTING, 10:6:21:24, 3965000, 1101

3760010, , EMPTY, 0:20:24, 6045000, 1679

5840010, , EMPTY, 2:21:24, 3970000, 1102

3760010, , EMPTY, 17:20:24, 6060000, 1683

5850010, , EMPTY, 10:6:21:24, 3975000, 1104

3760010, , EMPTY, 4:20:24, 6075000, 1687

5870010, , INTERESTING, 3:21:24, 3970000, 1102

3770010, , EMPTY, 0:20:24, 6080000, 1688

5890010, , EMPTY, 13:6:21:24, 3965000, 1101

3770010, , EMPTY, 12:20:24, 6095000, 1693

5900010, , EMPTY, 1:21:24, 3970000, 1102

3770010, , EMPTY, 7:20:24, 6110000, 1697

5920010, , EMPTY, 5:6:21:24, 3965000, 1101

3770010, , EMPTY, 15:20:24, 6125000, 1701

5930010, , EMPTY, 1:21:24, 3970000, 1102

3770010, , EMPTY, 18:20:24, 6140000, 1705

5930010, , EMPTY, 5:6:21:24, 3985000, 1106

3770010, , EMPTY, 8:20:24, 6155000, 1709

5930010, , EMPTY, 13:6:21:24, 4000000, 1111

3780010, , EMPTY, 17:20:24, 6160000, 1711

5930010, , EMPTY, 9:21:24, 4015000, 1115

3780010, , EMPTY, 16:20:24, 6175000, 1715

5940010, , INTERESTING, 1:21:24, 4020000, 1116

3790010, , INTERESTING, 4:20:24, 6180000, 1716

5950010, , INTERESTING, 10:6:21:24, 4025000, 1118

3800010, , EMPTY, 17:20:24, 6185000, 1718

5950010, , EMPTY, 5:6:21:24, 4040000, 1122

3820010, , EMPTY, 16:20:24, 6180000, 1716

5970010, , EMPTY, 2:21:24, 4035000, 1120

3820010, , EMPTY, 19:20:24, 6195000, 1720

5980010, , EMPTY, 10:6:21:24, 4040000, 1122

3820010, , EMPTY, 17:20:24, 6210000, 1725

5980010, , EMPTY, 5:6:21:24, 4055000, 1126

3830010, , EMPTY, 12:20:24, 6215000, 1726

5990010, , EMPTY, 3:21:24, 4060000, 1127

3830010, , EMPTY, 0:20:24, 6230000, 1730

5990010, , EMPTY, 6:21:24, 4075000, 1131

3830010, , INTERESTING, 7:20:24, 6245000, 1734

6000010, , EMPTY, 3:21:24, 4080000, 1133

3840010, , EMPTY, 15:20:24, 6250000, 1736

6020010, , INTERESTING, 10:6:21:24, 4075000, 1131

3840010, , EMPTY, 16:20:24, 6265000, 1740

6020010, , EMPTY, 3:21:24, 4090000, 1136

3850010, , EMPTY, 11:20:24, 6270000, 1741

6030010, , EMPTY, 6:21:24, 4095000, 1137

3850010, , EMPTY, 12:20:24, 6285000, 1745

6050010, , INTERESTING, 1:21:24, 4090000, 1136

3860010, , EMPTY, 4:20:24, 6290000, 1747

6060010, , EMPTY, 2:21:24, 4095000, 1137

3870010, , EMPTY, 14:18:20:24, 6295000, 1748

6070010, , INTERESTING, 10:6:21:24, 4100000, 1138

3880010, , EMPTY, 19:20:24, 6300000, 1750

6070010, , EMPTY, 2:21:24, 4115000, 1143

3880010, , EMPTY, 18:20:24, 6315000, 1754

6070010, , EMPTY, 5:6:21:24, 4130000, 1147

3880010, , EMPTY, 14:18:20:24, 6330000, 1758

6090010, , EMPTY, 6:21:24, 4125000, 1145

3880010, , INTERESTING, 15:20:24, 6345000, 1762

6110010, , EMPTY, 10:6:21:24, 4120000, 1144

3890010, , EMPTY, 17:20:24, 6350000, 1763

6120010, , EMPTY, 13:6:21:24, 4125000, 1145

3890010, , EMPTY, 0:20:24, 6365000, 1768

6130010, , INTERESTING, 1:21:24, 4130000, 1147

3890010, , EMPTY, 19:20:24, 6380000, 1772

6150010, , EMPTY, 2:21:24, 4125000, 1145

3900010, , EMPTY, 14:18:20:24, 6385000, 1773

6150010, , EMPTY, 10:6:21:24, 4140000, 1150

3900010, , INTERESTING, 7:20:24, 6400000, 1777

6150010, , EMPTY, 13:6:21:24, 4155000, 1154

3900010, , EMPTY, 8:20:24, 6415000, 1781

6160010, , INTERESTING, 10:6:21:24, 4160000, 1155

3910010, , INTERESTING, 16:20:24, 6420000, 1783

6170010, , EMPTY, 6:21:24, 4165000, 1156

3930010, , EMPTY, 18:20:24, 6415000, 1781

6170010, , INTERESTING, 1:21:24, 4180000, 1161

3930010, , EMPTY, 17:20:24, 6430000, 1786

6170010, , EMPTY, 2:21:24, 4195000, 1165

3940010, , INTERESTING, 18:20:24, 6435000, 1787

6180010, , EMPTY, 13:6:21:24, 4200000, 1166

3960010, , INTERESTING, 15:20:24, 6430000, 1786

6190010, , EMPTY, 9:21:24, 4205000, 1168

3960010, , EMPTY, 14:18:20:24, 6445000, 1790

6200010, , INTERESTING, 5:6:21:24, 4210000, 1169

3970010, , EMPTY, 17:20:24, 6450000, 1791

6210010, , EMPTY, 9:21:24, 4215000, 1170

3970010, , EMPTY, 4:20:24, 6465000, 1795

6210010, , EMPTY, 10:6:21:24, 4230000, 1175

3980010, , EMPTY, 14:18:20:24, 6470000, 1797

6230010, , EMPTY, 6:21:24, 4225000, 1173

3990010, , EMPTY, 0:20:24, 6475000, 1798

6240010, , INTERESTING, 6:21:24, 4230000, 1175

3990010, , EMPTY, 7:20:24, 6490000, 1802

6240010, , EMPTY, 13:6:21:24, 4245000, 1179

4000010, , EMPTY, 15:20:24, 6495000, 1804

6250010, , EMPTY, 13:6:21:24, 4250000, 1180

4000010, , EMPTY, 0:20:24, 6510000, 1808

6260010, , EMPTY, 5:6:21:24, 4255000, 1181

4000010, , EMPTY, 17:20:24, 6525000, 1812

6270010, , INTERESTING, 9:21:24, 4260000, 1183

4010010, , INTERESTING, 8:20:24, 6530000, 1813

6270010, , INTERESTING, 1:21:24, 4275000, 1187

4010010, , EMPTY, 15:20:24, 6545000, 1818

6280010, , EMPTY, 3:21:24, 4280000, 1188

4010010, , EMPTY, 11:20:24, 6560000, 1822

6300010, , EMPTY, 1:21:24, 4275000, 1187

4020010, , INTERESTING, 8:20:24, 6565000, 1823

6300010, , EMPTY, 6:21:24, 4290000, 1191

4030010, , EMPTY, 8:20:24, 6570000, 1825

6300010, , EMPTY, 9:21:24, 4305000, 1195

4030010, , INTERESTING, 0:20:24, 6585000, 1829

6300010, , EMPTY, 2:21:24, 4320000, 1200

4040010, , EMPTY, 4:20:24, 6590000, 1830

6310010, , EMPTY, 1:21:24, 4325000, 1201

4040010, , EMPTY, 12:20:24, 6605000, 1834

6330010, , INTERESTING, 6:21:24, 4320000, 1200

4040010, , EMPTY, 15:20:24, 6620000, 1838

6330010, , EMPTY, 5:6:21:24, 4335000, 1204

4050010, , EMPTY, 4:20:24, 6625000, 1840

6340010, , EMPTY, 13:6:21:24, 4340000, 1205

4050010, , EMPTY, 8:20:24, 6640000, 1844

6340010, , EMPTY, 3:21:24, 4355000, 1209

4050010, , EMPTY, 19:20:24, 6655000, 1848

6350010, , EMPTY, 9:21:24, 4360000, 1211

4050010, , INTERESTING, 11:20:24, 6670000, 1852

6350010, , INTERESTING, 5:6:21:24, 4375000, 1215

4060010, , EMPTY, 12:20:24, 6675000, 1854

6360010, , EMPTY, 1:21:24, 4380000, 1216

4070010, , EMPTY, 17:20:24, 6680000, 1855

6360010, , EMPTY, 2:21:24, 4395000, 1220

4070010, , INTERESTING, 15:20:24, 6695000, 1859

6370010, , EMPTY, 13:6:21:24, 4400000, 1222

4080010, , EMPTY, 8:20:24, 6700000, 1861

6380010, , EMPTY, 10:6:21:24, 4405000, 1223

4080010, , EMPTY, 16:20:24, 6715000, 1865

6400010, , EMPTY, 1:21:24, 4400000, 1222

4080010, , EMPTY, 4:20:24, 6730000, 1869

6400010, , EMPTY, 5:6:21:24, 4415000, 1226

4090010, , EMPTY, 19:20:24, 6735000, 1870

6410010, , INTERESTING, 6:21:24, 4420000, 1227

4090010, , EMPTY, 8:20:24, 6750000, 1875

6410010, , EMPTY, 9:21:24, 4435000, 1231

4090010, , EMPTY, 17:20:24, 6765000, 1879

6420010, , EMPTY, 10:6:21:24, 4440000, 1233

4100010, , EMPTY, 0:20:24, 6770000, 1880

6450010, , EMPTY, 2:21:24, 4425000, 1229

4110010, , EMPTY, 15:20:24, 6775000, 1881

6460010, , EMPTY, 2:21:24, 4430000, 1230

4120010, , EMPTY, 19:20:24, 6780000, 1883

6470010, , EMPTY, 6:21:24, 4435000, 1231

4140010, , EMPTY, 11:20:24, 6775000, 1881

6480010, , EMPTY, 1:21:24, 4440000, 1233

4140010, , EMPTY, 8:20:24, 6790000, 1886

6480010, , EMPTY, 5:6:21:24, 4455000, 1237

4150010, , EMPTY, 18:20:24, 6795000, 1887

6490010, , EMPTY, 13:6:21:24, 4460000, 1238

4160010, , EMPTY, 11:20:24, 6800000, 1888

6500010, , EMPTY, 1:21:24, 4465000, 1240

4160010, , EMPTY, 16:20:24, 6815000, 1893

6510010, , EMPTY, 9:21:24, 4470000, 1241

4170010, , EMPTY, 8:20:24, 6820000, 1894

6520010, , EMPTY, 9:21:24, 4475000, 1243

4180010, , EMPTY, 7:20:24, 6825000, 1895

6540010, , INTERESTING, 3:21:24, 4470000, 1241

4190010, , EMPTY, 14:18:20:24, 6830000, 1897

6540010, , EMPTY, 5:6:21:24, 4485000, 1245

4200010, , EMPTY, 14:18:20:24, 6835000, 1898

6570010, , INTERESTING, 1:21:24, 4470000, 1241

4200010, , EMPTY, 19:20:24, 6850000, 1902

6580010, , INTERESTING, 3:21:24, 4475000, 1243

4210010, , EMPTY, 15:20:24, 6855000, 1904

6610010, , EMPTY, 1:21:24, 4460000, 1238

4210010, , EMPTY, 11:20:24, 6870000, 1908

6620010, , EMPTY, 2:21:24, 4465000, 1240

4230010, , EMPTY, 15:20:24, 6865000, 1906

6620010, , EMPTY, 6:21:24, 4480000, 1244

4230010, , EMPTY, 0:20:24, 6880000, 1911

6620010, , EMPTY, 10:6:21:24, 4495000, 1248

4240010, , EMPTY, 14:18:20:24, 6885000, 1912

6630010, , EMPTY, 2:21:24, 4500000, 1250

4250010, , EMPTY, 17:20:24, 6890000, 1913

6630010, , INTERESTING, 10:6:21:24, 4515000, 1254

4260010, , EMPTY, 14:18:20:24, 6895000, 1915

6630010, , EMPTY, 3:21:24, 4530000, 1258

4260010, , INTERESTING, 7:20:24, 6910000, 1919

6650010, , EMPTY, 2:21:24, 4525000, 1256

4270010, , INTERESTING, 15:20:24, 6915000, 1920

6650010, , EMPTY, 13:6:21:24, 4540000, 1261

4270010, , EMPTY, 8:20:24, 6930000, 1925

6670010, , INTERESTING, 13:6:21:24, 4535000, 1259

4280010, , EMPTY, 16:20:24, 6935000, 1926

6690010, , EMPTY, 5:6:21:24, 4530000, 1258

4280010, , INTERESTING, 15:20:24, 6950000, 1930

6690010, , EMPTY, 10:6:21:24, 4545000, 1262

4290010, , EMPTY, 19:20:24, 6955000, 1931

6690010, , EMPTY, 2:21:24, 4560000, 1266

4290010, , EMPTY, 17:20:24, 6970000, 1936

6710010, , EMPTY, 5:6:21:24, 4555000, 1265

4290010, , INTERESTING, 16:20:24, 6985000, 1940

6730010, , EMPTY, 1:21:24, 4550000, 1263

4300010, , EMPTY, 18:20:24, 6990000, 1941

6730010, , EMPTY, 5:6:21:24, 4565000, 1268

4300010, , INTERESTING, 12:20:24, 7005000, 1945

6740010, , EMPTY, 10:6:21:24, 4570000, 1269

4300010, , EMPTY, 8:20:24, 7020000, 1950

6740010, , INTERESTING, 13:6:21:24, 4585000, 1273

4310010, , EMPTY, 15:20:24, 7025000, 1951

6750010, , EMPTY, 1:21:24, 4590000, 1275

4320010, , EMPTY, 0:20:24, 7030000, 1952

6760010, , EMPTY, 10:6:21:24, 4595000, 1276

4320010, , INTERESTING, 11:20:24, 7045000, 1956

6780010, , EMPTY, 5:6:21:24, 4590000, 1275

4330010, , EMPTY, 18:20:24, 7050000, 1958

6800010, , EMPTY, 2:21:24, 4585000, 1273

4340010, , INTERESTING, 12:20:24, 7055000, 1959

6820010, , EMPTY, 10:6:21:24, 4580000, 1272

4340010, , INTERESTING, 17:20:24, 7070000, 1963

6820010, , EMPTY, 13:6:21:24, 4595000, 1276

4340010, , EMPTY, 19:20:24, 7085000, 1968

6830010, , EMPTY, 9:21:24, 4600000, 1277

4350010, , EMPTY, 18:20:24, 7090000, 1969

6870010, , EMPTY, 10:6:21:24, 4575000, 1270

4350010, , EMPTY, 14:18:20:24, 7105000, 1973

6880010, , EMPTY, 10:6:21:24, 4580000, 1272

4360010, , EMPTY, 18:20:24, 7110000, 1975

6890010, , EMPTY, 10:6:21:24, 4585000, 1273

4370010, , EMPTY, 17:20:24, 7115000, 1976

6900010, , EMPTY, 9:21:24, 4590000, 1275

4370010, , EMPTY, 12:20:24, 7130000, 1980

6910010, , INTERESTING, 9:21:24, 4595000, 1276

4380010, , EMPTY, 7:20:24, 7135000, 1981

6920010, , EMPTY, 3:21:24, 4600000, 1277

4380010, , EMPTY, 17:20:24, 7150000, 1986

6920010, , EMPTY, 5:6:21:24, 4615000, 1281

4380010, , EMPTY, 18:20:24, 7165000, 1990

6930010, , EMPTY, 1:21:24, 4620000, 1283

4400010, , EMPTY, 7:20:24, 7160000, 1988

6940010, , EMPTY, 9:21:24, 4625000, 1284

4400010, , EMPTY, 4:20:24, 7175000, 1993

6960010, , INTERESTING, 9:21:24, 4620000, 1283

4400010, , INTERESTING, 19:20:24, 7190000, 1997

6990010, , EMPTY, 3:21:24, 4605000, 1279

4410010, , EMPTY, 16:20:24, 7195000, 1998

7000010, , INTERESTING, 2:21:24, 4610000, 1280

4410010, , EMPTY, 0:20:24, 7210000, 2002

7000010, , INTERESTING, 3:21:24, 4625000, 1284

4410010, , INTERESTING, 8:20:24, 7225000, 2006

7000010, , EMPTY, 13:6:21:24, 4640000, 1288

4420010, , INTERESTING, 16:20:24, 7230000, 2008

7020010, , EMPTY, 6:21:24, 4635000, 1287

4420010, , EMPTY, 17:20:24, 7245000, 2012

7020010, , EMPTY, 10:6:21:24, 4650000, 1291

4430010, , EMPTY, 12:20:24, 7250000, 2013

7030010, , EMPTY, 1:21:24, 4655000, 1293

4440010, , EMPTY, 7:20:24, 7255000, 2015

7050010, , EMPTY, 2:21:24, 4650000, 1291

4450010, , EMPTY, 12:20:24, 7260000, 2016

7060010, , EMPTY, 3:21:24, 4655000, 1293

4450010, , INTERESTING, 4:20:24, 7275000, 2020

7090010, , EMPTY, 3:21:24, 4640000, 1288

4460010, , EMPTY, 12:20:24, 7280000, 2022

7090010, , INTERESTING, 6:21:24, 4655000, 1293

4460010, , INTERESTING, 11:20:24, 7295000, 2026

7100010, , EMPTY, 13:6:21:24, 4660000, 1294

4460010, , EMPTY, 19:20:24, 7310000, 2030

7120010, , EMPTY, 3:21:24, 4655000, 1293

4480010, , INTERESTING, 0:20:24, 7305000, 2029

7140010, , INTERESTING, 1:21:24, 4650000, 1291

4490010, , EMPTY, 14:18:20:24, 7310000, 2030

7160010, , EMPTY, 6:21:24, 4645000, 1290

4490010, , EMPTY, 0:20:24, 7325000, 2034

7160010, , EMPTY, 10:6:21:24, 4660000, 1294

4510010, , INTERESTING, 16:20:24, 7320000, 2033

7160010, , EMPTY, 13:6:21:24, 4675000, 1298

4510010, , EMPTY, 4:20:24, 7335000, 2037

7180010, , EMPTY, 2:21:24, 4670000, 1297

4520010, , EMPTY, 12:20:24, 7340000, 2038

7180010, , INTERESTING, 9:21:24, 4685000, 1301

4530010, , INTERESTING, 8:20:24, 7345000, 2040

7180010, , EMPTY, 1:21:24, 4700000, 1305

4530010, , EMPTY, 14:18:20:24, 7360000, 2044

7190010, , INTERESTING, 2:21:24, 4705000, 1306

4540010, , EMPTY, 12:20:24, 7365000, 2045

7220010, , EMPTY, 3:21:24, 4690000, 1302

4540010, , EMPTY, 16:20:24, 7380000, 2050

7220010, , EMPTY, 9:21:24, 4705000, 1306

4540010, , EMPTY, 14:18:20:24, 7395000, 2054

7220010, , EMPTY, 2:21:24, 4720000, 1311

4540010, , EMPTY, 8:20:24, 7410000, 2058

7240010, , EMPTY, 1:21:24, 4715000, 1309

4550010, , EMPTY, 11:20:24, 7415000, 2059

7240010, , EMPTY, 5:6:21:24, 4730000, 1313

4550010, , EMPTY, 17:20:24, 7430000, 2063

7250010, , EMPTY, 5:6:21:24, 4735000, 1315

4560010, , EMPTY, 15:20:24, 7435000, 2065

7250010, , EMPTY, 1:21:24, 4750000, 1319

4560010, , EMPTY, 11:20:24, 7450000, 2069

7250010, , EMPTY, 3:21:24, 4765000, 1323

4560010, , EMPTY, 14:18:20:24, 7465000, 2073

7250010, , INTERESTING, 10:6:21:24, 4780000, 1327

4560010, , EMPTY, 19:20:24, 7480000, 2077

7270010, , EMPTY, 6:21:24, 4775000, 1326

4570010, , EMPTY, 0:20:24, 7485000, 2079

7270010, , EMPTY, 5:6:21:24, 4790000, 1330

4580010, , INTERESTING, 4:20:24, 7490000, 2080

7290010, , INTERESTING, 9:21:24, 4785000, 1329

4590010, , INTERESTING, 12:20:24, 7495000, 2081

7310010, , EMPTY, 1:21:24, 4780000, 1327

4600010, , EMPTY, 15:20:24, 7500000, 2083

7330010, , INTERESTING, 3:21:24, 4775000, 1326

4600010, , INTERESTING, 17:20:24, 7515000, 2087

7340010, , EMPTY, 6:21:24, 4780000, 1327

4600010, , EMPTY, 7:20:24, 7530000, 2091

7340010, , EMPTY, 2:21:24, 4795000, 1331

4610010, , EMPTY, 12:20:24, 7535000, 2093

7340010, , INTERESTING, 1:21:24, 4810000, 1336

4610010, , EMPTY, 15:20:24, 7550000, 2097

7390010, , EMPTY, 6:21:24, 4775000, 1326

4620010, , EMPTY, 4:20:24, 7555000, 2098

7390010, , INTERESTING, 3:21:24, 4790000, 1330

4620010, , EMPTY, 7:20:24, 7570000, 2102

7390010, , EMPTY, 5:6:21:24, 4805000, 1334

4620010, , EMPTY, 17:20:24, 7585000, 2106

7390010, , INTERESTING, 13:6:21:24, 4820000, 1338

4630010, , EMPTY, 0:20:24, 7590000, 2108

7400010, , EMPTY, 9:21:24, 4825000, 1340

4640010, , INTERESTING, 0:20:24, 7595000, 2109

7420010, , EMPTY, 2:21:24, 4820000, 1338

4650010, , EMPTY, 4:20:24, 7600000, 2111

7430010, , EMPTY, 2:21:24, 4825000, 1340

4650010, , INTERESTING, 11:20:24, 7615000, 2115

7430010, , EMPTY, 9:21:24, 4840000, 1344

4660010, , EMPTY, 0:20:24, 7620000, 2116

7430010, , EMPTY, 5:6:21:24, 4855000, 1348

4660010, , INTERESTING, 4:20:24, 7635000, 2120

7440010, , INTERESTING, 1:21:24, 4860000, 1350

4660010, , EMPTY, 12:20:24, 7650000, 2125

7450010, , INTERESTING, 3:21:24, 4865000, 1351

4670010, , EMPTY, 14:18:20:24, 7655000, 2126

7450010, , EMPTY, 10:6:21:24, 4880000, 1355

4670010, , EMPTY, 0:20:24, 7670000, 2130

7460010, , INTERESTING, 6:21:24, 4885000, 1356

4670010, , EMPTY, 16:20:24, 7685000, 2134

7460010, , EMPTY, 2:21:24, 4900000, 1361

4680010, , INTERESTING, 18:20:24, 7690000, 2136

7460010, , INTERESTING, 9:21:24, 4915000, 1365

4680010, , EMPTY, 14:18:20:24, 7705000, 2140

7460010, , EMPTY, 13:6:21:24, 4930000, 1369

4680010, , EMPTY, 7:20:24, 7720000, 2144

7470010, , EMPTY, 6:21:24, 4935000, 1370

4690010, , EMPTY, 8:20:24, 7725000, 2145

7470010, , INTERESTING, 2:21:24, 4950000, 1375

4700010, , INTERESTING, 8:20:24, 7730000, 2147

7480010, , EMPTY, 5:6:21:24, 4955000, 1376

4700010, , EMPTY, 0:20:24, 7745000, 2151

7490010, , EMPTY, 9:21:24, 4960000, 1377

4700010, , EMPTY, 4:20:24, 7760000, 2155

7510010, , EMPTY, 9:21:24, 4955000, 1376

4710010, , EMPTY, 8:20:24, 7765000, 2156

7520010, , INTERESTING, 9:21:24, 4960000, 1377

4720010, , EMPTY, 0:20:24, 7770000, 2158

7520010, , EMPTY, 13:6:21:24, 4975000, 1381

4730010, , EMPTY, 19:20:24, 7775000, 2159

7530010, , EMPTY, 6:21:24, 4980000, 1383

4730010, , EMPTY, 0:20:24, 7790000, 2163

7540010, , INTERESTING, 3:21:24, 4985000, 1384

4740010, , EMPTY, 17:20:24, 7795000, 2165

7550010, , INTERESTING, 3:21:24, 4990000, 1386

4740010, , EMPTY, 19:20:24, 7810000, 2169

7560010, , EMPTY, 6:21:24, 4995000, 1387

4750010, , EMPTY, 15:20:24, 7815000, 2170

7560010, , EMPTY, 2:21:24, 5010000, 1391

4750010, , EMPTY, 4:20:24, 7830000, 2175

7570010, , INTERESTING, 3:21:24, 5015000, 1393

4760010, , EMPTY, 18:20:24, 7835000, 2176

7580010, , EMPTY, 6:21:24, 5020000, 1394

4760010, , INTERESTING, 19:20:24, 7850000, 2180

7610010, , EMPTY, 6:21:24, 5005000, 1390

4760010, , EMPTY, 17:20:24, 7865000, 2184

7610010, , EMPTY, 5:6:21:24, 5020000, 1394

4770010, , EMPTY, 11:20:24, 7870000, 2186

7610010, , EMPTY, 1:21:24, 5035000, 1398

4780010, , EMPTY, 16:20:24, 7875000, 2187

7620010, , EMPTY, 2:21:24, 5040000, 1400

4780010, , EMPTY, 8:20:24, 7890000, 2191

7630010, , EMPTY, 10:6:21:24, 5045000, 1401

4790010, , EMPTY, 14:18:20:24, 7895000, 2193

7630010, , EMPTY, 9:21:24, 5060000, 1405

4790010, , EMPTY, 16:20:24, 7910000, 2197

7640010, , INTERESTING, 10:6:21:24, 5065000, 1406

4800010, , INTERESTING, 15:20:24, 7915000, 2198

7640010, , EMPTY, 13:6:21:24, 5080000, 1411

4800010, , INTERESTING, 8:20:24, 7930000, 2202

7670010, , INTERESTING, 5:6:21:24, 5065000, 1406

4810010, , INTERESTING, 11:20:24, 7935000, 2204

7680010, , INTERESTING, 6:21:24, 5070000, 1408

4820010, , EMPTY, 18:20:24, 7940000, 2205

7680010, , EMPTY, 10:6:21:24, 5085000, 1412

4820010, , EMPTY, 4:20:24, 7955000, 2209

7690010, , INTERESTING, 1:21:24, 5090000, 1413

4820010, , EMPTY, 14:18:20:24, 7970000, 2213

7700010, , EMPTY, 10:6:21:24, 5095000, 1415

4830010, , INTERESTING, 16:20:24, 7975000, 2215

7710010, , EMPTY, 13:6:21:24, 5100000, 1416

4840010, , EMPTY, 12:20:24, 7980000, 2216

7720010, , EMPTY, 5:6:21:24, 5105000, 1418

4840010, , EMPTY, 0:20:24, 7995000, 2220

7730010, , EMPTY, 5:6:21:24, 5110000, 1419

4850010, , EMPTY, 19:20:24, 8000000, 2222

7730010, , EMPTY, 3:21:24, 5125000, 1423

4860010, , INTERESTING, 19:20:24, 8005000, 2223

7750010, , INTERESTING, 1:21:24, 5120000, 1422

4860010, , INTERESTING, 12:20:24, 8020000, 2227

7760010, , INTERESTING, 6:21:24, 5125000, 1423

4870010, , EMPTY, 7:20:24, 8025000, 2229

7760010, , EMPTY, 5:6:21:24, 5140000, 1427

4870010, , INTERESTING, 16:20:24, 8040000, 2233

7760010, , EMPTY, 13:6:21:24, 5155000, 1431

4880010, , EMPTY, 11:20:24, 8045000, 2234

7770010, , EMPTY, 9:21:24, 5160000, 1433

4880010, , EMPTY, 0:20:24, 8060000, 2238

7780010, , EMPTY, 5:6:21:24, 5165000, 1434

4880010, , EMPTY, 7:20:24, 8075000, 2243

7790010, , INTERESTING, 1:21:24, 5170000, 1436

4890010, , EMPTY, 14:18:20:24, 8080000, 2244

7800010, , EMPTY, 3:21:24, 5175000, 1437

4900010, , INTERESTING, 8:20:24, 8085000, 2245

7820010, , EMPTY, 5:6:21:24, 5170000, 1436

4900010, , EMPTY, 4:20:24, 8100000, 2250

7820010, , EMPTY, 10:6:21:24, 5185000, 1440

4900010, , EMPTY, 15:20:24, 8115000, 2254

7830010, , INTERESTING, 2:21:24, 5190000, 1441

4910010, , INTERESTING, 4:20:24, 8120000, 2255

7830010, , EMPTY, 5:6:21:24, 5205000, 1445

4910010, , EMPTY, 8:20:24, 8135000, 2259

7860010, , INTERESTING, 3:21:24, 5190000, 1441

4920010, , EMPTY, 14:18:20:24, 8140000, 2261

7860010, , EMPTY, 1:21:24, 5205000, 1445

4930010, , EMPTY, 11:20:24, 8145000, 2262

7880010, , EMPTY, 13:6:21:24, 5200000, 1444

4930010, , EMPTY, 15:20:24, 8160000, 2266

7900010, , EMPTY, 10:6:21:24, 5195000, 1443

4930010, , EMPTY, 4:20:24, 8175000, 2270

7920010, , EMPTY, 3:21:24, 5190000, 1441

4930010, , EMPTY, 16:20:24, 8190000, 2275

7930010, , EMPTY, 9:21:24, 5195000, 1443

4930010, , EMPTY, 8:20:24, 8205000, 2279

7930010, , EMPTY, 10:6:21:24, 5210000, 1447

4940010, , EMPTY, 17:20:24, 8210000, 2280

7930010, , EMPTY, 2:21:24, 5225000, 1451

4940010, , EMPTY, 11:20:24, 8225000, 2284

7950010, , EMPTY, 13:6:21:24, 5220000, 1450

4960010, , EMPTY, 0:20:24, 8220000, 2283

7950010, , EMPTY, 3:21:24, 5235000, 1454

4960010, , EMPTY, 17:20:24, 8235000, 2287

7980010, , EMPTY, 1:21:24, 5220000, 1450

4960010, , EMPTY, 15:20:24, 8250000, 2291

7990010, , EMPTY, 1:21:24, 5225000, 1451

4970010, , EMPTY, 17:20:24, 8255000, 2293

7990010, , EMPTY, 10:6:21:24, 5240000, 1455

4970010, , EMPTY, 12:20:24, 8270000, 2297

8010010, , EMPTY, 6:21:24, 5235000, 1454

4970010, , EMPTY, 4:20:24, 8285000, 2301

8010010, , EMPTY, 5:6:21:24, 5250000, 1458

4970010, , INTERESTING, 19:20:24, 8300000, 2305

8010010, , EMPTY, 9:21:24, 5265000, 1462

4970010, , EMPTY, 0:20:24, 8315000, 2309

8030010, , INTERESTING, 10:6:21:24, 5260000, 1461

4980010, , EMPTY, 11:20:24, 8320000, 2311

8030010, , EMPTY, 5:6:21:24, 5275000, 1465

5000010, , EMPTY, 17:20:24, 8315000, 2309

8030010, , EMPTY, 1:21:24, 5290000, 1469

5000010, , EMPTY, 14:18:20:24, 8330000, 2313

8040010, , EMPTY, 2:21:24, 5295000, 1470

5020010, , INTERESTING, 12:20:24, 8325000, 2312

8050010, , EMPTY, 13:6:21:24, 5300000, 1472

5040010, , EMPTY, 16:20:24, 8320000, 2311

8060010, , EMPTY, 3:21:24, 5305000, 1473

5040010, , EMPTY, 15:20:24, 8335000, 2315

8070010, , EMPTY, 6:21:24, 5310000, 1475

5050010, , INTERESTING, 16:20:24, 8340000, 2316

8090010, , EMPTY, 6:21:24, 5305000, 1473

5060010, , INTERESTING, 17:20:24, 8345000, 2318

8090010, , EMPTY, 13:6:21:24, 5320000, 1477

5060010, , EMPTY, 7:20:24, 8360000, 2322

8090010, , INTERESTING, 10:6:21:24, 5335000, 1481

5060010, , INTERESTING, 16:20:24, 8375000, 2326

8100010, , EMPTY, 5:6:21:24, 5340000, 1483

5070010, , EMPTY, 18:20:24, 8380000, 2327

8100010, , EMPTY, 13:6:21:24, 5355000, 1487

5070010, , EMPTY, 11:20:24, 8395000, 2331

8110010, , EMPTY, 9:21:24, 5360000, 1488

5080010, , INTERESTING, 4:20:24, 8400000, 2333

8110010, , INTERESTING, 10:6:21:24, 5375000, 1493

5080010, , EMPTY, 17:20:24, 8415000, 2337

8120010, , EMPTY, 1:21:24, 5380000, 1494

5090010, , EMPTY, 18:20:24, 8420000, 2338

8120010, , EMPTY, 3:21:24, 5395000, 1498

5090010, , EMPTY, 15:20:24, 8435000, 2343

8130010, , EMPTY, 5:6:21:24, 5400000, 1500

5120010, , EMPTY, 12:20:24, 8420000, 2338

8170010, , INTERESTING, 9:21:24, 5375000, 1493

5130010, , EMPTY, 18:20:24, 8425000, 2340

8170010, , EMPTY, 2:21:24, 5390000, 1497

5130010, , EMPTY, 8:20:24, 8440000, 2344

8180010, , EMPTY, 10:6:21:24, 5395000, 1498

5140010, , EMPTY, 7:20:24, 8445000, 2345

8190010, , EMPTY, 6:21:24, 5400000, 1500

5140010, , EMPTY, 19:20:24, 8460000, 2350

8190010, , EMPTY, 5:6:21:24, 5415000, 1504

5150010, , INTERESTING, 4:20:24, 8465000, 2351

8200010, , INTERESTING, 9:21:24, 5420000, 1505

5150010, , EMPTY, 18:20:24, 8480000, 2355

8210010, , EMPTY, 13:6:21:24, 5425000, 1506

5150010, , EMPTY, 7:20:24, 8495000, 2359

8210010, , INTERESTING, 9:21:24, 5440000, 1511

5160010, , EMPTY, 4:20:24, 8500000, 2361

8220010, , EMPTY, 13:6:21:24, 5445000, 1512

5160010, , EMPTY, 0:20:24, 8515000, 2365

8240010, , EMPTY, 13:6:21:24, 5440000, 1511

5170010, , EMPTY, 17:20:24, 8520000, 2366

8270010, , EMPTY, 6:21:24, 5425000, 1506

5170010, , EMPTY, 18:20:24, 8535000, 2370

8310010, , INTERESTING, 13:6:21:24, 5400000, 1500

5180010, , EMPTY, 12:20:24, 8540000, 2372

8310010, , EMPTY, 1:21:24, 5415000, 1504

5180010, , EMPTY, 15:20:24, 8555000, 2376

8320010, , INTERESTING, 9:21:24, 5420000, 1505

5190010, , EMPTY, 19:20:24, 8560000, 2377

8320010, , EMPTY, 10:6:21:24, 5435000, 1509

5190010, , EMPTY, 12:20:24, 8575000, 2381

8320010, , EMPTY, 3:21:24, 5450000, 1513

5190010, , EMPTY, 4:20:24, 8590000, 2386

8330010, , EMPTY, 2:21:24, 5455000, 1515

5200010, , EMPTY, 7:20:24, 8595000, 2387

8340010, , INTERESTING, 5:6:21:24, 5460000, 1516

5200010, , EMPTY, 16:20:24, 8610000, 2391

8350010, , EMPTY, 9:21:24, 5465000, 1518

5200010, , EMPTY, 14:18:20:24, 8625000, 2395

8350010, , EMPTY, 13:6:21:24, 5480000, 1522

5210010, , INTERESTING, 19:20:24, 8630000, 2397

8390010, , INTERESTING, 9:21:24, 5455000, 1515

5220010, , EMPTY, 17:20:24, 8635000, 2398

8400010, , EMPTY, 9:21:24, 5460000, 1516

5230010, , EMPTY, 7:20:24, 8640000, 2400

8410010, , EMPTY, 10:6:21:24, 5465000, 1518

5250010, , EMPTY, 16:20:24, 8635000, 2398

8420010, , EMPTY, 10:6:21:24, 5470000, 1519

5250010, , EMPTY, 8:20:24, 8650000, 2402

8430010, , EMPTY, 3:21:24, 5475000, 1520

5260010, , EMPTY, 11:20:24, 8655000, 2404

8430010, , EMPTY, 1:21:24, 5490000, 1525

5270010, , EMPTY, 7:20:24, 8660000, 2405

8450010, , EMPTY, 9:21:24, 5485000, 1523

5270010, , EMPTY, 12:20:24, 8675000, 2409

8460010, , EMPTY, 5:6:21:24, 5490000, 1525

5280010, , EMPTY, 11:20:24, 8680000, 2411

8470010, , EMPTY, 5:6:21:24, 5495000, 1526

5290010, , EMPTY, 0:20:24, 8685000, 2412

8470010, , EMPTY, 10:6:21:24, 5510000, 1530

5300010, , EMPTY, 0:20:24, 8690000, 2413

8490010, , EMPTY, 6:21:24, 5505000, 1529

5300010, , INTERESTING, 19:20:24, 8705000, 2418

8490010, , EMPTY, 5:6:21:24, 5520000, 1533

5310010, , INTERESTING, 0:20:24, 8710000, 2419

8500010, , EMPTY, 3:21:24, 5525000, 1534

5320010, , INTERESTING, 19:20:24, 8715000, 2420

8500010, , EMPTY, 1:21:24, 5540000, 1538

5330010, , EMPTY, 18:20:24, 8720000, 2422

8510010, , EMPTY, 3:21:24, 5545000, 1540

5350010, , EMPTY, 7:20:24, 8715000, 2420

8510010, , EMPTY, 2:21:24, 5560000, 1544

5360010, , EMPTY, 19:20:24, 8720000, 2422

8520010, , EMPTY, 1:21:24, 5565000, 1545

5360010, , EMPTY, 15:20:24, 8735000, 2426

8530010, , EMPTY, 1:21:24, 5570000, 1547

5380010, , EMPTY, 17:20:24, 8730000, 2425

8540010, , INTERESTING, 6:21:24, 5575000, 1548

5380010, , INTERESTING, 16:20:24, 8745000, 2429

8550010, , INTERESTING, 3:21:24, 5580000, 1550

5380010, , EMPTY, 0:20:24, 8760000, 2433

8550010, , EMPTY, 10:6:21:24, 5595000, 1554

5390010, , EMPTY, 17:20:24, 8765000, 2434

8560010, , EMPTY, 9:21:24, 5600000, 1555

5400010, , EMPTY, 4:20:24, 8770000, 2436

8570010, , EMPTY, 9:21:24, 5605000, 1556

5400010, , EMPTY, 19:20:24, 8785000, 2440

8580010, , INTERESTING, 10:6:21:24, 5610000, 1558

5400010, , EMPTY, 18:20:24, 8800000, 2444

8580010, , EMPTY, 3:21:24, 5625000, 1562

5410010, , EMPTY, 11:20:24, 8805000, 2445

8590010, , INTERESTING, 10:6:21:24, 5630000, 1563

5420010, , EMPTY, 4:20:24, 8810000, 2447

8610010, , EMPTY, 6:21:24, 5625000, 1562

5430010, , INTERESTING, 11:20:24, 8815000, 2448

8620010, , INTERESTING, 3:21:24, 5630000, 1563

5430010, , EMPTY, 16:20:24, 8830000, 2452

8620010, , EMPTY, 6:21:24, 5645000, 1568

5430010, , INTERESTING, 8:20:24, 8845000, 2456

8620010, , EMPTY, 5:6:21:24, 5660000, 1572

5430010, , EMPTY, 7:20:24, 8860000, 2461

8630010, , EMPTY, 3:21:24, 5665000, 1573

5440010, , INTERESTING, 11:20:24, 8865000, 2462

8640010, , EMPTY, 3:21:24, 5670000, 1575

5440010, , EMPTY, 4:20:24, 8880000, 2466

8640010, , INTERESTING, 2:21:24, 5685000, 1579

5450010, , EMPTY, 11:20:24, 8885000, 2468

8650010, , EMPTY, 1:21:24, 5690000, 1580

5450010, , EMPTY, 19:20:24, 8900000, 2472

8650010, , EMPTY, 3:21:24, 5705000, 1584

5460010, , EMPTY, 16:20:24, 8905000, 2473

8660010, , EMPTY, 10:6:21:24, 5710000, 1586

5460010, , EMPTY, 18:20:24, 8920000, 2477

8660010, , INTERESTING, 1:21:24, 5725000, 1590

5470010, , EMPTY, 7:20:24, 8925000, 2479

8660010, , EMPTY, 9:21:24, 5740000, 1594

5470010, , EMPTY, 8:20:24, 8940000, 2483

8670010, , EMPTY, 2:21:24, 5745000, 1595

5480010, , INTERESTING, 19:20:24, 8945000, 2484

8720010, , EMPTY, 10:6:21:24, 5710000, 1586

5480010, , INTERESTING, 7:20:24, 8960000, 2488

8740010, , EMPTY, 13:6:21:24, 5705000, 1584

5480010, , EMPTY, 11:20:24, 8975000, 2493

8740010, , EMPTY, 5:6:21:24, 5720000, 1588

5500010, , EMPTY, 11:20:24, 8970000, 2491

8740010, , EMPTY, 10:6:21:24, 5735000, 1593

5500010, , EMPTY, 19:20:24, 8985000, 2495

8750010, , EMPTY, 13:6:21:24, 5740000, 1594

5500010, , EMPTY, 7:20:24, 9000000, 2500

8750010, , EMPTY, 1:21:24, 5755000, 1598

5510010, , EMPTY, 11:20:24, 9005000, 2501

8760010, , EMPTY, 5:6:21:24, 5760000, 1600

5510010, , EMPTY, 19:20:24, 9020000, 2505

8760010, , EMPTY, 13:6:21:24, 5775000, 1604

5540010, , EMPTY, 11:20:24, 9005000, 2501

8770010, , EMPTY, 5:6:21:24, 5780000, 1605

5540010, , EMPTY, 19:20:24, 9020000, 2505

8780010, , INTERESTING, 3:21:24, 5785000, 1606

5560010, , EMPTY, 15:20:24, 9015000, 2504

8780010, , INTERESTING, 5:6:21:24, 5800000, 1611

5560010, , EMPTY, 8:20:24, 9030000, 2508

8780010, , EMPTY, 1:21:24, 5815000, 1615

5560010, , EMPTY, 0:20:24, 9045000, 2512

8810010, , EMPTY, 10:6:21:24, 5800000, 1611

5560010, , EMPTY, 17:20:24, 9060000, 2516

8820010, , EMPTY, 2:21:24, 5805000, 1612

5570010, , EMPTY, 14:18:20:24, 9065000, 2518

8820010, , EMPTY, 5:6:21:24, 5820000, 1616

5580010, , EMPTY, 12:20:24, 9070000, 2519

8820010, , EMPTY, 13:6:21:24, 5835000, 1620

5590010, , EMPTY, 16:20:24, 9075000, 2520

8830010, , EMPTY, 3:21:24, 5840000, 1622

5600010, , INTERESTING, 15:20:24, 9080000, 2522

8850010, , EMPTY, 6:21:24, 5835000, 1620

5600010, , EMPTY, 8:20:24, 9095000, 2526

8850010, , INTERESTING, 10:6:21:24, 5850000, 1625

5600010, , EMPTY, 0:20:24, 9110000, 2530

8860010, , EMPTY, 10:6:21:24, 5855000, 1626

5600010, , EMPTY, 14:18:20:24, 9125000, 2534

8870010, , EMPTY, 1:21:24, 5860000, 1627

5610010, , INTERESTING, 8:20:24, 9130000, 2536

8870010, , EMPTY, 10:6:21:24, 5875000, 1631

5610010, , EMPTY, 15:20:24, 9145000, 2540

8890010, , EMPTY, 9:21:24, 5870000, 1630

5610010, , EMPTY, 7:20:24, 9160000, 2544

8900010, , EMPTY, 3:21:24, 5875000, 1631

5610010, , INTERESTING, 14:18:20:24, 9175000, 2548

8900010, , EMPTY, 10:6:21:24, 5890000, 1636

5630010, , EMPTY, 12:20:24, 9170000, 2547

8920010, , EMPTY, 2:21:24, 5885000, 1634

5630010, , EMPTY, 8:20:24, 9185000, 2551

8920010, , EMPTY, 5:6:21:24, 5900000, 1638

5630010, , EMPTY, 15:20:24, 9200000, 2555

8940010, , EMPTY, 1:21:24, 5895000, 1637

5640010, , EMPTY, 17:20:24, 9205000, 2556

8950010, , EMPTY, 1:21:24, 5900000, 1638

5650010, , EMPTY, 0:20:24, 9210000, 2558

8970010, , EMPTY, 13:6:21:24, 5895000, 1637

5650010, , EMPTY, 14:18:20:24, 9225000, 2562

8970010, , EMPTY, 2:21:24, 5910000, 1641

5660010, , EMPTY, 12:20:24, 9230000, 2563

8970010, , EMPTY, 9:21:24, 5925000, 1645

5670010, , EMPTY, 8:20:24, 9235000, 2565

8980010, , EMPTY, 10:6:21:24, 5930000, 1647

5680010, , EMPTY, 15:20:24, 9240000, 2566

8980010, , INTERESTING, 1:21:24, 5945000, 1651

5680010, , EMPTY, 4:20:24, 9255000, 2570

8980010, , EMPTY, 3:21:24, 5960000, 1655

5690010, , EMPTY, 16:20:24, 9260000, 2572

8990010, , INTERESTING, 10:6:21:24, 5965000, 1656

5690010, , EMPTY, 15:20:24, 9275000, 2576

9000010, , EMPTY, 13:6:21:24, 5970000, 1658

5690010, , EMPTY, 0:20:24, 9290000, 2580

9010010, , INTERESTING, 13:6:21:24, 5975000, 1659

5700010, , INTERESTING, 16:20:24, 9295000, 2581

9020010, , INTERESTING, 1:21:24, 5980000, 1661

5700010, , INTERESTING, 11:20:24, 9310000, 2586

9030010, , EMPTY, 13:6:21:24, 5985000, 1662

5700010, , EMPTY, 17:20:24, 9325000, 2590

9040010, , EMPTY, 6:21:24, 5990000, 1663

5710010, , EMPTY, 12:20:24, 9330000, 2591

9040010, , EMPTY, 2:21:24, 6005000, 1668

5710010, , EMPTY, 15:20:24, 9345000, 2595

9060010, , EMPTY, 3:21:24, 6000000, 1666

5720010, , EMPTY, 12:20:24, 9350000, 2597

9080010, , EMPTY, 10:6:21:24, 5995000, 1665

5720010, , EMPTY, 7:20:24, 9365000, 2601

9090010, , EMPTY, 6:21:24, 6000000, 1666

5720010, , EMPTY, 15:20:24, 9380000, 2605

9090010, , EMPTY, 13:6:21:24, 6015000, 1670

5730010, , EMPTY, 0:20:24, 9385000, 2606

9110010, , EMPTY, 5:6:21:24, 6010000, 1669

5740010, , INTERESTING, 16:20:24, 9390000, 2608

9130010, , INTERESTING, 9:21:24, 6005000, 1668

5740010, , INTERESTING, 0:20:24, 9405000, 2612

9140010, , EMPTY, 6:21:24, 6010000, 1669

5750010, , EMPTY, 18:20:24, 9410000, 2613

9150010, , EMPTY, 6:21:24, 6015000, 1670

5770010, , INTERESTING, 12:20:24, 9405000, 2612

9150010, , EMPTY, 5:6:21:24, 6030000, 1675

5780010, , INTERESTING, 4:20:24, 9410000, 2613

9150010, , EMPTY, 2:21:24, 6045000, 1679

5780010, , EMPTY, 12:20:24, 9425000, 2618

9150010, , EMPTY, 3:21:24, 6060000, 1683

5800010, , INTERESTING, 19:20:24, 9420000, 2616

9160010, , INTERESTING, 13:6:21:24, 6065000, 1684

5810010, , EMPTY, 14:18:20:24, 9425000, 2618

9170010, , EMPTY, 10:6:21:24, 6070000, 1686

5810010, , EMPTY, 7:20:24, 9440000, 2622

9190010, , EMPTY, 6:21:24, 6065000, 1684

5820010, , EMPTY, 14:18:20:24, 9445000, 2623

9230010, , INTERESTING, 6:21:24, 6040000, 1677

5830010, , EMPTY, 19:20:24, 9450000, 2625

9230010, , EMPTY, 5:6:21:24, 6055000, 1681

5830010, , EMPTY, 17:20:24, 9465000, 2629

9260010, , INTERESTING, 2:21:24, 6040000, 1677

5830010, , EMPTY, 4:20:24, 9480000, 2633

9260010, , INTERESTING, 13:6:21:24, 6055000, 1681

5830010, , EMPTY, 11:20:24, 9495000, 2637

9270010, , EMPTY, 13:6:21:24, 6060000, 1683

5840010, , EMPTY, 19:20:24, 9500000, 2638

9270010, , EMPTY, 2:21:24, 6075000, 1687

5840010, , INTERESTING, 16:20:24, 9515000, 2643

9270010, , EMPTY, 10:6:21:24, 6090000, 1691

5850010, , EMPTY, 17:20:24, 9520000, 2644

9280010, , EMPTY, 13:6:21:24, 6095000, 1693

5850010, , EMPTY, 18:20:24, 9535000, 2648

9290010, , EMPTY, 3:21:24, 6100000, 1694

5860010, , EMPTY, 7:20:24, 9540000, 2650

9290010, , EMPTY, 9:21:24, 6115000, 1698

5860010, , EMPTY, 14:18:20:24, 9555000, 2654

9300010, , INTERESTING, 1:21:24, 6120000, 1700

5870010, , EMPTY, 19:20:24, 9560000, 2655

9300010, , EMPTY, 6:21:24, 6135000, 1704

5880010, , EMPTY, 7:20:24, 9565000, 2656

9300010, , EMPTY, 5:6:21:24, 6150000, 1708

5890010, , EMPTY, 8:20:24, 9570000, 2658

9310010, , EMPTY, 13:6:21:24, 6155000, 1709

5890010, , EMPTY, 19:20:24, 9585000, 2662

9320010, , EMPTY, 2:21:24, 6160000, 1711

5900010, , EMPTY, 17:20:24, 9590000, 2663

9320010, , EMPTY, 10:6:21:24, 6175000, 1715

5900010, , INTERESTING, 0:20:24, 9605000, 2668

9320010, , EMPTY, 3:21:24, 6190000, 1719

5910010, , INTERESTING, 4:20:24, 9610000, 2669

9330010, , EMPTY, 1:21:24, 6195000, 1720

5910010, , EMPTY, 18:20:24, 9625000, 2673

9330010, , EMPTY, 13:6:21:24, 6210000, 1725

5920010, , EMPTY, 17:20:24, 9630000, 2675

