DWC_ID, Processed Contents, Actual Contents, Route, Total_Trans_Time, Trans_Time_Hours 
10, , EMPTY, 7:21:24, 45000, 12

10010, , EMPTY, 1:21:24, 50000, 13

10010, , EMPTY, 0:21:24, 65000, 18

10, , EMPTY, 11:21:24, 90000, 25

70010, , EMPTY, 2:20:24, 35000, 9

10010, , INTERESTING, 14:12:21:24, 95000, 26

10010, , INTERESTING, 19:12:21:24, 110000, 30

90010, , EMPTY, 2:20:24, 35000, 9

10010, , EMPTY, 4:16:12:21:24, 125000, 34

20010, , EMPTY, 6:21:24, 130000, 36

30010, , EMPTY, 1:21:24, 135000, 37

10, , EMPTY, 5:20:24, 175000, 48

30010, , EMPTY, 8:12:21:24, 150000, 41

70010, , EMPTY, 3:20:24, 120000, 33

30010, , EMPTY, 7:21:24, 165000, 45

110010, , EMPTY, 2:20:24, 95000, 26

20010, , EMPTY, 10:12:21:24, 190000, 52

160010, , EMPTY, 3:20:24, 60000, 16

20010, , EMPTY, 4:16:12:21:24, 205000, 56

40010, , EMPTY, 14:12:21:24, 200000, 55

160010, , EMPTY, 5:20:24, 95000, 26

40010, , EMPTY, 0:21:24, 215000, 59

50010, , EMPTY, 12:21:24, 220000, 61

160010, , EMPTY, 2:20:24, 110000, 30

50010, , EMPTY, 14:12:21:24, 235000, 65

200010, , EMPTY, 3:20:24, 85000, 23

240010, , EMPTY, 5:20:24, 60000, 16

50010, , EMPTY, 19:12:21:24, 250000, 69

60010, , EMPTY, 14:12:21:24, 255000, 70

60010, , EMPTY, 15:13:21:24, 270000, 75

260010, , EMPTY, 5:20:24, 75000, 20

60010, , INTERESTING, 16:12:21:24, 285000, 79

250010, , EMPTY, 3:20:24, 105000, 29

70010, , EMPTY, 14:12:21:24, 290000, 80

70010, , EMPTY, 9:13:21:24, 305000, 84

250010, , EMPTY, 2:20:24, 135000, 37

70010, , EMPTY, 11:21:24, 320000, 88

70010, , EMPTY, 19:12:21:24, 335000, 93

320010, , INTERESTING, 5:20:24, 95000, 26

80010, , INTERESTING, 12:21:24, 340000, 94

80010, , EMPTY, 1:21:24, 355000, 98

340010, , EMPTY, 3:20:24, 95000, 26

80010, , EMPTY, 6:21:24, 370000, 102

80010, , EMPTY, 8:12:21:24, 385000, 106

80010, , EMPTY, 0:21:24, 400000, 111

420010, , INTERESTING, 3:20:24, 65000, 18

80010, , EMPTY, 14:12:21:24, 415000, 115

90010, , INTERESTING, 12:21:24, 420000, 116

90010, , EMPTY, 15:13:21:24, 435000, 120

470010, , INTERESTING, 3:20:24, 55000, 15

90010, , INTERESTING, 7:21:24, 450000, 125

100010, , EMPTY, 9:13:21:24, 455000, 126

100010, , INTERESTING, 1:21:24, 470000, 130

110010, , EMPTY, 6:21:24, 475000, 131

370010, , EMPTY, 2:20:24, 225000, 62

120010, , EMPTY, 13:21:24, 480000, 133

120010, , INTERESTING, 12:21:24, 495000, 137

140010, , INTERESTING, 11:21:24, 490000, 136

140010, , INTERESTING, 13:21:24, 505000, 140

140010, , EMPTY, 16:12:21:24, 520000, 144

140010, , EMPTY, 8:12:21:24, 535000, 148

140010, , EMPTY, 19:12:21:24, 550000, 152

150010, , EMPTY, 0:21:24, 555000, 154

580010, , INTERESTING, 2:20:24, 125000, 34

150010, , EMPTY, 18:12:21:24, 570000, 158

400010, , INTERESTING, 5:20:24, 325000, 90

150010, , EMPTY, 17:12:21:24, 585000, 162

510010, , EMPTY, 3:20:24, 230000, 63

160010, , INTERESTING, 11:21:24, 590000, 163

170010, , EMPTY, 14:12:21:24, 595000, 165

170010, , INTERESTING, 9:13:21:24, 610000, 169

690010, , EMPTY, 2:20:24, 95000, 26

180010, , EMPTY, 13:21:24, 615000, 170

180010, , INTERESTING, 15:13:21:24, 630000, 175

770010, , INTERESTING, 2:20:24, 45000, 12

180010, , INTERESTING, 10:12:21:24, 645000, 179

710010, , EMPTY, 5:20:24, 125000, 34

190010, , EMPTY, 4:16:12:21:24, 650000, 180

710010, , EMPTY, 3:20:24, 145000, 40

200010, , EMPTY, 6:21:24, 655000, 181

210010, , INTERESTING, 10:12:21:24, 660000, 183

820010, , EMPTY, 5:20:24, 50000, 13

230010, , EMPTY, 13:21:24, 655000, 181

230010, , EMPTY, 14:12:21:24, 670000, 186

840010, , EMPTY, 5:20:24, 65000, 18

250010, , EMPTY, 15:13:21:24, 665000, 184

800010, , EMPTY, 2:20:24, 125000, 34

260010, , EMPTY, 11:21:24, 670000, 186

890010, , EMPTY, 5:20:24, 55000, 15

270010, , EMPTY, 16:12:21:24, 675000, 187

270010, , EMPTY, 8:12:21:24, 690000, 191

910010, , INTERESTING, 2:20:24, 55000, 15

270010, , INTERESTING, 6:21:24, 705000, 195

950010, , EMPTY, 2:20:24, 35000, 9

270010, , EMPTY, 15:13:21:24, 720000, 200

930010, , EMPTY, 5:20:24, 70000, 19

270010, , EMPTY, 10:12:21:24, 735000, 204

280010, , EMPTY, 0:21:24, 740000, 205

840010, , EMPTY, 3:20:24, 195000, 54

280010, , EMPTY, 11:21:24, 755000, 209

280010, , EMPTY, 16:12:21:24, 770000, 213

970010, , INTERESTING, 2:20:24, 85000, 23

290010, , EMPTY, 12:21:24, 775000, 215

290010, , INTERESTING, 9:13:21:24, 790000, 219

1040010, , EMPTY, 2:20:24, 45000, 12

300010, , EMPTY, 1:21:24, 795000, 220

300010, , INTERESTING, 7:21:24, 810000, 225

1020010, , INTERESTING, 3:20:24, 95000, 26

300010, , INTERESTING, 18:12:21:24, 825000, 229

980010, , EMPTY, 5:20:24, 150000, 41

310010, , EMPTY, 13:21:24, 830000, 230

320010, , EMPTY, 17:12:21:24, 835000, 231

320010, , EMPTY, 1:21:24, 850000, 236

320010, , EMPTY, 8:12:21:24, 865000, 240

330010, , EMPTY, 18:12:21:24, 870000, 241

1110010, , EMPTY, 5:20:24, 95000, 26

330010, , EMPTY, 7:21:24, 885000, 245

1100010, , EMPTY, 3:20:24, 125000, 34

330010, , INTERESTING, 0:21:24, 900000, 250

1070010, , EMPTY, 2:20:24, 170000, 47

340010, , EMPTY, 16:12:21:24, 905000, 251

1210010, , INTERESTING, 3:20:24, 45000, 12

340010, , INTERESTING, 11:21:24, 920000, 255

350010, , EMPTY, 6:21:24, 925000, 256

350010, , EMPTY, 16:12:21:24, 940000, 261

350010, , EMPTY, 18:12:21:24, 955000, 265

1190010, , EMPTY, 5:20:24, 125000, 34

360010, , EMPTY, 14:12:21:24, 960000, 266

1220010, , EMPTY, 2:20:24, 115000, 31

370010, , EMPTY, 6:21:24, 965000, 268

370010, , INTERESTING, 9:13:21:24, 980000, 272

1300010, , EMPTY, 5:20:24, 50000, 13

1320010, , EMPTY, 2:20:24, 45000, 12

370010, , EMPTY, 15:13:21:24, 995000, 276

370010, , EMPTY, 17:12:21:24, 1010000, 280

1330010, , EMPTY, 2:20:24, 50000, 13

1230010, , EMPTY, 3:20:24, 165000, 45

370010, , INTERESTING, 14:12:21:24, 1025000, 284

370010, , INTERESTING, 7:21:24, 1040000, 288

1330010, , EMPTY, 5:20:24, 80000, 22

370010, , EMPTY, 19:12:21:24, 1055000, 293

1350010, , EMPTY, 2:20:24, 75000, 20

1350010, , EMPTY, 5:20:24, 90000, 25

380010, , EMPTY, 17:12:21:24, 1060000, 294

1370010, , INTERESTING, 2:20:24, 85000, 23

380010, , EMPTY, 16:12:21:24, 1075000, 298

400010, , INTERESTING, 9:13:21:24, 1070000, 297

1390010, , EMPTY, 5:20:24, 85000, 23

400010, , EMPTY, 6:21:24, 1085000, 301

400010, , EMPTY, 15:13:21:24, 1100000, 305

400010, , EMPTY, 11:21:24, 1115000, 309

420010, , INTERESTING, 9:13:21:24, 1110000, 308

430010, , EMPTY, 4:16:12:21:24, 1115000, 309

1460010, , EMPTY, 5:20:24, 95000, 26

430010, , EMPTY, 14:12:21:24, 1130000, 313

1540010, , INTERESTING, 5:20:24, 30000, 8

430010, , EMPTY, 1:21:24, 1145000, 318

440010, , INTERESTING, 8:12:21:24, 1150000, 319

1380010, , EMPTY, 3:20:24, 215000, 59

440010, , EMPTY, 15:13:21:24, 1165000, 323

440010, , EMPTY, 19:12:21:24, 1180000, 327

1410010, , EMPTY, 2:20:24, 215000, 59

450010, , INTERESTING, 10:12:21:24, 1185000, 329

1550010, , EMPTY, 5:20:24, 90000, 25

450010, , EMPTY, 16:12:21:24, 1200000, 333

450010, , EMPTY, 17:12:21:24, 1215000, 337

1620010, , EMPTY, 5:20:24, 55000, 15

450010, , EMPTY, 6:21:24, 1230000, 341

450010, , EMPTY, 7:21:24, 1245000, 345

1580010, , EMPTY, 3:20:24, 115000, 31

460010, , EMPTY, 12:21:24, 1250000, 347

1660010, , EMPTY, 5:20:24, 50000, 13

1680010, , EMPTY, 3:20:24, 45000, 12

460010, , INTERESTING, 10:12:21:24, 1265000, 351

460010, , EMPTY, 16:12:21:24, 1280000, 355

1610010, , EMPTY, 2:20:24, 135000, 37

460010, , INTERESTING, 15:13:21:24, 1295000, 359

1690010, , EMPTY, 5:20:24, 70000, 19

480010, , EMPTY, 4:16:12:21:24, 1290000, 358

1710010, , EMPTY, 3:20:24, 65000, 18

480010, , EMPTY, 8:12:21:24, 1305000, 362

490010, , INTERESTING, 11:21:24, 1310000, 363

1760010, , INTERESTING, 3:20:24, 55000, 15

490010, , EMPTY, 18:12:21:24, 1325000, 368

500010, , EMPTY, 11:21:24, 1330000, 369

500010, , EMPTY, 10:12:21:24, 1345000, 373

510010, , EMPTY, 13:21:24, 1350000, 375

510010, , EMPTY, 16:12:21:24, 1365000, 379

1740010, , EMPTY, 5:20:24, 135000, 37

520010, , EMPTY, 12:21:24, 1370000, 380

520010, , EMPTY, 14:12:21:24, 1385000, 384

530010, , EMPTY, 0:21:24, 1390000, 386

530010, , EMPTY, 11:21:24, 1405000, 390

530010, , EMPTY, 4:16:12:21:24, 1420000, 394

540010, , EMPTY, 1:21:24, 1425000, 395

540010, , INTERESTING, 17:12:21:24, 1440000, 400

540010, , EMPTY, 19:12:21:24, 1455000, 404

1860010, , EMPTY, 5:20:24, 145000, 40

570010, , EMPTY, 6:21:24, 1440000, 400

1730010, , EMPTY, 2:20:24, 290000, 80

570010, , EMPTY, 14:12:21:24, 1455000, 404

1990010, , EMPTY, 5:20:24, 45000, 12

580010, , INTERESTING, 1:21:24, 1460000, 405

2000010, , INTERESTING, 2:20:24, 50000, 13

580010, , EMPTY, 13:21:24, 1475000, 409

2010010, , INTERESTING, 2:20:24, 55000, 15

580010, , EMPTY, 0:21:24, 1490000, 413

580010, , EMPTY, 17:12:21:24, 1505000, 418

580010, , EMPTY, 8:12:21:24, 1520000, 422

580010, , EMPTY, 19:12:21:24, 1535000, 426

590010, , INTERESTING, 18:12:21:24, 1540000, 427

2020010, , EMPTY, 2:20:24, 115000, 31

590010, , EMPTY, 1:21:24, 1555000, 431

600010, , EMPTY, 13:21:24, 1560000, 433

600010, , EMPTY, 17:12:21:24, 1575000, 437

2000010, , EMPTY, 5:20:24, 175000, 48

600010, , EMPTY, 10:12:21:24, 1590000, 441

2160010, , EMPTY, 5:20:24, 35000, 9

600010, , EMPTY, 9:13:21:24, 1605000, 445

620010, , EMPTY, 0:21:24, 1600000, 444

1800010, , INTERESTING, 3:20:24, 425000, 118

620010, , EMPTY, 11:21:24, 1615000, 448

2120010, , INTERESTING, 2:20:24, 125000, 34

620010, , EMPTY, 7:21:24, 1630000, 452

2210010, , EMPTY, 3:20:24, 50000, 13

620010, , EMPTY, 17:12:21:24, 1645000, 456

630010, , EMPTY, 0:21:24, 1650000, 458

2230010, , EMPTY, 3:20:24, 55000, 15

650010, , INTERESTING, 6:21:24, 1645000, 456

650010, , EMPTY, 14:12:21:24, 1660000, 461

650010, , EMPTY, 8:12:21:24, 1675000, 465

2180010, , EMPTY, 5:20:24, 155000, 43

660010, , EMPTY, 13:21:24, 1680000, 466

2230010, , EMPTY, 2:20:24, 120000, 33

680010, , EMPTY, 11:21:24, 1675000, 465

2270010, , INTERESTING, 3:20:24, 95000, 26

680010, , EMPTY, 13:21:24, 1690000, 469

2330010, , EMPTY, 2:20:24, 50000, 13

680010, , EMPTY, 0:21:24, 1705000, 473

680010, , EMPTY, 6:21:24, 1720000, 477

2350010, , EMPTY, 3:20:24, 65000, 18

690010, , EMPTY, 10:12:21:24, 1725000, 479

690010, , INTERESTING, 14:12:21:24, 1740000, 483

2350010, , INTERESTING, 2:20:24, 85000, 23

710010, , EMPTY, 16:12:21:24, 1735000, 481

2320010, , EMPTY, 5:20:24, 130000, 36

710010, , EMPTY, 19:12:21:24, 1750000, 486

2420010, , EMPTY, 2:20:24, 45000, 12

710010, , EMPTY, 4:16:12:21:24, 1765000, 490

2430010, , EMPTY, 5:20:24, 50000, 13

710010, , INTERESTING, 7:21:24, 1780000, 494

2400010, , EMPTY, 3:20:24, 95000, 26

720010, , INTERESTING, 10:12:21:24, 1785000, 495

2480010, , EMPTY, 3:20:24, 30000, 8

730010, , EMPTY, 14:12:21:24, 1790000, 497

2430010, , EMPTY, 2:20:24, 95000, 26

750010, , EMPTY, 12:21:24, 1785000, 495

2440010, , EMPTY, 5:20:24, 105000, 29

750010, , EMPTY, 13:21:24, 1800000, 500

2500010, , INTERESTING, 2:20:24, 60000, 16

750010, , EMPTY, 10:12:21:24, 1815000, 504

2530010, , EMPTY, 5:20:24, 45000, 12

750010, , INTERESTING, 15:13:21:24, 1830000, 508

2560010, , EMPTY, 5:20:24, 30000, 8

750010, , EMPTY, 11:21:24, 1845000, 512

2570010, , EMPTY, 5:20:24, 35000, 9

760010, , EMPTY, 18:12:21:24, 1850000, 513

2490010, , INTERESTING, 3:20:24, 135000, 37

770010, , EMPTY, 18:12:21:24, 1855000, 515

2590010, , EMPTY, 5:20:24, 50000, 13

780010, , EMPTY, 13:21:24, 1860000, 516

780010, , EMPTY, 14:12:21:24, 1875000, 520

2530010, , EMPTY, 2:20:24, 135000, 37

780010, , EMPTY, 16:12:21:24, 1890000, 525

790010, , INTERESTING, 12:21:24, 1895000, 526

2610010, , EMPTY, 5:20:24, 75000, 20

2670010, , EMPTY, 5:20:24, 30000, 8

790010, , EMPTY, 10:12:21:24, 1910000, 530

790010, , INTERESTING, 0:21:24, 1925000, 534

790010, , EMPTY, 9:13:21:24, 1940000, 538

2650010, , EMPTY, 2:20:24, 85000, 23

790010, , EMPTY, 1:21:24, 1955000, 543

790010, , EMPTY, 19:12:21:24, 1970000, 547

800010, , EMPTY, 13:21:24, 1975000, 548

800010, , EMPTY, 4:16:12:21:24, 1990000, 552

2610010, , EMPTY, 3:20:24, 185000, 51

810010, , EMPTY, 14:12:21:24, 1995000, 554

820010, , EMPTY, 12:21:24, 2000000, 555

820010, , EMPTY, 16:12:21:24, 2015000, 559

2680010, , EMPTY, 5:20:24, 165000, 45

830010, , EMPTY, 13:21:24, 2020000, 561

2830010, , EMPTY, 5:20:24, 30000, 8

830010, , EMPTY, 15:13:21:24, 2035000, 565

2840010, , EMPTY, 5:20:24, 35000, 9

830010, , EMPTY, 16:12:21:24, 2050000, 569

840010, , EMPTY, 17:12:21:24, 2055000, 570

850010, , EMPTY, 12:21:24, 2060000, 572

2720010, , EMPTY, 2:20:24, 195000, 54

850010, , EMPTY, 18:12:21:24, 2075000, 576

2780010, , EMPTY, 3:20:24, 150000, 41

850010, , INTERESTING, 13:21:24, 2090000, 580

850010, , EMPTY, 17:12:21:24, 2105000, 584

850010, , EMPTY, 10:12:21:24, 2120000, 588

2900010, , EMPTY, 3:20:24, 75000, 20

860010, , EMPTY, 0:21:24, 2125000, 590

860010, , EMPTY, 9:13:21:24, 2140000, 594

860010, , EMPTY, 18:12:21:24, 2155000, 598

870010, , EMPTY, 15:13:21:24, 2160000, 600

870010, , EMPTY, 17:12:21:24, 2175000, 604

880010, , EMPTY, 13:21:24, 2180000, 605

880010, , EMPTY, 16:12:21:24, 2195000, 609

890010, , EMPTY, 0:21:24, 2200000, 611

2960010, , EMPTY, 3:20:24, 145000, 40

890010, , EMPTY, 11:21:24, 2215000, 615

890010, , EMPTY, 6:21:24, 2230000, 619

2900010, , EMPTY, 2:20:24, 235000, 65

900010, , EMPTY, 1:21:24, 2235000, 620

910010, , EMPTY, 0:21:24, 2240000, 622

2860010, , EMPTY, 5:20:24, 305000, 84

920010, , EMPTY, 10:12:21:24, 2245000, 623

920010, , EMPTY, 9:13:21:24, 2260000, 627

930010, , EMPTY, 10:12:21:24, 2265000, 629

3150010, , EMPTY, 5:20:24, 55000, 15

930010, , INTERESTING, 7:21:24, 2280000, 633

930010, , EMPTY, 4:16:12:21:24, 2295000, 637

3120010, , EMPTY, 2:20:24, 115000, 31

940010, , EMPTY, 1:21:24, 2300000, 638

940010, , EMPTY, 15:13:21:24, 2315000, 643

3090010, , EMPTY, 3:20:24, 165000, 45

960010, , INTERESTING, 1:21:24, 2310000, 641

960010, , EMPTY, 18:12:21:24, 2325000, 645

3220010, , EMPTY, 2:20:24, 75000, 20

960010, , EMPTY, 16:12:21:24, 2340000, 650

960010, , EMPTY, 15:13:21:24, 2355000, 654

3240010, , EMPTY, 3:20:24, 85000, 23

970010, , EMPTY, 12:21:24, 2360000, 655

3190010, , EMPTY, 5:20:24, 150000, 41

970010, , EMPTY, 10:12:21:24, 2375000, 659

980010, , INTERESTING, 15:13:21:24, 2380000, 661

990010, , EMPTY, 16:12:21:24, 2385000, 662

990010, , EMPTY, 1:21:24, 2400000, 666

3280010, , EMPTY, 2:20:24, 125000, 34

990010, , EMPTY, 19:12:21:24, 2415000, 670

990010, , EMPTY, 18:12:21:24, 2430000, 675

1000010, , EMPTY, 11:21:24, 2435000, 676

3390010, , EMPTY, 2:20:24, 55000, 15

1000010, , EMPTY, 10:12:21:24, 2450000, 680

1010010, , EMPTY, 7:21:24, 2455000, 681

1010010, , EMPTY, 11:21:24, 2470000, 686

3310010, , EMPTY, 3:20:24, 175000, 48

1010010, , EMPTY, 12:21:24, 2485000, 690

3430010, , INTERESTING, 2:20:24, 75000, 20

1010010, , INTERESTING, 14:12:21:24, 2500000, 694

3490010, , EMPTY, 2:20:24, 30000, 8

1010010, , EMPTY, 16:12:21:24, 2515000, 698

3500010, , EMPTY, 2:20:24, 35000, 9

1020010, , EMPTY, 13:21:24, 2520000, 700

3320010, , INTERESTING, 5:20:24, 230000, 63

1020010, , EMPTY, 6:21:24, 2535000, 704

3470010, , EMPTY, 3:20:24, 95000, 26

1030010, , EMPTY, 7:21:24, 2540000, 705

1030010, , EMPTY, 4:16:12:21:24, 2555000, 709

1040010, , EMPTY, 13:21:24, 2560000, 711

3530010, , EMPTY, 5:20:24, 75000, 20

1040010, , EMPTY, 1:21:24, 2575000, 715

1040010, , EMPTY, 15:13:21:24, 2590000, 719

3530010, , INTERESTING, 3:20:24, 105000, 29

1040010, , EMPTY, 0:21:24, 2605000, 723

3620010, , INTERESTING, 3:20:24, 30000, 8

1040010, , EMPTY, 19:12:21:24, 2620000, 727

3590010, , EMPTY, 5:20:24, 75000, 20

1050010, , EMPTY, 7:21:24, 2625000, 729

3520010, , INTERESTING, 2:20:24, 160000, 44

1050010, , EMPTY, 11:21:24, 2640000, 733

1050010, , EMPTY, 13:21:24, 2655000, 737

1050010, , EMPTY, 14:12:21:24, 2670000, 741

1060010, , INTERESTING, 7:21:24, 2675000, 743

3640010, , INTERESTING, 5:20:24, 105000, 29

1060010, , INTERESTING, 1:21:24, 2690000, 747

3660010, , EMPTY, 2:20:24, 100000, 27

1070010, , INTERESTING, 11:21:24, 2695000, 748

3630010, , INTERESTING, 3:20:24, 145000, 40

1070010, , EMPTY, 6:21:24, 2710000, 752

1070010, , EMPTY, 18:12:21:24, 2725000, 756

1080010, , EMPTY, 7:21:24, 2730000, 758

3730010, , INTERESTING, 2:20:24, 85000, 23

1090010, , EMPTY, 11:21:24, 2735000, 759

3800010, , EMPTY, 2:20:24, 30000, 8

1090010, , INTERESTING, 13:21:24, 2750000, 763

1090010, , EMPTY, 4:16:12:21:24, 2765000, 768

1100010, , EMPTY, 17:12:21:24, 2770000, 769

1100010, , EMPTY, 6:21:24, 2785000, 773

1100010, , EMPTY, 15:13:21:24, 2800000, 777

1110010, , EMPTY, 11:21:24, 2805000, 779

3730010, , EMPTY, 5:20:24, 195000, 54

1120010, , INTERESTING, 0:21:24, 2810000, 780

3750010, , EMPTY, 3:20:24, 190000, 52

1120010, , EMPTY, 12:21:24, 2825000, 784

3910010, , EMPTY, 5:20:24, 45000, 12

1130010, , EMPTY, 9:13:21:24, 2830000, 786

3920010, , EMPTY, 3:20:24, 50000, 13

1130010, , EMPTY, 0:21:24, 2845000, 790

1140010, , EMPTY, 12:21:24, 2850000, 791

1140010, , EMPTY, 1:21:24, 2865000, 795

1140010, , EMPTY, 7:21:24, 2880000, 800

1140010, , EMPTY, 17:12:21:24, 2895000, 804

1140010, , EMPTY, 9:13:21:24, 2910000, 808

1150010, , EMPTY, 18:12:21:24, 2915000, 809

3930010, , INTERESTING, 3:20:24, 145000, 40

1150010, , INTERESTING, 17:12:21:24, 2930000, 813

4060010, , INTERESTING, 3:20:24, 30000, 8

1160010, , EMPTY, 13:21:24, 2935000, 815

1180010, , EMPTY, 6:21:24, 2930000, 813

1180010, , EMPTY, 8:12:21:24, 2945000, 818

1180010, , EMPTY, 15:13:21:24, 2960000, 822

4070010, , INTERESTING, 3:20:24, 75000, 20

1190010, , INTERESTING, 1:21:24, 2965000, 823

1190010, , INTERESTING, 0:21:24, 2980000, 827

1190010, , EMPTY, 19:12:21:24, 2995000, 831

1190010, , EMPTY, 13:21:24, 3010000, 836

3810010, , INTERESTING, 2:20:24, 405000, 112

1200010, , EMPTY, 1:21:24, 3015000, 837

1200010, , EMPTY, 7:21:24, 3030000, 841

4130010, , EMPTY, 3:20:24, 115000, 31

1210010, , EMPTY, 11:21:24, 3035000, 843

1210010, , EMPTY, 1:21:24, 3050000, 847

3940010, , INTERESTING, 5:20:24, 325000, 90

1220010, , INTERESTING, 11:21:24, 3055000, 848

1220010, , EMPTY, 6:21:24, 3070000, 852

4200010, , EMPTY, 2:20:24, 95000, 26

1220010, , INTERESTING, 18:12:21:24, 3085000, 856

4230010, , INTERESTING, 3:20:24, 80000, 22

1230010, , INTERESTING, 9:13:21:24, 3090000, 858

4250010, , EMPTY, 5:20:24, 75000, 20

1230010, , EMPTY, 11:21:24, 3105000, 862

4280010, , EMPTY, 2:20:24, 60000, 16

1240010, , INTERESTING, 7:21:24, 3110000, 863

4280010, , EMPTY, 3:20:24, 75000, 20

1240010, , EMPTY, 19:12:21:24, 3125000, 868

4340010, , EMPTY, 3:20:24, 30000, 8

1250010, , EMPTY, 0:21:24, 3130000, 869

1260010, , EMPTY, 12:21:24, 3135000, 870

4310010, , EMPTY, 5:20:24, 85000, 23

4320010, , EMPTY, 2:20:24, 90000, 25

1260010, , EMPTY, 8:12:21:24, 3150000, 875

1260010, , EMPTY, 16:12:21:24, 3165000, 879

4350010, , EMPTY, 3:20:24, 75000, 20

1270010, , EMPTY, 12:21:24, 3170000, 880

1270010, , INTERESTING, 14:12:21:24, 3185000, 884

4380010, , EMPTY, 2:20:24, 85000, 23

1270010, , EMPTY, 8:12:21:24, 3200000, 888

1280010, , EMPTY, 9:13:21:24, 3205000, 890

1290010, , EMPTY, 1:21:24, 3210000, 891

1290010, , EMPTY, 7:21:24, 3225000, 895

4410010, , EMPTY, 3:20:24, 115000, 31

1290010, , INTERESTING, 6:21:24, 3240000, 900

4380010, , EMPTY, 5:20:24, 160000, 44

1290010, , INTERESTING, 9:13:21:24, 3255000, 904

1300010, , EMPTY, 16:12:21:24, 3260000, 905

4520010, , EMPTY, 5:20:24, 45000, 12

1300010, , EMPTY, 1:21:24, 3275000, 909

4510010, , EMPTY, 3:20:24, 70000, 19

1310010, , EMPTY, 15:13:21:24, 3280000, 911

4550010, , EMPTY, 5:20:24, 45000, 12

1320010, , EMPTY, 15:13:21:24, 3285000, 912

4560010, , EMPTY, 5:20:24, 50000, 13

1330010, , EMPTY, 13:21:24, 3290000, 913

1340010, , INTERESTING, 7:21:24, 3295000, 915

1340010, , EMPTY, 10:12:21:24, 3310000, 919

4450010, , EMPTY, 2:20:24, 205000, 56

1350010, , EMPTY, 6:21:24, 3315000, 920

4560010, , EMPTY, 3:20:24, 115000, 31

1350010, , EMPTY, 15:13:21:24, 3330000, 925

4580010, , EMPTY, 5:20:24, 110000, 30

1350010, , INTERESTING, 16:12:21:24, 3345000, 929

4670010, , INTERESTING, 5:20:24, 35000, 9

1360010, , EMPTY, 19:12:21:24, 3350000, 930

4640010, , INTERESTING, 2:20:24, 80000, 22

1370010, , EMPTY, 17:12:21:24, 3355000, 931

4660010, , EMPTY, 3:20:24, 75000, 20

1370010, , EMPTY, 4:16:12:21:24, 3370000, 936

4680010, , EMPTY, 5:20:24, 70000, 19

1370010, , EMPTY, 6:21:24, 3385000, 940

4690010, , EMPTY, 5:20:24, 75000, 20

1380010, , EMPTY, 12:21:24, 3390000, 941

4720010, , EMPTY, 3:20:24, 65000, 18

1380010, , INTERESTING, 10:12:21:24, 3405000, 945

1380010, , EMPTY, 7:21:24, 3420000, 950

1380010, , EMPTY, 15:13:21:24, 3435000, 954

4700010, , INTERESTING, 2:20:24, 115000, 31

4710010, , EMPTY, 5:20:24, 120000, 33

1390010, , EMPTY, 13:21:24, 3440000, 955

4770010, , EMPTY, 3:20:24, 75000, 20

1390010, , INTERESTING, 10:12:21:24, 3455000, 959

1390010, , EMPTY, 17:12:21:24, 3470000, 963

4800010, , EMPTY, 2:20:24, 65000, 18

1400010, , EMPTY, 16:12:21:24, 3475000, 965

1400010, , EMPTY, 0:21:24, 3490000, 969

1410010, , EMPTY, 10:12:21:24, 3495000, 970

1420010, , INTERESTING, 11:21:24, 3500000, 972

4800010, , EMPTY, 5:20:24, 135000, 37

1420010, , EMPTY, 7:21:24, 3515000, 976

4820010, , EMPTY, 3:20:24, 130000, 36

1420010, , EMPTY, 13:21:24, 3530000, 980

4920010, , EMPTY, 5:20:24, 45000, 12

1430010, , EMPTY, 12:21:24, 3535000, 981

4920010, , EMPTY, 3:20:24, 60000, 16

1430010, , EMPTY, 19:12:21:24, 3550000, 986

4850010, , EMPTY, 2:20:24, 145000, 40

1440010, , INTERESTING, 17:12:21:24, 3555000, 987

1450010, , EMPTY, 12:21:24, 3560000, 988

4970010, , EMPTY, 2:20:24, 40000, 11

1450010, , EMPTY, 17:12:21:24, 3575000, 993

1460010, , EMPTY, 11:21:24, 3580000, 994

4980010, , EMPTY, 2:20:24, 65000, 18

1460010, , EMPTY, 17:12:21:24, 3595000, 998

1480010, , EMPTY, 7:21:24, 3590000, 997

4950010, , INTERESTING, 3:20:24, 125000, 34

1490010, , EMPTY, 16:12:21:24, 3595000, 998

5030010, , EMPTY, 2:20:24, 60000, 16

1490010, , EMPTY, 15:13:21:24, 3610000, 1002

1500010, , EMPTY, 12:21:24, 3615000, 1004

5070010, , EMPTY, 2:20:24, 45000, 12

1500010, , EMPTY, 16:12:21:24, 3630000, 1008

1500010, , INTERESTING, 4:16:12:21:24, 3645000, 1012

1510010, , INTERESTING, 14:12:21:24, 3650000, 1013

4940010, , INTERESTING, 5:20:24, 225000, 62

1520010, , EMPTY, 7:21:24, 3655000, 1015

1520010, , EMPTY, 11:21:24, 3670000, 1019

5060010, , EMPTY, 3:20:24, 135000, 37

1530010, , EMPTY, 12:21:24, 3675000, 1020

5180010, , EMPTY, 3:20:24, 35000, 9

1530010, , EMPTY, 9:13:21:24, 3690000, 1025

5150010, , EMPTY, 5:20:24, 80000, 22

1540010, , EMPTY, 1:21:24, 3695000, 1026

5100010, , EMPTY, 2:20:24, 145000, 40

1540010, , EMPTY, 8:12:21:24, 3710000, 1030

5200010, , EMPTY, 3:20:24, 60000, 16

1550010, , EMPTY, 7:21:24, 3715000, 1031

5210010, , EMPTY, 5:20:24, 65000, 18

1550010, , EMPTY, 14:12:21:24, 3730000, 1036

5230010, , EMPTY, 3:20:24, 60000, 16

1550010, , EMPTY, 9:13:21:24, 3745000, 1040

1550010, , EMPTY, 17:12:21:24, 3760000, 1044

5230010, , EMPTY, 2:20:24, 95000, 26

1560010, , INTERESTING, 7:21:24, 3765000, 1045

1560010, , EMPTY, 15:13:21:24, 3780000, 1050

1570010, , EMPTY, 0:21:24, 3785000, 1051

5240010, , EMPTY, 3:20:24, 115000, 31

5240010, , EMPTY, 5:20:24, 130000, 36

1570010, , EMPTY, 14:12:21:24, 3800000, 1055

1580010, , EMPTY, 0:21:24, 3805000, 1056

1580010, , EMPTY, 11:21:24, 3820000, 1061

5350010, , EMPTY, 5:20:24, 55000, 15

1580010, , EMPTY, 19:12:21:24, 3835000, 1065

5310010, , INTERESTING, 2:20:24, 110000, 30

1590010, , INTERESTING, 18:12:21:24, 3840000, 1066

5340010, , EMPTY, 3:20:24, 95000, 26

1600010, , INTERESTING, 12:21:24, 3845000, 1068

5390010, , EMPTY, 5:20:24, 60000, 16

1610010, , EMPTY, 13:21:24, 3850000, 1069

1610010, , EMPTY, 1:21:24, 3865000, 1073

5400010, , INTERESTING, 2:20:24, 75000, 20

5430010, , EMPTY, 5:20:24, 60000, 16

1610010, , EMPTY, 16:12:21:24, 3880000, 1077

1610010, , EMPTY, 4:16:12:21:24, 3895000, 1081

5420010, , EMPTY, 3:20:24, 85000, 23

5460010, , EMPTY, 2:20:24, 60000, 16

1610010, , INTERESTING, 0:21:24, 3910000, 1086

5470010, , EMPTY, 5:20:24, 65000, 18

1620010, , INTERESTING, 13:21:24, 3915000, 1087

5470010, , EMPTY, 2:20:24, 80000, 22

1630010, , EMPTY, 16:12:21:24, 3920000, 1088

5480010, , EMPTY, 3:20:24, 85000, 23

1630010, , EMPTY, 9:13:21:24, 3935000, 1093

1630010, , EMPTY, 1:21:24, 3950000, 1097

1630010, , INTERESTING, 6:21:24, 3965000, 1101

1640010, , EMPTY, 13:21:24, 3970000, 1102

1640010, , EMPTY, 8:12:21:24, 3985000, 1106

1640010, , EMPTY, 7:21:24, 4000000, 1111

1640010, , EMPTY, 11:21:24, 4015000, 1115

1650010, , EMPTY, 16:12:21:24, 4020000, 1116

5550010, , EMPTY, 3:20:24, 125000, 34

1650010, , INTERESTING, 15:13:21:24, 4035000, 1120

1660010, , INTERESTING, 18:12:21:24, 4040000, 1122

5520010, , INTERESTING, 2:20:24, 195000, 54

1660010, , EMPTY, 4:16:12:21:24, 4055000, 1126

1670010, , INTERESTING, 12:21:24, 4060000, 1127

5490010, , EMPTY, 5:20:24, 255000, 70

1670010, , EMPTY, 15:13:21:24, 4075000, 1131

5660010, , INTERESTING, 3:20:24, 100000, 27

1670010, , EMPTY, 4:16:12:21:24, 4090000, 1136

5700010, , INTERESTING, 2:20:24, 75000, 20

1680010, , INTERESTING, 9:13:21:24, 4095000, 1137

5730010, , EMPTY, 2:20:24, 60000, 16

1680010, , EMPTY, 12:21:24, 4110000, 1141

1680010, , EMPTY, 19:12:21:24, 4125000, 1145

5730010, , EMPTY, 5:20:24, 75000, 20

1690010, , EMPTY, 15:13:21:24, 4130000, 1147

5740010, , EMPTY, 2:20:24, 80000, 22

1700010, , INTERESTING, 15:13:21:24, 4135000, 1148

5740010, , EMPTY, 3:20:24, 95000, 26

1710010, , EMPTY, 1:21:24, 4140000, 1150

5750010, , INTERESTING, 5:20:24, 100000, 27

1720010, , EMPTY, 9:13:21:24, 4145000, 1151

5750010, , EMPTY, 2:20:24, 115000, 31

5810010, , EMPTY, 3:20:24, 70000, 19

1720010, , EMPTY, 17:12:21:24, 4160000, 1155

1720010, , EMPTY, 8:12:21:24, 4175000, 1159

5820010, , EMPTY, 2:20:24, 85000, 23

1730010, , EMPTY, 7:21:24, 4180000, 1161

1730010, , EMPTY, 18:12:21:24, 4195000, 1165

1730010, , EMPTY, 13:21:24, 4210000, 1169

1730010, , EMPTY, 9:13:21:24, 4225000, 1173

5770010, , EMPTY, 5:20:24, 195000, 54

1740010, , EMPTY, 7:21:24, 4230000, 1175

5850010, , EMPTY, 3:20:24, 130000, 36

1740010, , INTERESTING, 6:21:24, 4245000, 1179

5890010, , EMPTY, 2:20:24, 105000, 29

1740010, , EMPTY, 14:12:21:24, 4260000, 1183

1740010, , INTERESTING, 18:12:21:24, 4275000, 1187

5950010, , INTERESTING, 5:20:24, 65000, 18

1750010, , EMPTY, 0:21:24, 4280000, 1188

1750010, , EMPTY, 11:21:24, 4295000, 1193

5950010, , EMPTY, 3:20:24, 105000, 29

1750010, , EMPTY, 17:12:21:24, 4310000, 1197

6000010, , INTERESTING, 5:20:24, 70000, 19

1750010, , EMPTY, 14:12:21:24, 4325000, 1201

6040010, , EMPTY, 5:20:24, 45000, 12

1760010, , INTERESTING, 7:21:24, 4330000, 1202

6040010, , EMPTY, 3:20:24, 60000, 16

1760010, , EMPTY, 16:12:21:24, 4345000, 1206

1760010, , EMPTY, 8:12:21:24, 4360000, 1211

6080010, , INTERESTING, 3:20:24, 45000, 12

1760010, , EMPTY, 4:16:12:21:24, 4375000, 1215

6050010, , INTERESTING, 5:20:24, 90000, 25

1760010, , EMPTY, 13:21:24, 4390000, 1219

5980010, , EMPTY, 2:20:24, 175000, 48

1760010, , INTERESTING, 18:12:21:24, 4405000, 1223

6110010, , INTERESTING, 3:20:24, 60000, 16

1770010, , EMPTY, 7:21:24, 4410000, 1225

6120010, , EMPTY, 3:20:24, 65000, 18

1770010, , INTERESTING, 0:21:24, 4425000, 1229

6120010, , EMPTY, 5:20:24, 80000, 22

1770010, , EMPTY, 12:21:24, 4440000, 1233

6130010, , EMPTY, 2:20:24, 85000, 23

1770010, , EMPTY, 16:12:21:24, 4455000, 1237

6160010, , EMPTY, 3:20:24, 70000, 19

1770010, , EMPTY, 6:21:24, 4470000, 1241

6160010, , EMPTY, 5:20:24, 85000, 23

1780010, , EMPTY, 11:21:24, 4475000, 1243

6170010, , INTERESTING, 3:20:24, 90000, 25

1780010, , EMPTY, 7:21:24, 4490000, 1247

6200010, , INTERESTING, 2:20:24, 75000, 20

1790010, , INTERESTING, 17:12:21:24, 4495000, 1248

6220010, , INTERESTING, 5:20:24, 70000, 19

1800010, , EMPTY, 19:12:21:24, 4500000, 1250

6240010, , EMPTY, 3:20:24, 65000, 18

1810010, , INTERESTING, 0:21:24, 4505000, 1251

6250010, , EMPTY, 5:20:24, 70000, 19

1810010, , INTERESTING, 8:12:21:24, 4520000, 1255

6250010, , INTERESTING, 2:20:24, 85000, 23

1810010, , EMPTY, 4:16:12:21:24, 4535000, 1259

6270010, , EMPTY, 5:20:24, 80000, 22

1820010, , EMPTY, 4:16:12:21:24, 4540000, 1261

6280010, , EMPTY, 3:20:24, 85000, 23

1820010, , INTERESTING, 0:21:24, 4555000, 1265

6310010, , EMPTY, 5:20:24, 70000, 19

1820010, , INTERESTING, 8:12:21:24, 4570000, 1269

6290010, , EMPTY, 3:20:24, 105000, 29

1830010, , EMPTY, 14:12:21:24, 4575000, 1270

1830010, , EMPTY, 4:16:12:21:24, 4590000, 1275

6330010, , EMPTY, 5:20:24, 95000, 26

1840010, , EMPTY, 4:16:12:21:24, 4595000, 1276

6410010, , EMPTY, 5:20:24, 30000, 8

1840010, , EMPTY, 14:12:21:24, 4610000, 1280

6270010, , INTERESTING, 2:20:24, 185000, 51

1840010, , INTERESTING, 19:12:21:24, 4625000, 1284

6380010, , EMPTY, 3:20:24, 90000, 25

1840010, , EMPTY, 1:21:24, 4640000, 1288

1850010, , EMPTY, 6:21:24, 4645000, 1290

1860010, , EMPTY, 12:21:24, 4650000, 1291

1860010, , EMPTY, 0:21:24, 4665000, 1295

6450010, , EMPTY, 3:20:24, 75000, 20

1860010, , EMPTY, 16:12:21:24, 4680000, 1300

6420010, , EMPTY, 5:20:24, 135000, 37

1860010, , INTERESTING, 4:16:12:21:24, 4695000, 1304

6440010, , EMPTY, 2:20:24, 130000, 36

1870010, , EMPTY, 8:12:21:24, 4700000, 1305

6540010, , EMPTY, 5:20:24, 45000, 12

1880010, , EMPTY, 8:12:21:24, 4705000, 1306

6550010, , EMPTY, 2:20:24, 50000, 13

1880010, , INTERESTING, 14:12:21:24, 4720000, 1311

1890010, , EMPTY, 8:12:21:24, 4725000, 1312

6560010, , EMPTY, 5:20:24, 55000, 15

1890010, , EMPTY, 13:21:24, 4740000, 1316

6510010, , EMPTY, 3:20:24, 135000, 37

1890010, , EMPTY, 0:21:24, 4755000, 1320

1900010, , EMPTY, 15:13:21:24, 4760000, 1322

1900010, , EMPTY, 7:21:24, 4775000, 1326

1900010, , EMPTY, 11:21:24, 4790000, 1330

1900010, , EMPTY, 19:12:21:24, 4805000, 1334

1900010, , EMPTY, 17:12:21:24, 4820000, 1338

1910010, , EMPTY, 8:12:21:24, 4825000, 1340

1910010, , INTERESTING, 9:13:21:24, 4840000, 1344

6600010, , EMPTY, 5:20:24, 165000, 45

1910010, , INTERESTING, 4:16:12:21:24, 4855000, 1348

6630010, , EMPTY, 3:20:24, 150000, 41

1920010, , EMPTY, 12:21:24, 4860000, 1350

1920010, , EMPTY, 9:13:21:24, 4875000, 1354

6580010, , EMPTY, 2:20:24, 215000, 59

1930010, , EMPTY, 12:21:24, 4880000, 1355

6750010, , EMPTY, 3:20:24, 60000, 16

6760010, , EMPTY, 3:20:24, 65000, 18

1930010, , EMPTY, 8:12:21:24, 4895000, 1359

6770010, , EMPTY, 2:20:24, 70000, 19

1930010, , EMPTY, 15:13:21:24, 4910000, 1363

1940010, , INTERESTING, 7:21:24, 4915000, 1365

1940010, , EMPTY, 1:21:24, 4930000, 1369

1950010, , EMPTY, 12:21:24, 4935000, 1370

1950010, , EMPTY, 13:21:24, 4950000, 1375

6790010, , INTERESTING, 2:20:24, 115000, 31

1950010, , EMPTY, 6:21:24, 4965000, 1379

6810010, , INTERESTING, 3:20:24, 110000, 30

1950010, , EMPTY, 11:21:24, 4980000, 1383

6890010, , EMPTY, 3:20:24, 45000, 12

1960010, , EMPTY, 0:21:24, 4985000, 1384

6890010, , EMPTY, 2:20:24, 60000, 16

1960010, , EMPTY, 9:13:21:24, 5000000, 1388

1970010, , EMPTY, 12:21:24, 5005000, 1390

1990010, , EMPTY, 13:21:24, 5000000, 1388

1990010, , EMPTY, 16:12:21:24, 5015000, 1393

6750010, , EMPTY, 5:20:24, 265000, 73

2000010, , EMPTY, 13:21:24, 5020000, 1394

6910010, , EMPTY, 3:20:24, 120000, 33

2000010, , EMPTY, 4:16:12:21:24, 5035000, 1398

7000010, , EMPTY, 3:20:24, 45000, 12

2000010, , EMPTY, 0:21:24, 5050000, 1402

2000010, , INTERESTING, 8:12:21:24, 5065000, 1406

6930010, , INTERESTING, 2:20:24, 145000, 40

2010010, , INTERESTING, 18:12:21:24, 5070000, 1408

7060010, , INTERESTING, 2:20:24, 30000, 8

2010010, , EMPTY, 14:12:21:24, 5085000, 1412

7030010, , EMPTY, 3:20:24, 75000, 20

2010010, , EMPTY, 10:12:21:24, 5100000, 1416

2010010, , EMPTY, 6:21:24, 5115000, 1420

2020010, , EMPTY, 11:21:24, 5120000, 1422

7080010, , EMPTY, 3:20:24, 75000, 20

2020010, , EMPTY, 13:21:24, 5135000, 1426

2030010, , EMPTY, 15:13:21:24, 5140000, 1427

2030010, , EMPTY, 4:16:12:21:24, 5155000, 1431

7070010, , EMPTY, 2:20:24, 125000, 34

2040010, , EMPTY, 16:12:21:24, 5160000, 1433

2040010, , INTERESTING, 13:21:24, 5175000, 1437

7000010, , EMPTY, 5:20:24, 215000, 59

7180010, , EMPTY, 2:20:24, 50000, 13

2040010, , EMPTY, 11:21:24, 5190000, 1441

7200010, , EMPTY, 2:20:24, 45000, 12

2040010, , EMPTY, 4:16:12:21:24, 5205000, 1445

2050010, , EMPTY, 15:13:21:24, 5210000, 1447

7140010, , INTERESTING, 3:20:24, 120000, 33

2060010, , EMPTY, 12:21:24, 5215000, 1448

7220010, , EMPTY, 2:20:24, 55000, 15

7200010, , EMPTY, 5:20:24, 90000, 25

2060010, , INTERESTING, 4:16:12:21:24, 5230000, 1452

2070010, , INTERESTING, 18:12:21:24, 5235000, 1454

2070010, , EMPTY, 9:13:21:24, 5250000, 1458

7230010, , EMPTY, 2:20:24, 95000, 26

2080010, , INTERESTING, 18:12:21:24, 5255000, 1459

2090010, , EMPTY, 0:21:24, 5260000, 1461

7240010, , INTERESTING, 3:20:24, 125000, 34

2090010, , EMPTY, 7:21:24, 5275000, 1465

2090010, , EMPTY, 14:12:21:24, 5290000, 1469

7270010, , EMPTY, 5:20:24, 125000, 34

2090010, , INTERESTING, 9:13:21:24, 5305000, 1473

2100010, , INTERESTING, 12:21:24, 5310000, 1475

7380010, , EMPTY, 5:20:24, 30000, 8

2100010, , EMPTY, 11:21:24, 5325000, 1479

7350010, , INTERESTING, 3:20:24, 75000, 20

7390010, , INTERESTING, 5:20:24, 50000, 13

2100010, , EMPTY, 19:12:21:24, 5340000, 1483

7400010, , EMPTY, 5:20:24, 55000, 15

2100010, , EMPTY, 15:13:21:24, 5355000, 1487

7310010, , INTERESTING, 2:20:24, 160000, 44

2110010, , EMPTY, 10:12:21:24, 5360000, 1488

7410010, , EMPTY, 3:20:24, 75000, 20

2110010, , EMPTY, 15:13:21:24, 5375000, 1493

7420010, , INTERESTING, 5:20:24, 80000, 22

2110010, , EMPTY, 19:12:21:24, 5390000, 1497

2110010, , EMPTY, 1:21:24, 5405000, 1501

7440010, , EMPTY, 3:20:24, 75000, 20

7450010, , EMPTY, 2:20:24, 80000, 22

2120010, , EMPTY, 18:12:21:24, 5410000, 1502

7470010, , EMPTY, 3:20:24, 75000, 20

2120010, , EMPTY, 10:12:21:24, 5425000, 1506

7480010, , EMPTY, 5:20:24, 80000, 22

2120010, , INTERESTING, 11:21:24, 5440000, 1511

7480010, , EMPTY, 3:20:24, 95000, 26

2130010, , EMPTY, 0:21:24, 5445000, 1512

7490010, , EMPTY, 2:20:24, 100000, 27

2130010, , INTERESTING, 18:12:21:24, 5460000, 1516

7530010, , EMPTY, 2:20:24, 75000, 20

2130010, , INTERESTING, 13:21:24, 5475000, 1520

2140010, , EMPTY, 0:21:24, 5480000, 1522

2140010, , EMPTY, 12:21:24, 5495000, 1526

2140010, , INTERESTING, 4:16:12:21:24, 5510000, 1530

2140010, , EMPTY, 15:13:21:24, 5525000, 1534

7550010, , EMPTY, 2:20:24, 125000, 34

2140010, , EMPTY, 7:21:24, 5540000, 1538

7520010, , INTERESTING, 5:20:24, 170000, 47

2140010, , EMPTY, 19:12:21:24, 5555000, 1543

7530010, , INTERESTING, 3:20:24, 175000, 48

2150010, , EMPTY, 0:21:24, 5560000, 1544

2160010, , INTERESTING, 16:12:21:24, 5565000, 1545

2160010, , EMPTY, 10:12:21:24, 5580000, 1550

7670010, , EMPTY, 3:20:24, 75000, 20

2160010, , EMPTY, 6:21:24, 5595000, 1554

2170010, , EMPTY, 0:21:24, 5600000, 1555

7660010, , EMPTY, 2:20:24, 125000, 34

2170010, , INTERESTING, 4:16:12:21:24, 5615000, 1559

2170010, , EMPTY, 18:12:21:24, 5630000, 1563

7670010, , EMPTY, 5:20:24, 135000, 37

2180010, , EMPTY, 11:21:24, 5635000, 1565

2190010, , EMPTY, 12:21:24, 5640000, 1566

7790010, , INTERESTING, 5:20:24, 45000, 12

2190010, , INTERESTING, 0:21:24, 5655000, 1570

2190010, , EMPTY, 15:13:21:24, 5670000, 1575

7770010, , EMPTY, 2:20:24, 95000, 26

2200010, , EMPTY, 17:12:21:24, 5675000, 1576

7730010, , EMPTY, 3:20:24, 155000, 43

2210010, , EMPTY, 11:21:24, 5680000, 1577

7850010, , EMPTY, 2:20:24, 50000, 13

2210010, , EMPTY, 14:12:21:24, 5695000, 1581

2220010, , EMPTY, 16:12:21:24, 5700000, 1583

2220010, , EMPTY, 11:21:24, 5715000, 1587

2230010, , EMPTY, 1:21:24, 5720000, 1588

7820010, , EMPTY, 5:20:24, 135000, 37

2230010, , EMPTY, 16:12:21:24, 5735000, 1593

7870010, , EMPTY, 2:20:24, 100000, 27

2230010, , EMPTY, 9:13:21:24, 5750000, 1597

7940010, , EMPTY, 5:20:24, 45000, 12

2240010, , INTERESTING, 13:21:24, 5755000, 1598

7970010, , EMPTY, 5:20:24, 30000, 8

2240010, , EMPTY, 0:21:24, 5770000, 1602

7980010, , EMPTY, 5:20:24, 35000, 9

2250010, , EMPTY, 17:12:21:24, 5775000, 1604

2250010, , EMPTY, 10:12:21:24, 5790000, 1608

7870010, , EMPTY, 3:20:24, 175000, 48

2250010, , EMPTY, 7:21:24, 5805000, 1612

7950010, , EMPTY, 2:20:24, 110000, 30

2260010, , INTERESTING, 17:12:21:24, 5810000, 1613

8040010, , EMPTY, 2:20:24, 35000, 9

2270010, , EMPTY, 17:12:21:24, 5815000, 1615

2270010, , EMPTY, 6:21:24, 5830000, 1619

2280010, , INTERESTING, 12:21:24, 5835000, 1620

2280010, , EMPTY, 13:21:24, 5850000, 1625

2290010, , EMPTY, 1:21:24, 5855000, 1626

8000010, , EMPTY, 5:20:24, 145000, 40

8030010, , INTERESTING, 3:20:24, 130000, 36

2290010, , EMPTY, 17:12:21:24, 5870000, 1630

2290010, , EMPTY, 4:16:12:21:24, 5885000, 1634

8130010, , EMPTY, 5:20:24, 45000, 12

2290010, , EMPTY, 15:13:21:24, 5900000, 1638

8140010, , EMPTY, 5:20:24, 55000, 15

2300010, , EMPTY, 6:21:24, 5905000, 1640

8060010, , EMPTY, 2:20:24, 155000, 43

2300010, , EMPTY, 1:21:24, 5920000, 1644

2310010, , EMPTY, 18:12:21:24, 5925000, 1645

2330010, , EMPTY, 6:21:24, 5920000, 1644

2330010, , EMPTY, 4:16:12:21:24, 5935000, 1648

2330010, , INTERESTING, 17:12:21:24, 5950000, 1652

2350010, , EMPTY, 6:21:24, 5945000, 1651

2350010, , EMPTY, 10:12:21:24, 5960000, 1655

8140010, , EMPTY, 3:20:24, 175000, 48

2350010, , EMPTY, 4:16:12:21:24, 5975000, 1659

8180010, , EMPTY, 5:20:24, 155000, 43

2350010, , EMPTY, 19:12:21:24, 5990000, 1663

2370010, , EMPTY, 11:21:24, 5985000, 1662

8200010, , EMPTY, 2:20:24, 165000, 45

2370010, , EMPTY, 6:21:24, 6000000, 1666

2370010, , EMPTY, 10:12:21:24, 6015000, 1670

2380010, , EMPTY, 8:12:21:24, 6020000, 1672

2380010, , EMPTY, 4:16:12:21:24, 6035000, 1676

8320010, , EMPTY, 5:20:24, 95000, 26

2380010, , EMPTY, 14:12:21:24, 6050000, 1680

8350010, , INTERESTING, 2:20:24, 80000, 22

2390010, , INTERESTING, 7:21:24, 6055000, 1681

8300010, , EMPTY, 3:20:24, 155000, 43

2390010, , EMPTY, 8:12:21:24, 6070000, 1686

8410010, , EMPTY, 2:20:24, 60000, 16

2390010, , EMPTY, 11:21:24, 6085000, 1690

8400010, , EMPTY, 5:20:24, 85000, 23

2400010, , EMPTY, 7:21:24, 6090000, 1691

8440010, , EMPTY, 3:20:24, 60000, 16

2400010, , EMPTY, 6:21:24, 6105000, 1695

2400010, , EMPTY, 4:16:12:21:24, 6120000, 1700

8450010, , INTERESTING, 2:20:24, 75000, 20

2410010, , EMPTY, 12:21:24, 6125000, 1701

8470010, , EMPTY, 5:20:24, 70000, 19

2410010, , EMPTY, 8:12:21:24, 6140000, 1705

2410010, , EMPTY, 4:16:12:21:24, 6155000, 1709

8460010, , EMPTY, 3:20:24, 105000, 29

2420010, , INTERESTING, 15:13:21:24, 6160000, 1711

8510010, , EMPTY, 2:20:24, 75000, 20

2420010, , EMPTY, 17:12:21:24, 6175000, 1715

8550010, , EMPTY, 3:20:24, 50000, 13

2420010, , EMPTY, 10:12:21:24, 6190000, 1719

8580010, , EMPTY, 3:20:24, 35000, 9

2420010, , EMPTY, 7:21:24, 6205000, 1723

8570010, , INTERESTING, 2:20:24, 60000, 16

2420010, , EMPTY, 18:12:21:24, 6220000, 1727

8520010, , EMPTY, 5:20:24, 125000, 34

2430010, , EMPTY, 15:13:21:24, 6225000, 1729

8630010, , EMPTY, 5:20:24, 35000, 9

2430010, , INTERESTING, 17:12:21:24, 6240000, 1733

8650010, , INTERESTING, 5:20:24, 35000, 9

2440010, , EMPTY, 6:21:24, 6245000, 1734

2440010, , EMPTY, 14:12:21:24, 6260000, 1738

8670010, , EMPTY, 5:20:24, 45000, 12

2440010, , EMPTY, 15:13:21:24, 6275000, 1743

2460010, , INTERESTING, 6:21:24, 6270000, 1741

2460010, , EMPTY, 19:12:21:24, 6285000, 1745

2460010, , EMPTY, 10:12:21:24, 6300000, 1750

8610010, , EMPTY, 2:20:24, 155000, 43

2460010, , EMPTY, 15:13:21:24, 6315000, 1754

8750010, , EMPTY, 2:20:24, 35000, 9

2470010, , EMPTY, 16:12:21:24, 6320000, 1755

2480010, , EMPTY, 12:21:24, 6325000, 1756

8590010, , EMPTY, 3:20:24, 215000, 59

2490010, , EMPTY, 6:21:24, 6330000, 1758

8700010, , EMPTY, 5:20:24, 135000, 37

2490010, , EMPTY, 19:12:21:24, 6345000, 1762

2490010, , EMPTY, 11:21:24, 6360000, 1766

2490010, , EMPTY, 14:12:21:24, 6375000, 1770

8770010, , EMPTY, 2:20:24, 95000, 26

8850010, , EMPTY, 2:20:24, 30000, 8

2490010, , EMPTY, 18:12:21:24, 6390000, 1775

8820010, , EMPTY, 5:20:24, 75000, 20

2490010, , EMPTY, 17:12:21:24, 6405000, 1779

8860010, , EMPTY, 2:20:24, 50000, 13

2490010, , EMPTY, 7:21:24, 6420000, 1783

8870010, , EMPTY, 5:20:24, 55000, 15

2500010, , EMPTY, 9:13:21:24, 6425000, 1784

2510010, , INTERESTING, 6:21:24, 6430000, 1786

8880010, , EMPTY, 2:20:24, 60000, 16

2520010, , EMPTY, 16:12:21:24, 6435000, 1787

2520010, , EMPTY, 8:12:21:24, 6450000, 1791

2530010, , EMPTY, 16:12:21:24, 6455000, 1793

2530010, , INTERESTING, 19:12:21:24, 6470000, 1797

2540010, , EMPTY, 11:21:24, 6475000, 1798

2550010, , EMPTY, 12:21:24, 6480000, 1800

2550010, , EMPTY, 14:12:21:24, 6495000, 1804

2550010, , EMPTY, 13:21:24, 6510000, 1808

2550010, , INTERESTING, 18:12:21:24, 6525000, 1812

2560010, , EMPTY, 10:12:21:24, 6530000, 1813

2560010, , EMPTY, 15:13:21:24, 6545000, 1818

8790010, , EMPTY, 3:20:24, 325000, 90

2560010, , EMPTY, 9:13:21:24, 6560000, 1822

8920010, , INTERESTING, 2:20:24, 210000, 58

2560010, , EMPTY, 17:12:21:24, 6575000, 1826

2570010, , EMPTY, 16:12:21:24, 6580000, 1827

2570010, , INTERESTING, 6:21:24, 6595000, 1831

2570010, , EMPTY, 10:12:21:24, 6610000, 1836

2570010, , EMPTY, 14:12:21:24, 6625000, 1840

8910010, , INTERESTING, 5:20:24, 295000, 81

2580010, , INTERESTING, 4:16:12:21:24, 6630000, 1841

9190010, , EMPTY, 5:20:24, 35000, 9

2580010, , EMPTY, 17:12:21:24, 6645000, 1845

2590010, , EMPTY, 15:13:21:24, 6650000, 1847

9210010, , EMPTY, 5:20:24, 30000, 8

9220010, , EMPTY, 5:20:24, 35000, 9

2590010, , INTERESTING, 9:13:21:24, 6665000, 1851

2600010, , EMPTY, 13:21:24, 6670000, 1852

9240010, , INTERESTING, 5:20:24, 35000, 9

2600010, , EMPTY, 15:13:21:24, 6685000, 1856

9100010, , EMPTY, 3:20:24, 190000, 52

2600010, , EMPTY, 19:12:21:24, 6700000, 1861

9100010, , EMPTY, 2:20:24, 205000, 56

2610010, , INTERESTING, 18:12:21:24, 6705000, 1862

9290010, , EMPTY, 2:20:24, 30000, 8

2610010, , EMPTY, 0:21:24, 6720000, 1866

2610010, , EMPTY, 4:16:12:21:24, 6735000, 1870

2620010, , INTERESTING, 1:21:24, 6740000, 1872

9270010, , EMPTY, 3:20:24, 95000, 26

2630010, , INTERESTING, 12:21:24, 6745000, 1873

9350010, , EMPTY, 3:20:24, 30000, 8

2630010, , INTERESTING, 15:13:21:24, 6760000, 1877

9260010, , EMPTY, 5:20:24, 135000, 37

2630010, , EMPTY, 4:16:12:21:24, 6775000, 1881

9300010, , EMPTY, 2:20:24, 110000, 30

2640010, , INTERESTING, 13:21:24, 6780000, 1883

9360010, , INTERESTING, 3:20:24, 65000, 18

2640010, , EMPTY, 6:21:24, 6795000, 1887

9370010, , EMPTY, 5:20:24, 70000, 19

2640010, , EMPTY, 18:12:21:24, 6810000, 1891

9390010, , EMPTY, 5:20:24, 65000, 18

2640010, , EMPTY, 17:12:21:24, 6825000, 1895

9430010, , EMPTY, 5:20:24, 40000, 11

2650010, , INTERESTING, 18:12:21:24, 6830000, 1897

9390010, , EMPTY, 3:20:24, 95000, 26

2660010, , INTERESTING, 1:21:24, 6835000, 1898

2660010, , INTERESTING, 13:21:24, 6850000, 1902

9370010, , INTERESTING, 2:20:24, 145000, 40

2670010, , INTERESTING, 14:12:21:24, 6855000, 1904

2670010, , EMPTY, 10:12:21:24, 6870000, 1908

2670010, , INTERESTING, 1:21:24, 6885000, 1912

2670010, , EMPTY, 8:12:21:24, 6900000, 1916

2680010, , INTERESTING, 6:21:24, 6905000, 1918

2680010, , EMPTY, 12:21:24, 6920000, 1922

2680010, , EMPTY, 15:13:21:24, 6935000, 1926

9500010, , EMPTY, 2:20:24, 115000, 31

2680010, , EMPTY, 14:12:21:24, 6950000, 1930

2690010, , EMPTY, 17:12:21:24, 6955000, 1931

2690010, , INTERESTING, 10:12:21:24, 6970000, 1936

2690010, , EMPTY, 0:21:24, 6985000, 1940

9450010, , EMPTY, 5:20:24, 235000, 65

2690010, , EMPTY, 4:16:12:21:24, 7000000, 1944

2690010, , EMPTY, 6:21:24, 7015000, 1948

2700010, , INTERESTING, 17:12:21:24, 7020000, 1950

9470010, , EMPTY, 3:20:24, 265000, 73

2700010, , INTERESTING, 15:13:21:24, 7035000, 1954

2700010, , EMPTY, 10:12:21:24, 7050000, 1958

2710010, , INTERESTING, 1:21:24, 7055000, 1959

9670010, , EMPTY, 5:20:24, 95000, 26

9720010, , EMPTY, 3:20:24, 60000, 16

2710010, , EMPTY, 17:12:21:24, 7070000, 1963

9750010, , INTERESTING, 5:20:24, 45000, 12

2720010, , EMPTY, 12:21:24, 7075000, 1965

2720010, , EMPTY, 15:13:21:24, 7090000, 1969

9750010, , EMPTY, 3:20:24, 75000, 20

2720010, , EMPTY, 0:21:24, 7105000, 1973

9600010, , EMPTY, 2:20:24, 240000, 66

2730010, , EMPTY, 4:16:12:21:24, 7110000, 1975

2730010, , INTERESTING, 7:21:24, 7125000, 1979

9760010, , EMPTY, 5:20:24, 95000, 26

2730010, , INTERESTING, 1:21:24, 7140000, 1983

9810010, , EMPTY, 5:20:24, 60000, 16

9810010, , INTERESTING, 3:20:24, 75000, 20

2740010, , EMPTY, 14:12:21:24, 7145000, 1984

2750010, , EMPTY, 14:12:21:24, 7150000, 1986

9820010, , EMPTY, 5:20:24, 80000, 22

9820010, , EMPTY, 2:20:24, 95000, 26

2750010, , EMPTY, 11:21:24, 7165000, 1990

9850010, , INTERESTING, 5:20:24, 80000, 22

2750010, , EMPTY, 15:13:21:24, 7180000, 1994

9860010, , EMPTY, 3:20:24, 85000, 23

2760010, , EMPTY, 17:12:21:24, 7185000, 1995

9870010, , EMPTY, 2:20:24, 90000, 25

2760010, , EMPTY, 16:12:21:24, 7200000, 2000

2760010, , EMPTY, 4:16:12:21:24, 7215000, 2004

9880010, , EMPTY, 5:20:24, 95000, 26

2770010, , INTERESTING, 19:12:21:24, 7220000, 2005

9920010, , INTERESTING, 3:20:24, 70000, 19

9910010, , EMPTY, 2:20:24, 95000, 26

2780010, , EMPTY, 10:12:21:24, 7225000, 2006

2780010, , EMPTY, 7:21:24, 7240000, 2011

9940010, , INTERESTING, 3:20:24, 80000, 22

2790010, , EMPTY, 9:13:21:24, 7245000, 2012

9970010, , INTERESTING, 3:20:24, 65000, 18

2790010, , EMPTY, 12:21:24, 7260000, 2016

9900010, , EMPTY, 5:20:24, 150000, 41

2800010, , EMPTY, 19:12:21:24, 7265000, 2018

9980010, , EMPTY, 2:20:24, 85000, 23

9980010, , INTERESTING, 3:20:24, 100000, 27

2800010, , EMPTY, 13:21:24, 7280000, 2022

10030010, , EMPTY, 5:20:24, 65000, 18

2800010, , EMPTY, 10:12:21:24, 7295000, 2026

2810010, , EMPTY, 19:12:21:24, 7300000, 2027

10040010, , EMPTY, 5:20:24, 70000, 19

10090010, , EMPTY, 5:20:24, 35000, 9

2810010, , EMPTY, 8:12:21:24, 7315000, 2031

10010010, , EMPTY, 2:20:24, 130000, 36

2810010, , EMPTY, 14:12:21:24, 7330000, 2036

10040010, , EMPTY, 3:20:24, 115000, 31

2810010, , EMPTY, 9:13:21:24, 7345000, 2040

10110010, , EMPTY, 5:20:24, 60000, 16

2820010, , EMPTY, 19:12:21:24, 7350000, 2041

2820010, , EMPTY, 11:21:24, 7365000, 2045

10140010, , EMPTY, 3:20:24, 45000, 12

2830010, , INTERESTING, 18:12:21:24, 7370000, 2047

2830010, , EMPTY, 8:12:21:24, 7385000, 2051

10120010, , EMPTY, 2:20:24, 95000, 26

2830010, , INTERESTING, 9:13:21:24, 7400000, 2055

10160010, , EMPTY, 3:20:24, 75000, 20

2840010, , INTERESTING, 14:12:21:24, 7405000, 2056

10200010, , EMPTY, 2:20:24, 50000, 13

2840010, , EMPTY, 17:12:21:24, 7420000, 2061

10220010, , INTERESTING, 3:20:24, 45000, 12

2850010, , EMPTY, 14:12:21:24, 7425000, 2062

10250010, , EMPTY, 3:20:24, 35000, 9

2850010, , EMPTY, 18:12:21:24, 7440000, 2066

10230010, , EMPTY, 2:20:24, 75000, 20

2860010, , EMPTY, 12:21:24, 7445000, 2068

2860010, , INTERESTING, 6:21:24, 7460000, 2072

2860010, , EMPTY, 17:12:21:24, 7475000, 2076

10130010, , INTERESTING, 5:20:24, 205000, 56

2870010, , INTERESTING, 13:21:24, 7480000, 2077

2870010, , EMPTY, 7:21:24, 7495000, 2081

2870010, , EMPTY, 14:12:21:24, 7510000, 2086

2870010, , EMPTY, 19:12:21:24, 7525000, 2090

2870010, , EMPTY, 4:16:12:21:24, 7540000, 2094

2880010, , EMPTY, 13:21:24, 7545000, 2095

10320010, , INTERESTING, 5:20:24, 115000, 31

2880010, , INTERESTING, 12:21:24, 7560000, 2100

10270010, , EMPTY, 3:20:24, 180000, 50

2890010, , EMPTY, 7:21:24, 7565000, 2101

2910010, , INTERESTING, 6:21:24, 7560000, 2100

10420010, , EMPTY, 5:20:24, 65000, 18

2910010, , EMPTY, 12:21:24, 7575000, 2104

2910010, , EMPTY, 13:21:24, 7590000, 2108

10430010, , EMPTY, 3:20:24, 70000, 19

2920010, , EMPTY, 7:21:24, 7595000, 2109

2940010, , EMPTY, 7:21:24, 7590000, 2108

10290010, , EMPTY, 2:20:24, 245000, 68

2950010, , EMPTY, 0:21:24, 7595000, 2109

10470010, , INTERESTING, 5:20:24, 85000, 23

2950010, , EMPTY, 8:12:21:24, 7610000, 2113

10480010, , INTERESTING, 3:20:24, 90000, 25

2950010, , INTERESTING, 14:12:21:24, 7625000, 2118

10520010, , EMPTY, 2:20:24, 65000, 18

2950010, , EMPTY, 16:12:21:24, 7640000, 2122

10540010, , EMPTY, 5:20:24, 60000, 16

2960010, , EMPTY, 7:21:24, 7645000, 2123

10550010, , EMPTY, 3:20:24, 65000, 18

2960010, , EMPTY, 6:21:24, 7660000, 2127

10560010, , EMPTY, 3:20:24, 70000, 19

2970010, , INTERESTING, 12:21:24, 7665000, 2129

2970010, , EMPTY, 7:21:24, 7680000, 2133

10580010, , INTERESTING, 5:20:24, 75000, 20

2970010, , EMPTY, 13:21:24, 7695000, 2137

2970010, , EMPTY, 0:21:24, 7710000, 2141

2970010, , EMPTY, 15:13:21:24, 7725000, 2145

2980010, , EMPTY, 19:12:21:24, 7730000, 2147

10640010, , EMPTY, 5:20:24, 85000, 23

2990010, , INTERESTING, 1:21:24, 7735000, 2148

2990010, , EMPTY, 17:12:21:24, 7750000, 2152

2990010, , EMPTY, 19:12:21:24, 7765000, 2156

3010010, , EMPTY, 1:21:24, 7760000, 2155

10710010, , EMPTY, 5:20:24, 65000, 18

3010010, , EMPTY, 17:12:21:24, 7775000, 2159

3010010, , EMPTY, 16:12:21:24, 7790000, 2163

10760010, , EMPTY, 5:20:24, 45000, 12

3010010, , EMPTY, 14:12:21:24, 7805000, 2168

10790010, , EMPTY, 5:20:24, 35000, 9

3010010, , EMPTY, 8:12:21:24, 7820000, 2172

3020010, , INTERESTING, 11:21:24, 7825000, 2173

10810010, , EMPTY, 5:20:24, 45000, 12

3020010, , EMPTY, 7:21:24, 7840000, 2177

3020010, , EMPTY, 6:21:24, 7855000, 2181

3030010, , EMPTY, 13:21:24, 7860000, 2183

10570010, , INTERESTING, 3:20:24, 325000, 90

3030010, , EMPTY, 1:21:24, 7875000, 2187

10840010, , EMPTY, 5:20:24, 70000, 19

3040010, , EMPTY, 13:21:24, 7880000, 2188

3040010, , EMPTY, 15:13:21:24, 7895000, 2193

3040010, , EMPTY, 0:21:24, 7910000, 2197

10540010, , INTERESTING, 2:20:24, 415000, 115

3050010, , INTERESTING, 4:16:12:21:24, 7915000, 2198

10880010, , EMPTY, 3:20:24, 90000, 25

3050010, , INTERESTING, 9:13:21:24, 7930000, 2202

10890010, , EMPTY, 5:20:24, 95000, 26

3050010, , EMPTY, 11:21:24, 7945000, 2206

10940010, , EMPTY, 5:20:24, 60000, 16

3060010, , EMPTY, 13:21:24, 7950000, 2208

10940010, , EMPTY, 3:20:24, 75000, 20

3060010, , INTERESTING, 17:12:21:24, 7965000, 2212

3070010, , INTERESTING, 16:12:21:24, 7970000, 2213

3080010, , EMPTY, 4:16:12:21:24, 7975000, 2215

3080010, , EMPTY, 19:12:21:24, 7990000, 2219

3090010, , EMPTY, 15:13:21:24, 7995000, 2220

10970010, , EMPTY, 5:20:24, 125000, 34

3100010, , EMPTY, 7:21:24, 8000000, 2222

10940010, , EMPTY, 2:20:24, 170000, 47

3100010, , INTERESTING, 14:12:21:24, 8015000, 2226

11080010, , INTERESTING, 5:20:24, 45000, 12

3110010, , EMPTY, 7:21:24, 8020000, 2227

11090010, , EMPTY, 5:20:24, 50000, 13

3110010, , EMPTY, 17:12:21:24, 8035000, 2231

10970010, , EMPTY, 3:20:24, 185000, 51

3110010, , EMPTY, 13:21:24, 8050000, 2236

11100010, , EMPTY, 5:20:24, 70000, 19

3120010, , INTERESTING, 12:21:24, 8055000, 2237

11110010, , EMPTY, 5:20:24, 75000, 20

3120010, , EMPTY, 18:12:21:24, 8070000, 2241

11120010, , EMPTY, 5:20:24, 80000, 22

3120010, , EMPTY, 1:21:24, 8085000, 2245

11090010, , EMPTY, 2:20:24, 125000, 34

3130010, , EMPTY, 16:12:21:24, 8090000, 2247

11130010, , EMPTY, 3:20:24, 100000, 27

3130010, , EMPTY, 10:12:21:24, 8105000, 2251

11180010, , EMPTY, 3:20:24, 65000, 18

3130010, , EMPTY, 18:12:21:24, 8120000, 2255

3130010, , EMPTY, 7:21:24, 8135000, 2259

3140010, , EMPTY, 15:13:21:24, 8140000, 2261

3150010, , EMPTY, 17:12:21:24, 8145000, 2262

11200010, , INTERESTING, 2:20:24, 95000, 26

3150010, , EMPTY, 6:21:24, 8160000, 2266

3150010, , EMPTY, 0:21:24, 8175000, 2270

3160010, , EMPTY, 17:12:21:24, 8180000, 2272

11280010, , EMPTY, 2:20:24, 65000, 18

3160010, , EMPTY, 16:12:21:24, 8195000, 2276

11150010, , EMPTY, 5:20:24, 210000, 58

3170010, , EMPTY, 12:21:24, 8200000, 2277

11210010, , EMPTY, 3:20:24, 165000, 45

3170010, , INTERESTING, 9:13:21:24, 8215000, 2281

11340010, , EMPTY, 5:20:24, 50000, 13

3180010, , EMPTY, 17:12:21:24, 8220000, 2283

11350010, , INTERESTING, 5:20:24, 55000, 15

3180010, , EMPTY, 9:13:21:24, 8235000, 2287

3190010, , EMPTY, 10:12:21:24, 8240000, 2288

11330010, , EMPTY, 2:20:24, 115000, 31

3190010, , EMPTY, 15:13:21:24, 8255000, 2293

3200010, , EMPTY, 11:21:24, 8260000, 2294

11380010, , EMPTY, 5:20:24, 85000, 23

3200010, , EMPTY, 4:16:12:21:24, 8275000, 2298

3210010, , INTERESTING, 16:12:21:24, 8280000, 2300

3210010, , EMPTY, 1:21:24, 8295000, 2304

3210010, , INTERESTING, 19:12:21:24, 8310000, 2308

11360010, , EMPTY, 3:20:24, 165000, 45

3220010, , INTERESTING, 11:21:24, 8315000, 2309

3220010, , EMPTY, 17:12:21:24, 8330000, 2313

3220010, , EMPTY, 8:12:21:24, 8345000, 2318

3220010, , INTERESTING, 14:12:21:24, 8360000, 2322

3230010, , EMPTY, 10:12:21:24, 8365000, 2323

11430010, , EMPTY, 2:20:24, 175000, 48

3230010, , EMPTY, 11:21:24, 8380000, 2327

3240010, , EMPTY, 10:12:21:24, 8385000, 2329

11590010, , EMPTY, 2:20:24, 45000, 12

3240010, , EMPTY, 16:12:21:24, 8400000, 2333

3240010, , EMPTY, 4:16:12:21:24, 8415000, 2337

3250010, , EMPTY, 10:12:21:24, 8420000, 2338

11450010, , EMPTY, 5:20:24, 235000, 65

3250010, , INTERESTING, 1:21:24, 8435000, 2343

3260010, , EMPTY, 18:12:21:24, 8440000, 2344

11510010, , EMPTY, 3:20:24, 190000, 52

3260010, , EMPTY, 11:21:24, 8455000, 2348

3270010, , EMPTY, 9:13:21:24, 8460000, 2350

3270010, , EMPTY, 7:21:24, 8475000, 2354

3280010, , EMPTY, 0:21:24, 8480000, 2355

11620010, , INTERESTING, 2:20:24, 145000, 40

3280010, , INTERESTING, 12:21:24, 8495000, 2359

3280010, , EMPTY, 6:21:24, 8510000, 2363

3280010, , EMPTY, 18:12:21:24, 8525000, 2368

11670010, , EMPTY, 5:20:24, 145000, 40

3290010, , EMPTY, 17:12:21:24, 8530000, 2369

3290010, , EMPTY, 4:16:12:21:24, 8545000, 2373

3300010, , EMPTY, 8:12:21:24, 8550000, 2375

11800010, , EMPTY, 5:20:24, 55000, 15

3310010, , EMPTY, 9:13:21:24, 8555000, 2376

11840010, , EMPTY, 5:20:24, 30000, 8

3320010, , EMPTY, 15:13:21:24, 8560000, 2377

11750010, , INTERESTING, 2:20:24, 135000, 37

3320010, , EMPTY, 0:21:24, 8575000, 2381

11850010, , EMPTY, 5:20:24, 55000, 15

3320010, , EMPTY, 4:16:12:21:24, 8590000, 2386

11860010, , EMPTY, 2:20:24, 65000, 18

3330010, , EMPTY, 10:12:21:24, 8595000, 2387

3340010, , EMPTY, 9:13:21:24, 8600000, 2388

11890010, , EMPTY, 5:20:24, 55000, 15

3350010, , EMPTY, 17:12:21:24, 8605000, 2390

3350010, , EMPTY, 14:12:21:24, 8620000, 2394

3360010, , EMPTY, 17:12:21:24, 8625000, 2395

3360010, , EMPTY, 10:12:21:24, 8640000, 2400

11910010, , EMPTY, 2:20:24, 95000, 26

3360010, , EMPTY, 8:12:21:24, 8655000, 2404

11670010, , EMPTY, 3:20:24, 355000, 98

3370010, , EMPTY, 13:21:24, 8660000, 2405

11930010, , INTERESTING, 5:20:24, 110000, 30

3380010, , INTERESTING, 15:13:21:24, 8665000, 2406

11990010, , EMPTY, 2:20:24, 65000, 18

3380010, , EMPTY, 4:16:12:21:24, 8680000, 2411

12010010, , EMPTY, 3:20:24, 60000, 16

3390010, , EMPTY, 17:12:21:24, 8685000, 2412

12030010, , EMPTY, 3:20:24, 55000, 15

3410010, , EMPTY, 0:21:24, 8680000, 2411

12070010, , INTERESTING, 3:20:24, 35000, 9

3420010, , INTERESTING, 6:21:24, 8685000, 2412

3420010, , EMPTY, 16:12:21:24, 8700000, 2416

12010010, , EMPTY, 5:20:24, 115000, 31

3430010, , EMPTY, 10:12:21:24, 8705000, 2418

12020010, , INTERESTING, 2:20:24, 120000, 33

3430010, , EMPTY, 13:21:24, 8720000, 2422

3430010, , EMPTY, 15:13:21:24, 8735000, 2426

12110010, , INTERESTING, 5:20:24, 55000, 15

3430010, , EMPTY, 1:21:24, 8750000, 2430

12110010, , EMPTY, 2:20:24, 70000, 19

12090010, , INTERESTING, 3:20:24, 105000, 29

3440010, , INTERESTING, 10:12:21:24, 8755000, 2431

3450010, , INTERESTING, 9:13:21:24, 8760000, 2433

3460010, , EMPTY, 7:21:24, 8765000, 2434

3470010, , INTERESTING, 12:21:24, 8770000, 2436

3470010, , INTERESTING, 14:12:21:24, 8785000, 2440

3470010, , INTERESTING, 6:21:24, 8800000, 2444

3480010, , EMPTY, 13:21:24, 8805000, 2445

12150010, , INTERESTING, 5:20:24, 145000, 40

3480010, , EMPTY, 12:21:24, 8820000, 2450

12160010, , EMPTY, 2:20:24, 150000, 41

3480010, , EMPTY, 19:12:21:24, 8835000, 2454

3490010, , EMPTY, 13:21:24, 8840000, 2455

12280010, , EMPTY, 2:20:24, 55000, 15

3490010, , INTERESTING, 18:12:21:24, 8855000, 2459

12280010, , EMPTY, 5:20:24, 70000, 19

3500010, , EMPTY, 7:21:24, 8860000, 2461

3500010, , INTERESTING, 13:21:24, 8875000, 2465

3510010, , INTERESTING, 12:21:24, 8880000, 2466

12180010, , EMPTY, 3:20:24, 225000, 62

3510010, , EMPTY, 9:13:21:24, 8895000, 2470

3510010, , EMPTY, 7:21:24, 8910000, 2475

12320010, , EMPTY, 5:20:24, 100000, 27

12320010, , EMPTY, 2:20:24, 115000, 31

3510010, , EMPTY, 17:12:21:24, 8925000, 2479

3510010, , EMPTY, 10:12:21:24, 8940000, 2483

3520010, , EMPTY, 18:12:21:24, 8945000, 2484

12390010, , EMPTY, 3:20:24, 85000, 23

3520010, , EMPTY, 14:12:21:24, 8960000, 2488

3530010, , EMPTY, 17:12:21:24, 8965000, 2490

3530010, , EMPTY, 9:13:21:24, 8980000, 2494

12390010, , EMPTY, 2:20:24, 135000, 37

3530010, , EMPTY, 4:16:12:21:24, 8995000, 2498

3540010, , EMPTY, 6:21:24, 9000000, 2500

12460010, , EMPTY, 3:20:24, 85000, 23

3550010, , EMPTY, 7:21:24, 9005000, 2501

12510010, , INTERESTING, 2:20:24, 50000, 13

3550010, , EMPTY, 13:21:24, 9020000, 2505

12390010, , EMPTY, 5:20:24, 185000, 51

3550010, , INTERESTING, 17:12:21:24, 9035000, 2509

12530010, , EMPTY, 3:20:24, 60000, 16

3550010, , EMPTY, 4:16:12:21:24, 9050000, 2513

3560010, , EMPTY, 4:16:12:21:24, 9055000, 2515

12530010, , INTERESTING, 2:20:24, 95000, 26

3570010, , EMPTY, 7:21:24, 9060000, 2516

12570010, , INTERESTING, 3:20:24, 70000, 19

3570010, , EMPTY, 18:12:21:24, 9075000, 2520

12610010, , INTERESTING, 3:20:24, 45000, 12

3570010, , INTERESTING, 9:13:21:24, 9090000, 2525

12550010, , INTERESTING, 5:20:24, 125000, 34

3580010, , INTERESTING, 14:12:21:24, 9095000, 2526

3590010, , INTERESTING, 7:21:24, 9100000, 2527

12660010, , EMPTY, 5:20:24, 35000, 9

3590010, , EMPTY, 9:13:21:24, 9115000, 2531

3610010, , EMPTY, 19:12:21:24, 9110000, 2530

12640010, , EMPTY, 3:20:24, 85000, 23

3610010, , INTERESTING, 15:13:21:24, 9125000, 2534

12710010, , EMPTY, 3:20:24, 35000, 9

3620010, , INTERESTING, 8:12:21:24, 9130000, 2536

3620010, , INTERESTING, 17:12:21:24, 9145000, 2540

12680010, , EMPTY, 5:20:24, 95000, 26

3630010, , EMPTY, 19:12:21:24, 9150000, 2541

12610010, , EMPTY, 2:20:24, 180000, 50

3630010, , EMPTY, 11:21:24, 9165000, 2545

12760010, , EMPTY, 5:20:24, 45000, 12

3630010, , EMPTY, 10:12:21:24, 9180000, 2550

12770010, , EMPTY, 2:20:24, 50000, 13

3630010, , EMPTY, 14:12:21:24, 9195000, 2554

12790010, , EMPTY, 2:20:24, 45000, 12

3640010, , EMPTY, 19:12:21:24, 9200000, 2555

12730010, , EMPTY, 3:20:24, 120000, 33

3650010, , EMPTY, 16:12:21:24, 9205000, 2556

12780010, , EMPTY, 5:20:24, 85000, 23

3650010, , EMPTY, 8:12:21:24, 9220000, 2561

12830010, , EMPTY, 3:20:24, 50000, 13

3650010, , EMPTY, 19:12:21:24, 9235000, 2565

12810010, , EMPTY, 2:20:24, 85000, 23

3660010, , EMPTY, 11:21:24, 9240000, 2566

3660010, , INTERESTING, 17:12:21:24, 9255000, 2570

12860010, , EMPTY, 3:20:24, 65000, 18

3660010, , EMPTY, 18:12:21:24, 9270000, 2575

3660010, , EMPTY, 0:21:24, 9285000, 2579

3670010, , EMPTY, 11:21:24, 9290000, 2580

12870010, , INTERESTING, 2:20:24, 105000, 29

3670010, , EMPTY, 10:12:21:24, 9305000, 2584

12910010, , EMPTY, 3:20:24, 80000, 22

3670010, , EMPTY, 18:12:21:24, 9320000, 2588

3670010, , EMPTY, 4:16:12:21:24, 9335000, 2593

12960010, , INTERESTING, 3:20:24, 55000, 15

3670010, , EMPTY, 17:12:21:24, 9350000, 2597

12960010, , EMPTY, 2:20:24, 70000, 19

3670010, , EMPTY, 13:21:24, 9365000, 2601

12850010, , EMPTY, 5:20:24, 195000, 54

3680010, , EMPTY, 7:21:24, 9370000, 2602

13000010, , EMPTY, 3:20:24, 60000, 16

3680010, , INTERESTING, 4:16:12:21:24, 9385000, 2606

13020010, , INTERESTING, 3:20:24, 55000, 15

3680010, , EMPTY, 11:21:24, 9400000, 2611

13020010, , EMPTY, 5:20:24, 70000, 19

3680010, , EMPTY, 6:21:24, 9415000, 2615

13030010, , INTERESTING, 3:20:24, 75000, 20

3680010, , EMPTY, 10:12:21:24, 9430000, 2619

13040010, , INTERESTING, 5:20:24, 80000, 22

3690010, , EMPTY, 4:16:12:21:24, 9435000, 2620

13050010, , EMPTY, 5:20:24, 85000, 23

3690010, , EMPTY, 9:13:21:24, 9450000, 2625

13010010, , EMPTY, 2:20:24, 140000, 38

3690010, , INTERESTING, 18:12:21:24, 9465000, 2629

13070010, , EMPTY, 3:20:24, 95000, 26

3700010, , EMPTY, 8:12:21:24, 9470000, 2630

13090010, , EMPTY, 3:20:24, 90000, 25

3700010, , EMPTY, 16:12:21:24, 9485000, 2634

13070010, , EMPTY, 5:20:24, 125000, 34

3700010, , INTERESTING, 17:12:21:24, 9500000, 2638

13100010, , INTERESTING, 3:20:24, 110000, 30

3700010, , EMPTY, 7:21:24, 9515000, 2643

13110010, , EMPTY, 3:20:24, 115000, 31

3720010, , EMPTY, 0:21:24, 9510000, 2641

13130010, , EMPTY, 2:20:24, 110000, 30

3720010, , EMPTY, 13:21:24, 9525000, 2645

13220010, , EMPTY, 2:20:24, 35000, 9

3720010, , EMPTY, 8:12:21:24, 9540000, 2650

3720010, , EMPTY, 1:21:24, 9555000, 2654

3730010, , EMPTY, 4:16:12:21:24, 9560000, 2655

13170010, , EMPTY, 5:20:24, 135000, 37

3730010, , INTERESTING, 0:21:24, 9575000, 2659

3740010, , EMPTY, 19:12:21:24, 9580000, 2661

13180010, , EMPTY, 3:20:24, 145000, 40

3740010, , EMPTY, 13:21:24, 9595000, 2665

13290010, , EMPTY, 5:20:24, 50000, 13

3740010, , INTERESTING, 9:13:21:24, 9610000, 2669

13310010, , EMPTY, 5:20:24, 45000, 12

3750010, , INTERESTING, 18:12:21:24, 9615000, 2670

13240010, , EMPTY, 2:20:24, 130000, 36

3750010, , INTERESTING, 8:12:21:24, 9630000, 2675

13340010, , EMPTY, 5:20:24, 45000, 12

3770010, , INTERESTING, 4:16:12:21:24, 9625000, 2673

3770010, , EMPTY, 14:12:21:24, 9640000, 2677

13350010, , EMPTY, 2:20:24, 65000, 18

3780010, , INTERESTING, 18:12:21:24, 9645000, 2679

3790010, , EMPTY, 1:21:24, 9650000, 2680

13400010, , EMPTY, 2:20:24, 45000, 12

3790010, , EMPTY, 19:12:21:24, 9665000, 2684

3790010, , EMPTY, 18:12:21:24, 9680000, 2688

3790010, , EMPTY, 4:16:12:21:24, 9695000, 2693

3800010, , EMPTY, 11:21:24, 9700000, 2694

13360010, , EMPTY, 5:20:24, 145000, 40

3800010, , EMPTY, 6:21:24, 9715000, 2698

3810010, , EMPTY, 11:21:24, 9720000, 2700

13430010, , EMPTY, 2:20:24, 105000, 29

3810010, , EMPTY, 19:12:21:24, 9735000, 2704

13520010, , EMPTY, 2:20:24, 30000, 8

3820010, , INTERESTING, 11:21:24, 9740000, 2705

13490010, , EMPTY, 5:20:24, 85000, 23

3820010, , EMPTY, 9:13:21:24, 9755000, 2709

13560010, , INTERESTING, 5:20:24, 30000, 8

3820010, , EMPTY, 4:16:12:21:24, 9770000, 2713

13570010, , EMPTY, 5:20:24, 35000, 9

3820010, , EMPTY, 6:21:24, 9785000, 2718

3830010, , EMPTY, 18:12:21:24, 9790000, 2719

13580010, , EMPTY, 5:20:24, 45000, 12

3830010, , EMPTY, 1:21:24, 9805000, 2723

13530010, , EMPTY, 2:20:24, 110000, 30

3830010, , EMPTY, 19:12:21:24, 9820000, 2727

13620010, , EMPTY, 2:20:24, 35000, 9

3840010, , EMPTY, 16:12:21:24, 9825000, 2729

13310010, , EMPTY, 3:20:24, 360000, 100

3850010, , INTERESTING, 16:12:21:24, 9830000, 2730

13610010, , INTERESTING, 5:20:24, 75000, 20

3850010, , EMPTY, 17:12:21:24, 9845000, 2734

13640010, , EMPTY, 2:20:24, 60000, 16

3850010, , EMPTY, 13:21:24, 9860000, 2738

13660010, , EMPTY, 5:20:24, 55000, 15

3860010, , EMPTY, 18:12:21:24, 9865000, 2740

13670010, , EMPTY, 2:20:24, 65000, 18

3860010, , EMPTY, 14:12:21:24, 9880000, 2744

3870010, , EMPTY, 18:12:21:24, 9885000, 2745

13650010, , EMPTY, 3:20:24, 105000, 29

3870010, , INTERESTING, 8:12:21:24, 9900000, 2750

3870010, , EMPTY, 16:12:21:24, 9915000, 2754

13720010, , EMPTY, 2:20:24, 65000, 18

3880010, , EMPTY, 11:21:24, 9920000, 2755

3880010, , EMPTY, 18:12:21:24, 9935000, 2759

13670010, , EMPTY, 5:20:24, 145000, 40

3880010, , EMPTY, 10:12:21:24, 9950000, 2763

3880010, , INTERESTING, 1:21:24, 9965000, 2768

3880010, , INTERESTING, 17:12:21:24, 9980000, 2772

3890010, , EMPTY, 13:21:24, 9985000, 2773

13770010, , INTERESTING, 2:20:24, 115000, 31

3890010, , EMPTY, 18:12:21:24, 10000000, 2777

13870010, , EMPTY, 2:20:24, 30000, 8

3890010, , EMPTY, 11:21:24, 10015000, 2781

3900010, , EMPTY, 7:21:24, 10020000, 2783

13880010, , INTERESTING, 2:20:24, 55000, 15

3900010, , EMPTY, 12:21:24, 10035000, 2787

3900010, , EMPTY, 10:12:21:24, 10050000, 2791

3910010, , EMPTY, 13:21:24, 10055000, 2793

13800010, , EMPTY, 5:20:24, 165000, 45

3910010, , EMPTY, 16:12:21:24, 10070000, 2797

13950010, , INTERESTING, 5:20:24, 45000, 12

3910010, , EMPTY, 4:16:12:21:24, 10085000, 2801

3910010, , INTERESTING, 9:13:21:24, 10100000, 2805

3910010, , INTERESTING, 8:12:21:24, 10115000, 2809

13920010, , EMPTY, 2:20:24, 115000, 31

3920010, , EMPTY, 13:21:24, 10120000, 2811

3920010, , EMPTY, 12:21:24, 10135000, 2815

13740010, , EMPTY, 3:20:24, 315000, 87

3920010, , EMPTY, 7:21:24, 10150000, 2819

14020010, , EMPTY, 2:20:24, 50000, 13

14040010, , INTERESTING, 2:20:24, 45000, 12

3920010, , EMPTY, 15:13:21:24, 10165000, 2823

3930010, , EMPTY, 13:21:24, 10170000, 2825

14070010, , EMPTY, 2:20:24, 45000, 12

3930010, , EMPTY, 4:16:12:21:24, 10185000, 2829

3930010, , EMPTY, 18:12:21:24, 10200000, 2833

13980010, , EMPTY, 5:20:24, 150000, 41

14100010, , INTERESTING, 2:20:24, 45000, 12

3940010, , EMPTY, 6:21:24, 10205000, 2834

14110010, , EMPTY, 5:20:24, 50000, 13

3940010, , EMPTY, 1:21:24, 10220000, 2838

14040010, , EMPTY, 3:20:24, 135000, 37

3950010, , EMPTY, 6:21:24, 10225000, 2840

14130010, , EMPTY, 5:20:24, 60000, 16

3950010, , EMPTY, 12:21:24, 10240000, 2844

14150010, , EMPTY, 3:20:24, 55000, 15

3950010, , INTERESTING, 0:21:24, 10255000, 2848

3960010, , EMPTY, 6:21:24, 10260000, 2850

3970010, , INTERESTING, 12:21:24, 10265000, 2851

3970010, , EMPTY, 13:21:24, 10280000, 2855

3970010, , EMPTY, 16:12:21:24, 10295000, 2859

14150010, , EMPTY, 5:20:24, 125000, 34

3990010, , EMPTY, 17:12:21:24, 10290000, 2858

3990010, , EMPTY, 7:21:24, 10305000, 2862

14120010, , EMPTY, 2:20:24, 185000, 51

4000010, , EMPTY, 19:12:21:24, 10310000, 2863

14160010, , EMPTY, 3:20:24, 160000, 44

4000010, , INTERESTING, 17:12:21:24, 10325000, 2868

4000010, , EMPTY, 4:16:12:21:24, 10340000, 2872

14300010, , INTERESTING, 3:20:24, 45000, 12

4010010, , INTERESTING, 0:21:24, 10345000, 2873

14330010, , EMPTY, 3:20:24, 30000, 8

4010010, , INTERESTING, 15:13:21:24, 10360000, 2877

14340010, , INTERESTING, 3:20:24, 35000, 9

4010010, , EMPTY, 9:13:21:24, 10375000, 2881

14290010, , EMPTY, 2:20:24, 100000, 27

4020010, , EMPTY, 19:12:21:24, 10380000, 2883

14260010, , EMPTY, 5:20:24, 145000, 40

4020010, , EMPTY, 0:21:24, 10395000, 2887

4030010, , EMPTY, 12:21:24, 10400000, 2888

4030010, , EMPTY, 8:12:21:24, 10415000, 2893

4040010, , EMPTY, 15:13:21:24, 10420000, 2894

14370010, , EMPTY, 2:20:24, 95000, 26

4050010, , EMPTY, 17:12:21:24, 10425000, 2895

14350010, , EMPTY, 3:20:24, 135000, 37

4050010, , EMPTY, 19:12:21:24, 10440000, 2900

4060010, , EMPTY, 14:12:21:24, 10445000, 2901

14380010, , EMPTY, 5:20:24, 135000, 37

4080010, , EMPTY, 7:21:24, 10440000, 2900

14470010, , EMPTY, 3:20:24, 65000, 18

4080010, , INTERESTING, 12:21:24, 10455000, 2904

4080010, , INTERESTING, 18:12:21:24, 10470000, 2908

4080010, , EMPTY, 14:12:21:24, 10485000, 2912

4090010, , INTERESTING, 7:21:24, 10490000, 2913

14500010, , EMPTY, 5:20:24, 95000, 26

4100010, , INTERESTING, 17:12:21:24, 10495000, 2915

4100010, , EMPTY, 19:12:21:24, 10510000, 2919

4100010, , INTERESTING, 10:12:21:24, 10525000, 2923

14450010, , EMPTY, 2:20:24, 185000, 51

4100010, , EMPTY, 18:12:21:24, 10540000, 2927

14580010, , EMPTY, 5:20:24, 70000, 19

4100010, , EMPTY, 8:12:21:24, 10555000, 2931

4100010, , EMPTY, 0:21:24, 10570000, 2936

4100010, , EMPTY, 13:21:24, 10585000, 2940

14630010, , EMPTY, 5:20:24, 65000, 18

4120010, , INTERESTING, 17:12:21:24, 10580000, 2938

4130010, , INTERESTING, 19:12:21:24, 10585000, 2940

14520010, , EMPTY, 3:20:24, 205000, 56

4130010, , EMPTY, 6:21:24, 10600000, 2944

4130010, , INTERESTING, 15:13:21:24, 10615000, 2948

14710010, , EMPTY, 3:20:24, 35000, 9

4140010, , EMPTY, 12:21:24, 10620000, 2950

4140010, , EMPTY, 17:12:21:24, 10635000, 2954

14620010, , INTERESTING, 2:20:24, 155000, 43

14680010, , EMPTY, 5:20:24, 110000, 30

4140010, , EMPTY, 10:12:21:24, 10650000, 2958

4150010, , EMPTY, 8:12:21:24, 10655000, 2959

4150010, , EMPTY, 18:12:21:24, 10670000, 2963

14730010, , EMPTY, 3:20:24, 105000, 29

4160010, , EMPTY, 1:21:24, 10675000, 2965

4160010, , EMPTY, 11:21:24, 10690000, 2969

4160010, , EMPTY, 0:21:24, 10705000, 2973

14760010, , EMPTY, 2:20:24, 105000, 29

4160010, , INTERESTING, 8:12:21:24, 10720000, 2977

4170010, , EMPTY, 1:21:24, 10725000, 2979

4170010, , EMPTY, 11:21:24, 10740000, 2983

14820010, , INTERESTING, 3:20:24, 105000, 29

4170010, , INTERESTING, 17:12:21:24, 10755000, 2987

4180010, , INTERESTING, 0:21:24, 10760000, 2988

14910010, , EMPTY, 3:20:24, 30000, 8

4190010, , EMPTY, 1:21:24, 10765000, 2990

4190010, , EMPTY, 13:21:24, 10780000, 2994

14760010, , EMPTY, 5:20:24, 215000, 59

4190010, , INTERESTING, 14:12:21:24, 10795000, 2998

14920010, , EMPTY, 3:20:24, 70000, 19

4200010, , EMPTY, 0:21:24, 10800000, 3000

4200010, , EMPTY, 11:21:24, 10815000, 3004

14960010, , EMPTY, 3:20:24, 55000, 15

4200010, , EMPTY, 10:12:21:24, 10830000, 3008

14850010, , EMPTY, 2:20:24, 185000, 51

4210010, , EMPTY, 19:12:21:24, 10835000, 3009

4210010, , EMPTY, 0:21:24, 10850000, 3013

4230010, , EMPTY, 11:21:24, 10845000, 3012

4230010, , EMPTY, 16:12:21:24, 10860000, 3016

15020010, , EMPTY, 2:20:24, 75000, 20

4230010, , INTERESTING, 1:21:24, 10875000, 3020

4240010, , EMPTY, 12:21:24, 10880000, 3022

15080010, , EMPTY, 2:20:24, 55000, 15

4240010, , EMPTY, 7:21:24, 10895000, 3026

4240010, , EMPTY, 6:21:24, 10910000, 3030

14960010, , INTERESTING, 5:20:24, 205000, 56

4250010, , INTERESTING, 8:12:21:24, 10915000, 3031

4260010, , EMPTY, 13:21:24, 10920000, 3033

15150010, , EMPTY, 5:20:24, 30000, 8

4260010, , EMPTY, 9:13:21:24, 10935000, 3037

15000010, , EMPTY, 3:20:24, 195000, 54

4270010, , EMPTY, 8:12:21:24, 10940000, 3038

15120010, , INTERESTING, 2:20:24, 90000, 25

15190010, , EMPTY, 2:20:24, 35000, 9

4270010, , INTERESTING, 14:12:21:24, 10955000, 3043

4280010, , EMPTY, 8:12:21:24, 10960000, 3044

15210010, , EMPTY, 2:20:24, 35000, 9

4280010, , INTERESTING, 9:13:21:24, 10975000, 3048

15160010, , EMPTY, 5:20:24, 105000, 29

4300010, , EMPTY, 14:12:21:24, 10970000, 3047

4300010, , INTERESTING, 8:12:21:24, 10985000, 3051

4300010, , EMPTY, 13:21:24, 11000000, 3055

4310010, , EMPTY, 17:12:21:24, 11005000, 3056

15250010, , EMPTY, 5:20:24, 65000, 18

4310010, , EMPTY, 19:12:21:24, 11020000, 3061

15230010, , EMPTY, 2:20:24, 100000, 27

4310010, , INTERESTING, 18:12:21:24, 11035000, 3065

15310010, , EMPTY, 2:20:24, 45000, 12

4320010, , INTERESTING, 17:12:21:24, 11040000, 3066

15340010, , EMPTY, 2:20:24, 30000, 8

4320010, , EMPTY, 11:21:24, 11055000, 3070

15350010, , INTERESTING, 2:20:24, 35000, 9

4320010, , EMPTY, 19:12:21:24, 11070000, 3075

4320010, , EMPTY, 4:16:12:21:24, 11085000, 3079

4320010, , EMPTY, 7:21:24, 11100000, 3083

4320010, , EMPTY, 14:12:21:24, 11115000, 3087

4330010, , EMPTY, 17:12:21:24, 11120000, 3088

4330010, , EMPTY, 15:13:21:24, 11135000, 3093

15300010, , INTERESTING, 5:20:24, 165000, 45

4330010, , EMPTY, 0:21:24, 11150000, 3097

15360010, , EMPTY, 2:20:24, 125000, 34

4340010, , EMPTY, 12:21:24, 11155000, 3098

15170010, , EMPTY, 3:20:24, 335000, 93

4340010, , INTERESTING, 4:16:12:21:24, 11170000, 3102

15490010, , INTERESTING, 3:20:24, 30000, 8

4350010, , EMPTY, 19:12:21:24, 11175000, 3104

4350010, , EMPTY, 11:21:24, 11190000, 3108

