DWC_ID, Processed Contents, Actual Contents, Route, Total_Trans_Time, Trans_Time_Hours 
10010, , INTERESTING, 6:21:24, 35000, 9

10010, , EMPTY, 1:20:24, 35000, 9

10010, , EMPTY, 2:20:24, 50000, 13

30010, , INTERESTING, 6:21:24, 35000, 9

50010, , EMPTY, 3:21:24, 30000, 8

20010, , EMPTY, 15:0:20:24, 70000, 19

50010, , EMPTY, 6:21:24, 45000, 12

30010, , EMPTY, 16:15:0:20:24, 75000, 20

10, , EMPTY, 12:4:21:24, 110000, 30

40010, , EMPTY, 2:20:24, 80000, 22

10, , EMPTY, 13:6:21:24, 125000, 34

10010, , EMPTY, 9:5:20:24, 125000, 34

30010, , EMPTY, 7:6:21:24, 110000, 30

10, , EMPTY, 17:5:20:24, 150000, 41

50010, , EMPTY, 19:6:21:24, 105000, 29

60010, , EMPTY, 0:20:24, 105000, 29

70010, , EMPTY, 12:4:21:24, 100000, 27

70010, , EMPTY, 16:15:0:20:24, 110000, 30

70010, , EMPTY, 18:6:21:24, 115000, 31

80010, , EMPTY, 15:0:20:24, 115000, 31

60010, , EMPTY, 3:21:24, 140000, 38

80010, , INTERESTING, 16:15:0:20:24, 130000, 36

80010, , EMPTY, 19:6:21:24, 135000, 37

90010, , EMPTY, 10:2:20:24, 135000, 37

90010, , EMPTY, 13:6:21:24, 140000, 38

100010, , INTERESTING, 15:0:20:24, 140000, 38

80010, , EMPTY, 12:4:21:24, 165000, 45

30010, , EMPTY, 1:20:24, 225000, 62

90010, , EMPTY, 19:6:21:24, 170000, 47

100010, , EMPTY, 16:15:0:20:24, 170000, 47

100010, , EMPTY, 7:6:21:24, 175000, 48

100010, , INTERESTING, 10:2:20:24, 185000, 51

130010, , INTERESTING, 6:21:24, 160000, 44

110010, , EMPTY, 5:20:24, 190000, 52

130010, , INTERESTING, 12:4:21:24, 175000, 48

120010, , EMPTY, 16:15:0:20:24, 195000, 54

140010, , EMPTY, 11:6:21:24, 180000, 50

120010, , EMPTY, 17:5:20:24, 210000, 58

140010, , EMPTY, 18:6:21:24, 195000, 54

130010, , INTERESTING, 15:0:20:24, 215000, 59

150010, , EMPTY, 13:6:21:24, 200000, 55

110010, , EMPTY, 10:2:20:24, 250000, 69

170010, , EMPTY, 19:6:21:24, 195000, 54

130010, , EMPTY, 5:20:24, 245000, 68

180010, , EMPTY, 3:21:24, 200000, 55

150010, , EMPTY, 8:0:20:24, 240000, 66

200010, , EMPTY, 14:6:21:24, 195000, 54

160010, , EMPTY, 0:20:24, 245000, 68

210010, , INTERESTING, 19:6:21:24, 200000, 55

170010, , EMPTY, 16:15:0:20:24, 250000, 69

210010, , EMPTY, 7:6:21:24, 215000, 59

190010, , EMPTY, 15:0:20:24, 245000, 68

220010, , EMPTY, 4:21:24, 220000, 61

200010, , EMPTY, 2:20:24, 250000, 69

220010, , EMPTY, 19:6:21:24, 235000, 65

200010, , EMPTY, 16:15:0:20:24, 265000, 73

230010, , EMPTY, 12:4:21:24, 240000, 66

220010, , EMPTY, 0:20:24, 260000, 72

240010, , EMPTY, 11:6:21:24, 245000, 68

220010, , INTERESTING, 17:5:20:24, 275000, 76

250010, , EMPTY, 19:6:21:24, 250000, 69

20010, , EMPTY, 9:5:20:24, 490000, 136

260010, , EMPTY, 18:6:21:24, 255000, 70

230010, , EMPTY, 5:20:24, 295000, 81

260010, , EMPTY, 13:6:21:24, 270000, 75

230010, , EMPTY, 1:20:24, 310000, 86

260010, , EMPTY, 14:6:21:24, 285000, 79

230010, , EMPTY, 0:20:24, 325000, 90

270010, , EMPTY, 7:6:21:24, 290000, 80

250010, , EMPTY, 8:0:20:24, 320000, 88

270010, , EMPTY, 12:4:21:24, 305000, 84

260010, , EMPTY, 5:20:24, 325000, 90

280010, , INTERESTING, 18:6:21:24, 310000, 86

260010, , EMPTY, 1:20:24, 340000, 94

300010, , EMPTY, 4:21:24, 305000, 84

260010, , EMPTY, 15:0:20:24, 355000, 98

320010, , EMPTY, 13:6:21:24, 300000, 83

270010, , EMPTY, 5:20:24, 360000, 100

320010, , INTERESTING, 3:21:24, 315000, 87

270010, , EMPTY, 0:20:24, 375000, 104

340010, , EMPTY, 14:6:21:24, 310000, 86

270010, , INTERESTING, 17:5:20:24, 390000, 108

340010, , INTERESTING, 13:6:21:24, 325000, 90

290010, , EMPTY, 1:20:24, 385000, 106

350010, , EMPTY, 4:21:24, 330000, 91

290010, , INTERESTING, 16:15:0:20:24, 400000, 111

360010, , EMPTY, 14:6:21:24, 335000, 93

290010, , INTERESTING, 2:20:24, 415000, 115

360010, , EMPTY, 11:6:21:24, 350000, 97

300010, , EMPTY, 1:20:24, 420000, 116

370010, , EMPTY, 18:6:21:24, 355000, 98

300010, , EMPTY, 16:15:0:20:24, 435000, 120

400010, , EMPTY, 6:21:24, 340000, 94

310010, , EMPTY, 17:5:20:24, 440000, 122

400010, , EMPTY, 7:6:21:24, 355000, 98

320010, , EMPTY, 15:0:20:24, 445000, 123

400010, , EMPTY, 19:6:21:24, 370000, 102

320010, , EMPTY, 17:5:20:24, 460000, 127

400010, , EMPTY, 18:6:21:24, 385000, 106

340010, , EMPTY, 15:0:20:24, 455000, 126

400010, , EMPTY, 4:21:24, 400000, 111

340010, , EMPTY, 10:2:20:24, 470000, 130

410010, , INTERESTING, 13:6:21:24, 405000, 112

350010, , INTERESTING, 8:0:20:24, 475000, 131

420010, , EMPTY, 7:6:21:24, 410000, 113

350010, , EMPTY, 17:5:20:24, 490000, 136

430010, , EMPTY, 6:21:24, 415000, 115

370010, , EMPTY, 0:20:24, 485000, 134

440010, , EMPTY, 6:21:24, 420000, 116

370010, , EMPTY, 15:0:20:24, 500000, 138

440010, , EMPTY, 13:6:21:24, 435000, 120

390010, , EMPTY, 10:2:20:24, 495000, 137

440010, , INTERESTING, 14:6:21:24, 450000, 125

410010, , INTERESTING, 10:2:20:24, 490000, 136

470010, , EMPTY, 6:21:24, 435000, 120

430010, , EMPTY, 2:20:24, 485000, 134

470010, , EMPTY, 13:6:21:24, 450000, 125

430010, , EMPTY, 10:2:20:24, 500000, 138

470010, , EMPTY, 14:6:21:24, 465000, 129

430010, , EMPTY, 15:0:20:24, 515000, 143

480010, , EMPTY, 7:6:21:24, 470000, 130

440010, , EMPTY, 8:0:20:24, 520000, 144

480010, , INTERESTING, 19:6:21:24, 485000, 134

450010, , EMPTY, 17:5:20:24, 525000, 145

480010, , INTERESTING, 11:6:21:24, 500000, 138

460010, , INTERESTING, 5:20:24, 530000, 147

500010, , EMPTY, 18:6:21:24, 495000, 137

470010, , EMPTY, 1:20:24, 535000, 148

510010, , EMPTY, 4:21:24, 500000, 138

480010, , INTERESTING, 2:20:24, 540000, 150

510010, , INTERESTING, 6:21:24, 515000, 143

480010, , EMPTY, 9:5:20:24, 555000, 154

530010, , EMPTY, 19:6:21:24, 510000, 141

480010, , EMPTY, 0:20:24, 570000, 158

530010, , EMPTY, 4:21:24, 525000, 145

490010, , EMPTY, 10:2:20:24, 575000, 159

530010, , INTERESTING, 12:4:21:24, 540000, 150

510010, , EMPTY, 1:20:24, 570000, 158

530010, , EMPTY, 7:6:21:24, 555000, 154

520010, , EMPTY, 17:5:20:24, 575000, 159

540010, , EMPTY, 6:21:24, 560000, 155

520010, , EMPTY, 8:0:20:24, 590000, 163

550010, , EMPTY, 18:6:21:24, 565000, 156

530010, , EMPTY, 17:5:20:24, 595000, 165

550010, , INTERESTING, 13:6:21:24, 580000, 161

550010, , INTERESTING, 1:20:24, 590000, 163

560010, , EMPTY, 6:21:24, 585000, 162

550010, , EMPTY, 17:5:20:24, 605000, 168

560010, , EMPTY, 18:6:21:24, 600000, 166

550010, , EMPTY, 2:20:24, 620000, 172

560010, , INTERESTING, 14:6:21:24, 615000, 170

560010, , EMPTY, 17:5:20:24, 625000, 173

570010, , INTERESTING, 18:6:21:24, 620000, 172

580010, , EMPTY, 1:20:24, 620000, 172

570010, , EMPTY, 13:6:21:24, 635000, 176

580010, , INTERESTING, 17:5:20:24, 635000, 176

580010, , EMPTY, 3:21:24, 640000, 177

600010, , EMPTY, 9:5:20:24, 630000, 175

590010, , EMPTY, 11:6:21:24, 645000, 179

600010, , EMPTY, 16:15:0:20:24, 645000, 179

600010, , EMPTY, 18:6:21:24, 650000, 180

610010, , INTERESTING, 9:5:20:24, 650000, 180

610010, , EMPTY, 3:21:24, 655000, 181

620010, , EMPTY, 15:0:20:24, 655000, 181

610010, , INTERESTING, 19:6:21:24, 670000, 186

630010, , EMPTY, 15:0:20:24, 660000, 183

620010, , EMPTY, 19:6:21:24, 675000, 187

630010, , EMPTY, 5:20:24, 675000, 187

620010, , INTERESTING, 3:21:24, 690000, 191

630010, , EMPTY, 10:2:20:24, 690000, 191

630010, , INTERESTING, 19:6:21:24, 695000, 193

650010, , INTERESTING, 16:15:0:20:24, 685000, 190

630010, , EMPTY, 14:6:21:24, 710000, 197

650010, , EMPTY, 1:20:24, 700000, 194

630010, , EMPTY, 18:6:21:24, 725000, 201

680010, , EMPTY, 2:20:24, 685000, 190

640010, , EMPTY, 12:4:21:24, 730000, 202

680010, , INTERESTING, 15:0:20:24, 700000, 194

660010, , INTERESTING, 6:21:24, 725000, 201

690010, , EMPTY, 0:20:24, 705000, 195

660010, , INTERESTING, 11:6:21:24, 740000, 205

690010, , INTERESTING, 2:20:24, 720000, 200

680010, , EMPTY, 19:6:21:24, 735000, 204

690010, , EMPTY, 16:15:0:20:24, 735000, 204

690010, , EMPTY, 12:4:21:24, 740000, 205

690010, , EMPTY, 5:20:24, 750000, 208

690010, , EMPTY, 11:6:21:24, 755000, 209

700010, , INTERESTING, 1:20:24, 755000, 209

700010, , EMPTY, 12:4:21:24, 760000, 211

700010, , EMPTY, 10:2:20:24, 770000, 213

720010, , EMPTY, 13:6:21:24, 755000, 209

700010, , EMPTY, 16:15:0:20:24, 785000, 218

740010, , INTERESTING, 12:4:21:24, 750000, 208

720010, , INTERESTING, 16:15:0:20:24, 780000, 216

740010, , EMPTY, 14:6:21:24, 765000, 212

730010, , EMPTY, 1:20:24, 785000, 218

740010, , EMPTY, 13:6:21:24, 780000, 216

740010, , EMPTY, 10:2:20:24, 790000, 219

760010, , EMPTY, 3:21:24, 775000, 215

770010, , INTERESTING, 1:20:24, 775000, 215

760010, , EMPTY, 7:6:21:24, 790000, 219

780010, , INTERESTING, 1:20:24, 780000, 216

770010, , INTERESTING, 3:21:24, 795000, 220

780010, , INTERESTING, 2:20:24, 795000, 220

770010, , EMPTY, 12:4:21:24, 810000, 225

790010, , EMPTY, 1:20:24, 800000, 222

790010, , EMPTY, 6:21:24, 805000, 223

790010, , EMPTY, 0:20:24, 815000, 226

790010, , INTERESTING, 12:4:21:24, 820000, 227

790010, , EMPTY, 8:0:20:24, 830000, 230

790010, , EMPTY, 14:6:21:24, 835000, 231

800010, , EMPTY, 15:0:20:24, 835000, 231

820010, , EMPTY, 3:21:24, 820000, 227

800010, , EMPTY, 1:20:24, 850000, 236

830010, , EMPTY, 13:6:21:24, 825000, 229

810010, , EMPTY, 0:20:24, 855000, 237

850010, , EMPTY, 7:6:21:24, 820000, 227

820010, , EMPTY, 0:20:24, 860000, 238

850010, , EMPTY, 13:6:21:24, 835000, 231

820010, , EMPTY, 10:2:20:24, 875000, 243

860010, , EMPTY, 19:6:21:24, 840000, 233

840010, , INTERESTING, 15:0:20:24, 870000, 241

880010, , EMPTY, 6:21:24, 835000, 231

840010, , EMPTY, 16:15:0:20:24, 885000, 245

880010, , INTERESTING, 18:6:21:24, 850000, 236

850010, , EMPTY, 16:15:0:20:24, 890000, 247

880010, , EMPTY, 4:21:24, 865000, 240

860010, , INTERESTING, 0:20:24, 895000, 248

880010, , INTERESTING, 19:6:21:24, 880000, 244

870010, , EMPTY, 5:20:24, 900000, 250

880010, , EMPTY, 3:21:24, 895000, 248

870010, , EMPTY, 0:20:24, 915000, 254

880010, , EMPTY, 12:4:21:24, 910000, 252

880010, , EMPTY, 17:5:20:24, 920000, 255

890010, , INTERESTING, 18:6:21:24, 915000, 254

880010, , EMPTY, 16:15:0:20:24, 935000, 259

900010, , EMPTY, 6:21:24, 920000, 255

900010, , EMPTY, 16:15:0:20:24, 930000, 258

910010, , EMPTY, 13:6:21:24, 925000, 256

910010, , EMPTY, 9:5:20:24, 935000, 259

910010, , EMPTY, 7:6:21:24, 940000, 261

910010, , INTERESTING, 8:0:20:24, 950000, 263

910010, , EMPTY, 12:4:21:24, 955000, 265

920010, , EMPTY, 17:5:20:24, 955000, 265

910010, , EMPTY, 14:6:21:24, 970000, 269

930010, , EMPTY, 16:15:0:20:24, 960000, 266

920010, , EMPTY, 11:6:21:24, 975000, 270

930010, , EMPTY, 10:2:20:24, 975000, 270

930010, , EMPTY, 18:6:21:24, 980000, 272

940010, , EMPTY, 5:20:24, 980000, 272

950010, , EMPTY, 19:6:21:24, 975000, 270

940010, , EMPTY, 16:15:0:20:24, 995000, 276

950010, , EMPTY, 11:6:21:24, 990000, 275

950010, , EMPTY, 5:20:24, 1000000, 277

960010, , INTERESTING, 3:21:24, 995000, 276

960010, , EMPTY, 9:5:20:24, 1005000, 279

960010, , INTERESTING, 19:6:21:24, 1010000, 280

970010, , EMPTY, 17:5:20:24, 1010000, 280

960010, , EMPTY, 13:6:21:24, 1025000, 284

990010, , EMPTY, 5:20:24, 1005000, 279

970010, , INTERESTING, 4:21:24, 1030000, 286

990010, , EMPTY, 9:5:20:24, 1020000, 283

970010, , EMPTY, 3:21:24, 1045000, 290

1000010, , EMPTY, 0:20:24, 1025000, 284

980010, , EMPTY, 18:6:21:24, 1050000, 291

1010010, , EMPTY, 2:20:24, 1030000, 286

990010, , EMPTY, 7:6:21:24, 1055000, 293

1040010, , EMPTY, 5:20:24, 1015000, 281

1000010, , EMPTY, 4:21:24, 1060000, 294

1040010, , EMPTY, 16:15:0:20:24, 1030000, 286

1010010, , EMPTY, 3:21:24, 1065000, 295

1080010, , EMPTY, 10:2:20:24, 1005000, 279

1010010, , EMPTY, 18:6:21:24, 1080000, 300

1090010, , EMPTY, 0:20:24, 1010000, 280

1010010, , EMPTY, 12:4:21:24, 1095000, 304

1090010, , EMPTY, 5:20:24, 1025000, 284

1020010, , EMPTY, 19:6:21:24, 1100000, 305

1090010, , EMPTY, 1:20:24, 1040000, 288

1020010, , EMPTY, 11:6:21:24, 1115000, 309

1090010, , EMPTY, 17:5:20:24, 1055000, 293

1020010, , EMPTY, 3:21:24, 1130000, 313

1100010, , INTERESTING, 10:2:20:24, 1060000, 294

1040010, , EMPTY, 19:6:21:24, 1125000, 312

1110010, , EMPTY, 2:20:24, 1065000, 295

1060010, , INTERESTING, 18:6:21:24, 1120000, 311

1120010, , EMPTY, 15:0:20:24, 1070000, 297

1060010, , EMPTY, 4:21:24, 1135000, 315

1130010, , EMPTY, 0:20:24, 1075000, 298

1060010, , EMPTY, 19:6:21:24, 1150000, 319

1130010, , EMPTY, 17:5:20:24, 1090000, 302

1070010, , EMPTY, 18:6:21:24, 1155000, 320

1150010, , EMPTY, 0:20:24, 1085000, 301

1080010, , EMPTY, 6:21:24, 1160000, 322

1150010, , EMPTY, 2:20:24, 1100000, 305

1090010, , EMPTY, 11:6:21:24, 1165000, 323

1150010, , INTERESTING, 1:20:24, 1115000, 309

1090010, , EMPTY, 14:6:21:24, 1180000, 327

1160010, , EMPTY, 2:20:24, 1120000, 311

1100010, , EMPTY, 13:6:21:24, 1185000, 329

1160010, , EMPTY, 0:20:24, 1135000, 315

1100010, , EMPTY, 7:6:21:24, 1200000, 333

1160010, , EMPTY, 5:20:24, 1150000, 319

1110010, , EMPTY, 3:21:24, 1205000, 334

1180010, , INTERESTING, 8:0:20:24, 1145000, 318

1120010, , EMPTY, 6:21:24, 1210000, 336

1180010, , EMPTY, 16:15:0:20:24, 1160000, 322

1130010, , EMPTY, 3:21:24, 1215000, 337

1190010, , EMPTY, 15:0:20:24, 1165000, 323

1130010, , EMPTY, 4:21:24, 1230000, 341

1190010, , EMPTY, 2:20:24, 1180000, 327

1130010, , EMPTY, 12:4:21:24, 1245000, 345

1190010, , EMPTY, 9:5:20:24, 1195000, 331

1140010, , EMPTY, 3:21:24, 1250000, 347

1200010, , INTERESTING, 1:20:24, 1200000, 333

1140010, , EMPTY, 11:6:21:24, 1265000, 351

1210010, , INTERESTING, 10:2:20:24, 1205000, 334

1170010, , INTERESTING, 4:21:24, 1250000, 347

1210010, , EMPTY, 0:20:24, 1220000, 338

1180010, , EMPTY, 6:21:24, 1255000, 348

1230010, , EMPTY, 15:0:20:24, 1215000, 337

1190010, , EMPTY, 19:6:21:24, 1260000, 350

1240010, , INTERESTING, 10:2:20:24, 1220000, 338

1190010, , INTERESTING, 13:6:21:24, 1275000, 354

1250010, , INTERESTING, 2:20:24, 1225000, 340

1200010, , INTERESTING, 3:21:24, 1280000, 355

1250010, , INTERESTING, 10:2:20:24, 1240000, 344

1200010, , INTERESTING, 18:6:21:24, 1295000, 359

1260010, , EMPTY, 10:2:20:24, 1245000, 345

1200010, , EMPTY, 7:6:21:24, 1310000, 363

1280010, , EMPTY, 0:20:24, 1240000, 344

1210010, , EMPTY, 19:6:21:24, 1315000, 365

1280010, , INTERESTING, 17:5:20:24, 1255000, 348

1220010, , EMPTY, 12:4:21:24, 1320000, 366

1280010, , INTERESTING, 10:2:20:24, 1270000, 352

1230010, , EMPTY, 11:6:21:24, 1325000, 368

1280010, , EMPTY, 8:0:20:24, 1285000, 356

1240010, , EMPTY, 3:21:24, 1330000, 369

1290010, , EMPTY, 5:20:24, 1290000, 358

1240010, , EMPTY, 6:21:24, 1345000, 373

1290010, , EMPTY, 8:0:20:24, 1305000, 362

1250010, , EMPTY, 13:6:21:24, 1350000, 375

1290010, , EMPTY, 15:0:20:24, 1320000, 366

1250010, , EMPTY, 3:21:24, 1365000, 379

1300010, , EMPTY, 1:20:24, 1325000, 368

1260010, , EMPTY, 13:6:21:24, 1370000, 380

1300010, , INTERESTING, 5:20:24, 1340000, 372

1260010, , INTERESTING, 12:4:21:24, 1385000, 384

1300010, , EMPTY, 10:2:20:24, 1355000, 376

1270010, , INTERESTING, 14:6:21:24, 1390000, 386

1310010, , EMPTY, 17:5:20:24, 1360000, 377

1280010, , EMPTY, 6:21:24, 1395000, 387

1330010, , EMPTY, 8:0:20:24, 1355000, 376

1290010, , EMPTY, 18:6:21:24, 1400000, 388

1330010, , EMPTY, 10:2:20:24, 1370000, 380

1310010, , EMPTY, 11:6:21:24, 1395000, 387

1340010, , INTERESTING, 1:20:24, 1375000, 381

1310010, , EMPTY, 7:6:21:24, 1410000, 391

1340010, , EMPTY, 0:20:24, 1390000, 386

1320010, , EMPTY, 19:6:21:24, 1415000, 393

1350010, , INTERESTING, 17:5:20:24, 1395000, 387

1320010, , EMPTY, 18:6:21:24, 1430000, 397

1350010, , EMPTY, 9:5:20:24, 1410000, 391

1330010, , EMPTY, 19:6:21:24, 1435000, 398

1370010, , INTERESTING, 17:5:20:24, 1405000, 390

1350010, , EMPTY, 6:21:24, 1430000, 397

1380010, , EMPTY, 17:5:20:24, 1410000, 391

1360010, , INTERESTING, 6:21:24, 1435000, 398

1380010, , EMPTY, 1:20:24, 1425000, 395

1360010, , EMPTY, 11:6:21:24, 1450000, 402

1380010, , EMPTY, 9:5:20:24, 1440000, 400

1370010, , EMPTY, 6:21:24, 1455000, 404

1390010, , EMPTY, 17:5:20:24, 1445000, 401

1370010, , EMPTY, 13:6:21:24, 1470000, 408

1390010, , EMPTY, 10:2:20:24, 1460000, 405

1380010, , EMPTY, 3:21:24, 1475000, 409

1400010, , EMPTY, 5:20:24, 1465000, 406

1380010, , EMPTY, 14:6:21:24, 1490000, 413

1410010, , EMPTY, 8:0:20:24, 1470000, 408

1390010, , EMPTY, 11:6:21:24, 1495000, 415

1420010, , EMPTY, 1:20:24, 1475000, 409

1440010, , EMPTY, 19:6:21:24, 1460000, 405

1440010, , EMPTY, 0:20:24, 1470000, 408

1440010, , EMPTY, 18:6:21:24, 1475000, 409

1440010, , EMPTY, 5:20:24, 1485000, 412

1440010, , EMPTY, 7:6:21:24, 1490000, 413

1440010, , EMPTY, 9:5:20:24, 1500000, 416

1450010, , EMPTY, 19:6:21:24, 1495000, 415

1440010, , EMPTY, 2:20:24, 1515000, 420

1450010, , EMPTY, 3:21:24, 1510000, 419

1450010, , EMPTY, 1:20:24, 1520000, 422

1460010, , EMPTY, 18:6:21:24, 1515000, 420

1450010, , EMPTY, 0:20:24, 1535000, 426

1460010, , EMPTY, 7:6:21:24, 1530000, 425

1460010, , EMPTY, 16:15:0:20:24, 1540000, 427

1470010, , EMPTY, 19:6:21:24, 1535000, 426

1480010, , EMPTY, 8:0:20:24, 1535000, 426

1470010, , EMPTY, 14:6:21:24, 1550000, 430

1480010, , EMPTY, 17:5:20:24, 1550000, 430

1480010, , INTERESTING, 6:21:24, 1555000, 431

1490010, , EMPTY, 1:20:24, 1555000, 431

1480010, , INTERESTING, 4:21:24, 1570000, 436

1500010, , EMPTY, 0:20:24, 1560000, 433

1480010, , EMPTY, 19:6:21:24, 1585000, 440

1500010, , EMPTY, 17:5:20:24, 1575000, 437

1490010, , EMPTY, 13:6:21:24, 1590000, 441

1510010, , INTERESTING, 0:20:24, 1580000, 438

1500010, , EMPTY, 18:6:21:24, 1595000, 443

1510010, , EMPTY, 8:0:20:24, 1595000, 443

1500010, , EMPTY, 14:6:21:24, 1610000, 447

1520010, , INTERESTING, 0:20:24, 1600000, 444

1510010, , EMPTY, 4:21:24, 1615000, 448

1540010, , EMPTY, 1:20:24, 1595000, 443

1510010, , EMPTY, 6:21:24, 1630000, 452

1550010, , EMPTY, 0:20:24, 1600000, 444

1510010, , EMPTY, 18:6:21:24, 1645000, 456

1550010, , INTERESTING, 16:15:0:20:24, 1615000, 448

1520010, , EMPTY, 14:6:21:24, 1650000, 458

1560010, , INTERESTING, 16:15:0:20:24, 1620000, 450

1530010, , EMPTY, 12:4:21:24, 1655000, 459

1570010, , EMPTY, 15:0:20:24, 1625000, 451

1540010, , EMPTY, 12:4:21:24, 1660000, 461

1580010, , EMPTY, 15:0:20:24, 1630000, 452

1540010, , INTERESTING, 7:6:21:24, 1675000, 465

1580010, , EMPTY, 17:5:20:24, 1645000, 456

1540010, , INTERESTING, 14:6:21:24, 1690000, 469

1580010, , EMPTY, 16:15:0:20:24, 1660000, 461

1540010, , EMPTY, 13:6:21:24, 1705000, 473

1580010, , INTERESTING, 10:2:20:24, 1675000, 465

1550010, , EMPTY, 7:6:21:24, 1710000, 475

1590010, , EMPTY, 5:20:24, 1680000, 466

1550010, , EMPTY, 3:21:24, 1725000, 479

1590010, , INTERESTING, 0:20:24, 1695000, 470

1550010, , EMPTY, 19:6:21:24, 1740000, 483

1590010, , INTERESTING, 9:5:20:24, 1710000, 475

1560010, , EMPTY, 4:21:24, 1745000, 484

1600010, , INTERESTING, 9:5:20:24, 1715000, 476

1560010, , INTERESTING, 12:4:21:24, 1760000, 488

1600010, , EMPTY, 15:0:20:24, 1730000, 480

1560010, , EMPTY, 11:6:21:24, 1775000, 493

1600010, , EMPTY, 8:0:20:24, 1745000, 484

1570010, , EMPTY, 4:21:24, 1780000, 494

1610010, , EMPTY, 0:20:24, 1750000, 486

1570010, , INTERESTING, 18:6:21:24, 1795000, 498

1630010, , EMPTY, 17:5:20:24, 1745000, 484

1570010, , EMPTY, 14:6:21:24, 1810000, 502

1640010, , EMPTY, 1:20:24, 1750000, 486

1580010, , INTERESTING, 6:21:24, 1815000, 504

1650010, , EMPTY, 17:5:20:24, 1755000, 487

1590010, , EMPTY, 7:6:21:24, 1820000, 505

1670010, , EMPTY, 9:5:20:24, 1750000, 486

1600010, , EMPTY, 12:4:21:24, 1825000, 506

1670010, , EMPTY, 17:5:20:24, 1765000, 490

1620010, , INTERESTING, 13:6:21:24, 1820000, 505

1670010, , EMPTY, 16:15:0:20:24, 1780000, 494

1630010, , EMPTY, 12:4:21:24, 1825000, 506

1680010, , INTERESTING, 1:20:24, 1785000, 495

1640010, , EMPTY, 6:21:24, 1830000, 508

1690010, , EMPTY, 16:15:0:20:24, 1790000, 497

1640010, , EMPTY, 11:6:21:24, 1845000, 512

1700010, , INTERESTING, 9:5:20:24, 1795000, 498

1660010, , EMPTY, 6:21:24, 1840000, 511

1720010, , EMPTY, 2:20:24, 1790000, 497

1670010, , EMPTY, 13:6:21:24, 1845000, 512

1720010, , INTERESTING, 5:20:24, 1805000, 501

1680010, , EMPTY, 4:21:24, 1850000, 513

1740010, , EMPTY, 0:20:24, 1800000, 500

1680010, , EMPTY, 12:4:21:24, 1865000, 518

1740010, , EMPTY, 9:5:20:24, 1815000, 504

1690010, , INTERESTING, 4:21:24, 1870000, 519

1760010, , EMPTY, 0:20:24, 1810000, 502

1690010, , EMPTY, 14:6:21:24, 1885000, 523

1760010, , EMPTY, 2:20:24, 1825000, 506

1690010, , EMPTY, 18:6:21:24, 1900000, 527

1770010, , EMPTY, 0:20:24, 1830000, 508

1700010, , EMPTY, 11:6:21:24, 1905000, 529

1770010, , EMPTY, 17:5:20:24, 1845000, 512

1720010, , EMPTY, 6:21:24, 1900000, 527

1790010, , EMPTY, 0:20:24, 1840000, 511

1720010, , EMPTY, 4:21:24, 1915000, 531

1790010, , EMPTY, 15:0:20:24, 1855000, 515

1720010, , EMPTY, 14:6:21:24, 1930000, 536

1800010, , EMPTY, 15:0:20:24, 1860000, 516

1730010, , INTERESTING, 14:6:21:24, 1935000, 537

1810010, , EMPTY, 2:20:24, 1865000, 518

1730010, , EMPTY, 3:21:24, 1950000, 541

1810010, , EMPTY, 0:20:24, 1880000, 522

1730010, , EMPTY, 19:6:21:24, 1965000, 545

1820010, , INTERESTING, 2:20:24, 1885000, 523

1740010, , EMPTY, 4:21:24, 1970000, 547

1830010, , EMPTY, 15:0:20:24, 1890000, 525

1740010, , EMPTY, 14:6:21:24, 1985000, 551

1830010, , EMPTY, 10:2:20:24, 1905000, 529

1750010, , INTERESTING, 4:21:24, 1990000, 552

1850010, , EMPTY, 17:5:20:24, 1900000, 527

1760010, , EMPTY, 19:6:21:24, 1995000, 554

1860010, , EMPTY, 5:20:24, 1905000, 529

1760010, , EMPTY, 13:6:21:24, 2010000, 558

1870010, , EMPTY, 1:20:24, 1910000, 530

1770010, , EMPTY, 4:21:24, 2015000, 559

1880010, , EMPTY, 2:20:24, 1915000, 531

1770010, , EMPTY, 3:21:24, 2030000, 563

1890010, , EMPTY, 2:20:24, 1920000, 533

1790010, , EMPTY, 18:6:21:24, 2025000, 562

1910010, , EMPTY, 8:0:20:24, 1915000, 531

1790010, , EMPTY, 4:21:24, 2040000, 566

1930010, , EMPTY, 5:20:24, 1910000, 530

1800010, , EMPTY, 11:6:21:24, 2045000, 568

1930010, , EMPTY, 0:20:24, 1925000, 534

1800010, , EMPTY, 3:21:24, 2060000, 572

1930010, , EMPTY, 15:0:20:24, 1940000, 538

1810010, , EMPTY, 6:21:24, 2065000, 573

1930010, , INTERESTING, 1:20:24, 1955000, 543

1810010, , EMPTY, 7:6:21:24, 2080000, 577

1940010, , EMPTY, 5:20:24, 1960000, 544

1810010, , EMPTY, 12:4:21:24, 2095000, 581

1940010, , EMPTY, 17:5:20:24, 1975000, 548

1820010, , EMPTY, 6:21:24, 2100000, 583

1940010, , INTERESTING, 10:2:20:24, 1990000, 552

1820010, , EMPTY, 19:6:21:24, 2115000, 587

1950010, , EMPTY, 8:0:20:24, 1995000, 554

1820010, , EMPTY, 18:6:21:24, 2130000, 591

1950010, , EMPTY, 15:0:20:24, 2010000, 558

1830010, , EMPTY, 6:21:24, 2135000, 593

1960010, , INTERESTING, 2:20:24, 2015000, 559

1840010, , INTERESTING, 19:6:21:24, 2140000, 594

1960010, , EMPTY, 5:20:24, 2030000, 563

1850010, , EMPTY, 13:6:21:24, 2145000, 595

1970010, , INTERESTING, 8:0:20:24, 2035000, 565

1860010, , EMPTY, 6:21:24, 2150000, 597

1980010, , EMPTY, 9:5:20:24, 2040000, 566

1860010, , EMPTY, 7:6:21:24, 2165000, 601

1990010, , EMPTY, 2:20:24, 2045000, 568

1900010, , EMPTY, 4:21:24, 2140000, 594

1990010, , EMPTY, 9:5:20:24, 2060000, 572

1910010, , EMPTY, 13:6:21:24, 2145000, 595

2010010, , INTERESTING, 0:20:24, 2055000, 570

1910010, , EMPTY, 19:6:21:24, 2160000, 600

2010010, , EMPTY, 2:20:24, 2070000, 575

1910010, , EMPTY, 11:6:21:24, 2175000, 604

2020010, , EMPTY, 8:0:20:24, 2075000, 576

1920010, , EMPTY, 6:21:24, 2180000, 605

2030010, , INTERESTING, 0:20:24, 2080000, 577

1930010, , EMPTY, 3:21:24, 2185000, 606

2040010, , EMPTY, 0:20:24, 2085000, 579

1960010, , EMPTY, 14:6:21:24, 2170000, 602

2050010, , EMPTY, 9:5:20:24, 2090000, 580

1960010, , EMPTY, 18:6:21:24, 2185000, 606

2060010, , EMPTY, 5:20:24, 2095000, 581

1960010, , EMPTY, 13:6:21:24, 2200000, 611

2060010, , EMPTY, 15:0:20:24, 2110000, 586

1970010, , EMPTY, 19:6:21:24, 2205000, 612

2080010, , EMPTY, 1:20:24, 2105000, 584

1970010, , EMPTY, 7:6:21:24, 2220000, 616

2080010, , EMPTY, 16:15:0:20:24, 2120000, 588

1970010, , INTERESTING, 14:6:21:24, 2235000, 620

2090010, , EMPTY, 1:20:24, 2125000, 590

1980010, , INTERESTING, 6:21:24, 2240000, 622

2090010, , EMPTY, 2:20:24, 2140000, 594

1980010, , INTERESTING, 18:6:21:24, 2255000, 626

2090010, , EMPTY, 16:15:0:20:24, 2155000, 598

1990010, , EMPTY, 4:21:24, 2260000, 627

2120010, , EMPTY, 1:20:24, 2140000, 594

1990010, , EMPTY, 12:4:21:24, 2275000, 631

2120010, , INTERESTING, 5:20:24, 2155000, 598

1990010, , EMPTY, 19:6:21:24, 2290000, 636

2130010, , EMPTY, 1:20:24, 2160000, 600

2000010, , EMPTY, 12:4:21:24, 2295000, 637

2140010, , EMPTY, 2:20:24, 2165000, 601

2000010, , INTERESTING, 19:6:21:24, 2310000, 641

2140010, , EMPTY, 16:15:0:20:24, 2180000, 605

2000010, , EMPTY, 7:6:21:24, 2325000, 645

2140010, , INTERESTING, 17:5:20:24, 2195000, 609

2010010, , EMPTY, 12:4:21:24, 2330000, 647

2160010, , EMPTY, 2:20:24, 2190000, 608

2010010, , EMPTY, 14:6:21:24, 2345000, 651

2160010, , EMPTY, 16:15:0:20:24, 2205000, 612

2010010, , EMPTY, 19:6:21:24, 2360000, 655

2170010, , INTERESTING, 5:20:24, 2210000, 613

2020010, , EMPTY, 12:4:21:24, 2365000, 656

2180010, , EMPTY, 9:5:20:24, 2215000, 615

2030010, , EMPTY, 14:6:21:24, 2370000, 658

2200010, , EMPTY, 9:5:20:24, 2210000, 613

2040010, , INTERESTING, 3:21:24, 2375000, 659

2200010, , EMPTY, 0:20:24, 2225000, 618

2060010, , EMPTY, 13:6:21:24, 2370000, 658

2210010, , EMPTY, 5:20:24, 2230000, 619

2080010, , INTERESTING, 11:6:21:24, 2365000, 656

2210010, , EMPTY, 2:20:24, 2245000, 623

2080010, , EMPTY, 4:21:24, 2380000, 661

2210010, , EMPTY, 9:5:20:24, 2260000, 627

2090010, , EMPTY, 18:6:21:24, 2385000, 662

2220010, , EMPTY, 0:20:24, 2265000, 629

2100010, , EMPTY, 19:6:21:24, 2390000, 663

2220010, , EMPTY, 8:0:20:24, 2280000, 633

2110010, , EMPTY, 19:6:21:24, 2395000, 665

2220010, , EMPTY, 9:5:20:24, 2295000, 637

2120010, , EMPTY, 7:6:21:24, 2400000, 666

2230010, , EMPTY, 5:20:24, 2300000, 638

2130010, , INTERESTING, 12:4:21:24, 2405000, 668

2230010, , INTERESTING, 2:20:24, 2315000, 643

2140010, , EMPTY, 11:6:21:24, 2410000, 669

2240010, , EMPTY, 8:0:20:24, 2320000, 644

2150010, , EMPTY, 11:6:21:24, 2415000, 670

2240010, , EMPTY, 15:0:20:24, 2335000, 648

2160010, , INTERESTING, 18:6:21:24, 2420000, 672

2250010, , EMPTY, 17:5:20:24, 2340000, 650

2160010, , EMPTY, 19:6:21:24, 2435000, 676

2260010, , EMPTY, 8:0:20:24, 2345000, 651

2160010, , EMPTY, 7:6:21:24, 2450000, 680

2260010, , EMPTY, 17:5:20:24, 2360000, 655

2180010, , EMPTY, 6:21:24, 2445000, 679

2280010, , EMPTY, 10:2:20:24, 2355000, 654

2180010, , INTERESTING, 4:21:24, 2460000, 683

2280010, , INTERESTING, 17:5:20:24, 2370000, 658

2190010, , INTERESTING, 18:6:21:24, 2465000, 684

2290010, , EMPTY, 9:5:20:24, 2375000, 659

2200010, , EMPTY, 13:6:21:24, 2470000, 686

2330010, , EMPTY, 0:20:24, 2350000, 652

2210010, , EMPTY, 19:6:21:24, 2475000, 687

2330010, , EMPTY, 16:15:0:20:24, 2365000, 656

2210010, , EMPTY, 3:21:24, 2490000, 691

2340010, , EMPTY, 2:20:24, 2370000, 658

2210010, , INTERESTING, 11:6:21:24, 2505000, 695

2360010, , EMPTY, 16:15:0:20:24, 2365000, 656

2230010, , INTERESTING, 14:6:21:24, 2500000, 694

2370010, , EMPTY, 8:0:20:24, 2370000, 658

2240010, , INTERESTING, 19:6:21:24, 2505000, 695

2370010, , EMPTY, 10:2:20:24, 2385000, 662

2250010, , EMPTY, 19:6:21:24, 2510000, 697

2370010, , EMPTY, 16:15:0:20:24, 2400000, 666

2260010, , EMPTY, 4:21:24, 2515000, 698

2390010, , INTERESTING, 17:5:20:24, 2395000, 665

2260010, , EMPTY, 12:4:21:24, 2530000, 702

2400010, , EMPTY, 17:5:20:24, 2400000, 666

2270010, , EMPTY, 6:21:24, 2535000, 704

2400010, , EMPTY, 1:20:24, 2415000, 670

2270010, , INTERESTING, 19:6:21:24, 2550000, 708

2400010, , EMPTY, 8:0:20:24, 2430000, 675

2280010, , EMPTY, 19:6:21:24, 2555000, 709

2410010, , EMPTY, 10:2:20:24, 2435000, 676

2280010, , INTERESTING, 7:6:21:24, 2570000, 713

2420010, , EMPTY, 0:20:24, 2440000, 677

2310010, , EMPTY, 3:21:24, 2555000, 709

2430010, , INTERESTING, 5:20:24, 2445000, 679

2310010, , INTERESTING, 11:6:21:24, 2570000, 713

2430010, , EMPTY, 0:20:24, 2460000, 683

2310010, , EMPTY, 18:6:21:24, 2585000, 718

2440010, , INTERESTING, 5:20:24, 2465000, 684

2320010, , EMPTY, 6:21:24, 2590000, 719

2450010, , EMPTY, 10:2:20:24, 2470000, 686

2320010, , EMPTY, 4:21:24, 2605000, 723

2450010, , INTERESTING, 17:5:20:24, 2485000, 690

2330010, , EMPTY, 6:21:24, 2610000, 725

2460010, , INTERESTING, 9:5:20:24, 2490000, 691

2340010, , INTERESTING, 19:6:21:24, 2615000, 726

2480010, , EMPTY, 15:0:20:24, 2485000, 690

2340010, , INTERESTING, 3:21:24, 2630000, 730

2480010, , EMPTY, 9:5:20:24, 2500000, 694

2340010, , EMPTY, 11:6:21:24, 2645000, 734

2500010, , EMPTY, 1:20:24, 2495000, 693

2350010, , EMPTY, 6:21:24, 2650000, 736

2500010, , EMPTY, 15:0:20:24, 2510000, 697

2360010, , EMPTY, 19:6:21:24, 2655000, 737

2510010, , EMPTY, 1:20:24, 2515000, 698

2360010, , EMPTY, 12:4:21:24, 2670000, 741

2510010, , INTERESTING, 5:20:24, 2530000, 702

2370010, , EMPTY, 13:6:21:24, 2675000, 743

2520010, , EMPTY, 8:0:20:24, 2535000, 704

2390010, , EMPTY, 3:21:24, 2670000, 741

2530010, , EMPTY, 0:20:24, 2540000, 705

2390010, , EMPTY, 13:6:21:24, 2685000, 745

2540010, , EMPTY, 0:20:24, 2545000, 706

2390010, , EMPTY, 18:6:21:24, 2700000, 750

2540010, , EMPTY, 1:20:24, 2560000, 711

2400010, , EMPTY, 7:6:21:24, 2705000, 751

2540010, , EMPTY, 10:2:20:24, 2575000, 715

2400010, , EMPTY, 4:21:24, 2720000, 755

2550010, , INTERESTING, 10:2:20:24, 2580000, 716

2400010, , EMPTY, 19:6:21:24, 2735000, 759

2550010, , EMPTY, 9:5:20:24, 2595000, 720

2430010, , EMPTY, 3:21:24, 2720000, 755

2560010, , EMPTY, 8:0:20:24, 2600000, 722

2430010, , EMPTY, 14:6:21:24, 2735000, 759

2570010, , INTERESTING, 17:5:20:24, 2605000, 723

2440010, , EMPTY, 14:6:21:24, 2740000, 761

2580010, , INTERESTING, 0:20:24, 2610000, 725

2440010, , INTERESTING, 13:6:21:24, 2755000, 765

2580010, , INTERESTING, 1:20:24, 2625000, 729

2440010, , INTERESTING, 3:21:24, 2770000, 769

2590010, , INTERESTING, 5:20:24, 2630000, 730

2440010, , EMPTY, 7:6:21:24, 2785000, 773

2590010, , EMPTY, 0:20:24, 2645000, 734

2450010, , EMPTY, 12:4:21:24, 2790000, 775

2600010, , INTERESTING, 10:2:20:24, 2650000, 736

2450010, , EMPTY, 6:21:24, 2805000, 779

2610010, , INTERESTING, 1:20:24, 2655000, 737

2460010, , EMPTY, 14:6:21:24, 2810000, 780

2610010, , INTERESTING, 17:5:20:24, 2670000, 741

2470010, , EMPTY, 12:4:21:24, 2815000, 781

2620010, , INTERESTING, 1:20:24, 2675000, 743

2470010, , EMPTY, 13:6:21:24, 2830000, 786

2620010, , EMPTY, 2:20:24, 2690000, 747

2500010, , EMPTY, 3:21:24, 2815000, 781

2620010, , INTERESTING, 17:5:20:24, 2705000, 751

2510010, , EMPTY, 11:6:21:24, 2820000, 783

2620010, , INTERESTING, 9:5:20:24, 2720000, 755

2510010, , EMPTY, 12:4:21:24, 2835000, 787

2630010, , INTERESTING, 15:0:20:24, 2725000, 756

2520010, , EMPTY, 18:6:21:24, 2840000, 788

2630010, , EMPTY, 5:20:24, 2740000, 761

2530010, , EMPTY, 4:21:24, 2845000, 790

2640010, , INTERESTING, 1:20:24, 2745000, 762

2530010, , INTERESTING, 19:6:21:24, 2860000, 794

2640010, , EMPTY, 0:20:24, 2760000, 766

2530010, , EMPTY, 18:6:21:24, 2875000, 798

2640010, , EMPTY, 8:0:20:24, 2775000, 770

2540010, , EMPTY, 3:21:24, 2880000, 800

2650010, , EMPTY, 2:20:24, 2780000, 772

2540010, , EMPTY, 6:21:24, 2895000, 804

2650010, , EMPTY, 17:5:20:24, 2795000, 776

2550010, , INTERESTING, 4:21:24, 2900000, 805

2660010, , EMPTY, 15:0:20:24, 2800000, 777

2550010, , EMPTY, 3:21:24, 2915000, 809

2680010, , EMPTY, 1:20:24, 2795000, 776

2560010, , EMPTY, 14:6:21:24, 2920000, 811

2680010, , EMPTY, 8:0:20:24, 2810000, 780

2570010, , EMPTY, 7:6:21:24, 2925000, 812

2690010, , EMPTY, 2:20:24, 2815000, 781

2570010, , EMPTY, 19:6:21:24, 2940000, 816

2690010, , EMPTY, 17:5:20:24, 2830000, 786

2590010, , EMPTY, 14:6:21:24, 2935000, 815

2700010, , EMPTY, 9:5:20:24, 2835000, 787

2620010, , EMPTY, 4:21:24, 2920000, 811

2710010, , EMPTY, 2:20:24, 2840000, 788

2620010, , EMPTY, 7:6:21:24, 2935000, 815

2720010, , EMPTY, 1:20:24, 2845000, 790

2630010, , INTERESTING, 6:21:24, 2940000, 816

2730010, , EMPTY, 10:2:20:24, 2850000, 791

2640010, , INTERESTING, 14:6:21:24, 2945000, 818

2730010, , INTERESTING, 16:15:0:20:24, 2865000, 795

2640010, , INTERESTING, 4:21:24, 2960000, 822

2750010, , EMPTY, 1:20:24, 2860000, 794

2650010, , EMPTY, 7:6:21:24, 2965000, 823

2750010, , INTERESTING, 10:2:20:24, 2875000, 798

2650010, , EMPTY, 13:6:21:24, 2980000, 827

2750010, , INTERESTING, 17:5:20:24, 2890000, 802

2660010, , EMPTY, 3:21:24, 2985000, 829

2760010, , EMPTY, 0:20:24, 2895000, 804

2670010, , EMPTY, 6:21:24, 2990000, 830

2760010, , EMPTY, 1:20:24, 2910000, 808

2670010, , INTERESTING, 14:6:21:24, 3005000, 834

2760010, , EMPTY, 10:2:20:24, 2925000, 812

2670010, , EMPTY, 7:6:21:24, 3020000, 838

2770010, , EMPTY, 15:0:20:24, 2930000, 813

2680010, , EMPTY, 11:6:21:24, 3025000, 840

2770010, , EMPTY, 10:2:20:24, 2945000, 818

2680010, , EMPTY, 19:6:21:24, 3040000, 844

2790010, , EMPTY, 15:0:20:24, 2940000, 816

2690010, , EMPTY, 14:6:21:24, 3045000, 845

2810010, , INTERESTING, 5:20:24, 2935000, 815

2700010, , EMPTY, 4:21:24, 3050000, 847

2820010, , INTERESTING, 1:20:24, 2940000, 816

2700010, , INTERESTING, 12:4:21:24, 3065000, 851

2820010, , EMPTY, 16:15:0:20:24, 2955000, 820

2700010, , EMPTY, 3:21:24, 3080000, 855

2850010, , EMPTY, 1:20:24, 2940000, 816

2710010, , EMPTY, 7:6:21:24, 3085000, 856

2850010, , INTERESTING, 17:5:20:24, 2955000, 820

2710010, , EMPTY, 13:6:21:24, 3100000, 861

2860010, , EMPTY, 1:20:24, 2960000, 822

2720010, , EMPTY, 7:6:21:24, 3105000, 862

2880010, , EMPTY, 1:20:24, 2955000, 820

2730010, , EMPTY, 6:21:24, 3110000, 863

2900010, , EMPTY, 10:2:20:24, 2950000, 819

2730010, , EMPTY, 18:6:21:24, 3125000, 868

2910010, , INTERESTING, 5:20:24, 2955000, 820

2740010, , EMPTY, 14:6:21:24, 3130000, 869

2930010, , EMPTY, 15:0:20:24, 2950000, 819

2760010, , EMPTY, 18:6:21:24, 3125000, 868

2930010, , EMPTY, 16:15:0:20:24, 2965000, 823

2760010, , EMPTY, 14:6:21:24, 3140000, 872

2950010, , EMPTY, 1:20:24, 2960000, 822

2770010, , EMPTY, 13:6:21:24, 3145000, 873

2960010, , INTERESTING, 8:0:20:24, 2965000, 823

2770010, , EMPTY, 4:21:24, 3160000, 877

2970010, , INTERESTING, 16:15:0:20:24, 2970000, 825

2780010, , EMPTY, 6:21:24, 3165000, 879

2970010, , EMPTY, 2:20:24, 2985000, 829

2790010, , EMPTY, 13:6:21:24, 3170000, 880

2970010, , EMPTY, 17:5:20:24, 3000000, 833

2790010, , EMPTY, 11:6:21:24, 3185000, 884

2980010, , EMPTY, 1:20:24, 3005000, 834

2810010, , INTERESTING, 6:21:24, 3180000, 883

2990010, , EMPTY, 15:0:20:24, 3010000, 836

2810010, , EMPTY, 13:6:21:24, 3195000, 887

3000010, , EMPTY, 0:20:24, 3015000, 837

2810010, , EMPTY, 4:21:24, 3210000, 891

3010010, , INTERESTING, 1:20:24, 3020000, 838

2810010, , EMPTY, 7:6:21:24, 3225000, 895

3010010, , EMPTY, 16:15:0:20:24, 3035000, 843

2810010, , EMPTY, 12:4:21:24, 3240000, 900

3020010, , INTERESTING, 8:0:20:24, 3040000, 844

2820010, , EMPTY, 13:6:21:24, 3245000, 901

3030010, , EMPTY, 8:0:20:24, 3045000, 845

2830010, , EMPTY, 13:6:21:24, 3250000, 902

3040010, , EMPTY, 2:20:24, 3050000, 847

2830010, , EMPTY, 18:6:21:24, 3265000, 906

3040010, , EMPTY, 17:5:20:24, 3065000, 851

2840010, , EMPTY, 6:21:24, 3270000, 908

3060010, , EMPTY, 17:5:20:24, 3060000, 850

2840010, , EMPTY, 4:21:24, 3285000, 912

3060010, , INTERESTING, 1:20:24, 3075000, 854

2850010, , EMPTY, 6:21:24, 3290000, 913

3070010, , EMPTY, 2:20:24, 3080000, 855

2850010, , EMPTY, 13:6:21:24, 3305000, 918

3070010, , EMPTY, 10:2:20:24, 3095000, 859

2860010, , EMPTY, 7:6:21:24, 3310000, 919

3080010, , EMPTY, 2:20:24, 3100000, 861

2860010, , EMPTY, 13:6:21:24, 3325000, 923

3080010, , EMPTY, 9:5:20:24, 3115000, 865

2870010, , EMPTY, 6:21:24, 3330000, 925

3080010, , EMPTY, 17:5:20:24, 3130000, 869

2870010, , EMPTY, 4:21:24, 3345000, 929

3090010, , EMPTY, 0:20:24, 3135000, 870

2880010, , EMPTY, 6:21:24, 3350000, 930

3100010, , EMPTY, 9:5:20:24, 3140000, 872

2890010, , EMPTY, 6:21:24, 3355000, 931

3110010, , EMPTY, 16:15:0:20:24, 3145000, 873

2890010, , EMPTY, 11:6:21:24, 3370000, 936

3130010, , INTERESTING, 8:0:20:24, 3140000, 872

2900010, , EMPTY, 4:21:24, 3375000, 937

3150010, , EMPTY, 16:15:0:20:24, 3135000, 870

2900010, , EMPTY, 3:21:24, 3390000, 941

3170010, , EMPTY, 15:0:20:24, 3130000, 869

2910010, , EMPTY, 7:6:21:24, 3395000, 943

3170010, , EMPTY, 16:15:0:20:24, 3145000, 873

2920010, , EMPTY, 12:4:21:24, 3400000, 944

3170010, , EMPTY, 17:5:20:24, 3160000, 877

2930010, , EMPTY, 13:6:21:24, 3405000, 945

3170010, , EMPTY, 2:20:24, 3175000, 881

2930010, , EMPTY, 18:6:21:24, 3420000, 950

3180010, , EMPTY, 10:2:20:24, 3180000, 883

2940010, , INTERESTING, 13:6:21:24, 3425000, 951

3190010, , EMPTY, 0:20:24, 3185000, 884

2960010, , EMPTY, 18:6:21:24, 3420000, 950

3210010, , INTERESTING, 9:5:20:24, 3180000, 883

2970010, , EMPTY, 18:6:21:24, 3425000, 951

3220010, , INTERESTING, 15:0:20:24, 3185000, 884

2970010, , EMPTY, 19:6:21:24, 3440000, 955

3220010, , EMPTY, 16:15:0:20:24, 3200000, 888

2980010, , INTERESTING, 18:6:21:24, 3445000, 956

3220010, , EMPTY, 9:5:20:24, 3215000, 893

3000010, , EMPTY, 7:6:21:24, 3440000, 955

3230010, , EMPTY, 0:20:24, 3220000, 894

3000010, , EMPTY, 12:4:21:24, 3455000, 959

3230010, , EMPTY, 8:0:20:24, 3235000, 898

3010010, , EMPTY, 3:21:24, 3460000, 961

3230010, , INTERESTING, 9:5:20:24, 3250000, 902

3010010, , EMPTY, 6:21:24, 3475000, 965

3250010, , EMPTY, 15:0:20:24, 3245000, 901

3040010, , EMPTY, 3:21:24, 3460000, 961

3250010, , EMPTY, 16:15:0:20:24, 3260000, 905

3040010, , EMPTY, 7:6:21:24, 3475000, 965

3260010, , EMPTY, 17:5:20:24, 3265000, 906

3040010, , EMPTY, 14:6:21:24, 3490000, 969

3280010, , INTERESTING, 0:20:24, 3260000, 905

3050010, , EMPTY, 7:6:21:24, 3495000, 970

3280010, , EMPTY, 16:15:0:20:24, 3275000, 909

3050010, , EMPTY, 3:21:24, 3510000, 975

3290010, , INTERESTING, 0:20:24, 3280000, 911

3060010, , EMPTY, 13:6:21:24, 3515000, 976

3290010, , EMPTY, 2:20:24, 3295000, 915

3060010, , EMPTY, 18:6:21:24, 3530000, 980

3290010, , EMPTY, 1:20:24, 3310000, 919

3070010, , EMPTY, 6:21:24, 3535000, 981

3300010, , EMPTY, 16:15:0:20:24, 3315000, 920

3070010, , EMPTY, 7:6:21:24, 3550000, 986

3310010, , EMPTY, 5:20:24, 3320000, 922

3070010, , EMPTY, 4:21:24, 3565000, 990

3330010, , EMPTY, 10:2:20:24, 3315000, 920

3070010, , EMPTY, 13:6:21:24, 3580000, 994

3340010, , EMPTY, 8:0:20:24, 3320000, 922

3080010, , EMPTY, 3:21:24, 3585000, 995

3350010, , EMPTY, 17:5:20:24, 3325000, 923

3100010, , INTERESTING, 3:21:24, 3580000, 994

3350010, , EMPTY, 8:0:20:24, 3340000, 927

3100010, , INTERESTING, 6:21:24, 3595000, 998

3360010, , EMPTY, 9:5:20:24, 3345000, 929

3110010, , EMPTY, 19:6:21:24, 3600000, 1000

3370010, , EMPTY, 5:20:24, 3350000, 930

3110010, , INTERESTING, 7:6:21:24, 3615000, 1004

3370010, , INTERESTING, 16:15:0:20:24, 3365000, 934

3110010, , EMPTY, 12:4:21:24, 3630000, 1008

3370010, , EMPTY, 17:5:20:24, 3380000, 938

3120010, , EMPTY, 3:21:24, 3635000, 1009

3380010, , EMPTY, 2:20:24, 3385000, 940

3120010, , INTERESTING, 18:6:21:24, 3650000, 1013

3400010, , INTERESTING, 0:20:24, 3380000, 938

3130010, , EMPTY, 14:6:21:24, 3655000, 1015

3400010, , EMPTY, 10:2:20:24, 3395000, 943

3140010, , EMPTY, 14:6:21:24, 3660000, 1016

3400010, , EMPTY, 15:0:20:24, 3410000, 947

3140010, , INTERESTING, 3:21:24, 3675000, 1020

3400010, , INTERESTING, 8:0:20:24, 3425000, 951

3150010, , EMPTY, 4:21:24, 3680000, 1022

3410010, , EMPTY, 5:20:24, 3430000, 952

3170010, , EMPTY, 19:6:21:24, 3675000, 1020

3420010, , EMPTY, 16:15:0:20:24, 3435000, 954

3180010, , EMPTY, 6:21:24, 3680000, 1022

3420010, , EMPTY, 2:20:24, 3450000, 958

3190010, , INTERESTING, 4:21:24, 3685000, 1023

3430010, , INTERESTING, 15:0:20:24, 3455000, 959

3190010, , EMPTY, 13:6:21:24, 3700000, 1027

3430010, , EMPTY, 10:2:20:24, 3470000, 963

3200010, , EMPTY, 19:6:21:24, 3705000, 1029

3440010, , EMPTY, 16:15:0:20:24, 3475000, 965

3210010, , EMPTY, 19:6:21:24, 3710000, 1030

3450010, , EMPTY, 5:20:24, 3480000, 966

3210010, , INTERESTING, 14:6:21:24, 3725000, 1034

3450010, , EMPTY, 9:5:20:24, 3495000, 970

3220010, , INTERESTING, 6:21:24, 3730000, 1036

3460010, , EMPTY, 0:20:24, 3500000, 972

3220010, , EMPTY, 18:6:21:24, 3745000, 1040

3470010, , EMPTY, 0:20:24, 3505000, 973

3230010, , EMPTY, 11:6:21:24, 3750000, 1041

3470010, , INTERESTING, 10:2:20:24, 3520000, 977

3240010, , EMPTY, 19:6:21:24, 3755000, 1043

3470010, , EMPTY, 8:0:20:24, 3535000, 981

3250010, , INTERESTING, 3:21:24, 3760000, 1044

3490010, , EMPTY, 15:0:20:24, 3530000, 980

3270010, , EMPTY, 6:21:24, 3755000, 1043

3490010, , EMPTY, 1:20:24, 3545000, 984

3270010, , EMPTY, 3:21:24, 3770000, 1047

3500010, , INTERESTING, 17:5:20:24, 3550000, 986

3280010, , EMPTY, 4:21:24, 3775000, 1048

3500010, , INTERESTING, 9:5:20:24, 3565000, 990

3280010, , EMPTY, 11:6:21:24, 3790000, 1052

3500010, , EMPTY, 15:0:20:24, 3580000, 994

3300010, , INTERESTING, 4:21:24, 3785000, 1051

3520010, , EMPTY, 17:5:20:24, 3575000, 993

3300010, , EMPTY, 14:6:21:24, 3800000, 1055

3550010, , EMPTY, 10:2:20:24, 3560000, 988

3300010, , EMPTY, 7:6:21:24, 3815000, 1059

3560010, , EMPTY, 5:20:24, 3565000, 990

3310010, , EMPTY, 19:6:21:24, 3820000, 1061

3560010, , INTERESTING, 2:20:24, 3580000, 994

3310010, , EMPTY, 12:4:21:24, 3835000, 1065

3570010, , INTERESTING, 8:0:20:24, 3585000, 995

3320010, , EMPTY, 6:21:24, 3840000, 1066

3570010, , EMPTY, 5:20:24, 3600000, 1000

3320010, , INTERESTING, 11:6:21:24, 3855000, 1070

3580010, , EMPTY, 17:5:20:24, 3605000, 1001

3330010, , EMPTY, 3:21:24, 3860000, 1072

3580010, , EMPTY, 8:0:20:24, 3620000, 1005

3330010, , INTERESTING, 4:21:24, 3875000, 1076

3590010, , INTERESTING, 10:2:20:24, 3625000, 1006

3330010, , EMPTY, 14:6:21:24, 3890000, 1080

3600010, , EMPTY, 9:5:20:24, 3630000, 1008

3340010, , EMPTY, 3:21:24, 3895000, 1081

3610010, , EMPTY, 15:0:20:24, 3635000, 1009

3340010, , EMPTY, 11:6:21:24, 3910000, 1086

3620010, , EMPTY, 1:20:24, 3640000, 1011

3360010, , EMPTY, 6:21:24, 3905000, 1084

3620010, , EMPTY, 0:20:24, 3655000, 1015

3360010, , EMPTY, 19:6:21:24, 3920000, 1088

3630010, , EMPTY, 5:20:24, 3660000, 1016

3370010, , EMPTY, 3:21:24, 3925000, 1090

3630010, , EMPTY, 1:20:24, 3675000, 1020

3370010, , EMPTY, 13:6:21:24, 3940000, 1094

3630010, , INTERESTING, 17:5:20:24, 3690000, 1025

3380010, , EMPTY, 3:21:24, 3945000, 1095

3650010, , EMPTY, 8:0:20:24, 3685000, 1023

3380010, , EMPTY, 7:6:21:24, 3960000, 1100

3660010, , EMPTY, 5:20:24, 3690000, 1025

3380010, , INTERESTING, 13:6:21:24, 3975000, 1104

3660010, , EMPTY, 15:0:20:24, 3705000, 1029

3390010, , EMPTY, 6:21:24, 3980000, 1105

3660010, , EMPTY, 10:2:20:24, 3720000, 1033

3400010, , EMPTY, 19:6:21:24, 3985000, 1106

3670010, , EMPTY, 17:5:20:24, 3725000, 1034

3420010, , EMPTY, 4:21:24, 3980000, 1105

3670010, , INTERESTING, 1:20:24, 3740000, 1038

3430010, , INTERESTING, 4:21:24, 3985000, 1106

3680010, , EMPTY, 0:20:24, 3745000, 1040

3440010, , EMPTY, 14:6:21:24, 3990000, 1108

3680010, , INTERESTING, 5:20:24, 3760000, 1044

3450010, , EMPTY, 12:4:21:24, 3995000, 1109

3680010, , EMPTY, 17:5:20:24, 3775000, 1048

3450010, , EMPTY, 18:6:21:24, 4010000, 1113

3690010, , EMPTY, 1:20:24, 3780000, 1050

3460010, , EMPTY, 4:21:24, 4015000, 1115

3700010, , EMPTY, 0:20:24, 3785000, 1051

3460010, , EMPTY, 18:6:21:24, 4030000, 1119

3710010, , INTERESTING, 1:20:24, 3790000, 1052

3460010, , INTERESTING, 19:6:21:24, 4045000, 1123

3710010, , INTERESTING, 9:5:20:24, 3805000, 1056

3460010, , EMPTY, 3:21:24, 4060000, 1127

3720010, , INTERESTING, 2:20:24, 3810000, 1058

3470010, , EMPTY, 7:6:21:24, 4065000, 1129

3760010, , EMPTY, 8:0:20:24, 3785000, 1051

3480010, , EMPTY, 12:4:21:24, 4070000, 1130

3770010, , EMPTY, 17:5:20:24, 3790000, 1052

3490010, , EMPTY, 4:21:24, 4075000, 1131

3780010, , EMPTY, 8:0:20:24, 3795000, 1054

3510010, , INTERESTING, 4:21:24, 4070000, 1130

3800010, , EMPTY, 5:20:24, 3790000, 1052

3510010, , EMPTY, 14:6:21:24, 4085000, 1134

3800010, , EMPTY, 17:5:20:24, 3805000, 1056

3530010, , EMPTY, 7:6:21:24, 4080000, 1133

3800010, , EMPTY, 15:0:20:24, 3820000, 1061

3530010, , EMPTY, 13:6:21:24, 4095000, 1137

3820010, , EMPTY, 1:20:24, 3815000, 1059

3540010, , EMPTY, 12:4:21:24, 4100000, 1138

3830010, , EMPTY, 9:5:20:24, 3820000, 1061

3550010, , EMPTY, 4:21:24, 4105000, 1140

3830010, , EMPTY, 15:0:20:24, 3835000, 1065

3560010, , EMPTY, 12:4:21:24, 4110000, 1141

3850010, , EMPTY, 17:5:20:24, 3830000, 1063

3560010, , INTERESTING, 14:6:21:24, 4125000, 1145

3860010, , EMPTY, 2:20:24, 3835000, 1065

3560010, , INTERESTING, 18:6:21:24, 4140000, 1150

3860010, , EMPTY, 17:5:20:24, 3850000, 1069

3570010, , EMPTY, 4:21:24, 4145000, 1151

3870010, , EMPTY, 1:20:24, 3855000, 1070

3570010, , EMPTY, 19:6:21:24, 4160000, 1155

3870010, , EMPTY, 2:20:24, 3870000, 1075

3590010, , EMPTY, 12:4:21:24, 4155000, 1154

3880010, , EMPTY, 9:5:20:24, 3875000, 1076

3600010, , EMPTY, 3:21:24, 4160000, 1155

3890010, , EMPTY, 1:20:24, 3880000, 1077

3600010, , EMPTY, 7:6:21:24, 4175000, 1159

3890010, , INTERESTING, 10:2:20:24, 3895000, 1081

3610010, , EMPTY, 3:21:24, 4180000, 1161

3910010, , EMPTY, 1:20:24, 3890000, 1080

3650010, , EMPTY, 14:6:21:24, 4155000, 1154

3910010, , EMPTY, 2:20:24, 3905000, 1084

3650010, , INTERESTING, 12:4:21:24, 4170000, 1158

3920010, , EMPTY, 5:20:24, 3910000, 1086

3660010, , EMPTY, 11:6:21:24, 4175000, 1159

3920010, , INTERESTING, 0:20:24, 3925000, 1090

3660010, , EMPTY, 14:6:21:24, 4190000, 1163

3920010, , EMPTY, 1:20:24, 3940000, 1094

3670010, , EMPTY, 7:6:21:24, 4195000, 1165

3930010, , INTERESTING, 2:20:24, 3945000, 1095

3680010, , EMPTY, 3:21:24, 4200000, 1166

3930010, , EMPTY, 10:2:20:24, 3960000, 1100

3680010, , EMPTY, 18:6:21:24, 4215000, 1170

3940010, , EMPTY, 5:20:24, 3965000, 1101

3690010, , INTERESTING, 11:6:21:24, 4220000, 1172

3940010, , EMPTY, 8:0:20:24, 3980000, 1105

3700010, , INTERESTING, 14:6:21:24, 4225000, 1173

3950010, , INTERESTING, 8:0:20:24, 3985000, 1106

3710010, , INTERESTING, 13:6:21:24, 4230000, 1175

3950010, , EMPTY, 2:20:24, 4000000, 1111

3710010, , EMPTY, 4:21:24, 4245000, 1179

3950010, , EMPTY, 9:5:20:24, 4015000, 1115

3720010, , INTERESTING, 11:6:21:24, 4250000, 1180

3950010, , EMPTY, 10:2:20:24, 4030000, 1119

3730010, , EMPTY, 6:21:24, 4255000, 1181

3960010, , EMPTY, 0:20:24, 4035000, 1120

3730010, , EMPTY, 13:6:21:24, 4270000, 1186

3960010, , EMPTY, 5:20:24, 4050000, 1125

3740010, , INTERESTING, 7:6:21:24, 4275000, 1187

3970010, , EMPTY, 0:20:24, 4055000, 1126

3750010, , EMPTY, 14:6:21:24, 4280000, 1188

3970010, , INTERESTING, 15:0:20:24, 4070000, 1130

3760010, , EMPTY, 3:21:24, 4285000, 1190

3980010, , EMPTY, 0:20:24, 4075000, 1131

3760010, , EMPTY, 19:6:21:24, 4300000, 1194

3990010, , EMPTY, 8:0:20:24, 4080000, 1133

3770010, , EMPTY, 7:6:21:24, 4305000, 1195

4020010, , EMPTY, 8:0:20:24, 4065000, 1129

3770010, , EMPTY, 13:6:21:24, 4320000, 1200

4050010, , INTERESTING, 5:20:24, 4050000, 1125

3780010, , EMPTY, 4:21:24, 4325000, 1201

4060010, , INTERESTING, 0:20:24, 4055000, 1126

3790010, , EMPTY, 7:6:21:24, 4330000, 1202

4060010, , EMPTY, 2:20:24, 4070000, 1130

3810010, , EMPTY, 7:6:21:24, 4325000, 1201

4070010, , EMPTY, 0:20:24, 4075000, 1131

3810010, , EMPTY, 3:21:24, 4340000, 1205

4070010, , EMPTY, 8:0:20:24, 4090000, 1136

3810010, , EMPTY, 11:6:21:24, 4355000, 1209

4080010, , EMPTY, 9:5:20:24, 4095000, 1137

3810010, , INTERESTING, 19:6:21:24, 4370000, 1213

4080010, , EMPTY, 0:20:24, 4110000, 1141

3820010, , EMPTY, 4:21:24, 4375000, 1215

4100010, , EMPTY, 5:20:24, 4105000, 1140

3830010, , INTERESTING, 7:6:21:24, 4380000, 1216

4100010, , EMPTY, 16:15:0:20:24, 4120000, 1144

3830010, , EMPTY, 11:6:21:24, 4395000, 1220

4110010, , EMPTY, 9:5:20:24, 4125000, 1145

3840010, , INTERESTING, 18:6:21:24, 4400000, 1222

4110010, , EMPTY, 8:0:20:24, 4140000, 1150

3840010, , INTERESTING, 4:21:24, 4415000, 1226

4120010, , EMPTY, 15:0:20:24, 4145000, 1151

3840010, , INTERESTING, 3:21:24, 4430000, 1230

4140010, , EMPTY, 5:20:24, 4140000, 1150

3840010, , EMPTY, 14:6:21:24, 4445000, 1234

4140010, , EMPTY, 1:20:24, 4155000, 1154

3850010, , EMPTY, 7:6:21:24, 4450000, 1236

4150010, , EMPTY, 2:20:24, 4160000, 1155

3860010, , EMPTY, 18:6:21:24, 4455000, 1237

4160010, , EMPTY, 2:20:24, 4165000, 1156

3870010, , EMPTY, 19:6:21:24, 4460000, 1238

4170010, , EMPTY, 5:20:24, 4170000, 1158

3880010, , EMPTY, 11:6:21:24, 4465000, 1240

4170010, , EMPTY, 15:0:20:24, 4185000, 1162

3880010, , EMPTY, 18:6:21:24, 4480000, 1244

4170010, , EMPTY, 16:15:0:20:24, 4200000, 1166

3890010, , INTERESTING, 13:6:21:24, 4485000, 1245

4180010, , EMPTY, 5:20:24, 4205000, 1168

3890010, , EMPTY, 11:6:21:24, 4500000, 1250

4230010, , EMPTY, 10:2:20:24, 4170000, 1158

3900010, , EMPTY, 4:21:24, 4505000, 1251

4240010, , INTERESTING, 1:20:24, 4175000, 1159

3900010, , EMPTY, 19:6:21:24, 4520000, 1255

4240010, , INTERESTING, 15:0:20:24, 4190000, 1163

3910010, , EMPTY, 12:4:21:24, 4525000, 1256

4240010, , INTERESTING, 9:5:20:24, 4205000, 1168

3920010, , EMPTY, 7:6:21:24, 4530000, 1258

4250010, , INTERESTING, 15:0:20:24, 4210000, 1169

3920010, , EMPTY, 3:21:24, 4545000, 1262

4250010, , EMPTY, 5:20:24, 4225000, 1173

3930010, , INTERESTING, 6:21:24, 4550000, 1263

4250010, , EMPTY, 8:0:20:24, 4240000, 1177

3940010, , EMPTY, 6:21:24, 4555000, 1265

4290010, , EMPTY, 1:20:24, 4215000, 1170

3940010, , EMPTY, 7:6:21:24, 4570000, 1269

4290010, , EMPTY, 10:2:20:24, 4230000, 1175

3950010, , INTERESTING, 18:6:21:24, 4575000, 1270

4300010, , EMPTY, 2:20:24, 4235000, 1176

3950010, , EMPTY, 7:6:21:24, 4590000, 1275

4300010, , EMPTY, 1:20:24, 4250000, 1180

3950010, , EMPTY, 3:21:24, 4605000, 1279

4310010, , EMPTY, 15:0:20:24, 4255000, 1181

3970010, , INTERESTING, 18:6:21:24, 4600000, 1277

4310010, , EMPTY, 16:15:0:20:24, 4270000, 1186

3980010, , EMPTY, 14:6:21:24, 4605000, 1279

4320010, , EMPTY, 2:20:24, 4275000, 1187

3980010, , INTERESTING, 7:6:21:24, 4620000, 1283

4330010, , EMPTY, 2:20:24, 4280000, 1188

3980010, , EMPTY, 12:4:21:24, 4635000, 1287

4330010, , INTERESTING, 17:5:20:24, 4295000, 1193

3990010, , EMPTY, 18:6:21:24, 4640000, 1288

4350010, , EMPTY, 0:20:24, 4290000, 1191

4000010, , EMPTY, 14:6:21:24, 4645000, 1290

4360010, , INTERESTING, 10:2:20:24, 4295000, 1193

4010010, , EMPTY, 7:6:21:24, 4650000, 1291

4370010, , EMPTY, 16:15:0:20:24, 4300000, 1194

4010010, , EMPTY, 3:21:24, 4665000, 1295

4370010, , EMPTY, 9:5:20:24, 4315000, 1198

4030010, , EMPTY, 18:6:21:24, 4660000, 1294

4380010, , EMPTY, 5:20:24, 4320000, 1200

4030010, , EMPTY, 13:6:21:24, 4675000, 1298

4400010, , EMPTY, 15:0:20:24, 4315000, 1198

4040010, , EMPTY, 7:6:21:24, 4680000, 1300

4400010, , EMPTY, 8:0:20:24, 4330000, 1202

4040010, , INTERESTING, 18:6:21:24, 4695000, 1304

4410010, , EMPTY, 5:20:24, 4335000, 1204

4060010, , EMPTY, 11:6:21:24, 4690000, 1302

4430010, , EMPTY, 0:20:24, 4330000, 1202

4080010, , EMPTY, 3:21:24, 4685000, 1301

4450010, , EMPTY, 10:2:20:24, 4325000, 1201

4090010, , EMPTY, 6:21:24, 4690000, 1302

4450010, , EMPTY, 15:0:20:24, 4340000, 1205

4090010, , EMPTY, 11:6:21:24, 4705000, 1306

4450010, , EMPTY, 16:15:0:20:24, 4355000, 1209

4100010, , EMPTY, 3:21:24, 4710000, 1308

4450010, , EMPTY, 17:5:20:24, 4370000, 1213

4120010, , EMPTY, 4:21:24, 4705000, 1306

4460010, , EMPTY, 15:0:20:24, 4375000, 1215

4120010, , EMPTY, 7:6:21:24, 4720000, 1311

4460010, , INTERESTING, 1:20:24, 4390000, 1219

4130010, , INTERESTING, 4:21:24, 4725000, 1312

4460010, , EMPTY, 17:5:20:24, 4405000, 1223

4130010, , EMPTY, 12:4:21:24, 4740000, 1316

4480010, , EMPTY, 10:2:20:24, 4400000, 1222

4140010, , EMPTY, 19:6:21:24, 4745000, 1318

4490010, , INTERESTING, 10:2:20:24, 4405000, 1223

4160010, , EMPTY, 4:21:24, 4740000, 1316

4490010, , INTERESTING, 16:15:0:20:24, 4420000, 1227

4170010, , EMPTY, 13:6:21:24, 4745000, 1318

4510010, , EMPTY, 10:2:20:24, 4415000, 1226

4170010, , INTERESTING, 18:6:21:24, 4760000, 1322

4510010, , EMPTY, 8:0:20:24, 4430000, 1230

4170010, , INTERESTING, 19:6:21:24, 4775000, 1326

4520010, , EMPTY, 0:20:24, 4435000, 1231

4180010, , EMPTY, 3:21:24, 4780000, 1327

4520010, , INTERESTING, 10:2:20:24, 4450000, 1236

4180010, , EMPTY, 13:6:21:24, 4795000, 1331

4540010, , EMPTY, 15:0:20:24, 4445000, 1234

4180010, , EMPTY, 14:6:21:24, 4810000, 1336

4550010, , EMPTY, 10:2:20:24, 4450000, 1236

4200010, , EMPTY, 3:21:24, 4805000, 1334

4560010, , INTERESTING, 0:20:24, 4455000, 1237

4210010, , EMPTY, 6:21:24, 4810000, 1336

4560010, , EMPTY, 1:20:24, 4470000, 1241

4240010, , EMPTY, 3:21:24, 4795000, 1331

4570010, , EMPTY, 5:20:24, 4475000, 1243

4240010, , EMPTY, 12:4:21:24, 4810000, 1336

4570010, , EMPTY, 2:20:24, 4490000, 1247

4250010, , EMPTY, 11:6:21:24, 4815000, 1337

4580010, , EMPTY, 16:15:0:20:24, 4495000, 1248

4260010, , EMPTY, 12:4:21:24, 4820000, 1338

4600010, , INTERESTING, 17:5:20:24, 4490000, 1247

4280010, , INTERESTING, 3:21:24, 4815000, 1337

4600010, , EMPTY, 0:20:24, 4505000, 1251

4290010, , EMPTY, 7:6:21:24, 4820000, 1338

4600010, , EMPTY, 8:0:20:24, 4520000, 1255

4300010, , EMPTY, 13:6:21:24, 4825000, 1340

4610010, , EMPTY, 10:2:20:24, 4525000, 1256

4300010, , INTERESTING, 18:6:21:24, 4840000, 1344

4610010, , EMPTY, 1:20:24, 4540000, 1261

4310010, , EMPTY, 4:21:24, 4845000, 1345

4630010, , EMPTY, 5:20:24, 4535000, 1259

4310010, , EMPTY, 19:6:21:24, 4860000, 1350

4630010, , INTERESTING, 17:5:20:24, 4550000, 1263

4310010, , EMPTY, 13:6:21:24, 4875000, 1354

4630010, , INTERESTING, 10:2:20:24, 4565000, 1268

4320010, , EMPTY, 4:21:24, 4880000, 1355

4640010, , EMPTY, 5:20:24, 4570000, 1269

4330010, , EMPTY, 11:6:21:24, 4885000, 1356

4640010, , EMPTY, 0:20:24, 4585000, 1273

4340010, , EMPTY, 6:21:24, 4890000, 1358

4650010, , EMPTY, 5:20:24, 4590000, 1275

4340010, , EMPTY, 7:6:21:24, 4905000, 1362

4650010, , EMPTY, 2:20:24, 4605000, 1279

4340010, , INTERESTING, 12:4:21:24, 4920000, 1366

4650010, , EMPTY, 16:15:0:20:24, 4620000, 1283

4340010, , EMPTY, 18:6:21:24, 4935000, 1370

4660010, , INTERESTING, 15:0:20:24, 4625000, 1284

4350010, , EMPTY, 4:21:24, 4940000, 1372

4660010, , EMPTY, 9:5:20:24, 4640000, 1288

4350010, , EMPTY, 14:6:21:24, 4955000, 1376

4670010, , EMPTY, 17:5:20:24, 4645000, 1290

4350010, , EMPTY, 3:21:24, 4970000, 1380

4700010, , EMPTY, 5:20:24, 4630000, 1286

4360010, , EMPTY, 4:21:24, 4975000, 1381

4700010, , EMPTY, 1:20:24, 4645000, 1290

4370010, , EMPTY, 19:6:21:24, 4980000, 1383

4710010, , EMPTY, 8:0:20:24, 4650000, 1291

4370010, , INTERESTING, 11:6:21:24, 4995000, 1387

4710010, , EMPTY, 1:20:24, 4665000, 1295

4370010, , EMPTY, 7:6:21:24, 5010000, 1391

4710010, , EMPTY, 5:20:24, 4680000, 1300

4380010, , INTERESTING, 19:6:21:24, 5015000, 1393

4720010, , EMPTY, 2:20:24, 4685000, 1301

4380010, , EMPTY, 11:6:21:24, 5030000, 1397

4720010, , EMPTY, 16:15:0:20:24, 4700000, 1305

4380010, , INTERESTING, 14:6:21:24, 5045000, 1401

4720010, , INTERESTING, 10:2:20:24, 4715000, 1309

4400010, , EMPTY, 19:6:21:24, 5040000, 1400

4760010, , EMPTY, 8:0:20:24, 4690000, 1302

4400010, , EMPTY, 7:6:21:24, 5055000, 1404

4760010, , EMPTY, 16:15:0:20:24, 4705000, 1306

4410010, , EMPTY, 11:6:21:24, 5060000, 1405

4770010, , EMPTY, 2:20:24, 4710000, 1308

4430010, , EMPTY, 19:6:21:24, 5055000, 1404

4770010, , EMPTY, 0:20:24, 4725000, 1312

4430010, , INTERESTING, 12:4:21:24, 5070000, 1408

4770010, , EMPTY, 17:5:20:24, 4740000, 1316

4440010, , EMPTY, 18:6:21:24, 5075000, 1409

4780010, , INTERESTING, 1:20:24, 4745000, 1318

4440010, , EMPTY, 11:6:21:24, 5090000, 1413

4800010, , EMPTY, 1:20:24, 4740000, 1316

4450010, , EMPTY, 3:21:24, 5095000, 1415

4800010, , EMPTY, 9:5:20:24, 4755000, 1320

4460010, , INTERESTING, 11:6:21:24, 5100000, 1416

4800010, , EMPTY, 16:15:0:20:24, 4770000, 1325

4460010, , EMPTY, 4:21:24, 5115000, 1420

4840010, , EMPTY, 2:20:24, 4745000, 1318

4460010, , EMPTY, 18:6:21:24, 5130000, 1425

4840010, , INTERESTING, 10:2:20:24, 4760000, 1322

4460010, , EMPTY, 19:6:21:24, 5145000, 1429

4840010, , EMPTY, 5:20:24, 4775000, 1326

4470010, , EMPTY, 13:6:21:24, 5150000, 1430

4850010, , EMPTY, 10:2:20:24, 4780000, 1327

4470010, , EMPTY, 14:6:21:24, 5165000, 1434

4860010, , EMPTY, 8:0:20:24, 4785000, 1329

4480010, , EMPTY, 13:6:21:24, 5170000, 1436

4870010, , EMPTY, 2:20:24, 4790000, 1330

4480010, , EMPTY, 11:6:21:24, 5185000, 1440

4870010, , EMPTY, 0:20:24, 4805000, 1334

4490010, , EMPTY, 13:6:21:24, 5190000, 1441

4870010, , INTERESTING, 15:0:20:24, 4820000, 1338

4500010, , EMPTY, 4:21:24, 5195000, 1443

4890010, , EMPTY, 8:0:20:24, 4815000, 1337

4510010, , EMPTY, 6:21:24, 5200000, 1444

4900010, , EMPTY, 1:20:24, 4820000, 1338

4510010, , EMPTY, 11:6:21:24, 5215000, 1448

4920010, , INTERESTING, 2:20:24, 4815000, 1337

4510010, , EMPTY, 18:6:21:24, 5230000, 1452

4920010, , EMPTY, 1:20:24, 4830000, 1341

4520010, , EMPTY, 11:6:21:24, 5235000, 1454

4920010, , INTERESTING, 8:0:20:24, 4845000, 1345

4530010, , INTERESTING, 3:21:24, 5240000, 1455

4930010, , EMPTY, 17:5:20:24, 4850000, 1347

4540010, , EMPTY, 13:6:21:24, 5245000, 1456

4940010, , EMPTY, 2:20:24, 4855000, 1348

4540010, , EMPTY, 19:6:21:24, 5260000, 1461

4950010, , EMPTY, 9:5:20:24, 4860000, 1350

4560010, , EMPTY, 3:21:24, 5255000, 1459

4950010, , INTERESTING, 2:20:24, 4875000, 1354

4570010, , EMPTY, 3:21:24, 5260000, 1461

4970010, , INTERESTING, 5:20:24, 4870000, 1352

4590010, , EMPTY, 4:21:24, 5255000, 1459

4980010, , INTERESTING, 9:5:20:24, 4875000, 1354

4600010, , EMPTY, 14:6:21:24, 5260000, 1461

4980010, , EMPTY, 8:0:20:24, 4890000, 1358

4600010, , EMPTY, 12:4:21:24, 5275000, 1465

4990010, , EMPTY, 9:5:20:24, 4895000, 1359

4610010, , EMPTY, 12:4:21:24, 5280000, 1466

5010010, , INTERESTING, 1:20:24, 4890000, 1358

4620010, , EMPTY, 18:6:21:24, 5285000, 1468

5010010, , EMPTY, 9:5:20:24, 4905000, 1362

4620010, , EMPTY, 14:6:21:24, 5300000, 1472

5020010, , EMPTY, 5:20:24, 4910000, 1363

4630010, , EMPTY, 18:6:21:24, 5305000, 1473

5030010, , EMPTY, 1:20:24, 4915000, 1365

4640010, , EMPTY, 12:4:21:24, 5310000, 1475

5030010, , EMPTY, 10:2:20:24, 4930000, 1369

4650010, , EMPTY, 11:6:21:24, 5315000, 1476

5040010, , INTERESTING, 8:0:20:24, 4935000, 1370

4650010, , EMPTY, 14:6:21:24, 5330000, 1480

5050010, , EMPTY, 15:0:20:24, 4940000, 1372

4660010, , EMPTY, 11:6:21:24, 5335000, 1481

5060010, , EMPTY, 1:20:24, 4945000, 1373

4660010, , EMPTY, 12:4:21:24, 5350000, 1486

5070010, , EMPTY, 17:5:20:24, 4950000, 1375

4660010, , EMPTY, 7:6:21:24, 5365000, 1490

5080010, , EMPTY, 15:0:20:24, 4955000, 1376

4670010, , EMPTY, 6:21:24, 5370000, 1491

5090010, , EMPTY, 1:20:24, 4960000, 1377

4670010, , EMPTY, 11:6:21:24, 5385000, 1495

5100010, , INTERESTING, 15:0:20:24, 4965000, 1379

4670010, , INTERESTING, 14:6:21:24, 5400000, 1500

5100010, , INTERESTING, 16:15:0:20:24, 4980000, 1383

4680010, , EMPTY, 11:6:21:24, 5405000, 1501

5100010, , EMPTY, 10:2:20:24, 4995000, 1387

4690010, , INTERESTING, 6:21:24, 5410000, 1502

5110010, , EMPTY, 1:20:24, 5000000, 1388

4690010, , EMPTY, 14:6:21:24, 5425000, 1506

5110010, , EMPTY, 10:2:20:24, 5015000, 1393

4690010, , EMPTY, 11:6:21:24, 5440000, 1511

5110010, , EMPTY, 15:0:20:24, 5030000, 1397

4690010, , EMPTY, 12:4:21:24, 5455000, 1515

5120010, , EMPTY, 1:20:24, 5035000, 1398

4710010, , EMPTY, 6:21:24, 5450000, 1513

5120010, , EMPTY, 9:5:20:24, 5050000, 1402

4720010, , EMPTY, 4:21:24, 5455000, 1515

5120010, , EMPTY, 16:15:0:20:24, 5065000, 1406

4730010, , EMPTY, 13:6:21:24, 5460000, 1516

5130010, , EMPTY, 5:20:24, 5070000, 1408

4730010, , INTERESTING, 14:6:21:24, 5475000, 1520

5140010, , INTERESTING, 1:20:24, 5075000, 1409

4730010, , EMPTY, 3:21:24, 5490000, 1525

5140010, , INTERESTING, 0:20:24, 5090000, 1413

4740010, , EMPTY, 13:6:21:24, 5495000, 1526

5140010, , INTERESTING, 10:2:20:24, 5105000, 1418

4750010, , EMPTY, 14:6:21:24, 5500000, 1527

5140010, , EMPTY, 9:5:20:24, 5120000, 1422

4750010, , INTERESTING, 18:6:21:24, 5515000, 1531

5150010, , INTERESTING, 2:20:24, 5125000, 1423

4770010, , EMPTY, 14:6:21:24, 5510000, 1530

5150010, , INTERESTING, 17:5:20:24, 5140000, 1427

4770010, , EMPTY, 11:6:21:24, 5525000, 1534

5160010, , EMPTY, 1:20:24, 5145000, 1429

4780010, , EMPTY, 7:6:21:24, 5530000, 1536

5160010, , EMPTY, 15:0:20:24, 5160000, 1433

4800010, , EMPTY, 4:21:24, 5525000, 1534

5160010, , EMPTY, 16:15:0:20:24, 5175000, 1437

4800010, , INTERESTING, 7:6:21:24, 5540000, 1538

5170010, , EMPTY, 2:20:24, 5180000, 1438

4800010, , EMPTY, 13:6:21:24, 5555000, 1543

5190010, , INTERESTING, 9:5:20:24, 5175000, 1437

4810010, , EMPTY, 14:6:21:24, 5560000, 1544

5190010, , EMPTY, 1:20:24, 5190000, 1441

4810010, , EMPTY, 12:4:21:24, 5575000, 1548

5200010, , EMPTY, 2:20:24, 5195000, 1443

4830010, , EMPTY, 6:21:24, 5570000, 1547

5200010, , EMPTY, 16:15:0:20:24, 5210000, 1447

4830010, , EMPTY, 18:6:21:24, 5585000, 1551

5210010, , EMPTY, 0:20:24, 5215000, 1448

4840010, , EMPTY, 14:6:21:24, 5590000, 1552

5210010, , EMPTY, 10:2:20:24, 5230000, 1452

4860010, , EMPTY, 19:6:21:24, 5585000, 1551

5210010, , EMPTY, 16:15:0:20:24, 5245000, 1456

4860010, , EMPTY, 18:6:21:24, 5600000, 1555

5220010, , EMPTY, 2:20:24, 5250000, 1458

4860010, , EMPTY, 14:6:21:24, 5615000, 1559

5230010, , EMPTY, 0:20:24, 5255000, 1459

4870010, , INTERESTING, 19:6:21:24, 5620000, 1561

5250010, , INTERESTING, 17:5:20:24, 5250000, 1458

4890010, , EMPTY, 19:6:21:24, 5615000, 1559

5250010, , EMPTY, 0:20:24, 5265000, 1462

4900010, , EMPTY, 19:6:21:24, 5620000, 1561

5250010, , EMPTY, 9:5:20:24, 5280000, 1466

4910010, , EMPTY, 6:21:24, 5625000, 1562

5260010, , EMPTY, 5:20:24, 5285000, 1468

4910010, , INTERESTING, 4:21:24, 5640000, 1566

5260010, , EMPTY, 17:5:20:24, 5300000, 1472

4910010, , INTERESTING, 11:6:21:24, 5655000, 1570

5260010, , EMPTY, 2:20:24, 5315000, 1476

4920010, , EMPTY, 3:21:24, 5660000, 1572

5270010, , EMPTY, 0:20:24, 5320000, 1477

4920010, , EMPTY, 18:6:21:24, 5675000, 1576

5270010, , EMPTY, 8:0:20:24, 5335000, 1481

4920010, , EMPTY, 12:4:21:24, 5690000, 1580

5290010, , EMPTY, 17:5:20:24, 5330000, 1480

4930010, , EMPTY, 6:21:24, 5695000, 1581

5300010, , EMPTY, 0:20:24, 5335000, 1481

4960010, , EMPTY, 3:21:24, 5680000, 1577

5310010, , EMPTY, 15:0:20:24, 5340000, 1483

4960010, , EMPTY, 7:6:21:24, 5695000, 1581

5320010, , EMPTY, 17:5:20:24, 5345000, 1484

4970010, , EMPTY, 12:4:21:24, 5700000, 1583

5330010, , EMPTY, 2:20:24, 5350000, 1486

4980010, , EMPTY, 18:6:21:24, 5705000, 1584

5340010, , EMPTY, 15:0:20:24, 5355000, 1487

4990010, , EMPTY, 13:6:21:24, 5710000, 1586

5340010, , EMPTY, 5:20:24, 5370000, 1491

5000010, , INTERESTING, 6:21:24, 5715000, 1587

5350010, , EMPTY, 17:5:20:24, 5375000, 1493

5000010, , EMPTY, 19:6:21:24, 5730000, 1591

5350010, , EMPTY, 10:2:20:24, 5390000, 1497

5010010, , INTERESTING, 4:21:24, 5735000, 1593

5360010, , INTERESTING, 0:20:24, 5395000, 1498

5020010, , EMPTY, 3:21:24, 5740000, 1594

5360010, , EMPTY, 15:0:20:24, 5410000, 1502

5030010, , EMPTY, 18:6:21:24, 5745000, 1595

5360010, , EMPTY, 17:5:20:24, 5425000, 1506

5050010, , EMPTY, 14:6:21:24, 5740000, 1594

5360010, , EMPTY, 9:5:20:24, 5440000, 1511

5060010, , INTERESTING, 4:21:24, 5745000, 1595

5360010, , EMPTY, 1:20:24, 5455000, 1515

5070010, , EMPTY, 14:6:21:24, 5750000, 1597

5360010, , EMPTY, 16:15:0:20:24, 5470000, 1519

5070010, , EMPTY, 12:4:21:24, 5765000, 1601

5370010, , EMPTY, 8:0:20:24, 5475000, 1520

5090010, , EMPTY, 3:21:24, 5760000, 1600

5370010, , INTERESTING, 5:20:24, 5490000, 1525

5090010, , EMPTY, 14:6:21:24, 5775000, 1604

5380010, , EMPTY, 8:0:20:24, 5495000, 1526

5090010, , EMPTY, 12:4:21:24, 5790000, 1608

5390010, , EMPTY, 0:20:24, 5500000, 1527

5090010, , EMPTY, 13:6:21:24, 5805000, 1612

5400010, , EMPTY, 17:5:20:24, 5505000, 1529

5100010, , EMPTY, 3:21:24, 5810000, 1613

5400010, , EMPTY, 15:0:20:24, 5520000, 1533

5100010, , EMPTY, 11:6:21:24, 5825000, 1618

5410010, , EMPTY, 5:20:24, 5525000, 1534

5110010, , INTERESTING, 14:6:21:24, 5830000, 1619

5410010, , EMPTY, 9:5:20:24, 5540000, 1538

5120010, , EMPTY, 4:21:24, 5835000, 1620

5420010, , EMPTY, 1:20:24, 5545000, 1540

5120010, , INTERESTING, 7:6:21:24, 5850000, 1625

5420010, , EMPTY, 8:0:20:24, 5560000, 1544

5120010, , INTERESTING, 14:6:21:24, 5865000, 1629

5430010, , EMPTY, 9:5:20:24, 5565000, 1545

5130010, , EMPTY, 12:4:21:24, 5870000, 1630

5440010, , INTERESTING, 0:20:24, 5570000, 1547

5130010, , EMPTY, 19:6:21:24, 5885000, 1634

5440010, , EMPTY, 1:20:24, 5585000, 1551

5130010, , INTERESTING, 7:6:21:24, 5900000, 1638

5450010, , EMPTY, 5:20:24, 5590000, 1552

5150010, , EMPTY, 12:4:21:24, 5895000, 1637

5450010, , EMPTY, 0:20:24, 5605000, 1556

5170010, , EMPTY, 4:21:24, 5890000, 1636

5450010, , EMPTY, 8:0:20:24, 5620000, 1561

5170010, , EMPTY, 3:21:24, 5905000, 1640

5460010, , EMPTY, 5:20:24, 5625000, 1562

5180010, , EMPTY, 12:4:21:24, 5910000, 1641

5470010, , EMPTY, 17:5:20:24, 5630000, 1563

5180010, , EMPTY, 18:6:21:24, 5925000, 1645

5510010, , EMPTY, 17:5:20:24, 5605000, 1556

5190010, , EMPTY, 4:21:24, 5930000, 1647

5520010, , INTERESTING, 8:0:20:24, 5610000, 1558

5190010, , INTERESTING, 12:4:21:24, 5945000, 1651

5520010, , EMPTY, 9:5:20:24, 5625000, 1562

5190010, , EMPTY, 18:6:21:24, 5960000, 1655

5530010, , EMPTY, 2:20:24, 5630000, 1563

5200010, , EMPTY, 13:6:21:24, 5965000, 1656

5530010, , EMPTY, 5:20:24, 5645000, 1568

5200010, , EMPTY, 19:6:21:24, 5980000, 1661

5540010, , INTERESTING, 8:0:20:24, 5650000, 1569

5210010, , EMPTY, 4:21:24, 5985000, 1662

5550010, , EMPTY, 2:20:24, 5655000, 1570

5210010, , EMPTY, 3:21:24, 6000000, 1666

5560010, , INTERESTING, 17:5:20:24, 5660000, 1572

5220010, , EMPTY, 11:6:21:24, 6005000, 1668

5570010, , EMPTY, 0:20:24, 5665000, 1573

5230010, , EMPTY, 13:6:21:24, 6010000, 1669

5570010, , EMPTY, 16:15:0:20:24, 5680000, 1577

5240010, , EMPTY, 19:6:21:24, 6015000, 1670

5590010, , INTERESTING, 15:0:20:24, 5675000, 1576

5270010, , INTERESTING, 19:6:21:24, 6000000, 1666

5600010, , EMPTY, 5:20:24, 5680000, 1577

5290010, , EMPTY, 13:6:21:24, 5995000, 1665

5600010, , INTERESTING, 0:20:24, 5695000, 1581

5310010, , EMPTY, 11:6:21:24, 5990000, 1663

5600010, , INTERESTING, 15:0:20:24, 5710000, 1586

5310010, , EMPTY, 14:6:21:24, 6005000, 1668

5610010, , INTERESTING, 5:20:24, 5715000, 1587

5310010, , INTERESTING, 19:6:21:24, 6020000, 1672

5610010, , EMPTY, 9:5:20:24, 5730000, 1591

5310010, , EMPTY, 13:6:21:24, 6035000, 1676

5620010, , EMPTY, 9:5:20:24, 5735000, 1593

5350010, , EMPTY, 4:21:24, 6010000, 1669

5620010, , EMPTY, 10:2:20:24, 5750000, 1597

5360010, , EMPTY, 6:21:24, 6015000, 1670

5620010, , INTERESTING, 17:5:20:24, 5765000, 1601

5360010, , INTERESTING, 7:6:21:24, 6030000, 1675

5630010, , INTERESTING, 5:20:24, 5770000, 1602

5360010, , EMPTY, 12:4:21:24, 6045000, 1679

5630010, , EMPTY, 16:15:0:20:24, 5785000, 1606

5360010, , EMPTY, 11:6:21:24, 6060000, 1683

5630010, , EMPTY, 9:5:20:24, 5800000, 1611

5380010, , EMPTY, 6:21:24, 6055000, 1681

5640010, , EMPTY, 1:20:24, 5805000, 1612

5400010, , EMPTY, 3:21:24, 6050000, 1680

5650010, , EMPTY, 0:20:24, 5810000, 1613

5410010, , INTERESTING, 3:21:24, 6055000, 1681

5650010, , EMPTY, 8:0:20:24, 5825000, 1618

5410010, , EMPTY, 18:6:21:24, 6070000, 1686

5670010, , INTERESTING, 2:20:24, 5820000, 1616

5410010, , EMPTY, 14:6:21:24, 6085000, 1690

5670010, , EMPTY, 16:15:0:20:24, 5835000, 1620

5420010, , EMPTY, 7:6:21:24, 6090000, 1691

5680010, , INTERESTING, 9:5:20:24, 5840000, 1622

5420010, , INTERESTING, 3:21:24, 6105000, 1695

5680010, , EMPTY, 10:2:20:24, 5855000, 1626

5440010, , EMPTY, 12:4:21:24, 6100000, 1694

5700010, , EMPTY, 0:20:24, 5850000, 1625

5450010, , EMPTY, 18:6:21:24, 6105000, 1695

5700010, , EMPTY, 15:0:20:24, 5865000, 1629

5450010, , INTERESTING, 4:21:24, 6120000, 1700

5710010, , INTERESTING, 17:5:20:24, 5870000, 1630

5450010, , INTERESTING, 7:6:21:24, 6135000, 1704

5710010, , EMPTY, 15:0:20:24, 5885000, 1634

5460010, , EMPTY, 12:4:21:24, 6140000, 1705

5720010, , INTERESTING, 2:20:24, 5890000, 1636

5470010, , EMPTY, 14:6:21:24, 6145000, 1706

5720010, , EMPTY, 17:5:20:24, 5905000, 1640

5470010, , EMPTY, 19:6:21:24, 6160000, 1711

5730010, , EMPTY, 2:20:24, 5910000, 1641

5490010, , EMPTY, 13:6:21:24, 6155000, 1709

5740010, , EMPTY, 0:20:24, 5915000, 1643

5500010, , EMPTY, 13:6:21:24, 6160000, 1711

5750010, , EMPTY, 9:5:20:24, 5920000, 1644

5500010, , EMPTY, 18:6:21:24, 6175000, 1715

5760010, , INTERESTING, 2:20:24, 5925000, 1645

5520010, , INTERESTING, 3:21:24, 6170000, 1713

5760010, , EMPTY, 0:20:24, 5940000, 1650

5530010, , INTERESTING, 14:6:21:24, 6175000, 1715

5770010, , EMPTY, 5:20:24, 5945000, 1651

5530010, , EMPTY, 13:6:21:24, 6190000, 1719

5770010, , INTERESTING, 17:5:20:24, 5960000, 1655

5540010, , EMPTY, 3:21:24, 6195000, 1720

5790010, , EMPTY, 10:2:20:24, 5955000, 1654

5540010, , EMPTY, 12:4:21:24, 6210000, 1725

5790010, , EMPTY, 1:20:24, 5970000, 1658

5550010, , INTERESTING, 18:6:21:24, 6215000, 1726

5810010, , EMPTY, 17:5:20:24, 5965000, 1656

5560010, , EMPTY, 14:6:21:24, 6220000, 1727

5810010, , EMPTY, 9:5:20:24, 5980000, 1661

5570010, , EMPTY, 14:6:21:24, 6225000, 1729

5820010, , EMPTY, 5:20:24, 5985000, 1662

5580010, , EMPTY, 3:21:24, 6230000, 1730

5820010, , INTERESTING, 10:2:20:24, 6000000, 1666

5590010, , EMPTY, 6:21:24, 6235000, 1731

5820010, , EMPTY, 17:5:20:24, 6015000, 1670

5590010, , EMPTY, 18:6:21:24, 6250000, 1736

5820010, , EMPTY, 15:0:20:24, 6030000, 1675

5600010, , EMPTY, 7:6:21:24, 6255000, 1737

5830010, , EMPTY, 10:2:20:24, 6035000, 1676

5610010, , EMPTY, 3:21:24, 6260000, 1738

5840010, , EMPTY, 17:5:20:24, 6040000, 1677

5620010, , INTERESTING, 4:21:24, 6265000, 1740

5850010, , EMPTY, 8:0:20:24, 6045000, 1679

5620010, , EMPTY, 13:6:21:24, 6280000, 1744

5850010, , EMPTY, 10:2:20:24, 6060000, 1683

5630010, , EMPTY, 18:6:21:24, 6285000, 1745

5860010, , EMPTY, 0:20:24, 6065000, 1684

5630010, , EMPTY, 4:21:24, 6300000, 1750

5870010, , EMPTY, 10:2:20:24, 6070000, 1686

5650010, , INTERESTING, 13:6:21:24, 6295000, 1748

5870010, , EMPTY, 8:0:20:24, 6085000, 1690

5670010, , INTERESTING, 11:6:21:24, 6290000, 1747

5870010, , EMPTY, 9:5:20:24, 6100000, 1694

5670010, , EMPTY, 7:6:21:24, 6305000, 1751

5880010, , EMPTY, 1:20:24, 6105000, 1695

5680010, , EMPTY, 3:21:24, 6310000, 1752

5880010, , EMPTY, 17:5:20:24, 6120000, 1700

5680010, , INTERESTING, 13:6:21:24, 6325000, 1756

5890010, , EMPTY, 15:0:20:24, 6125000, 1701

5700010, , EMPTY, 6:21:24, 6320000, 1755

5890010, , EMPTY, 2:20:24, 6140000, 1705

5700010, , EMPTY, 18:6:21:24, 6335000, 1759

5900010, , EMPTY, 8:0:20:24, 6145000, 1706

5710010, , EMPTY, 11:6:21:24, 6340000, 1761

5900010, , INTERESTING, 9:5:20:24, 6160000, 1711

5720010, , EMPTY, 14:6:21:24, 6345000, 1762

5910010, , EMPTY, 16:15:0:20:24, 6165000, 1712

5730010, , EMPTY, 19:6:21:24, 6350000, 1763

5920010, , INTERESTING, 10:2:20:24, 6170000, 1713

5740010, , EMPTY, 12:4:21:24, 6355000, 1765

5920010, , EMPTY, 16:15:0:20:24, 6185000, 1718

5740010, , INTERESTING, 14:6:21:24, 6370000, 1769

5940010, , EMPTY, 8:0:20:24, 6180000, 1716

5750010, , EMPTY, 7:6:21:24, 6375000, 1770

5940010, , EMPTY, 10:2:20:24, 6195000, 1720

5760010, , EMPTY, 18:6:21:24, 6380000, 1772

5950010, , EMPTY, 5:20:24, 6200000, 1722

5770010, , INTERESTING, 12:4:21:24, 6385000, 1773

5960010, , EMPTY, 8:0:20:24, 6205000, 1723

5790010, , EMPTY, 3:21:24, 6380000, 1772

5970010, , INTERESTING, 5:20:24, 6210000, 1725

5790010, , EMPTY, 13:6:21:24, 6395000, 1776

5980010, , INTERESTING, 2:20:24, 6215000, 1726

5800010, , EMPTY, 12:4:21:24, 6400000, 1777

5990010, , EMPTY, 2:20:24, 6220000, 1727

5810010, , EMPTY, 6:21:24, 6405000, 1779

5990010, , EMPTY, 8:0:20:24, 6235000, 1731

5820010, , EMPTY, 18:6:21:24, 6410000, 1780

5990010, , EMPTY, 9:5:20:24, 6250000, 1736

5820010, , EMPTY, 19:6:21:24, 6425000, 1784

6000010, , EMPTY, 5:20:24, 6255000, 1737

5820010, , EMPTY, 3:21:24, 6440000, 1788

6000010, , EMPTY, 1:20:24, 6270000, 1741

5820010, , EMPTY, 14:6:21:24, 6455000, 1793

6020010, , INTERESTING, 8:0:20:24, 6265000, 1740

5820010, , EMPTY, 11:6:21:24, 6470000, 1797

6040010, , EMPTY, 2:20:24, 6260000, 1738

5830010, , INTERESTING, 12:4:21:24, 6475000, 1798

6060010, , EMPTY, 17:5:20:24, 6255000, 1737

5850010, , EMPTY, 4:21:24, 6470000, 1797

6080010, , INTERESTING, 8:0:20:24, 6250000, 1736

5860010, , INTERESTING, 6:21:24, 6475000, 1798

6090010, , EMPTY, 5:20:24, 6255000, 1737

5860010, , EMPTY, 18:6:21:24, 6490000, 1802

6090010, , INTERESTING, 17:5:20:24, 6270000, 1741

5880010, , EMPTY, 19:6:21:24, 6485000, 1801

6100010, , EMPTY, 0:20:24, 6275000, 1743

5880010, , INTERESTING, 4:21:24, 6500000, 1805

6100010, , EMPTY, 15:0:20:24, 6290000, 1747

5890010, , EMPTY, 3:21:24, 6505000, 1806

6100010, , EMPTY, 1:20:24, 6305000, 1751

5890010, , INTERESTING, 6:21:24, 6520000, 1811

6110010, , EMPTY, 5:20:24, 6310000, 1752

5890010, , INTERESTING, 14:6:21:24, 6535000, 1815

6110010, , EMPTY, 17:5:20:24, 6325000, 1756

5890010, , EMPTY, 19:6:21:24, 6550000, 1819

6110010, , EMPTY, 15:0:20:24, 6340000, 1761

5900010, , EMPTY, 7:6:21:24, 6555000, 1820

6130010, , EMPTY, 17:5:20:24, 6335000, 1759

5900010, , EMPTY, 11:6:21:24, 6570000, 1825

6140010, , EMPTY, 10:2:20:24, 6340000, 1761

5910010, , EMPTY, 14:6:21:24, 6575000, 1826

6150010, , EMPTY, 5:20:24, 6345000, 1762

5910010, , EMPTY, 13:6:21:24, 6590000, 1830

6160010, , EMPTY, 10:2:20:24, 6350000, 1763

5910010, , EMPTY, 3:21:24, 6605000, 1834

6160010, , EMPTY, 15:0:20:24, 6365000, 1768

5910010, , INTERESTING, 12:4:21:24, 6620000, 1838

6170010, , EMPTY, 0:20:24, 6370000, 1769

5920010, , EMPTY, 6:21:24, 6625000, 1840

6170010, , EMPTY, 2:20:24, 6385000, 1773

5920010, , EMPTY, 14:6:21:24, 6640000, 1844

6170010, , EMPTY, 16:15:0:20:24, 6400000, 1777

5940010, , EMPTY, 7:6:21:24, 6635000, 1843

6170010, , EMPTY, 5:20:24, 6415000, 1781

5960010, , EMPTY, 11:6:21:24, 6630000, 1841

6170010, , EMPTY, 10:2:20:24, 6430000, 1786

5960010, , EMPTY, 7:6:21:24, 6645000, 1845

6180010, , EMPTY, 15:0:20:24, 6435000, 1787

5960010, , EMPTY, 18:6:21:24, 6660000, 1850

6190010, , INTERESTING, 0:20:24, 6440000, 1788

5960010, , EMPTY, 13:6:21:24, 6675000, 1854

6190010, , EMPTY, 15:0:20:24, 6455000, 1793

5970010, , EMPTY, 3:21:24, 6680000, 1855

6210010, , EMPTY, 15:0:20:24, 6450000, 1791

5970010, , EMPTY, 12:4:21:24, 6695000, 1859

6220010, , EMPTY, 9:5:20:24, 6455000, 1793

5980010, , EMPTY, 4:21:24, 6700000, 1861

6220010, , EMPTY, 2:20:24, 6470000, 1797

5980010, , EMPTY, 6:21:24, 6715000, 1865

6220010, , EMPTY, 15:0:20:24, 6485000, 1801

6000010, , EMPTY, 3:21:24, 6710000, 1863

6220010, , EMPTY, 16:15:0:20:24, 6500000, 1805

6000010, , INTERESTING, 11:6:21:24, 6725000, 1868

6240010, , EMPTY, 5:20:24, 6495000, 1804

6010010, , EMPTY, 4:21:24, 6730000, 1869

6240010, , INTERESTING, 0:20:24, 6510000, 1808

6010010, , EMPTY, 12:4:21:24, 6745000, 1873

6240010, , EMPTY, 9:5:20:24, 6525000, 1812

6010010, , INTERESTING, 11:6:21:24, 6760000, 1877

6270010, , EMPTY, 9:5:20:24, 6510000, 1808

6040010, , EMPTY, 3:21:24, 6745000, 1873

6280010, , EMPTY, 0:20:24, 6515000, 1809

6050010, , EMPTY, 12:4:21:24, 6750000, 1875

6310010, , EMPTY, 16:15:0:20:24, 6500000, 1805

6090010, , EMPTY, 3:21:24, 6725000, 1868

6310010, , EMPTY, 5:20:24, 6515000, 1809

6100010, , EMPTY, 14:6:21:24, 6730000, 1869

6310010, , INTERESTING, 2:20:24, 6530000, 1813

6100010, , EMPTY, 11:6:21:24, 6745000, 1873

6330010, , EMPTY, 16:15:0:20:24, 6525000, 1812

6100010, , EMPTY, 19:6:21:24, 6760000, 1877

6330010, , EMPTY, 8:0:20:24, 6540000, 1816

6100010, , EMPTY, 4:21:24, 6775000, 1881

6340010, , EMPTY, 15:0:20:24, 6545000, 1818

6110010, , EMPTY, 6:21:24, 6780000, 1883

6340010, , EMPTY, 16:15:0:20:24, 6560000, 1822

6130010, , EMPTY, 14:6:21:24, 6775000, 1881

6340010, , INTERESTING, 10:2:20:24, 6575000, 1826

6140010, , EMPTY, 7:6:21:24, 6780000, 1883

6350010, , INTERESTING, 8:0:20:24, 6580000, 1827

6140010, , INTERESTING, 3:21:24, 6795000, 1887

6360010, , EMPTY, 17:5:20:24, 6585000, 1829

6140010, , EMPTY, 11:6:21:24, 6810000, 1891

6360010, , EMPTY, 9:5:20:24, 6600000, 1833

6150010, , EMPTY, 19:6:21:24, 6815000, 1893

6370010, , INTERESTING, 1:20:24, 6605000, 1834

6160010, , INTERESTING, 19:6:21:24, 6820000, 1894

6370010, , EMPTY, 17:5:20:24, 6620000, 1838

6170010, , EMPTY, 18:6:21:24, 6825000, 1895

6370010, , EMPTY, 15:0:20:24, 6635000, 1843

6180010, , EMPTY, 6:21:24, 6830000, 1897

6380010, , INTERESTING, 15:0:20:24, 6640000, 1844

6180010, , EMPTY, 12:4:21:24, 6845000, 1901

6380010, , EMPTY, 8:0:20:24, 6655000, 1848

6190010, , EMPTY, 7:6:21:24, 6850000, 1902

6380010, , EMPTY, 9:5:20:24, 6670000, 1852

6200010, , EMPTY, 3:21:24, 6855000, 1904

6390010, , EMPTY, 17:5:20:24, 6675000, 1854

6200010, , EMPTY, 14:6:21:24, 6870000, 1908

6390010, , INTERESTING, 1:20:24, 6690000, 1858

6210010, , INTERESTING, 18:6:21:24, 6875000, 1909

6390010, , INTERESTING, 16:15:0:20:24, 6705000, 1862

6220010, , EMPTY, 6:21:24, 6880000, 1911

6400010, , EMPTY, 10:2:20:24, 6710000, 1863

6230010, , INTERESTING, 6:21:24, 6885000, 1912

6410010, , EMPTY, 17:5:20:24, 6715000, 1865

6230010, , EMPTY, 11:6:21:24, 6900000, 1916

6420010, , EMPTY, 5:20:24, 6720000, 1866

6230010, , INTERESTING, 3:21:24, 6915000, 1920

6420010, , INTERESTING, 15:0:20:24, 6735000, 1870

6240010, , EMPTY, 12:4:21:24, 6920000, 1922

6430010, , EMPTY, 8:0:20:24, 6740000, 1872

6250010, , INTERESTING, 4:21:24, 6925000, 1923

6430010, , EMPTY, 1:20:24, 6755000, 1876

6270010, , INTERESTING, 14:6:21:24, 6920000, 1922

6440010, , EMPTY, 0:20:24, 6760000, 1877

6270010, , INTERESTING, 18:6:21:24, 6935000, 1926

6440010, , EMPTY, 17:5:20:24, 6775000, 1881

6270010, , EMPTY, 12:4:21:24, 6950000, 1930

6440010, , INTERESTING, 9:5:20:24, 6790000, 1886

6270010, , EMPTY, 11:6:21:24, 6965000, 1934

6450010, , INTERESTING, 17:5:20:24, 6795000, 1887

6270010, , EMPTY, 13:6:21:24, 6980000, 1938

6460010, , EMPTY, 10:2:20:24, 6800000, 1888

6280010, , EMPTY, 6:21:24, 6985000, 1940

6470010, , EMPTY, 2:20:24, 6805000, 1890

6290010, , EMPTY, 7:6:21:24, 6990000, 1941

6480010, , EMPTY, 2:20:24, 6810000, 1891

6290010, , EMPTY, 4:21:24, 7005000, 1945

6480010, , INTERESTING, 10:2:20:24, 6825000, 1895

6290010, , EMPTY, 18:6:21:24, 7020000, 1950

6490010, , INTERESTING, 16:15:0:20:24, 6830000, 1897

6290010, , EMPTY, 14:6:21:24, 7035000, 1954

6510010, , INTERESTING, 16:15:0:20:24, 6825000, 1895

6310010, , INTERESTING, 6:21:24, 7030000, 1952

6520010, , EMPTY, 8:0:20:24, 6830000, 1897

6310010, , EMPTY, 19:6:21:24, 7045000, 1956

6530010, , EMPTY, 2:20:24, 6835000, 1898

6330010, , INTERESTING, 3:21:24, 7040000, 1955

6540010, , EMPTY, 16:15:0:20:24, 6840000, 1900

6330010, , EMPTY, 6:21:24, 7055000, 1959

6550010, , EMPTY, 2:20:24, 6845000, 1901

6330010, , EMPTY, 12:4:21:24, 7070000, 1963

6560010, , EMPTY, 16:15:0:20:24, 6850000, 1902

6330010, , INTERESTING, 7:6:21:24, 7085000, 1968

6560010, , EMPTY, 1:20:24, 6865000, 1906

6340010, , EMPTY, 12:4:21:24, 7090000, 1969

6570010, , EMPTY, 2:20:24, 6870000, 1908

6360010, , EMPTY, 19:6:21:24, 7085000, 1968

6580010, , EMPTY, 0:20:24, 6875000, 1909

6370010, , EMPTY, 3:21:24, 7090000, 1969

6580010, , EMPTY, 2:20:24, 6890000, 1913

6380010, , EMPTY, 7:6:21:24, 7095000, 1970

6580010, , EMPTY, 8:0:20:24, 6905000, 1918

6390010, , EMPTY, 4:21:24, 7100000, 1972

6590010, , INTERESTING, 0:20:24, 6910000, 1919

6390010, , EMPTY, 11:6:21:24, 7115000, 1976

6590010, , EMPTY, 16:15:0:20:24, 6925000, 1923

6400010, , EMPTY, 6:21:24, 7120000, 1977

6600010, , EMPTY, 15:0:20:24, 6930000, 1925

6420010, , EMPTY, 4:21:24, 7115000, 1976

6610010, , EMPTY, 17:5:20:24, 6935000, 1926

6420010, , EMPTY, 18:6:21:24, 7130000, 1980

6610010, , EMPTY, 2:20:24, 6950000, 1930

6420010, , EMPTY, 19:6:21:24, 7145000, 1984

6620010, , INTERESTING, 15:0:20:24, 6955000, 1931

6440010, , EMPTY, 4:21:24, 7140000, 1983

6630010, , INTERESTING, 17:5:20:24, 6960000, 1933

6440010, , INTERESTING, 14:6:21:24, 7155000, 1987

6640010, , EMPTY, 0:20:24, 6965000, 1934

6440010, , EMPTY, 7:6:21:24, 7170000, 1991

6640010, , INTERESTING, 5:20:24, 6980000, 1938

6450010, , EMPTY, 18:6:21:24, 7175000, 1993

6640010, , EMPTY, 16:15:0:20:24, 6995000, 1943

6450010, , EMPTY, 11:6:21:24, 7190000, 1997

6670010, , EMPTY, 2:20:24, 6980000, 1938

6450010, , EMPTY, 12:4:21:24, 7205000, 2001

6690010, , EMPTY, 0:20:24, 6975000, 1937

6460010, , EMPTY, 18:6:21:24, 7210000, 2002

6700010, , EMPTY, 5:20:24, 6980000, 1938

6460010, , INTERESTING, 11:6:21:24, 7225000, 2006

6700010, , EMPTY, 10:2:20:24, 6995000, 1943

6460010, , EMPTY, 13:6:21:24, 7240000, 2011

6700010, , EMPTY, 9:5:20:24, 7010000, 1947

6460010, , INTERESTING, 12:4:21:24, 7255000, 2015

6710010, , EMPTY, 15:0:20:24, 7015000, 1948

6470010, , EMPTY, 19:6:21:24, 7260000, 2016

6710010, , EMPTY, 9:5:20:24, 7030000, 1952

6480010, , EMPTY, 3:21:24, 7265000, 2018

6720010, , EMPTY, 15:0:20:24, 7035000, 1954

6480010, , EMPTY, 14:6:21:24, 7280000, 2022

6730010, , EMPTY, 16:15:0:20:24, 7040000, 1955

6490010, , EMPTY, 6:21:24, 7285000, 2023

6730010, , INTERESTING, 2:20:24, 7055000, 1959

6500010, , EMPTY, 3:21:24, 7290000, 2025

6730010, , INTERESTING, 17:5:20:24, 7070000, 1963

6500010, , EMPTY, 4:21:24, 7305000, 2029

6750010, , EMPTY, 15:0:20:24, 7065000, 1962

6510010, , EMPTY, 18:6:21:24, 7310000, 2030

6760010, , EMPTY, 10:2:20:24, 7070000, 1963

6520010, , INTERESTING, 11:6:21:24, 7315000, 2031

6760010, , EMPTY, 8:0:20:24, 7085000, 1968

6530010, , EMPTY, 13:6:21:24, 7320000, 2033

6770010, , EMPTY, 1:20:24, 7090000, 1969

6530010, , EMPTY, 3:21:24, 7335000, 2037

6780010, , EMPTY, 9:5:20:24, 7095000, 1970

6540010, , EMPTY, 6:21:24, 7340000, 2038

6790010, , EMPTY, 16:15:0:20:24, 7100000, 1972

6540010, , EMPTY, 14:6:21:24, 7355000, 2043

6800010, , EMPTY, 15:0:20:24, 7105000, 1973

6540010, , EMPTY, 13:6:21:24, 7370000, 2047

6830010, , INTERESTING, 5:20:24, 7090000, 1969

6560010, , INTERESTING, 4:21:24, 7365000, 2045

6830010, , EMPTY, 16:15:0:20:24, 7105000, 1973

6560010, , EMPTY, 11:6:21:24, 7380000, 2050

6840010, , EMPTY, 0:20:24, 7110000, 1975

6570010, , EMPTY, 14:6:21:24, 7385000, 2051

6850010, , EMPTY, 5:20:24, 7115000, 1976

6580010, , EMPTY, 3:21:24, 7390000, 2052

6850010, , EMPTY, 9:5:20:24, 7130000, 1980

6580010, , EMPTY, 12:4:21:24, 7405000, 2056

6860010, , EMPTY, 9:5:20:24, 7135000, 1981

6580010, , EMPTY, 18:6:21:24, 7420000, 2061

6870010, , EMPTY, 10:2:20:24, 7140000, 1983

6590010, , INTERESTING, 3:21:24, 7425000, 2062

6880010, , EMPTY, 2:20:24, 7145000, 1984

6610010, , EMPTY, 3:21:24, 7420000, 2061

6880010, , INTERESTING, 15:0:20:24, 7160000, 1988

6620010, , INTERESTING, 6:21:24, 7425000, 2062

6880010, , EMPTY, 9:5:20:24, 7175000, 1993

6640010, , EMPTY, 11:6:21:24, 7420000, 2061

6890010, , INTERESTING, 5:20:24, 7180000, 1994

6640010, , EMPTY, 12:4:21:24, 7435000, 2065

6900010, , INTERESTING, 5:20:24, 7185000, 1995

6650010, , EMPTY, 19:6:21:24, 7440000, 2066

6900010, , EMPTY, 1:20:24, 7200000, 2000

6650010, , EMPTY, 12:4:21:24, 7455000, 2070

6900010, , EMPTY, 15:0:20:24, 7215000, 2004

6660010, , INTERESTING, 13:6:21:24, 7460000, 2072

6910010, , EMPTY, 2:20:24, 7220000, 2005

6670010, , EMPTY, 6:21:24, 7465000, 2073

6910010, , EMPTY, 5:20:24, 7235000, 2009

6670010, , EMPTY, 3:21:24, 7480000, 2077

6920010, , EMPTY, 15:0:20:24, 7240000, 2011

6680010, , INTERESTING, 6:21:24, 7485000, 2079

6920010, , INTERESTING, 1:20:24, 7255000, 2015

6680010, , EMPTY, 11:6:21:24, 7500000, 2083

6940010, , EMPTY, 15:0:20:24, 7250000, 2013

6690010, , INTERESTING, 3:21:24, 7505000, 2084

6940010, , INTERESTING, 8:0:20:24, 7265000, 2018

6690010, , EMPTY, 13:6:21:24, 7520000, 2088

6940010, , EMPTY, 17:5:20:24, 7280000, 2022

6690010, , EMPTY, 7:6:21:24, 7535000, 2093

6950010, , EMPTY, 15:0:20:24, 7285000, 2023

6690010, , EMPTY, 14:6:21:24, 7550000, 2097

6950010, , INTERESTING, 2:20:24, 7300000, 2027

6690010, , INTERESTING, 12:4:21:24, 7565000, 2101

6960010, , INTERESTING, 5:20:24, 7305000, 2029

6700010, , INTERESTING, 13:6:21:24, 7570000, 2102

6960010, , EMPTY, 0:20:24, 7320000, 2033

6710010, , EMPTY, 11:6:21:24, 7575000, 2104

6960010, , EMPTY, 15:0:20:24, 7335000, 2037

6720010, , EMPTY, 3:21:24, 7580000, 2105

6970010, , EMPTY, 2:20:24, 7340000, 2038

6740010, , INTERESTING, 19:6:21:24, 7575000, 2104

6980010, , EMPTY, 15:0:20:24, 7345000, 2040

6760010, , EMPTY, 7:6:21:24, 7570000, 2102

6980010, , EMPTY, 5:20:24, 7360000, 2044

6770010, , EMPTY, 18:6:21:24, 7575000, 2104

6990010, , EMPTY, 16:15:0:20:24, 7365000, 2045

6780010, , EMPTY, 18:6:21:24, 7580000, 2105

6990010, , EMPTY, 10:2:20:24, 7380000, 2050

6810010, , EMPTY, 6:21:24, 7565000, 2101

7010010, , EMPTY, 15:0:20:24, 7375000, 2048

6810010, , EMPTY, 18:6:21:24, 7580000, 2105

7020010, , INTERESTING, 1:20:24, 7380000, 2050

6810010, , INTERESTING, 12:4:21:24, 7595000, 2109

7020010, , EMPTY, 0:20:24, 7395000, 2054

6810010, , EMPTY, 14:6:21:24, 7610000, 2113

7020010, , EMPTY, 15:0:20:24, 7410000, 2058

6830010, , INTERESTING, 18:6:21:24, 7605000, 2112

7020010, , EMPTY, 16:15:0:20:24, 7425000, 2062

6840010, , EMPTY, 12:4:21:24, 7610000, 2113

7030010, , EMPTY, 8:0:20:24, 7430000, 2063

6850010, , EMPTY, 7:6:21:24, 7615000, 2115

7070010, , EMPTY, 10:2:20:24, 7405000, 2056

6860010, , EMPTY, 3:21:24, 7620000, 2116

7070010, , EMPTY, 1:20:24, 7420000, 2061

6860010, , INTERESTING, 11:6:21:24, 7635000, 2120

7080010, , EMPTY, 10:2:20:24, 7425000, 2062

6860010, , INTERESTING, 7:6:21:24, 7650000, 2125

7100010, , EMPTY, 9:5:20:24, 7420000, 2061

6870010, , EMPTY, 3:21:24, 7655000, 2126

7100010, , INTERESTING, 10:2:20:24, 7435000, 2065

6870010, , EMPTY, 4:21:24, 7670000, 2130

7110010, , INTERESTING, 0:20:24, 7440000, 2066

6880010, , EMPTY, 3:21:24, 7675000, 2131

7110010, , INTERESTING, 16:15:0:20:24, 7455000, 2070

6880010, , EMPTY, 11:6:21:24, 7690000, 2136

7120010, , INTERESTING, 5:20:24, 7460000, 2072

6900010, , EMPTY, 7:6:21:24, 7685000, 2134

7120010, , EMPTY, 9:5:20:24, 7475000, 2076

6900010, , EMPTY, 13:6:21:24, 7700000, 2138

7120010, , EMPTY, 16:15:0:20:24, 7490000, 2080

6940010, , EMPTY, 3:21:24, 7675000, 2131

7130010, , EMPTY, 5:20:24, 7495000, 2081

6940010, , EMPTY, 11:6:21:24, 7690000, 2136

7130010, , EMPTY, 2:20:24, 7510000, 2086

6950010, , EMPTY, 7:6:21:24, 7695000, 2137

7140010, , INTERESTING, 0:20:24, 7515000, 2087

6980010, , EMPTY, 13:6:21:24, 7680000, 2133

7150010, , EMPTY, 5:20:24, 7520000, 2088

6990010, , INTERESTING, 18:6:21:24, 7685000, 2134

7160010, , EMPTY, 17:5:20:24, 7525000, 2090

6990010, , EMPTY, 3:21:24, 7700000, 2138

7170010, , EMPTY, 5:20:24, 7530000, 2091

7000010, , INTERESTING, 11:6:21:24, 7705000, 2140

7190010, , EMPTY, 5:20:24, 7525000, 2090

7000010, , EMPTY, 14:6:21:24, 7720000, 2144

7190010, , EMPTY, 9:5:20:24, 7540000, 2094

7010010, , INTERESTING, 11:6:21:24, 7725000, 2145

7200010, , INTERESTING, 8:0:20:24, 7545000, 2095

7020010, , EMPTY, 7:6:21:24, 7730000, 2147

7230010, , INTERESTING, 15:0:20:24, 7530000, 2091

7020010, , EMPTY, 13:6:21:24, 7745000, 2151

7240010, , EMPTY, 9:5:20:24, 7535000, 2093

7030010, , INTERESTING, 11:6:21:24, 7750000, 2152

7270010, , INTERESTING, 8:0:20:24, 7520000, 2088

7050010, , EMPTY, 7:6:21:24, 7745000, 2151

7270010, , EMPTY, 17:5:20:24, 7535000, 2093

7050010, , EMPTY, 14:6:21:24, 7760000, 2155

7280010, , INTERESTING, 15:0:20:24, 7540000, 2094

7060010, , EMPTY, 6:21:24, 7765000, 2156

7290010, , INTERESTING, 2:20:24, 7545000, 2095

7070010, , EMPTY, 18:6:21:24, 7770000, 2158

7290010, , EMPTY, 9:5:20:24, 7560000, 2100

7070010, , EMPTY, 11:6:21:24, 7785000, 2162

7290010, , EMPTY, 1:20:24, 7575000, 2104

7070010, , EMPTY, 19:6:21:24, 7800000, 2166

7300010, , INTERESTING, 2:20:24, 7580000, 2105

7080010, , INTERESTING, 18:6:21:24, 7805000, 2168

7300010, , EMPTY, 0:20:24, 7595000, 2109

7090010, , EMPTY, 3:21:24, 7810000, 2169

7310010, , INTERESTING, 16:15:0:20:24, 7600000, 2111

7090010, , EMPTY, 7:6:21:24, 7825000, 2173

7320010, , EMPTY, 2:20:24, 7605000, 2112

7090010, , INTERESTING, 12:4:21:24, 7840000, 2177

7330010, , INTERESTING, 16:15:0:20:24, 7610000, 2113

7100010, , EMPTY, 7:6:21:24, 7845000, 2179

7340010, , EMPTY, 10:2:20:24, 7615000, 2115

7120010, , EMPTY, 4:21:24, 7840000, 2177

7340010, , EMPTY, 8:0:20:24, 7630000, 2119

7140010, , INTERESTING, 13:6:21:24, 7835000, 2176

7350010, , INTERESTING, 0:20:24, 7635000, 2120

7150010, , INTERESTING, 11:6:21:24, 7840000, 2177

7350010, , EMPTY, 10:2:20:24, 7650000, 2125

7150010, , EMPTY, 14:6:21:24, 7855000, 2181

7350010, , EMPTY, 9:5:20:24, 7665000, 2129

7160010, , EMPTY, 3:21:24, 7860000, 2183

7360010, , EMPTY, 9:5:20:24, 7670000, 2130

7170010, , INTERESTING, 4:21:24, 7865000, 2184

7380010, , INTERESTING, 2:20:24, 7665000, 2129

7180010, , EMPTY, 13:6:21:24, 7870000, 2186

7390010, , EMPTY, 15:0:20:24, 7670000, 2130

7190010, , EMPTY, 18:6:21:24, 7875000, 2187

7400010, , INTERESTING, 2:20:24, 7675000, 2131

7190010, , EMPTY, 11:6:21:24, 7890000, 2191

7410010, , EMPTY, 8:0:20:24, 7680000, 2133

7190010, , EMPTY, 12:4:21:24, 7905000, 2195

7420010, , EMPTY, 0:20:24, 7685000, 2134

7200010, , INTERESTING, 18:6:21:24, 7910000, 2197

7420010, , EMPTY, 8:0:20:24, 7700000, 2138

7200010, , INTERESTING, 12:4:21:24, 7925000, 2201

7420010, , INTERESTING, 17:5:20:24, 7715000, 2143

7210010, , INTERESTING, 11:6:21:24, 7930000, 2202

7460010, , EMPTY, 2:20:24, 7690000, 2136

7220010, , INTERESTING, 6:21:24, 7935000, 2204

7460010, , EMPTY, 1:20:24, 7705000, 2140

7230010, , EMPTY, 18:6:21:24, 7940000, 2205

7470010, , EMPTY, 2:20:24, 7710000, 2141

7250010, , EMPTY, 6:21:24, 7935000, 2204

7470010, , EMPTY, 10:2:20:24, 7725000, 2145

7260010, , EMPTY, 18:6:21:24, 7940000, 2205

7480010, , EMPTY, 2:20:24, 7730000, 2147

7280010, , EMPTY, 4:21:24, 7935000, 2204

7480010, , EMPTY, 10:2:20:24, 7745000, 2151

7280010, , EMPTY, 12:4:21:24, 7950000, 2208

7490010, , EMPTY, 5:20:24, 7750000, 2152

7290010, , EMPTY, 6:21:24, 7955000, 2209

7500010, , EMPTY, 1:20:24, 7755000, 2154

7300010, , EMPTY, 12:4:21:24, 7960000, 2211

7510010, , INTERESTING, 2:20:24, 7760000, 2155

7300010, , INTERESTING, 13:6:21:24, 7975000, 2215

7510010, , EMPTY, 10:2:20:24, 7775000, 2159

7300010, , EMPTY, 19:6:21:24, 7990000, 2219

7520010, , EMPTY, 10:2:20:24, 7780000, 2161

7310010, , EMPTY, 12:4:21:24, 7995000, 2220

7530010, , INTERESTING, 5:20:24, 7785000, 2162

7320010, , INTERESTING, 6:21:24, 8000000, 2222

7530010, , EMPTY, 2:20:24, 7800000, 2166

7320010, , EMPTY, 11:6:21:24, 8015000, 2226

7530010, , INTERESTING, 1:20:24, 7815000, 2170

7320010, , INTERESTING, 12:4:21:24, 8030000, 2230

7540010, , EMPTY, 8:0:20:24, 7820000, 2172

7320010, , INTERESTING, 7:6:21:24, 8045000, 2234

7550010, , INTERESTING, 5:20:24, 7825000, 2173

7330010, , INTERESTING, 3:21:24, 8050000, 2236

7550010, , EMPTY, 9:5:20:24, 7840000, 2177

7340010, , EMPTY, 11:6:21:24, 8055000, 2237

7560010, , EMPTY, 2:20:24, 7845000, 2179

7340010, , EMPTY, 13:6:21:24, 8070000, 2241

7560010, , EMPTY, 8:0:20:24, 7860000, 2183

7350010, , EMPTY, 6:21:24, 8075000, 2243

7580010, , INTERESTING, 9:5:20:24, 7855000, 2181

7360010, , EMPTY, 11:6:21:24, 8080000, 2244

7590010, , EMPTY, 15:0:20:24, 7860000, 2183

7360010, , EMPTY, 4:21:24, 8095000, 2248

7590010, , EMPTY, 17:5:20:24, 7875000, 2187

7380010, , EMPTY, 6:21:24, 8090000, 2247

7600010, , EMPTY, 5:20:24, 7880000, 2188

7390010, , INTERESTING, 6:21:24, 8095000, 2248

7600010, , EMPTY, 15:0:20:24, 7895000, 2193

7390010, , EMPTY, 11:6:21:24, 8110000, 2252

7620010, , EMPTY, 9:5:20:24, 7890000, 2191

7400010, , EMPTY, 4:21:24, 8115000, 2254

7630010, , EMPTY, 2:20:24, 7895000, 2193

7400010, , EMPTY, 19:6:21:24, 8130000, 2258

7640010, , EMPTY, 1:20:24, 7900000, 2194

7420010, , INTERESTING, 13:6:21:24, 8125000, 2256

